rt,stimulus,response,trial_type,trial_index,time_elapsed,internal_node_id,accuracy,PracticeTest,ConsonantSequence,Grammaticality
,,,,,,,,,,
484428,"<p style=""font-size:30px"">Welcome to the experiment</p><p>Press spacebar to continue</p>", ,html-keyboard-response,0,484422,0.0-0.0,,,,
,,,,,,,,,,
25384,"<p style=""font-size:30px"">Please ensure that your headphones are on correctly</p><p>Press spacebar to continue</p>", ,html-keyboard-response,1,509805,0.0-1.0,,,,
,,,,,,,,,,
23527,"<p style=""font-size:30px"">In this experiment, you will listen to nonsense words</p><p style=""font-size:30px"",lang=""ko"">Your task is to rate the nonsense word you heard as a possible word of American English</p><p>Press spacebar to continue</p>", ,html-keyboard-response,2,533332,0.0-2.0,,,,
,,,,,,,,,,
1079,, ,html-keyboard-response,3,534411,0.0-3.0,,,,
,,,,,,,,,,
134096,"<p style=""font-size:30px"">Now let's move on to the actual experiment.</p><p style=""font-size:30px"",lang=""ko"">During the experiment, you will hear each of the nonce words only once.</p><p>Press spacebar to continue</p>", ,html-keyboard-response,4,668503,0.0-4.0,,,,
,,,,,,,,,,
5510,TestRecordings/skain.wav,0,audio-button-response,5,674021,0.0-5.0-0.0,,,,
,,,,,,,,,,
18994,,"{""P0_Q0"":7}",survey,6,693051,0.0-5.0-1.0,[],,,
,,,,,,,,,,
2833,TestRecordings/dlahm.wav,0,audio-button-response,7,695892,0.0-5.0-0.1,,,,
,,,,,,,,,,
7775,,"{""P0_Q0"":4}",survey,8,703680,0.0-5.0-1.1,[],,,
,,,,,,,,,,
2493,TestRecordings/gipsus.wav,0,audio-button-response,9,706180,0.0-5.0-0.2,,,,
,,,,,,,,,,
2850,,"{""P0_Q0"":1}",survey,10,709041,0.0-5.0-1.2,[],,,
,,,,,,,,,,
3776,TestRecordings/twen.wav,0,audio-button-response,11,712821,0.0-5.0-0.3,,,,
,,,,,,,,,,
3432,,"{""P0_Q0"":2}",survey,12,716263,0.0-5.0-1.3,[],,,
,,,,,,,,,,
1926,TestRecordings/kutpim.wav,0,audio-button-response,13,718196,0.0-5.0-0.4,,,,
,,,,,,,,,,
2755,,"{""P0_Q0"":6}",survey,14,720959,0.0-5.0-1.4,[],,,
,,,,,,,,,,
1751,TestRecordings/bem.wav,0,audio-button-response,15,722715,0.0-5.0-0.5,,,,
,,,,,,,,,,
3432,,"{""P0_Q0"":3}",survey,16,726158,0.0-5.0-1.5,[],,,
,,,,,,,,,,
1415,TestRecordings/gistum.wav,0,audio-button-response,17,727580,0.0-5.0-0.6,,,,
,,,,,,,,,,
2123,,"{""P0_Q0"":1}",survey,18,729710,0.0-5.0-1.6,[],,,
,,,,,,,,,,
1672,TestRecordings/gitpes.wav,0,audio-button-response,19,731387,0.0-5.0-0.7,,,,
,,,,,,,,,,
2691,,"{""P0_Q0"":1}",survey,20,734086,0.0-5.0-1.7,[],,,
,,,,,,,,,,
1622,TestRecordings/pundes.wav,0,audio-button-response,21,735715,0.0-5.0-0.8,,,,
,,,,,,,,,,
7204,,"{""P0_Q0"":3}",survey,22,742926,0.0-5.0-1.8,[],,,
,,,,,,,,,,
1492,TestRecordings/nutbim.wav,0,audio-button-response,23,744426,0.0-5.0-0.9,,,,
,,,,,,,,,,
2555,,"{""P0_Q0"":5}",survey,24,746989,0.0-5.0-1.9,[],,,
,,,,,,,,,,
1310,TestRecordings/tempuk.wav,0,audio-button-response,25,748306,0.0-5.0-0.10,,,,
,,,,,,,,,,
3931,,"{""P0_Q0"":7}",survey,26,752246,0.0-5.0-1.10,[],,,
,,,,,,,,,,
1199,TestRecordings/giit.wav,0,audio-button-response,27,753450,0.0-5.0-0.11,,,,
,,,,,,,,,,
2956,,"{""P0_Q0"":2}",survey,28,756413,0.0-5.0-1.11,[],,,
,,,,,,,,,,
1631,TestRecordings/nboup.wav,0,audio-button-response,29,758049,0.0-5.0-0.12,,,,
,,,,,,,,,,
3292,,"{""P0_Q0"":5}",survey,30,761348,0.0-5.0-1.12,[],,,
,,,,,,,,,,
1558,TestRecordings/drumbeng.wav,0,audio-button-response,31,762913,0.0-5.0-0.13,,,,
,,,,,,,,,,
4355,,"{""P0_Q0"":5}",survey,32,767275,0.0-5.0-1.13,[],,,
,,,,,,,,,,
1272,TestRecordings/tlik.wav,0,audio-button-response,33,768553,0.0-5.0-0.14,,,,
,,,,,,,,,,
5733,,"{""P0_Q0"":5}",survey,34,774292,0.0-5.0-1.14,[],,,
,,,,,,,,,,
1687,TestRecordings/dlemkus.wav,0,audio-button-response,35,775985,0.0-5.0-0.15,,,,
,,,,,,,,,,
11611,,"{""P0_Q0"":2}",survey,36,787603,0.0-5.0-1.15,[],,,
,,,,,,,,,,
1120,TestRecordings/stauk.wav,0,audio-button-response,37,788729,0.0-5.0-0.16,,,,
,,,,,,,,,,
2524,,"{""P0_Q0"":6}",survey,38,791258,0.0-5.0-1.16,[],,,
,,,,,,,,,,
1112,TestRecordings/nangdup.wav,0,audio-button-response,39,792376,0.0-5.0-0.17,,,,
,,,,,,,,,,
2710,,"{""P0_Q0"":1}",survey,40,795091,0.0-5.0-1.17,[],,,
,,,,,,,,,,
984,TestRecordings/ndeip.wav,0,audio-button-response,41,796080,0.0-5.0-0.18,,,,
,,,,,,,,,,
3885,,"{""P0_Q0"":4}",survey,42,799970,0.0-5.0-1.18,[],,,
,,,,,,,,,,
1646,TestRecordings/sengdun.wav,0,audio-button-response,43,801624,0.0-5.0-0.19,,,,
,,,,,,,,,,
9163,,"{""P0_Q0"":6}",survey,44,810795,0.0-5.0-1.19,[],,,
,,,,,,,,,,
1424,TestRecordings/tlemkun.wav,0,audio-button-response,45,812223,0.0-5.0-0.20,,,,
,,,,,,,,,,
1885,,"{""P0_Q0"":1}",survey,46,814114,0.0-5.0-1.20,[],,,
,,,,,,,,,,
1311,TestRecordings/twas.wav,0,audio-button-response,47,815431,0.0-5.0-0.21,,,,
,,,,,,,,,,
1915,,"{""P0_Q0"":5}",survey,48,817353,0.0-5.0-1.21,[],,,
,,,,,,,,,,
960,TestRecordings/kmaut.wav,0,audio-button-response,49,818319,0.0-5.0-0.22,,,,
,,,,,,,,,,
2020,,"{""P0_Q0"":6}",survey,50,820346,0.0-5.0-1.22,[],,,
,,,,,,,,,,
1055,TestRecordings/tep.wav,0,audio-button-response,51,821407,0.0-5.0-0.23,,,,
,,,,,,,,,,
1452,,"{""P0_Q0"":4}",survey,52,822866,0.0-5.0-1.23,[],,,
,,,,,,,,,,
973,TestRecordings/tlem.wav,0,audio-button-response,53,823847,0.0-5.0-0.24,,,,
,,,,,,,,,,
8381,,"{""P0_Q0"":6}",survey,54,832234,0.0-5.0-1.24,[],,,
,,,,,,,,,,
1046,TestRecordings/pwuk.wav,0,audio-button-response,55,833287,0.0-5.0-0.25,,,,
,,,,,,,,,,
1532,,"{""P0_Q0"":1}",survey,56,834825,0.0-5.0-1.25,[],,,
,,,,,,,,,,
990,TestRecordings/gup.wav,0,audio-button-response,57,835822,0.0-5.0-0.26,,,,
,,,,,,,,,,
1501,,"{""P0_Q0"":1}",survey,58,837329,0.0-5.0-1.26,[],,,
,,,,,,,,,,
1263,TestRecordings/bepgik.wav,0,audio-button-response,59,838599,0.0-5.0-0.27,,,,
,,,,,,,,,,
3700,,"{""P0_Q0"":6}",survey,60,842305,0.0-5.0-1.27,[],,,
,,,,,,,,,,
1008,TestRecordings/stuun.wav,0,audio-button-response,61,843318,0.0-5.0-0.28,,,,
,,,,,,,,,,
3508,,"{""P0_Q0"":2}",survey,62,846833,0.0-5.0-1.28,[],,,
,,,,,,,,,,
1105,TestRecordings/mgit.wav,0,audio-button-response,63,847943,0.0-5.0-0.29,,,,
,,,,,,,,,,
1812,,"{""P0_Q0"":4}",survey,64,849761,0.0-5.0-1.29,[],,,
,,,,,,,,,,
1055,TestRecordings/dloun.wav,0,audio-button-response,65,850822,0.0-5.0-0.30,,,,
,,,,,,,,,,
3837,,"{""P0_Q0"":5}",survey,66,854664,0.0-5.0-1.30,[],,,
,,,,,,,,,,
1024,TestRecordings/pwam.wav,0,audio-button-response,67,855694,0.0-5.0-0.31,,,,
,,,,,,,,,,
3485,,"{""P0_Q0"":5}",survey,68,859184,0.0-5.0-1.31,[],,,
,,,,,,,,,,
1023,TestRecordings/kmeip.wav,0,audio-button-response,69,860214,0.0-5.0-0.32,,,,
,,,,,,,,,,
3214,,"{""P0_Q0"":2}",survey,70,863433,0.0-5.0-1.32,[],,,
,,,,,,,,,,
1095,TestRecordings/ningpum.wav,0,audio-button-response,71,864534,0.0-5.0-0.33,,,,
,,,,,,,,,,
2947,,"{""P0_Q0"":2}",survey,72,867488,0.0-5.0-1.33,[],,,
,,,,,,,,,,
881,TestRecordings/pmiik.wav,0,audio-button-response,73,868373,0.0-5.0-0.34,,,,
,,,,,,,,,,
1620,,"{""P0_Q0"":3}",survey,74,870000,0.0-5.0-1.34,[],,,
,,,,,,,,,,
1000,TestRecordings/tlipgat.wav,0,audio-button-response,75,871005,0.0-5.0-0.35,,,,
,,,,,,,,,,
5694,,"{""P0_Q0"":4}",survey,76,876704,0.0-5.0-1.35,[],,,
,,,,,,,,,,
1686,TestRecordings/tlasdung.wav,0,audio-button-response,77,878397,0.0-5.0-0.36,,,,
,,,,,,,,,,
2685,,"{""P0_Q0"":6}",survey,78,881087,0.0-5.0-1.36,[],,,
,,,,,,,,,,
976,TestRecordings/drain.wav,0,audio-button-response,79,882068,0.0-5.0-0.37,,,,
,,,,,,,,,,
3005,,"{""P0_Q0"":4}",survey,80,885080,0.0-5.0-1.37,[],,,
,,,,,,,,,,
1694,TestRecordings/pemdut.wav,0,audio-button-response,81,886780,0.0-5.0-0.38,,,,
,,,,,,,,,,
1772,,"{""P0_Q0"":1}",survey,82,888558,0.0-5.0-1.38,[],,,
,,,,,,,,,,
841,TestRecordings/tloum.wav,0,audio-button-response,83,889404,0.0-5.0-0.39,,,,
,,,,,,,,,,
2436,,"{""P0_Q0"":3}",survey,84,891846,0.0-5.0-1.39,[],,,
,,,,,,,,,,
1624,TestRecordings/trahm.wav,0,audio-button-response,85,893477,0.0-5.0-0.40,,,,
,,,,,,,,,,
9957,,"{""P0_Q0"":5}",survey,86,903438,0.0-5.0-1.40,[],,,
,,,,,,,,,,
1288,TestRecordings/paim.wav,0,audio-button-response,87,904732,0.0-5.0-0.41,,,,
,,,,,,,,,,
3677,,"{""P0_Q0"":5}",survey,88,908414,0.0-5.0-1.41,[],,,
,,,,,,,,,,
1825,TestRecordings/tisbeng.wav,0,audio-button-response,89,910243,0.0-5.0-0.42,,,,
,,,,,,,,,,
4118,,"{""P0_Q0"":4}",survey,90,914366,0.0-5.0-1.42,[],,,
,,,,,,,,,,
1152,TestRecordings/drikteng.wav,0,audio-button-response,91,915523,0.0-5.0-0.43,,,,
,,,,,,,,,,
2260,,"{""P0_Q0"":7}",survey,92,917790,0.0-5.0-1.43,[],,,
,,,,,,,,,,
1162,TestRecordings/dlisbep.wav,0,audio-button-response,93,918955,0.0-5.0-0.44,,,,
,,,,,,,,,,
1867,,"{""P0_Q0"":4}",survey,94,920829,0.0-5.0-1.44,[],,,
,,,,,,,,,,
1016,TestRecordings/drantung.wav,0,audio-button-response,95,921851,0.0-5.0-0.45,,,,
,,,,,,,,,,
2171,,"{""P0_Q0"":2}",survey,96,924029,0.0-5.0-1.45,[],,,
,,,,,,,,,,
929,TestRecordings/stahm.wav,0,audio-button-response,97,924963,0.0-5.0-0.46,,,,
,,,,,,,,,,
4845,,"{""P0_Q0"":6}",survey,98,929814,0.0-5.0-1.46,[],,,
,,,,,,,,,,
1032,TestRecordings/dmut.wav,0,audio-button-response,99,930851,0.0-5.0-0.47,,,,
,,,,,,,,,,
2229,,"{""P0_Q0"":1}",survey,100,933086,0.0-5.0-1.47,[],,,
,,,,,,,,,,
1039,TestRecordings/drustet.wav,0,audio-button-response,101,934131,0.0-5.0-0.48,,,,
,,,,,,,,,,
1812,,"{""P0_Q0"":4}",survey,102,935949,0.0-5.0-1.48,[],,,
,,,,,,,,,,
1126,TestRecordings/gatkun.wav,0,audio-button-response,103,937083,0.0-5.0-0.49,,,,
,,,,,,,,,,
3859,,"{""P0_Q0"":2}",survey,104,940949,0.0-5.0-1.49,[],,,
,,,,,,,,,,
999,TestRecordings/pmeit.wav,0,audio-button-response,105,941954,0.0-5.0-0.50,,,,
,,,,,,,,,,
2814,,"{""P0_Q0"":1}",survey,106,944773,0.0-5.0-1.50,[],,,
,,,,,,,,,,
864,TestRecordings/ntek.wav,0,audio-button-response,107,945642,0.0-5.0-0.51,,,,
,,,,,,,,,,
3660,,"{""P0_Q0"":3}",survey,108,949308,0.0-5.0-1.51,[],,,
,,,,,,,,,,
1193,TestRecordings/tlepgim.wav,0,audio-button-response,109,950505,0.0-5.0-0.52,,,,
,,,,,,,,,,
5677,,"{""P0_Q0"":3}",survey,110,956188,0.0-5.0-1.52,[],,,
,,,,,,,,,,
941,TestRecordings/mkait.wav,0,audio-button-response,111,957137,0.0-5.0-0.53,,,,
,,,,,,,,,,
2557,,"{""P0_Q0"":1}",survey,112,959700,0.0-5.0-1.53,[],,,
,,,,,,,,,,
977,TestRecordings/drakpum.wav,0,audio-button-response,113,960682,0.0-5.0-0.54,,,,
,,,,,,,,,,
1700,,"{""P0_Q0"":6}",survey,114,962388,0.0-5.0-1.54,[],,,
,,,,,,,,,,
1024,TestRecordings/punseng.wav,0,audio-button-response,115,963418,0.0-5.0-0.55,,,,
,,,,,,,,,,
1972,,"{""P0_Q0"":6}",survey,116,965395,0.0-5.0-1.55,[],,,
,,,,,,,,,,
870,TestRecordings/suntem.wav,0,audio-button-response,117,966273,0.0-5.0-0.56,,,,
,,,,,,,,,,
3088,,"{""P0_Q0"":4}",survey,118,969367,0.0-5.0-1.56,[],,,
,,,,,,,,,,
1026,TestRecordings/tlumgak.wav,0,audio-button-response,119,970489,0.0-5.0-0.57,,,,
,,,,,,,,,,
5192,,"{""P0_Q0"":4}",survey,120,975706,0.0-5.0-1.57,[],,,
,,,,,,,,,,
1312,TestRecordings/trindes.wav,0,audio-button-response,121,977025,0.0-5.0-0.58,,,,
,,,,,,,,,,
1634,,"{""P0_Q0"":7}",survey,122,978682,0.0-5.0-1.58,[],,,
,,,,,,,,,,
1038,TestRecordings/mepgut.wav,0,audio-button-response,123,979728,0.0-5.0-0.59,,,,
,,,,,,,,,,
4455,,"{""P0_Q0"":5}",survey,124,984205,0.0-5.0-1.59,[],,,
,,,,,,,,,,
5963,, ,html-keyboard-response,125,990170,0.0-6.0,,,,
,,,,,,,,,,
188283,,"{""P0_Q0"":""19"",""P0_Q1"":""Man"",""P0_Q2"":""yes"",""P0_Q3"":""German, Urdu, Marathi (not fluent in any)"",""P0_Q4"":""I learned german for 5 years from grade 8 to 12. Urdu I have been learning from fall 2023-present, and marathi was spoken at my home but I strggled to gain understanding to this day. "",""P0_Q5"":""I struggled with language a lot, and remembering things as well as understanding how to make the different sounds in each language""}",survey,126,1178469,0.0-7.0,[],,,
,,,,,,,,,,
460884,"<p style=""font-size:30px"">The experiment has ended</p><p style=""font-size:30px"",lang=""ko"">Thanks for participating in it!</p>", ,html-keyboard-response,127,1639337,0.0-8.0,,,,