rt,stimulus,response,trial_type,trial_index,time_elapsed,internal_node_id,accuracy,PracticeTest,ConsonantSequence,Grammaticality
,,,,,,,,,,
1010947,"<p style=""font-size:30px"">Welcome to the experiment</p><p>Press spacebar to continue</p>", ,html-keyboard-response,0,1010935,0.0-0.0,,,,
,,,,,,,,,,
3326,"<p style=""font-size:30px"">Please ensure that your headphones are on correctly</p><p>Press spacebar to continue</p>", ,html-keyboard-response,1,1014261,0.0-1.0,,,,
,,,,,,,,,,
7111,"<p style=""font-size:30px"">In this experiment, you will listen to nonsense words</p><p style=""font-size:30px"",lang=""ko"">Your task is to rate the nonsense word you heard as a possible word of American English</p><p>Press spacebar to continue</p>", ,html-keyboard-response,2,1021373,0.0-2.0,,,,
,,,,,,,,,,
5760,, ,html-keyboard-response,3,1027133,0.0-3.0,,,,
,,,,,,,,,,
5358,"<p style=""font-size:30px"">Now let's move on to the actual experiment.</p><p style=""font-size:30px"",lang=""ko"">During the experiment, you will hear each of the nonce words only once.</p><p>Press spacebar to continue</p>", ,html-keyboard-response,4,1032492,0.0-4.0,,,,
,,,,,,,,,,
3904,TestRecordings/kmaut.wav,0,audio-button-response,5,1036403,0.0-5.0-0.0,,,,
,,,,,,,,,,
12008,,"{""P0_Q0"":6}",survey,6,1048448,0.0-5.0-1.0,[],,,
,,,,,,,,,,
5613,TestRecordings/dlisbep.wav,0,audio-button-response,7,1054066,0.0-5.0-0.1,,,,
,,,,,,,,,,
12438,,"{""P0_Q0"":3}",survey,8,1066519,0.0-5.0-1.1,[],,,
,,,,,,,,,,
3734,TestRecordings/twen.wav,0,audio-button-response,9,1070258,0.0-5.0-0.2,,,,
,,,,,,,,,,
7577,,"{""P0_Q0"":2}",survey,10,1077846,0.0-5.0-1.2,[],,,
,,,,,,,,,,
1734,TestRecordings/tlipgat.wav,0,audio-button-response,11,1079585,0.0-5.0-0.3,,,,
,,,,,,,,,,
6099,,"{""P0_Q0"":2}",survey,12,1085693,0.0-5.0-1.3,[],,,
,,,,,,,,,,
3023,TestRecordings/drakpum.wav,0,audio-button-response,13,1088721,0.0-5.0-0.4,,,,
,,,,,,,,,,
4986,,"{""P0_Q0"":6}",survey,14,1093716,0.0-5.0-1.4,[],,,
,,,,,,,,,,
3072,TestRecordings/gatkun.wav,0,audio-button-response,15,1096793,0.0-5.0-0.5,,,,
,,,,,,,,,,
4690,,"{""P0_Q0"":2}",survey,16,1101492,0.0-5.0-1.5,[],,,
,,,,,,,,,,
2975,TestRecordings/gistum.wav,0,audio-button-response,17,1104473,0.0-5.0-0.6,,,,
,,,,,,,,,,
5275,,"{""P0_Q0"":3}",survey,18,1109755,0.0-5.0-1.6,[],,,
,,,,,,,,,,
2464,TestRecordings/kutpim.wav,0,audio-button-response,19,1112224,0.0-5.0-0.7,,,,
,,,,,,,,,,
3059,,"{""P0_Q0"":4}",survey,20,1115291,0.0-5.0-1.7,[],,,
,,,,,,,,,,
1128,TestRecordings/pmeit.wav,0,audio-button-response,21,1116424,0.0-5.0-0.8,,,,
,,,,,,,,,,
5043,,"{""P0_Q0"":7}",survey,22,1121475,0.0-5.0-1.8,[],,,
,,,,,,,,,,
1545,TestRecordings/dlahm.wav,0,audio-button-response,23,1123023,0.0-5.0-0.9,,,,
,,,,,,,,,,
2531,,"{""P0_Q0"":7}",survey,24,1125562,0.0-5.0-1.9,[],,,
,,,,,,,,,,
1641,TestRecordings/gipsus.wav,0,audio-button-response,25,1127207,0.0-5.0-0.10,,,,
,,,,,,,,,,
2189,,"{""P0_Q0"":7}",survey,26,1129404,0.0-5.0-1.10,[],,,
,,,,,,,,,,
1279,TestRecordings/tep.wav,0,audio-button-response,27,1130687,0.0-5.0-0.11,,,,
,,,,,,,,,,
5588,,"{""P0_Q0"":7}",survey,28,1136282,0.0-5.0-1.11,[],,,
,,,,,,,,,,
1807,TestRecordings/drantung.wav,0,audio-button-response,29,1138095,0.0-5.0-0.12,,,,
,,,,,,,,,,
3235,,"{""P0_Q0"":5}",survey,30,1141337,0.0-5.0-1.12,[],,,
,,,,,,,,,,
1713,TestRecordings/ntek.wav,0,audio-button-response,31,1143054,0.0-5.0-0.13,,,,
,,,,,,,,,,
8556,,"{""P0_Q0"":4}",survey,32,1151617,0.0-5.0-1.13,[],,,
,,,,,,,,,,
1256,TestRecordings/bem.wav,0,audio-button-response,33,1152878,0.0-5.0-0.14,,,,
,,,,,,,,,,
1916,,"{""P0_Q0"":4}",survey,34,1154801,0.0-5.0-1.14,[],,,
,,,,,,,,,,
1608,TestRecordings/drikteng.wav,0,audio-button-response,35,1156414,0.0-5.0-0.15,,,,
,,,,,,,,,,
1781,,"{""P0_Q0"":6}",survey,36,1158200,0.0-5.0-1.15,[],,,
,,,,,,,,,,
2008,TestRecordings/tlemkun.wav,0,audio-button-response,37,1160214,0.0-5.0-0.16,,,,
,,,,,,,,,,
4348,,"{""P0_Q0"":3}",survey,38,1164568,0.0-5.0-1.16,[],,,
,,,,,,,,,,
2079,TestRecordings/twas.wav,0,audio-button-response,39,1166653,0.0-5.0-0.17,,,,
,,,,,,,,,,
14349,,"{""P0_Q0"":5}",survey,40,1181008,0.0-5.0-1.17,[],,,
,,,,,,,,,,
1998,TestRecordings/ningpum.wav,0,audio-button-response,41,1183013,0.0-5.0-0.18,,,,
,,,,,,,,,,
2254,,"{""P0_Q0"":2}",survey,42,1185272,0.0-5.0-1.18,[],,,
,,,,,,,,,,
2053,TestRecordings/pemdut.wav,0,audio-button-response,43,1187333,0.0-5.0-0.19,,,,
,,,,,,,,,,
3988,,"{""P0_Q0"":5}",survey,44,1191327,0.0-5.0-1.19,[],,,
,,,,,,,,,,
1383,TestRecordings/sengdun.wav,0,audio-button-response,45,1192717,0.0-5.0-0.20,,,,
,,,,,,,,,,
11148,,"{""P0_Q0"":3}",survey,46,1203870,0.0-5.0-1.20,[],,,
,,,,,,,,,,
1919,TestRecordings/drumbeng.wav,0,audio-button-response,47,1205796,0.0-5.0-0.21,,,,
,,,,,,,,,,
2627,,"{""P0_Q0"":3}",survey,48,1208430,0.0-5.0-1.21,[],,,
,,,,,,,,,,
1214,TestRecordings/dloun.wav,0,audio-button-response,49,1209651,0.0-5.0-0.22,,,,
,,,,,,,,,,
4347,,"{""P0_Q0"":4}",survey,50,1214006,0.0-5.0-1.22,[],,,
,,,,,,,,,,
1232,TestRecordings/punseng.wav,0,audio-button-response,51,1215244,0.0-5.0-0.23,,,,
,,,,,,,,,,
3197,,"{""P0_Q0"":2}",survey,52,1218446,0.0-5.0-1.23,[],,,
,,,,,,,,,,
983,TestRecordings/tloum.wav,0,audio-button-response,53,1219435,0.0-5.0-0.24,,,,
,,,,,,,,,,
3453,,"{""P0_Q0"":4}",survey,54,1222894,0.0-5.0-1.24,[],,,
,,,,,,,,,,
1702,TestRecordings/skain.wav,0,audio-button-response,55,1224603,0.0-5.0-0.25,,,,
,,,,,,,,,,
3501,,"{""P0_Q0"":2}",survey,56,1228109,0.0-5.0-1.25,[],,,
,,,,,,,,,,
1535,TestRecordings/pwuk.wav,0,audio-button-response,57,1229650,0.0-5.0-0.26,,,,
,,,,,,,,,,
3270,,"{""P0_Q0"":4}",survey,58,1232926,0.0-5.0-1.26,[],,,
,,,,,,,,,,
3190,TestRecordings/mgit.wav,0,audio-button-response,59,1236122,0.0-5.0-0.27,,,,
,,,,,,,,,,
3187,,"{""P0_Q0"":7}",survey,60,1239317,0.0-5.0-1.27,[],,,
,,,,,,,,,,
2079,TestRecordings/stahm.wav,0,audio-button-response,61,1241402,0.0-5.0-0.28,,,,
,,,,,,,,,,
12197,,"{""P0_Q0"":4}",survey,62,1253604,0.0-5.0-1.28,[],,,
,,,,,,,,,,
1751,TestRecordings/pwam.wav,0,audio-button-response,63,1255361,0.0-5.0-0.29,,,,
,,,,,,,,,,
2323,,"{""P0_Q0"":3}",survey,64,1257692,0.0-5.0-1.29,[],,,
,,,,,,,,,,
1311,TestRecordings/tlik.wav,0,audio-button-response,65,1259009,0.0-5.0-0.30,,,,
,,,,,,,,,,
1940,,"{""P0_Q0"":5}",survey,66,1260955,0.0-5.0-1.30,[],,,
,,,,,,,,,,
1943,TestRecordings/pundes.wav,0,audio-button-response,67,1262905,0.0-5.0-0.31,,,,
,,,,,,,,,,
7188,,"{""P0_Q0"":5}",survey,68,1270100,0.0-5.0-1.31,[],,,
,,,,,,,,,,
1662,TestRecordings/tisbeng.wav,0,audio-button-response,69,1271768,0.0-5.0-0.32,,,,
,,,,,,,,,,
2029,,"{""P0_Q0"":5}",survey,70,1273802,0.0-5.0-1.32,[],,,
,,,,,,,,,,
1048,TestRecordings/tlem.wav,0,audio-button-response,71,1274857,0.0-5.0-0.33,,,,
,,,,,,,,,,
1924,,"{""P0_Q0"":4}",survey,72,1276787,0.0-5.0-1.33,[],,,
,,,,,,,,,,
3662,TestRecordings/dmut.wav,0,audio-button-response,73,1280456,0.0-5.0-0.34,,,,
,,,,,,,,,,
4588,,"{""P0_Q0"":6}",survey,74,1285051,0.0-5.0-1.34,[],,,
,,,,,,,,,,
1287,TestRecordings/mkait.wav,0,audio-button-response,75,1286345,0.0-5.0-0.35,,,,
,,,,,,,,,,
4492,,"{""P0_Q0"":2}",survey,76,1290842,0.0-5.0-1.35,[],,,
,,,,,,,,,,
1152,TestRecordings/ndeip.wav,0,audio-button-response,77,1292000,0.0-5.0-0.36,,,,
,,,,,,,,,,
12883,,"{""P0_Q0"":6}",survey,78,1304890,0.0-5.0-1.36,[],,,
,,,,,,,,,,
2816,TestRecordings/giit.wav,0,audio-button-response,79,1307711,0.0-5.0-0.37,,,,
,,,,,,,,,,
6469,,"{""P0_Q0"":6}",survey,80,1314186,0.0-5.0-1.37,[],,,
,,,,,,,,,,
1192,TestRecordings/stuun.wav,0,audio-button-response,81,1315383,0.0-5.0-0.38,,,,
,,,,,,,,,,
4452,,"{""P0_Q0"":4}",survey,82,1319841,0.0-5.0-1.38,[],,,
,,,,,,,,,,
1120,TestRecordings/tlumgak.wav,0,audio-button-response,83,1320967,0.0-5.0-0.39,,,,
,,,,,,,,,,
2940,,"{""P0_Q0"":3}",survey,84,1323913,0.0-5.0-1.39,[],,,
,,,,,,,,,,
1176,TestRecordings/nangdup.wav,0,audio-button-response,85,1325094,0.0-5.0-0.40,,,,
,,,,,,,,,,
4244,,"{""P0_Q0"":2}",survey,86,1329345,0.0-5.0-1.40,[],,,
,,,,,,,,,,
1846,TestRecordings/tlepgim.wav,0,audio-button-response,87,1331197,0.0-5.0-0.41,,,,
,,,,,,,,,,
2309,,"{""P0_Q0"":5}",survey,88,1333512,0.0-5.0-1.41,[],,,
,,,,,,,,,,
1264,TestRecordings/stauk.wav,0,audio-button-response,89,1334782,0.0-5.0-0.42,,,,
,,,,,,,,,,
5093,,"{""P0_Q0"":6}",survey,90,1339880,0.0-5.0-1.42,[],,,
,,,,,,,,,,
2519,TestRecordings/trindes.wav,0,audio-button-response,91,1342406,0.0-5.0-0.43,,,,
,,,,,,,,,,
2829,,"{""P0_Q0"":4}",survey,92,1345240,0.0-5.0-1.43,[],,,
,,,,,,,,,,
1214,TestRecordings/kmeip.wav,0,audio-button-response,93,1346461,0.0-5.0-0.44,,,,
,,,,,,,,,,
6284,,"{""P0_Q0"":3}",survey,94,1352752,0.0-5.0-1.44,[],,,
,,,,,,,,,,
1391,TestRecordings/bepgik.wav,0,audio-button-response,95,1354149,0.0-5.0-0.45,,,,
,,,,,,,,,,
1862,,"{""P0_Q0"":2}",survey,96,1356016,0.0-5.0-1.45,[],,,
,,,,,,,,,,
886,TestRecordings/gup.wav,0,audio-button-response,97,1356909,0.0-5.0-0.46,,,,
,,,,,,,,,,
3341,,"{""P0_Q0"":4}",survey,98,1360256,0.0-5.0-1.46,[],,,
,,,,,,,,,,
1087,TestRecordings/nutbim.wav,0,audio-button-response,99,1361348,0.0-5.0-0.47,,,,
,,,,,,,,,,
8797,,"{""P0_Q0"":3}",survey,100,1370151,0.0-5.0-1.47,[],,,
,,,,,,,,,,
2806,TestRecordings/pmiik.wav,0,audio-button-response,101,1372964,0.0-5.0-0.48,,,,
,,,,,,,,,,
3524,,"{""P0_Q0"":3}",survey,102,1376495,0.0-5.0-1.48,[],,,
,,,,,,,,,,
2095,TestRecordings/gitpes.wav,0,audio-button-response,103,1378596,0.0-5.0-0.49,,,,
,,,,,,,,,,
1892,,"{""P0_Q0"":3}",survey,104,1380494,0.0-5.0-1.49,[],,,
,,,,,,,,,,
1006,TestRecordings/drain.wav,0,audio-button-response,105,1381508,0.0-5.0-0.50,,,,
,,,,,,,,,,
2820,,"{""P0_Q0"":7}",survey,106,1384334,0.0-5.0-1.50,[],,,
,,,,,,,,,,
1886,TestRecordings/tempuk.wav,0,audio-button-response,107,1386227,0.0-5.0-0.51,,,,
,,,,,,,,,,
2813,,"{""P0_Q0"":5}",survey,108,1389046,0.0-5.0-1.51,[],,,
,,,,,,,,,,
2096,TestRecordings/drustet.wav,0,audio-button-response,109,1391147,0.0-5.0-0.52,,,,
,,,,,,,,,,
1734,,"{""P0_Q0"":3}",survey,110,1392886,0.0-5.0-1.52,[],,,
,,,,,,,,,,
2992,TestRecordings/tlasdung.wav,0,audio-button-response,111,1395884,0.0-5.0-0.53,,,,
,,,,,,,,,,
3682,,"{""P0_Q0"":4}",survey,112,1399593,0.0-5.0-1.53,[],,,
,,,,,,,,,,
3131,TestRecordings/dlemkus.wav,0,audio-button-response,113,1402730,0.0-5.0-0.54,,,,
,,,,,,,,,,
6080,,"{""P0_Q0"":3}",survey,114,1408822,0.0-5.0-1.54,[],,,
,,,,,,,,,,
2461,TestRecordings/mepgut.wav,0,audio-button-response,115,1411291,0.0-5.0-0.55,,,,
,,,,,,,,,,
2434,,"{""P0_Q0"":3}",survey,116,1413733,0.0-5.0-1.55,[],,,
,,,,,,,,,,
1215,TestRecordings/suntem.wav,0,audio-button-response,117,1414954,0.0-5.0-0.56,,,,
,,,,,,,,,,
1923,,"{""P0_Q0"":2}",survey,118,1416885,0.0-5.0-1.56,[],,,
,,,,,,,,,,
1518,TestRecordings/paim.wav,0,audio-button-response,119,1418410,0.0-5.0-0.57,,,,
,,,,,,,,,,
6628,,"{""P0_Q0"":5}",survey,120,1425044,0.0-5.0-1.57,[],,,
,,,,,,,,,,
1743,TestRecordings/trahm.wav,0,audio-button-response,121,1426794,0.0-5.0-0.58,,,,
,,,,,,,,,,
4300,,"{""P0_Q0"":4}",survey,122,1431101,0.0-5.0-1.58,[],,,
,,,,,,,,,,
1262,TestRecordings/nboup.wav,0,audio-button-response,123,1432370,0.0-5.0-0.59,,,,
,,,,,,,,,,
4044,,"{""P0_Q0"":4}",survey,124,1436420,0.0-5.0-1.59,[],,,
,,,,,,,,,,
4781,, ,html-keyboard-response,125,1441202,0.0-6.0,,,,
,,,,,,,,,,
122929,,"{""P0_Q0"":""25"",""P0_Q1"":""Male"",""P0_Q2"":""Yes"",""P0_Q3"":""German"",""P0_Q4"":""I started learning at age 14 and learned for 5 years."",""P0_Q5"":""I studied German for 4 years in high school and 1 year at university.""}",survey,126,1564144,0.0-7.0,[],,,
,,,,,,,,,,
105268,"<p style=""font-size:30px"">The experiment has ended</p><p style=""font-size:30px"",lang=""ko"">Thanks for participating in it!</p>", ,html-keyboard-response,127,1669408,0.0-8.0,,,,