rt,stimulus,response,trial_type,trial_index,time_elapsed,internal_node_id,accuracy,PracticeTest,ConsonantSequence,Grammaticality
,,,,,,,,,,
777380,"<p style=""font-size:30px"">Welcome to the experiment</p><p>Press spacebar to continue</p>", ,html-keyboard-response,0,777373,0.0-0.0,,,,
,,,,,,,,,,
1420,"<p style=""font-size:30px"">Please ensure that your headphones are on correctly</p><p>Press spacebar to continue</p>", ,html-keyboard-response,1,778794,0.0-1.0,,,,
,,,,,,,,,,
4624,"<p style=""font-size:30px"">In this experiment, you will listen to nonsense words</p><p style=""font-size:30px"",lang=""ko"">Your task is to rate the nonsense word you heard as a possible word of American English</p><p>Press spacebar to continue</p>", ,html-keyboard-response,2,783418,0.0-2.0,,,,
,,,,,,,,,,
1192,, ,html-keyboard-response,3,784610,0.0-3.0,,,,
,,,,,,,,,,
4367,"<p style=""font-size:30px"">Now let's move on to the actual experiment.</p><p style=""font-size:30px"",lang=""ko"">During the experiment, you will hear each of the nonce words only once.</p><p>Press spacebar to continue</p>", ,html-keyboard-response,4,788978,0.0-4.0,,,,
,,,,,,,,,,
4957,TestRecordings/kmeip.wav,0,audio-button-response,5,793945,0.0-5.0-0.0,,,,
,,,,,,,,,,
6334,,"{""P0_Q0"":2}",survey,6,800317,0.0-5.0-1.0,[],,,
,,,,,,,,,,
2468,TestRecordings/dlisbep.wav,0,audio-button-response,7,802792,0.0-5.0-0.1,,,,
,,,,,,,,,,
1838,,"{""P0_Q0"":2}",survey,8,804644,0.0-5.0-1.1,[],,,
,,,,,,,,,,
2381,TestRecordings/tlemkun.wav,0,audio-button-response,9,807033,0.0-5.0-0.2,,,,
,,,,,,,,,,
2793,,"{""P0_Q0"":5}",survey,10,809836,0.0-5.0-1.2,[],,,
,,,,,,,,,,
1772,TestRecordings/gipsus.wav,0,audio-button-response,11,811617,0.0-5.0-0.3,,,,
,,,,,,,,,,
2234,,"{""P0_Q0"":5}",survey,12,813860,0.0-5.0-1.3,[],,,
,,,,,,,,,,
1332,TestRecordings/drumbeng.wav,0,audio-button-response,13,815200,0.0-5.0-0.4,,,,
,,,,,,,,,,
1514,,"{""P0_Q0"":1}",survey,14,816722,0.0-5.0-1.4,[],,,
,,,,,,,,,,
1342,TestRecordings/dlahm.wav,0,audio-button-response,15,818071,0.0-5.0-0.5,,,,
,,,,,,,,,,
1929,,"{""P0_Q0"":6}",survey,16,820011,0.0-5.0-1.5,[],,,
,,,,,,,,,,
1270,TestRecordings/nutbim.wav,0,audio-button-response,17,821287,0.0-5.0-0.6,,,,
,,,,,,,,,,
1692,,"{""P0_Q0"":2}",survey,18,822987,0.0-5.0-1.6,[],,,
,,,,,,,,,,
1159,TestRecordings/tlumgak.wav,0,audio-button-response,19,824151,0.0-5.0-0.7,,,,
,,,,,,,,,,
1763,,"{""P0_Q0"":1}",survey,20,825922,0.0-5.0-1.7,[],,,
,,,,,,,,,,
1565,TestRecordings/dlemkus.wav,0,audio-button-response,21,827495,0.0-5.0-0.8,,,,
,,,,,,,,,,
2195,,"{""P0_Q0"":4}",survey,22,829698,0.0-5.0-1.8,[],,,
,,,,,,,,,,
1310,TestRecordings/drustet.wav,0,audio-button-response,23,831015,0.0-5.0-0.9,,,,
,,,,,,,,,,
1868,,"{""P0_Q0"":3}",survey,24,832890,0.0-5.0-1.9,[],,,
,,,,,,,,,,
1565,TestRecordings/sengdun.wav,0,audio-button-response,25,834463,0.0-5.0-0.10,,,,
,,,,,,,,,,
2026,,"{""P0_Q0"":4}",survey,26,836498,0.0-5.0-1.10,[],,,
,,,,,,,,,,
1213,TestRecordings/pemdut.wav,0,audio-button-response,27,837719,0.0-5.0-0.11,,,,
,,,,,,,,,,
1804,,"{""P0_Q0"":5}",survey,28,839529,0.0-5.0-1.11,[],,,
,,,,,,,,,,
1197,TestRecordings/mepgut.wav,0,audio-button-response,29,840734,0.0-5.0-0.12,,,,
,,,,,,,,,,
2518,,"{""P0_Q0"":4}",survey,30,843259,0.0-5.0-1.12,[],,,
,,,,,,,,,,
1253,TestRecordings/giit.wav,0,audio-button-response,31,844518,0.0-5.0-0.13,,,,
,,,,,,,,,,
1578,,"{""P0_Q0"":6}",survey,32,846105,0.0-5.0-1.13,[],,,
,,,,,,,,,,
1294,TestRecordings/drain.wav,0,audio-button-response,33,847407,0.0-5.0-0.14,,,,
,,,,,,,,,,
1563,,"{""P0_Q0"":6}",survey,34,848977,0.0-5.0-1.14,[],,,
,,,,,,,,,,
1302,TestRecordings/paim.wav,0,audio-button-response,35,850286,0.0-5.0-0.15,,,,
,,,,,,,,,,
1659,,"{""P0_Q0"":5}",survey,36,851953,0.0-5.0-1.15,[],,,
,,,,,,,,,,
1591,TestRecordings/gitpes.wav,0,audio-button-response,37,853550,0.0-5.0-0.16,,,,
,,,,,,,,,,
2908,,"{""P0_Q0"":3}",survey,38,856465,0.0-5.0-1.16,[],,,
,,,,,,,,,,
1302,TestRecordings/gatkun.wav,0,audio-button-response,39,857774,0.0-5.0-0.17,,,,
,,,,,,,,,,
1860,,"{""P0_Q0"":2}",survey,40,859640,0.0-5.0-1.17,[],,,
,,,,,,,,,,
2927,TestRecordings/pwam.wav,0,audio-button-response,41,862574,0.0-5.0-0.18,,,,
,,,,,,,,,,
3780,,"{""P0_Q0"":1}",survey,42,866361,0.0-5.0-1.18,[],,,
,,,,,,,,,,
1429,TestRecordings/stahm.wav,0,audio-button-response,43,867797,0.0-5.0-0.19,,,,
,,,,,,,,,,
3117,,"{""P0_Q0"":6}",survey,44,870921,0.0-5.0-1.19,[],,,
,,,,,,,,,,
1581,TestRecordings/trahm.wav,0,audio-button-response,45,872510,0.0-5.0-0.20,,,,
,,,,,,,,,,
1484,,"{""P0_Q0"":5}",survey,46,874000,0.0-5.0-1.20,[],,,
,,,,,,,,,,
1469,TestRecordings/ningpum.wav,0,audio-button-response,47,875477,0.0-5.0-0.21,,,,
,,,,,,,,,,
1500,,"{""P0_Q0"":1}",survey,48,876984,0.0-5.0-1.21,[],,,
,,,,,,,,,,
1231,TestRecordings/ndeip.wav,0,audio-button-response,49,878221,0.0-5.0-0.22,,,,
,,,,,,,,,,
1460,,"{""P0_Q0"":6}",survey,50,879687,0.0-5.0-1.22,[],,,
,,,,,,,,,,
1127,TestRecordings/tlipgat.wav,0,audio-button-response,51,880821,0.0-5.0-0.23,,,,
,,,,,,,,,,
1876,,"{""P0_Q0"":2}",survey,52,882703,0.0-5.0-1.23,[],,,
,,,,,,,,,,
1175,TestRecordings/tloum.wav,0,audio-button-response,53,883885,0.0-5.0-0.24,,,,
,,,,,,,,,,
2654,,"{""P0_Q0"":2}",survey,54,886543,0.0-5.0-1.24,[],,,
,,,,,,,,,,
1150,TestRecordings/dloun.wav,0,audio-button-response,55,887701,0.0-5.0-0.25,,,,
,,,,,,,,,,
2061,,"{""P0_Q0"":5}",survey,56,889768,0.0-5.0-1.25,[],,,
,,,,,,,,,,
1358,TestRecordings/twen.wav,0,audio-button-response,57,891132,0.0-5.0-0.26,,,,
,,,,,,,,,,
1235,,"{""P0_Q0"":6}",survey,58,892375,0.0-5.0-1.26,[],,,
,,,,,,,,,,
1311,TestRecordings/pundes.wav,0,audio-button-response,59,893692,0.0-5.0-0.27,,,,
,,,,,,,,,,
3636,,"{""P0_Q0"":3}",survey,60,897335,0.0-5.0-1.27,[],,,
,,,,,,,,,,
1048,TestRecordings/skain.wav,0,audio-button-response,61,898389,0.0-5.0-0.28,,,,
,,,,,,,,,,
2947,,"{""P0_Q0"":2}",survey,62,901343,0.0-5.0-1.28,[],,,
,,,,,,,,,,
1174,TestRecordings/gistum.wav,0,audio-button-response,63,902524,0.0-5.0-0.29,,,,
,,,,,,,,,,
1324,,"{""P0_Q0"":2}",survey,64,903854,0.0-5.0-1.29,[],,,
,,,,,,,,,,
918,TestRecordings/nboup.wav,0,audio-button-response,65,904781,0.0-5.0-0.30,,,,
,,,,,,,,,,
1458,,"{""P0_Q0"":1}",survey,66,906247,0.0-5.0-1.30,[],,,
,,,,,,,,,,
2742,TestRecordings/stuun.wav,0,audio-button-response,67,908996,0.0-5.0-0.31,,,,
,,,,,,,,,,
3132,,"{""P0_Q0"":1}",survey,68,912134,0.0-5.0-1.31,[],,,
,,,,,,,,,,
983,TestRecordings/trindes.wav,0,audio-button-response,69,913123,0.0-5.0-0.32,,,,
,,,,,,,,,,
1348,,"{""P0_Q0"":2}",survey,70,914478,0.0-5.0-1.32,[],,,
,,,,,,,,,,
1029,TestRecordings/kmaut.wav,0,audio-button-response,71,915516,0.0-5.0-0.33,,,,
,,,,,,,,,,
2068,,"{""P0_Q0"":3}",survey,72,917590,0.0-5.0-1.33,[],,,
,,,,,,,,,,
832,TestRecordings/tlik.wav,0,audio-button-response,73,918427,0.0-5.0-0.34,,,,
,,,,,,,,,,
1690,,"{""P0_Q0"":7}",survey,74,920126,0.0-5.0-1.34,[],,,
,,,,,,,,,,
880,TestRecordings/tempuk.wav,0,audio-button-response,75,921011,0.0-5.0-0.35,,,,
,,,,,,,,,,
5572,,"{""P0_Q0"":4}",survey,76,926590,0.0-5.0-1.35,[],,,
,,,,,,,,,,
1086,TestRecordings/gup.wav,0,audio-button-response,77,927683,0.0-5.0-0.36,,,,
,,,,,,,,,,
2181,,"{""P0_Q0"":3}",survey,78,929870,0.0-5.0-1.36,[],,,
,,,,,,,,,,
903,TestRecordings/nangdup.wav,0,audio-button-response,79,930779,0.0-5.0-0.37,,,,
,,,,,,,,,,
1804,,"{""P0_Q0"":1}",survey,80,932589,0.0-5.0-1.37,[],,,
,,,,,,,,,,
1262,TestRecordings/stauk.wav,0,audio-button-response,81,933859,0.0-5.0-0.38,,,,
,,,,,,,,,,
2701,,"{""P0_Q0"":5}",survey,82,936566,0.0-5.0-1.38,[],,,
,,,,,,,,,,
814,TestRecordings/pwuk.wav,0,audio-button-response,83,937387,0.0-5.0-0.39,,,,
,,,,,,,,,,
1650,,"{""P0_Q0"":1}",survey,84,939045,0.0-5.0-1.39,[],,,
,,,,,,,,,,
1144,TestRecordings/mkait.wav,0,audio-button-response,85,940194,0.0-5.0-0.40,,,,
,,,,,,,,,,
1859,,"{""P0_Q0"":7}",survey,86,942061,0.0-5.0-1.40,[],,,
,,,,,,,,,,
783,TestRecordings/ntek.wav,0,audio-button-response,87,942850,0.0-5.0-0.41,,,,
,,,,,,,,,,
2285,,"{""P0_Q0"":4}",survey,88,945141,0.0-5.0-1.41,[],,,
,,,,,,,,,,
1309,TestRecordings/twas.wav,0,audio-button-response,89,946458,0.0-5.0-0.42,,,,
,,,,,,,,,,
1917,,"{""P0_Q0"":7}",survey,90,948381,0.0-5.0-1.42,[],,,
,,,,,,,,,,
1078,TestRecordings/pmeit.wav,0,audio-button-response,91,949466,0.0-5.0-0.43,,,,
,,,,,,,,,,
1820,,"{""P0_Q0"":1}",survey,92,951292,0.0-5.0-1.43,[],,,
,,,,,,,,,,
783,TestRecordings/tlasdung.wav,0,audio-button-response,93,952082,0.0-5.0-0.44,,,,
,,,,,,,,,,
2396,,"{""P0_Q0"":5}",survey,94,954484,0.0-5.0-1.44,[],,,
,,,,,,,,,,
998,TestRecordings/tep.wav,0,audio-button-response,95,955489,0.0-5.0-0.45,,,,
,,,,,,,,,,
3428,,"{""P0_Q0"":6}",survey,96,958925,0.0-5.0-1.45,[],,,
,,,,,,,,,,
846,TestRecordings/mgit.wav,0,audio-button-response,97,959778,0.0-5.0-0.46,,,,
,,,,,,,,,,
1403,,"{""P0_Q0"":6}",survey,98,961187,0.0-5.0-1.46,[],,,
,,,,,,,,,,
792,TestRecordings/tlem.wav,0,audio-button-response,99,961986,0.0-5.0-0.47,,,,
,,,,,,,,,,
1555,,"{""P0_Q0"":6}",survey,100,963548,0.0-5.0-1.47,[],,,
,,,,,,,,,,
911,TestRecordings/punseng.wav,0,audio-button-response,101,964466,0.0-5.0-0.48,,,,
,,,,,,,,,,
1171,,"{""P0_Q0"":2}",survey,102,965643,0.0-5.0-1.48,[],,,
,,,,,,,,,,
752,TestRecordings/bem.wav,0,audio-button-response,103,966401,0.0-5.0-0.49,,,,
,,,,,,,,,,
1228,,"{""P0_Q0"":3}",survey,104,967637,0.0-5.0-1.49,[],,,
,,,,,,,,,,
854,TestRecordings/tlepgim.wav,0,audio-button-response,105,968497,0.0-5.0-0.50,,,,
,,,,,,,,,,
2660,,"{""P0_Q0"":1}",survey,106,971163,0.0-5.0-1.50,[],,,
,,,,,,,,,,
943,TestRecordings/drantung.wav,0,audio-button-response,107,972112,0.0-5.0-0.51,,,,
,,,,,,,,,,
1717,,"{""P0_Q0"":2}",survey,108,973836,0.0-5.0-1.51,[],,,
,,,,,,,,,,
992,TestRecordings/drikteng.wav,0,audio-button-response,109,974832,0.0-5.0-0.52,,,,
,,,,,,,,,,
1844,,"{""P0_Q0"":2}",survey,110,976683,0.0-5.0-1.52,[],,,
,,,,,,,,,,
815,TestRecordings/kutpim.wav,0,audio-button-response,111,977505,0.0-5.0-0.53,,,,
,,,,,,,,,,
1700,,"{""P0_Q0"":1}",survey,112,979211,0.0-5.0-1.53,[],,,
,,,,,,,,,,
1061,TestRecordings/pmiik.wav,0,audio-button-response,113,980281,0.0-5.0-0.54,,,,
,,,,,,,,,,
4493,,"{""P0_Q0"":1}",survey,114,984779,0.0-5.0-1.54,[],,,
,,,,,,,,,,
791,TestRecordings/suntem.wav,0,audio-button-response,115,985576,0.0-5.0-0.55,,,,
,,,,,,,,,,
1682,,"{""P0_Q0"":2}",survey,116,987267,0.0-5.0-1.55,[],,,
,,,,,,,,,,
1134,TestRecordings/drakpum.wav,0,audio-button-response,117,988408,0.0-5.0-0.56,,,,
,,,,,,,,,,
1621,,"{""P0_Q0"":2}",survey,118,990035,0.0-5.0-1.56,[],,,
,,,,,,,,,,
943,TestRecordings/tisbeng.wav,0,audio-button-response,119,990984,0.0-5.0-0.57,,,,
,,,,,,,,,,
2509,,"{""P0_Q0"":1}",survey,120,993499,0.0-5.0-1.57,[],,,
,,,,,,,,,,
807,TestRecordings/dmut.wav,0,audio-button-response,121,994312,0.0-5.0-0.58,,,,
,,,,,,,,,,
1851,,"{""P0_Q0"":1}",survey,122,996170,0.0-5.0-1.58,[],,,
,,,,,,,,,,
782,TestRecordings/bepgik.wav,0,audio-button-response,123,996960,0.0-5.0-0.59,,,,
,,,,,,,,,,
2268,,"{""P0_Q0"":2}",survey,124,999234,0.0-5.0-1.59,[],,,
,,,,,,,,,,
7958,, ,html-keyboard-response,125,1007193,0.0-6.0,,,,
,,,,,,,,,,
53524,,"{""P0_Q0"":""21"",""P0_Q1"":""Female"",""P0_Q2"":""Yes"",""P0_Q3"":""Spanish"",""P0_Q4"":""age 13, 5 years"",""P0_Q5"":""Classroom setting, don't know the language super well""}",survey,126,1060730,0.0-7.0,[],,,
,,,,,,,,,,
469981,"<p style=""font-size:30px"">The experiment has ended</p><p style=""font-size:30px"",lang=""ko"">Thanks for participating in it!</p>", ,html-keyboard-response,127,1530696,0.0-8.0,,,,