rt,stimulus,response,trial_type,trial_index,time_elapsed,internal_node_id,accuracy,PracticeTest,ConsonantSequence,Grammaticality
,,,,,,,,,,
841972,"<p style=""font-size:30px"">Welcome to the experiment</p><p>Press spacebar to continue</p>", ,html-keyboard-response,0,841942,0.0-0.0,,,,
,,,,,,,,,,
3444,"<p style=""font-size:30px"">Please ensure that your headphones are on correctly</p><p>Press spacebar to continue</p>", ,html-keyboard-response,1,845389,0.0-1.0,,,,
,,,,,,,,,,
7248,"<p style=""font-size:30px"">In this experiment, you will listen to nonsense words</p><p style=""font-size:30px"",lang=""ko"">Your task is to rate the nonsense word you heard as a possible word of American English</p><p>Press spacebar to continue</p>", ,html-keyboard-response,2,852637,0.0-2.0,,,,
,,,,,,,,,,
2055,, ,html-keyboard-response,3,854692,0.0-3.0,,,,
,,,,,,,,,,
5440,"<p style=""font-size:30px"">Now let's move on to the actual experiment.</p><p style=""font-size:30px"",lang=""ko"">During the experiment, you will hear each of the nonce words only once.</p><p>Press spacebar to continue</p>", ,html-keyboard-response,4,860132,0.0-4.0,,,,
,,,,,,,,,,
5413,TestRecordings/pundes.wav,0,audio-button-response,5,865555,0.0-5.0-0.0,,,,
,,,,,,,,,,
10097,,"{""P0_Q0"":2}",survey,6,875689,0.0-5.0-1.0,[],,,
,,,,,,,,,,
3642,TestRecordings/pmiik.wav,0,audio-button-response,7,879338,0.0-5.0-0.1,,,,
,,,,,,,,,,
2749,,"{""P0_Q0"":1}",survey,8,882102,0.0-5.0-1.1,[],,,
,,,,,,,,,,
1717,TestRecordings/nutbim.wav,0,audio-button-response,9,883826,0.0-5.0-0.2,,,,
,,,,,,,,,,
3170,,"{""P0_Q0"":2}",survey,10,887007,0.0-5.0-1.2,[],,,
,,,,,,,,,,
1742,TestRecordings/pmeit.wav,0,audio-button-response,11,888754,0.0-5.0-0.3,,,,
,,,,,,,,,,
1857,,"{""P0_Q0"":3}",survey,12,890621,0.0-5.0-1.3,[],,,
,,,,,,,,,,
1411,TestRecordings/paim.wav,0,audio-button-response,13,892042,0.0-5.0-0.4,,,,
,,,,,,,,,,
4155,,"{""P0_Q0"":4}",survey,14,896205,0.0-5.0-1.4,[],,,
,,,,,,,,,,
1448,TestRecordings/dmut.wav,0,audio-button-response,15,897658,0.0-5.0-0.5,,,,
,,,,,,,,,,
3858,,"{""P0_Q0"":3}",survey,16,901524,0.0-5.0-1.5,[],,,
,,,,,,,,,,
1352,TestRecordings/gatkun.wav,0,audio-button-response,17,902881,0.0-5.0-0.6,,,,
,,,,,,,,,,
2587,,"{""P0_Q0"":1}",survey,18,905476,0.0-5.0-1.6,[],,,
,,,,,,,,,,
1375,TestRecordings/mepgut.wav,0,audio-button-response,19,906858,0.0-5.0-0.7,,,,
,,,,,,,,,,
3050,,"{""P0_Q0"":2}",survey,20,909915,0.0-5.0-1.7,[],,,
,,,,,,,,,,
1039,TestRecordings/tlasdung.wav,0,audio-button-response,21,910961,0.0-5.0-0.8,,,,
,,,,,,,,,,
2075,,"{""P0_Q0"":5}",survey,22,913044,0.0-5.0-1.8,[],,,
,,,,,,,,,,
1007,TestRecordings/tlepgim.wav,0,audio-button-response,23,914057,0.0-5.0-0.9,,,,
,,,,,,,,,,
2220,,"{""P0_Q0"":5}",survey,24,916284,0.0-5.0-1.9,[],,,
,,,,,,,,,,
1039,TestRecordings/tlemkun.wav,0,audio-button-response,25,917329,0.0-5.0-0.10,,,,
,,,,,,,,,,
3799,,"{""P0_Q0"":2}",survey,26,921140,0.0-5.0-1.10,[],,,
,,,,,,,,,,
888,TestRecordings/ndeip.wav,0,audio-button-response,27,922033,0.0-5.0-0.11,,,,
,,,,,,,,,,
2909,,"{""P0_Q0"":4}",survey,28,924947,0.0-5.0-1.11,[],,,
,,,,,,,,,,
863,TestRecordings/kmaut.wav,0,audio-button-response,29,925816,0.0-5.0-0.12,,,,
,,,,,,,,,,
2029,,"{""P0_Q0"":3}",survey,30,927851,0.0-5.0-1.12,[],,,
,,,,,,,,,,
968,TestRecordings/nangdup.wav,0,audio-button-response,31,928825,0.0-5.0-0.13,,,,
,,,,,,,,,,
2348,,"{""P0_Q0"":1}",survey,32,931178,0.0-5.0-1.13,[],,,
,,,,,,,,,,
896,TestRecordings/kutpim.wav,0,audio-button-response,33,932080,0.0-5.0-0.14,,,,
,,,,,,,,,,
2601,,"{""P0_Q0"":2}",survey,34,934691,0.0-5.0-1.14,[],,,
,,,,,,,,,,
879,TestRecordings/tep.wav,0,audio-button-response,35,935575,0.0-5.0-0.15,,,,
,,,,,,,,,,
4245,,"{""P0_Q0"":5}",survey,36,939827,0.0-5.0-1.15,[],,,
,,,,,,,,,,
895,TestRecordings/tlik.wav,0,audio-button-response,37,940728,0.0-5.0-0.16,,,,
,,,,,,,,,,
2379,,"{""P0_Q0"":5}",survey,38,943114,0.0-5.0-1.16,[],,,
,,,,,,,,,,
832,TestRecordings/dloun.wav,0,audio-button-response,39,943951,0.0-5.0-0.17,,,,
,,,,,,,,,,
2101,,"{""P0_Q0"":3}",survey,40,946058,0.0-5.0-1.17,[],,,
,,,,,,,,,,
1000,TestRecordings/bepgik.wav,0,audio-button-response,41,947064,0.0-5.0-0.18,,,,
,,,,,,,,,,
3893,,"{""P0_Q0"":4}",survey,42,950962,0.0-5.0-1.18,[],,,
,,,,,,,,,,
1303,TestRecordings/dlemkus.wav,0,audio-button-response,43,952271,0.0-5.0-0.19,,,,
,,,,,,,,,,
2652,,"{""P0_Q0"":4}",survey,44,954930,0.0-5.0-1.19,[],,,
,,,,,,,,,,
1040,TestRecordings/twas.wav,0,audio-button-response,45,955976,0.0-5.0-0.20,,,,
,,,,,,,,,,
2179,,"{""P0_Q0"":5}",survey,46,958161,0.0-5.0-1.20,[],,,
,,,,,,,,,,
918,TestRecordings/stuun.wav,0,audio-button-response,47,959087,0.0-5.0-0.21,,,,
,,,,,,,,,,
1858,,"{""P0_Q0"":5}",survey,48,960954,0.0-5.0-1.21,[],,,
,,,,,,,,,,
967,TestRecordings/mkait.wav,0,audio-button-response,49,961927,0.0-5.0-0.22,,,,
,,,,,,,,,,
2389,,"{""P0_Q0"":2}",survey,50,964321,0.0-5.0-1.22,[],,,
,,,,,,,,,,
968,TestRecordings/dlisbep.wav,0,audio-button-response,51,965295,0.0-5.0-0.23,,,,
,,,,,,,,,,
3117,,"{""P0_Q0"":2}",survey,52,968417,0.0-5.0-1.23,[],,,
,,,,,,,,,,
976,TestRecordings/pemdut.wav,0,audio-button-response,53,969399,0.0-5.0-0.24,,,,
,,,,,,,,,,
1821,,"{""P0_Q0"":4}",survey,54,971225,0.0-5.0-1.24,[],,,
,,,,,,,,,,
1288,TestRecordings/trahm.wav,0,audio-button-response,55,972519,0.0-5.0-0.25,,,,
,,,,,,,,,,
2060,,"{""P0_Q0"":5}",survey,56,974585,0.0-5.0-1.25,[],,,
,,,,,,,,,,
881,TestRecordings/punseng.wav,0,audio-button-response,57,975470,0.0-5.0-0.26,,,,
,,,,,,,,,,
3684,,"{""P0_Q0"":2}",survey,58,979161,0.0-5.0-1.26,[],,,
,,,,,,,,,,
961,TestRecordings/dlahm.wav,0,audio-button-response,59,980126,0.0-5.0-0.27,,,,
,,,,,,,,,,
1685,,"{""P0_Q0"":4}",survey,60,981817,0.0-5.0-1.27,[],,,
,,,,,,,,,,
935,TestRecordings/tisbeng.wav,0,audio-button-response,61,982758,0.0-5.0-0.28,,,,
,,,,,,,,,,
3157,,"{""P0_Q0"":3}",survey,62,985921,0.0-5.0-1.28,[],,,
,,,,,,,,,,
824,TestRecordings/trindes.wav,0,audio-button-response,63,986750,0.0-5.0-0.29,,,,
,,,,,,,,,,
1708,,"{""P0_Q0"":6}",survey,64,988464,0.0-5.0-1.29,[],,,
,,,,,,,,,,
800,TestRecordings/bem.wav,0,audio-button-response,65,989269,0.0-5.0-0.30,,,,
,,,,,,,,,,
2484,,"{""P0_Q0"":4}",survey,66,991760,0.0-5.0-1.30,[],,,
,,,,,,,,,,
863,TestRecordings/drumbeng.wav,0,audio-button-response,67,992629,0.0-5.0-0.31,,,,
,,,,,,,,,,
3394,,"{""P0_Q0"":4}",survey,68,996032,0.0-5.0-1.31,[],,,
,,,,,,,,,,
1072,TestRecordings/gistum.wav,0,audio-button-response,69,997109,0.0-5.0-0.32,,,,
,,,,,,,,,,
5109,,"{""P0_Q0"":5}",survey,70,1002224,0.0-5.0-1.32,[],,,
,,,,,,,,,,
806,TestRecordings/ntek.wav,0,audio-button-response,71,1003038,0.0-5.0-0.33,,,,
,,,,,,,,,,
2740,,"{""P0_Q0"":1}",survey,72,1005784,0.0-5.0-1.33,[],,,
,,,,,,,,,,
976,TestRecordings/drantung.wav,0,audio-button-response,73,1006765,0.0-5.0-0.34,,,,
,,,,,,,,,,
3291,,"{""P0_Q0"":5}",survey,74,1010063,0.0-5.0-1.34,[],,,
,,,,,,,,,,
848,TestRecordings/skain.wav,0,audio-button-response,75,1010917,0.0-5.0-0.35,,,,
,,,,,,,,,,
3404,,"{""P0_Q0"":6}",survey,76,1014327,0.0-5.0-1.35,[],,,
,,,,,,,,,,
824,TestRecordings/drustet.wav,0,audio-button-response,77,1015157,0.0-5.0-0.36,,,,
,,,,,,,,,,
2005,,"{""P0_Q0"":2}",survey,78,1017167,0.0-5.0-1.36,[],,,
,,,,,,,,,,
816,TestRecordings/tlem.wav,0,audio-button-response,79,1017988,0.0-5.0-0.37,,,,
,,,,,,,,,,
1916,,"{""P0_Q0"":3}",survey,80,1019911,0.0-5.0-1.37,[],,,
,,,,,,,,,,
1239,TestRecordings/tlumgak.wav,0,audio-button-response,81,1021157,0.0-5.0-0.38,,,,
,,,,,,,,,,
2661,,"{""P0_Q0"":2}",survey,82,1023823,0.0-5.0-1.38,[],,,
,,,,,,,,,,
865,TestRecordings/pwuk.wav,0,audio-button-response,83,1024692,0.0-5.0-0.39,,,,
,,,,,,,,,,
2606,,"{""P0_Q0"":3}",survey,84,1027304,0.0-5.0-1.39,[],,,
,,,,,,,,,,
974,TestRecordings/gup.wav,0,audio-button-response,85,1028284,0.0-5.0-0.40,,,,
,,,,,,,,,,
2254,,"{""P0_Q0"":4}",survey,86,1030545,0.0-5.0-1.40,[],,,
,,,,,,,,,,
1791,TestRecordings/sengdun.wav,0,audio-button-response,87,1032340,0.0-5.0-0.41,,,,
,,,,,,,,,,
2819,,"{""P0_Q0"":5}",survey,88,1035167,0.0-5.0-1.41,[],,,
,,,,,,,,,,
832,TestRecordings/pwam.wav,0,audio-button-response,89,1036004,0.0-5.0-0.42,,,,
,,,,,,,,,,
2943,,"{""P0_Q0"":4}",survey,90,1038952,0.0-5.0-1.42,[],,,
,,,,,,,,,,
804,TestRecordings/drain.wav,0,audio-button-response,91,1039764,0.0-5.0-0.43,,,,
,,,,,,,,,,
2004,,"{""P0_Q0"":6}",survey,92,1041774,0.0-5.0-1.43,[],,,
,,,,,,,,,,
825,TestRecordings/giit.wav,0,audio-button-response,93,1042603,0.0-5.0-0.44,,,,
,,,,,,,,,,
2348,,"{""P0_Q0"":4}",survey,94,1044958,0.0-5.0-1.44,[],,,
,,,,,,,,,,
863,TestRecordings/gitpes.wav,0,audio-button-response,95,1045827,0.0-5.0-0.45,,,,
,,,,,,,,,,
6181,,"{""P0_Q0"":4}",survey,96,1052015,0.0-5.0-1.45,[],,,
,,,,,,,,,,
872,TestRecordings/stahm.wav,0,audio-button-response,97,1052891,0.0-5.0-0.46,,,,
,,,,,,,,,,
3525,,"{""P0_Q0"":5}",survey,98,1056422,0.0-5.0-1.46,[],,,
,,,,,,,,,,
969,TestRecordings/stauk.wav,0,audio-button-response,99,1057395,0.0-5.0-0.47,,,,
,,,,,,,,,,
2036,,"{""P0_Q0"":5}",survey,100,1059437,0.0-5.0-1.47,[],,,
,,,,,,,,,,
1336,TestRecordings/drikteng.wav,0,audio-button-response,101,1060779,0.0-5.0-0.48,,,,
,,,,,,,,,,
2189,,"{""P0_Q0"":2}",survey,102,1062974,0.0-5.0-1.48,[],,,
,,,,,,,,,,
984,TestRecordings/drakpum.wav,0,audio-button-response,103,1063971,0.0-5.0-0.49,,,,
,,,,,,,,,,
1956,,"{""P0_Q0"":2}",survey,104,1065934,0.0-5.0-1.49,[],,,
,,,,,,,,,,
959,TestRecordings/tloum.wav,0,audio-button-response,105,1066899,0.0-5.0-0.50,,,,
,,,,,,,,,,
2340,,"{""P0_Q0"":1}",survey,106,1069246,0.0-5.0-1.50,[],,,
,,,,,,,,,,
789,TestRecordings/mgit.wav,0,audio-button-response,107,1070042,0.0-5.0-0.51,,,,
,,,,,,,,,,
1748,,"{""P0_Q0"":1}",survey,108,1071797,0.0-5.0-1.51,[],,,
,,,,,,,,,,
950,TestRecordings/suntem.wav,0,audio-button-response,109,1072754,0.0-5.0-0.52,,,,
,,,,,,,,,,
2853,,"{""P0_Q0"":2}",survey,110,1075612,0.0-5.0-1.52,[],,,
,,,,,,,,,,
936,TestRecordings/nboup.wav,0,audio-button-response,111,1076554,0.0-5.0-0.53,,,,
,,,,,,,,,,
1804,,"{""P0_Q0"":1}",survey,112,1078364,0.0-5.0-1.53,[],,,
,,,,,,,,,,
975,TestRecordings/ningpum.wav,0,audio-button-response,113,1079347,0.0-5.0-0.54,,,,
,,,,,,,,,,
1784,,"{""P0_Q0"":2}",survey,114,1081140,0.0-5.0-1.54,[],,,
,,,,,,,,,,
1111,TestRecordings/tempuk.wav,0,audio-button-response,115,1082258,0.0-5.0-0.55,,,,
,,,,,,,,,,
2868,,"{""P0_Q0"":4}",survey,116,1085133,0.0-5.0-1.55,[],,,
,,,,,,,,,,
840,TestRecordings/kmeip.wav,0,audio-button-response,117,1085978,0.0-5.0-0.56,,,,
,,,,,,,,,,
1971,,"{""P0_Q0"":2}",survey,118,1087955,0.0-5.0-1.56,[],,,
,,,,,,,,,,
887,TestRecordings/twen.wav,0,audio-button-response,119,1088850,0.0-5.0-0.57,,,,
,,,,,,,,,,
1741,,"{""P0_Q0"":6}",survey,120,1090613,0.0-5.0-1.57,[],,,
,,,,,,,,,,
1741,TestRecordings/tlipgat.wav,0,audio-button-response,121,1092362,0.0-5.0-0.58,,,,
,,,,,,,,,,
1784,,"{""P0_Q0"":4}",survey,122,1094175,0.0-5.0-1.58,[],,,
,,,,,,,,,,
1099,TestRecordings/gipsus.wav,0,audio-button-response,123,1095281,0.0-5.0-0.59,,,,
,,,,,,,,,,
1816,,"{""P0_Q0"":4}",survey,124,1097110,0.0-5.0-1.59,[],,,
,,,,,,,,,,
5411,, ,html-keyboard-response,125,1102522,0.0-6.0,,,,
,,,,,,,,,,
60874,,"{""P0_Q0"":""28"",""P0_Q1"":""female"",""P0_Q2"":""yes"",""P0_Q3"":""German"",""P0_Q4"":""I learned German for 3 years beginning at 14 years old"",""P0_Q5"":""I took high school German for 3 years and then lived in Germay for a year""}",survey,126,1163415,0.0-7.0,[],,,
,,,,,,,,,,
72888,"<p style=""font-size:30px"">The experiment has ended</p><p style=""font-size:30px"",lang=""ko"">Thanks for participating in it!</p>", ,html-keyboard-response,127,1236302,0.0-8.0,,,,