rt,stimulus,response,trial_type,trial_index,time_elapsed,internal_node_id,accuracy,PracticeTest,ConsonantSequence,Grammaticality
,,,,,,,,,,
1321384,"<p style=""font-size:30px"">Welcome to the experiment</p><p>Press spacebar to continue</p>", ,html-keyboard-response,0,1321341,0.0-0.0,,,,
,,,,,,,,,,
1562,"<p style=""font-size:30px"">Please ensure that your headphones are on correctly</p><p>Press spacebar to continue</p>", ,html-keyboard-response,1,1322903,0.0-1.0,,,,
,,,,,,,,,,
4900,"<p style=""font-size:30px"">In this experiment, you will listen to nonsense words</p><p style=""font-size:30px"",lang=""ko"">Your task is to rate the nonsense word you heard as a possible word of American English</p><p>Press spacebar to continue</p>", ,html-keyboard-response,2,1327804,0.0-2.0,,,,
,,,,,,,,,,
1216,, ,html-keyboard-response,3,1329021,0.0-3.0,,,,
,,,,,,,,,,
3360,"<p style=""font-size:30px"">Now let's move on to the actual experiment.</p><p style=""font-size:30px"",lang=""ko"">During the experiment, you will hear each of the nonce words only once.</p><p>Press spacebar to continue</p>", ,html-keyboard-response,4,1332380,0.0-4.0,,,,
,,,,,,,,,,
5722,TestRecordings/pmeit.wav,0,audio-button-response,5,1338428,0.0-5.0-0.0,,,,
,,,,,,,,,,
17021,,"{""P0_Q0"":4}",survey,6,1355495,0.0-5.0-1.0,[],,,
,,,,,,,,,,
1962,TestRecordings/tlemkun.wav,0,audio-button-response,7,1357466,0.0-5.0-0.1,,,,
,,,,,,,,,,
3485,,"{""P0_Q0"":1}",survey,8,1360966,0.0-5.0-1.1,[],,,
,,,,,,,,,,
1612,TestRecordings/drain.wav,0,audio-button-response,9,1362587,0.0-5.0-0.2,,,,
,,,,,,,,,,
5145,,"{""P0_Q0"":4}",survey,10,1367742,0.0-5.0-1.2,[],,,
,,,,,,,,,,
1163,TestRecordings/gatkun.wav,0,audio-button-response,11,1368914,0.0-5.0-0.3,,,,
,,,,,,,,,,
2202,,"{""P0_Q0"":2}",survey,12,1371125,0.0-5.0-1.3,[],,,
,,,,,,,,,,
1035,TestRecordings/drustet.wav,0,audio-button-response,13,1372170,0.0-5.0-0.4,,,,
,,,,,,,,,,
2082,,"{""P0_Q0"":3}",survey,14,1374261,0.0-5.0-1.4,[],,,
,,,,,,,,,,
1122,TestRecordings/stuun.wav,0,audio-button-response,15,1375394,0.0-5.0-0.5,,,,
,,,,,,,,,,
3400,,"{""P0_Q0"":4}",survey,16,1378805,0.0-5.0-1.5,[],,,
,,,,,,,,,,
940,TestRecordings/nutbim.wav,0,audio-button-response,17,1379754,0.0-5.0-0.6,,,,
,,,,,,,,,,
5419,,"{""P0_Q0"":4}",survey,18,1385181,0.0-5.0-1.6,[],,,
,,,,,,,,,,
1333,TestRecordings/gistum.wav,0,audio-button-response,19,1386521,0.0-5.0-0.7,,,,
,,,,,,,,,,
2482,,"{""P0_Q0"":3}",survey,20,1389012,0.0-5.0-1.7,[],,,
,,,,,,,,,,
1091,TestRecordings/nangdup.wav,0,audio-button-response,21,1390114,0.0-5.0-0.8,,,,
,,,,,,,,,,
2044,,"{""P0_Q0"":1}",survey,22,1392165,0.0-5.0-1.8,[],,,
,,,,,,,,,,
1044,TestRecordings/pundes.wav,0,audio-button-response,23,1393217,0.0-5.0-0.9,,,,
,,,,,,,,,,
1704,,"{""P0_Q0"":4}",survey,24,1394932,0.0-5.0-1.9,[],,,
,,,,,,,,,,
771,TestRecordings/tlem.wav,0,audio-button-response,25,1395713,0.0-5.0-0.10,,,,
,,,,,,,,,,
2794,,"{""P0_Q0"":7}",survey,26,1398516,0.0-5.0-1.10,[],,,
,,,,,,,,,,
931,TestRecordings/dlahm.wav,0,audio-button-response,27,1399457,0.0-5.0-0.11,,,,
,,,,,,,,,,
2316,,"{""P0_Q0"":7}",survey,28,1401779,0.0-5.0-1.11,[],,,
,,,,,,,,,,
965,TestRecordings/punseng.wav,0,audio-button-response,29,1402752,0.0-5.0-0.12,,,,
,,,,,,,,,,
1826,,"{""P0_Q0"":3}",survey,30,1404587,0.0-5.0-1.12,[],,,
,,,,,,,,,,
814,TestRecordings/gipsus.wav,0,audio-button-response,31,1405408,0.0-5.0-0.13,,,,
,,,,,,,,,,
7557,,"{""P0_Q0"":5}",survey,32,1412971,0.0-5.0-1.13,[],,,
,,,,,,,,,,
924,TestRecordings/twen.wav,0,audio-button-response,33,1413904,0.0-5.0-0.14,,,,
,,,,,,,,,,
1931,,"{""P0_Q0"":7}",survey,34,1415842,0.0-5.0-1.14,[],,,
,,,,,,,,,,
740,TestRecordings/tlepgim.wav,0,audio-button-response,35,1416592,0.0-5.0-0.15,,,,
,,,,,,,,,,
2275,,"{""P0_Q0"":3}",survey,36,1418874,0.0-5.0-1.15,[],,,
,,,,,,,,,,
1268,TestRecordings/giit.wav,0,audio-button-response,37,1420152,0.0-5.0-0.16,,,,
,,,,,,,,,,
1738,,"{""P0_Q0"":5}",survey,38,1421898,0.0-5.0-1.16,[],,,
,,,,,,,,,,
1069,TestRecordings/gitpes.wav,0,audio-button-response,39,1422976,0.0-5.0-0.17,,,,
,,,,,,,,,,
1573,,"{""P0_Q0"":1}",survey,40,1424555,0.0-5.0-1.17,[],,,
,,,,,,,,,,
805,TestRecordings/dmut.wav,0,audio-button-response,41,1425368,0.0-5.0-0.18,,,,
,,,,,,,,,,
2399,,"{""P0_Q0"":2}",survey,42,1427778,0.0-5.0-1.18,[],,,
,,,,,,,,,,
814,TestRecordings/mkait.wav,0,audio-button-response,43,1428600,0.0-5.0-0.19,,,,
,,,,,,,,,,
2674,,"{""P0_Q0"":3}",survey,44,1431282,0.0-5.0-1.19,[],,,
,,,,,,,,,,
788,TestRecordings/tloum.wav,0,audio-button-response,45,1432080,0.0-5.0-0.20,,,,
,,,,,,,,,,
1772,,"{""P0_Q0"":7}",survey,46,1433858,0.0-5.0-1.20,[],,,
,,,,,,,,,,
1019,TestRecordings/drakpum.wav,0,audio-button-response,47,1434888,0.0-5.0-0.21,,,,
,,,,,,,,,,
4676,,"{""P0_Q0"":2}",survey,48,1439570,0.0-5.0-1.21,[],,,
,,,,,,,,,,
749,TestRecordings/pwuk.wav,0,audio-button-response,49,1440328,0.0-5.0-0.22,,,,
,,,,,,,,,,
3364,,"{""P0_Q0"":7}",survey,50,1443698,0.0-5.0-1.22,[],,,
,,,,,,,,,,
1157,TestRecordings/drantung.wav,0,audio-button-response,51,1444863,0.0-5.0-0.23,,,,
,,,,,,,,,,
2893,,"{""P0_Q0"":2}",survey,52,1447762,0.0-5.0-1.23,[],,,
,,,,,,,,,,
909,TestRecordings/kmeip.wav,0,audio-button-response,53,1448679,0.0-5.0-0.24,,,,
,,,,,,,,,,
4253,,"{""P0_Q0"":4}",survey,54,1452938,0.0-5.0-1.24,[],,,
,,,,,,,,,,
876,TestRecordings/suntem.wav,0,audio-button-response,55,1453822,0.0-5.0-0.25,,,,
,,,,,,,,,,
2916,,"{""P0_Q0"":1}",survey,56,1456745,0.0-5.0-1.25,[],,,
,,,,,,,,,,
1550,TestRecordings/mgit.wav,0,audio-button-response,57,1458302,0.0-5.0-0.26,,,,
,,,,,,,,,,
1578,,"{""P0_Q0"":5}",survey,58,1459889,0.0-5.0-1.26,[],,,
,,,,,,,,,,
902,TestRecordings/gup.wav,0,audio-button-response,59,1460798,0.0-5.0-0.27,,,,
,,,,,,,,,,
3076,,"{""P0_Q0"":7}",survey,60,1463881,0.0-5.0-1.27,[],,,
,,,,,,,,,,
1028,TestRecordings/drumbeng.wav,0,audio-button-response,61,1464919,0.0-5.0-0.28,,,,
,,,,,,,,,,
2931,,"{""P0_Q0"":5}",survey,62,1467856,0.0-5.0-1.28,[],,,
,,,,,,,,,,
1140,TestRecordings/paim.wav,0,audio-button-response,63,1469006,0.0-5.0-0.29,,,,
,,,,,,,,,,
1596,,"{""P0_Q0"":6}",survey,64,1470608,0.0-5.0-1.29,[],,,
,,,,,,,,,,
703,TestRecordings/pemdut.wav,0,audio-button-response,65,1471318,0.0-5.0-0.30,,,,
,,,,,,,,,,
2908,,"{""P0_Q0"":4}",survey,66,1474232,0.0-5.0-1.30,[],,,
,,,,,,,,,,
1124,TestRecordings/tlumgak.wav,0,audio-button-response,67,1475366,0.0-5.0-0.31,,,,
,,,,,,,,,,
1652,,"{""P0_Q0"":1}",survey,68,1477025,0.0-5.0-1.31,[],,,
,,,,,,,,,,
1085,TestRecordings/tlasdung.wav,0,audio-button-response,69,1478118,0.0-5.0-0.32,,,,
,,,,,,,,,,
2959,,"{""P0_Q0"":3}",survey,70,1481083,0.0-5.0-1.32,[],,,
,,,,,,,,,,
1322,TestRecordings/sengdun.wav,0,audio-button-response,71,1482414,0.0-5.0-0.33,,,,
,,,,,,,,,,
2428,,"{""P0_Q0"":2}",survey,72,1484847,0.0-5.0-1.33,[],,,
,,,,,,,,,,
1227,TestRecordings/dloun.wav,0,audio-button-response,73,1486086,0.0-5.0-0.34,,,,
,,,,,,,,,,
1883,,"{""P0_Q0"":6}",survey,74,1487976,0.0-5.0-1.34,[],,,
,,,,,,,,,,
974,TestRecordings/skain.wav,0,audio-button-response,75,1488958,0.0-5.0-0.35,,,,
,,,,,,,,,,
1398,,"{""P0_Q0"":6}",survey,76,1490359,0.0-5.0-1.35,[],,,
,,,,,,,,,,
734,TestRecordings/ndeip.wav,0,audio-button-response,77,1491101,0.0-5.0-0.36,,,,
,,,,,,,,,,
2339,,"{""P0_Q0"":2}",survey,78,1493447,0.0-5.0-1.36,[],,,
,,,,,,,,,,
765,TestRecordings/bem.wav,0,audio-button-response,79,1494221,0.0-5.0-0.37,,,,
,,,,,,,,,,
2132,,"{""P0_Q0"":5}",survey,80,1496360,0.0-5.0-1.37,[],,,
,,,,,,,,,,
646,TestRecordings/ningpum.wav,0,audio-button-response,81,1497013,0.0-5.0-0.38,,,,
,,,,,,,,,,
1724,,"{""P0_Q0"":2}",survey,82,1498744,0.0-5.0-1.38,[],,,
,,,,,,,,,,
1052,TestRecordings/nboup.wav,0,audio-button-response,83,1499805,0.0-5.0-0.39,,,,
,,,,,,,,,,
1516,,"{""P0_Q0"":6}",survey,84,1501327,0.0-5.0-1.39,[],,,
,,,,,,,,,,
717,TestRecordings/tlipgat.wav,0,audio-button-response,85,1502052,0.0-5.0-0.40,,,,
,,,,,,,,,,
1499,,"{""P0_Q0"":1}",survey,86,1503559,0.0-5.0-1.40,[],,,
,,,,,,,,,,
672,TestRecordings/kmaut.wav,0,audio-button-response,87,1504238,0.0-5.0-0.41,,,,
,,,,,,,,,,
2001,,"{""P0_Q0"":3}",survey,88,1506247,0.0-5.0-1.41,[],,,
,,,,,,,,,,
701,TestRecordings/twas.wav,0,audio-button-response,89,1506956,0.0-5.0-0.42,,,,
,,,,,,,,,,
1987,,"{""P0_Q0"":7}",survey,90,1508951,0.0-5.0-1.42,[],,,
,,,,,,,,,,
877,TestRecordings/tep.wav,0,audio-button-response,91,1509836,0.0-5.0-0.43,,,,
,,,,,,,,,,
1549,,"{""P0_Q0"":7}",survey,92,1511391,0.0-5.0-1.43,[],,,
,,,,,,,,,,
996,TestRecordings/dlisbep.wav,0,audio-button-response,93,1512397,0.0-5.0-0.44,,,,
,,,,,,,,,,
1613,,"{""P0_Q0"":4}",survey,94,1514015,0.0-5.0-1.44,[],,,
,,,,,,,,,,
1316,TestRecordings/pwam.wav,0,audio-button-response,95,1515340,0.0-5.0-0.45,,,,
,,,,,,,,,,
3414,,"{""P0_Q0"":6}",survey,96,1518759,0.0-5.0-1.45,[],,,
,,,,,,,,,,
1310,TestRecordings/dlemkus.wav,0,audio-button-response,97,1520076,0.0-5.0-0.46,,,,
,,,,,,,,,,
2677,,"{""P0_Q0"":3}",survey,98,1522759,0.0-5.0-1.46,[],,,
,,,,,,,,,,
1052,TestRecordings/stahm.wav,0,audio-button-response,99,1523820,0.0-5.0-0.47,,,,
,,,,,,,,,,
3429,,"{""P0_Q0"":7}",survey,100,1527255,0.0-5.0-1.47,[],,,
,,,,,,,,,,
1020,TestRecordings/trindes.wav,0,audio-button-response,101,1528283,0.0-5.0-0.48,,,,
,,,,,,,,,,
3099,,"{""P0_Q0"":2}",survey,102,1531390,0.0-5.0-1.48,[],,,
,,,,,,,,,,
1014,TestRecordings/mepgut.wav,0,audio-button-response,103,1532412,0.0-5.0-0.49,,,,
,,,,,,,,,,
2018,,"{""P0_Q0"":1}",survey,104,1534438,0.0-5.0-1.49,[],,,
,,,,,,,,,,
685,TestRecordings/tisbeng.wav,0,audio-button-response,105,1535132,0.0-5.0-0.50,,,,
,,,,,,,,,,
2221,,"{""P0_Q0"":2}",survey,106,1537359,0.0-5.0-1.50,[],,,
,,,,,,,,,,
733,TestRecordings/pmiik.wav,0,audio-button-response,107,1538099,0.0-5.0-0.51,,,,
,,,,,,,,,,
3004,,"{""P0_Q0"":3}",survey,108,1541110,0.0-5.0-1.51,[],,,
,,,,,,,,,,
1046,TestRecordings/drikteng.wav,0,audio-button-response,109,1542163,0.0-5.0-0.52,,,,
,,,,,,,,,,
2782,,"{""P0_Q0"":1}",survey,110,1544952,0.0-5.0-1.52,[],,,
,,,,,,,,,,
923,TestRecordings/stauk.wav,0,audio-button-response,111,1545883,0.0-5.0-0.53,,,,
,,,,,,,,,,
2052,,"{""P0_Q0"":7}",survey,112,1547942,0.0-5.0-1.53,[],,,
,,,,,,,,,,
836,TestRecordings/ntek.wav,0,audio-button-response,113,1548787,0.0-5.0-0.54,,,,
,,,,,,,,,,
4540,,"{""P0_Q0"":4}",survey,114,1553334,0.0-5.0-1.54,[],,,
,,,,,,,,,,
813,TestRecordings/tempuk.wav,0,audio-button-response,115,1554155,0.0-5.0-0.55,,,,
,,,,,,,,,,
6579,,"{""P0_Q0"":2}",survey,116,1560741,0.0-5.0-1.55,[],,,
,,,,,,,,,,
964,TestRecordings/kutpim.wav,0,audio-button-response,117,1561714,0.0-5.0-0.56,,,,
,,,,,,,,,,
1880,,"{""P0_Q0"":2}",survey,118,1563602,0.0-5.0-1.56,[],,,
,,,,,,,,,,
974,TestRecordings/bepgik.wav,0,audio-button-response,119,1564586,0.0-5.0-0.57,,,,
,,,,,,,,,,
1596,,"{""P0_Q0"":3}",survey,120,1566207,0.0-5.0-1.57,[],,,
,,,,,,,,,,
1318,TestRecordings/tlik.wav,0,audio-button-response,121,1567532,0.0-5.0-0.58,,,,
,,,,,,,,,,
2410,,"{""P0_Q0"":7}",survey,122,1569955,0.0-5.0-1.58,[],,,
,,,,,,,,,,
1269,TestRecordings/trahm.wav,0,audio-button-response,123,1571235,0.0-5.0-0.59,,,,
,,,,,,,,,,
2274,,"{""P0_Q0"":2}",survey,124,1573531,0.0-5.0-1.59,[],,,
,,,,,,,,,,
7654,, ,html-keyboard-response,125,1581187,0.0-6.0,,,,
,,,,,,,,,,
76586,,"{""P0_Q0"":""20"",""P0_Q1"":""female"",""P0_Q2"":""yes"",""P0_Q3"":""none"",""P0_Q4"":""studied chinese all of high school"",""P0_Q5"":""dont know how to speak it""}",survey,126,1657810,0.0-7.0,[],,,
,,,,,,,,,,
271404,"<p style=""font-size:30px"">The experiment has ended</p><p style=""font-size:30px"",lang=""ko"">Thanks for participating in it!</p>", ,html-keyboard-response,127,1929211,0.0-8.0,,,,