rt,stimulus,response,trial_type,trial_index,time_elapsed,internal_node_id,accuracy,PracticeTest,ConsonantSequence,Grammaticality
,,,,,,,,,,
6657700,"<p style=""font-size:30px"">Welcome to the experiment</p><p>Press spacebar to continue</p>", ,html-keyboard-response,0,6657437,0.0-0.0,,,,
,,,,,,,,,,
2719,"<p style=""font-size:30px"">Please ensure that your headphones are on correctly</p><p>Press spacebar to continue</p>", ,html-keyboard-response,1,6660156,0.0-1.0,,,,
,,,,,,,,,,
3307,"<p style=""font-size:30px"">In this experiment, you will listen to nonsense words</p><p style=""font-size:30px"",lang=""ko"">Your task is to rate the nonsense word you heard as a possible word of American English</p><p>Press spacebar to continue</p>", ,html-keyboard-response,2,6663464,0.0-2.0,,,,
,,,,,,,,,,
1862,, ,html-keyboard-response,3,6665328,0.0-3.0,,,,
,,,,,,,,,,
2375,"<p style=""font-size:30px"">Now let's move on to the actual experiment.</p><p style=""font-size:30px"",lang=""ko"">During the experiment, you will hear each of the nonce words only once.</p><p>Press spacebar to continue</p>", ,html-keyboard-response,4,6667704,0.0-4.0,,,,
,,,,,,,,,,
3919,TestRecordings/kmaut.wav,0,audio-button-response,5,6672113,0.0-5.0-0.0,,,,
,,,,,,,,,,
6239,,"{""P0_Q0"":2}",survey,6,6678397,0.0-5.0-1.0,[],,,
,,,,,,,,,,
2641,TestRecordings/tempuk.wav,0,audio-button-response,7,6681047,0.0-5.0-0.1,,,,
,,,,,,,,,,
2775,,"{""P0_Q0"":2}",survey,8,6683835,0.0-5.0-1.1,[],,,
,,,,,,,,,,
2003,TestRecordings/mepgut.wav,0,audio-button-response,9,6685847,0.0-5.0-0.2,,,,
,,,,,,,,,,
2431,,"{""P0_Q0"":2}",survey,10,6688290,0.0-5.0-1.2,[],,,
,,,,,,,,,,
1579,TestRecordings/gipsus.wav,0,audio-button-response,11,6689879,0.0-5.0-0.3,,,,
,,,,,,,,,,
2107,,"{""P0_Q0"":3}",survey,12,6691995,0.0-5.0-1.3,[],,,
,,,,,,,,,,
1787,TestRecordings/pundes.wav,0,audio-button-response,13,6693791,0.0-5.0-0.4,,,,
,,,,,,,,,,
2194,,"{""P0_Q0"":2}",survey,14,6695995,0.0-5.0-1.4,[],,,
,,,,,,,,,,
3250,TestRecordings/tlepgim.wav,0,audio-button-response,15,6699255,0.0-5.0-0.5,,,,
,,,,,,,,,,
2169,,"{""P0_Q0"":2}",survey,16,6701434,0.0-5.0-1.5,[],,,
,,,,,,,,,,
1830,TestRecordings/nangdup.wav,0,audio-button-response,17,6703270,0.0-5.0-0.6,,,,
,,,,,,,,,,
2562,,"{""P0_Q0"":2}",survey,18,6705842,0.0-5.0-1.6,[],,,
,,,,,,,,,,
1476,TestRecordings/dlemkus.wav,0,audio-button-response,19,6707326,0.0-5.0-0.7,,,,
,,,,,,,,,,
2580,,"{""P0_Q0"":2}",survey,20,6709913,0.0-5.0-1.7,[],,,
,,,,,,,,,,
1709,TestRecordings/gistum.wav,0,audio-button-response,21,6711630,0.0-5.0-0.8,,,,
,,,,,,,,,,
2221,,"{""P0_Q0"":2}",survey,22,6713857,0.0-5.0-1.8,[],,,
,,,,,,,,,,
1460,TestRecordings/stahm.wav,0,audio-button-response,23,6715326,0.0-5.0-0.9,,,,
,,,,,,,,,,
1332,,"{""P0_Q0"":3}",survey,24,6716665,0.0-5.0-1.9,[],,,
,,,,,,,,,,
1900,TestRecordings/tisbeng.wav,0,audio-button-response,25,6718574,0.0-5.0-0.10,,,,
,,,,,,,,,,
1786,,"{""P0_Q0"":3}",survey,26,6720369,0.0-5.0-1.10,[],,,
,,,,,,,,,,
1541,TestRecordings/pmiik.wav,0,audio-button-response,27,6721918,0.0-5.0-0.11,,,,
,,,,,,,,,,
2716,,"{""P0_Q0"":3}",survey,28,6724640,0.0-5.0-1.11,[],,,
,,,,,,,,,,
2045,TestRecordings/nboup.wav,0,audio-button-response,29,6726693,0.0-5.0-0.12,,,,
,,,,,,,,,,
3036,,"{""P0_Q0"":4}",survey,30,6729736,0.0-5.0-1.12,[],,,
,,,,,,,,,,
2172,TestRecordings/dmut.wav,0,audio-button-response,31,6731917,0.0-5.0-0.13,,,,
,,,,,,,,,,
1366,,"{""P0_Q0"":3}",survey,32,6733288,0.0-5.0-1.13,[],,,
,,,,,,,,,,
1442,TestRecordings/pwam.wav,0,audio-button-response,33,6734741,0.0-5.0-0.14,,,,
,,,,,,,,,,
1468,,"{""P0_Q0"":2}",survey,34,6736215,0.0-5.0-1.14,[],,,
,,,,,,,,,,
2565,TestRecordings/sengdun.wav,0,audio-button-response,35,6738789,0.0-5.0-0.15,,,,
,,,,,,,,,,
2172,,"{""P0_Q0"":3}",survey,36,6740968,0.0-5.0-1.15,[],,,
,,,,,,,,,,
1685,TestRecordings/gitpes.wav,0,audio-button-response,37,6742661,0.0-5.0-0.16,,,,
,,,,,,,,,,
1788,,"{""P0_Q0"":2}",survey,38,6744455,0.0-5.0-1.16,[],,,
,,,,,,,,,,
1509,TestRecordings/gatkun.wav,0,audio-button-response,39,6745973,0.0-5.0-0.17,,,,
,,,,,,,,,,
1172,,"{""P0_Q0"":2}",survey,40,6747151,0.0-5.0-1.17,[],,,
,,,,,,,,,,
1638,TestRecordings/suntem.wav,0,audio-button-response,41,6748797,0.0-5.0-0.18,,,,
,,,,,,,,,,
4406,,"{""P0_Q0"":2}",survey,42,6753209,0.0-5.0-1.18,[],,,
,,,,,,,,,,
1233,TestRecordings/dloun.wav,0,audio-button-response,43,6754452,0.0-5.0-0.19,,,,
,,,,,,,,,,
2771,,"{""P0_Q0"":4}",survey,44,6757231,0.0-5.0-1.19,[],,,
,,,,,,,,,,
1861,TestRecordings/trahm.wav,0,audio-button-response,45,6759100,0.0-5.0-0.20,,,,
,,,,,,,,,,
5116,,"{""P0_Q0"":5}",survey,46,6764222,0.0-5.0-1.20,[],,,
,,,,,,,,,,
1860,TestRecordings/twas.wav,0,audio-button-response,47,6766091,0.0-5.0-0.21,,,,
,,,,,,,,,,
1324,,"{""P0_Q0"":5}",survey,48,6767422,0.0-5.0-1.21,[],,,
,,,,,,,,,,
1261,TestRecordings/ntek.wav,0,audio-button-response,49,6768692,0.0-5.0-0.22,,,,
,,,,,,,,,,
3269,,"{""P0_Q0"":5}",survey,50,6771966,0.0-5.0-1.22,[],,,
,,,,,,,,,,
1756,TestRecordings/tlasdung.wav,0,audio-button-response,51,6773732,0.0-5.0-0.23,,,,
,,,,,,,,,,
1484,,"{""P0_Q0"":3}",survey,52,6775222,0.0-5.0-1.23,[],,,
,,,,,,,,,,
1461,TestRecordings/tlipgat.wav,0,audio-button-response,53,6776692,0.0-5.0-0.24,,,,
,,,,,,,,,,
1972,,"{""P0_Q0"":3}",survey,54,6778669,0.0-5.0-1.24,[],,,
,,,,,,,,,,
1174,TestRecordings/giit.wav,0,audio-button-response,55,6779851,0.0-5.0-0.25,,,,
,,,,,,,,,,
3908,,"{""P0_Q0"":4}",survey,56,6783766,0.0-5.0-1.25,[],,,
,,,,,,,,,,
1428,TestRecordings/tlem.wav,0,audio-button-response,57,6785203,0.0-5.0-0.26,,,,
,,,,,,,,,,
2053,,"{""P0_Q0"":4}",survey,58,6787262,0.0-5.0-1.26,[],,,
,,,,,,,,,,
2069,TestRecordings/paim.wav,0,audio-button-response,59,6789339,0.0-5.0-0.27,,,,
,,,,,,,,,,
2875,,"{""P0_Q0"":4}",survey,60,6792222,0.0-5.0-1.27,[],,,
,,,,,,,,,,
1605,TestRecordings/tlik.wav,0,audio-button-response,61,6793835,0.0-5.0-0.28,,,,
,,,,,,,,,,
1205,,"{""P0_Q0"":5}",survey,62,6795045,0.0-5.0-1.28,[],,,
,,,,,,,,,,
1725,TestRecordings/bepgik.wav,0,audio-button-response,63,6796779,0.0-5.0-0.29,,,,
,,,,,,,,,,
1402,,"{""P0_Q0"":2}",survey,64,6798189,0.0-5.0-1.29,[],,,
,,,,,,,,,,
3229,TestRecordings/tlumgak.wav,0,audio-button-response,65,6801426,0.0-5.0-0.30,,,,
,,,,,,,,,,
1397,,"{""P0_Q0"":2}",survey,66,6802829,0.0-5.0-1.30,[],,,
,,,,,,,,,,
1157,TestRecordings/dlisbep.wav,0,audio-button-response,67,6803995,0.0-5.0-0.31,,,,
,,,,,,,,,,
1125,,"{""P0_Q0"":2}",survey,68,6805125,0.0-5.0-1.31,[],,,
,,,,,,,,,,
3245,TestRecordings/kutpim.wav,0,audio-button-response,69,6808378,0.0-5.0-0.32,,,,
,,,,,,,,,,
1757,,"{""P0_Q0"":2}",survey,70,6810141,0.0-5.0-1.32,[],,,
,,,,,,,,,,
2372,TestRecordings/trindes.wav,0,audio-button-response,71,6812522,0.0-5.0-0.33,,,,
,,,,,,,,,,
2398,,"{""P0_Q0"":3}",survey,72,6814925,0.0-5.0-1.33,[],,,
,,,,,,,,,,
2460,TestRecordings/mgit.wav,0,audio-button-response,73,6817394,0.0-5.0-0.34,,,,
,,,,,,,,,,
3597,,"{""P0_Q0"":4}",survey,74,6820996,0.0-5.0-1.34,[],,,
,,,,,,,,,,
1149,TestRecordings/punseng.wav,0,audio-button-response,75,6822154,0.0-5.0-0.35,,,,
,,,,,,,,,,
1804,,"{""P0_Q0"":3}",survey,76,6823964,0.0-5.0-1.35,[],,,
,,,,,,,,,,
1117,TestRecordings/pwuk.wav,0,audio-button-response,77,6825089,0.0-5.0-0.36,,,,
,,,,,,,,,,
2044,,"{""P0_Q0"":5}",survey,78,6827139,0.0-5.0-1.36,[],,,
,,,,,,,,,,
1204,TestRecordings/skain.wav,0,audio-button-response,79,6828353,0.0-5.0-0.37,,,,
,,,,,,,,,,
1580,,"{""P0_Q0"":3}",survey,80,6829940,0.0-5.0-1.37,[],,,
,,,,,,,,,,
1086,TestRecordings/tlemkun.wav,0,audio-button-response,81,6831033,0.0-5.0-0.38,,,,
,,,,,,,,,,
1453,,"{""P0_Q0"":2}",survey,82,6832491,0.0-5.0-1.38,[],,,
,,,,,,,,,,
1086,TestRecordings/ndeip.wav,0,audio-button-response,83,6833585,0.0-5.0-0.39,,,,
,,,,,,,,,,
1356,,"{""P0_Q0"":6}",survey,84,6834948,0.0-5.0-1.39,[],,,
,,,,,,,,,,
1612,TestRecordings/tloum.wav,0,audio-button-response,85,6836568,0.0-5.0-0.40,,,,
,,,,,,,,,,
1403,,"{""P0_Q0"":6}",survey,86,6837979,0.0-5.0-1.40,[],,,
,,,,,,,,,,
1709,TestRecordings/ningpum.wav,0,audio-button-response,87,6839696,0.0-5.0-0.41,,,,
,,,,,,,,,,
1644,,"{""P0_Q0"":3}",survey,88,6841347,0.0-5.0-1.41,[],,,
,,,,,,,,,,
1614,TestRecordings/stuun.wav,0,audio-button-response,89,6842969,0.0-5.0-0.42,,,,
,,,,,,,,,,
3365,,"{""P0_Q0"":5}",survey,90,6846339,0.0-5.0-1.42,[],,,
,,,,,,,,,,
1077,TestRecordings/gup.wav,0,audio-button-response,91,6847424,0.0-5.0-0.43,,,,
,,,,,,,,,,
1524,,"{""P0_Q0"":5}",survey,92,6848956,0.0-5.0-1.43,[],,,
,,,,,,,,,,
1076,TestRecordings/tep.wav,0,audio-button-response,93,6850040,0.0-5.0-0.44,,,,
,,,,,,,,,,
1469,,"{""P0_Q0"":5}",survey,94,6851515,0.0-5.0-1.44,[],,,
,,,,,,,,,,
996,TestRecordings/nutbim.wav,0,audio-button-response,95,6852520,0.0-5.0-0.45,,,,
,,,,,,,,,,
1941,,"{""P0_Q0"":3}",survey,96,6854466,0.0-5.0-1.45,[],,,
,,,,,,,,,,
1254,TestRecordings/drikteng.wav,0,audio-button-response,97,6855729,0.0-5.0-0.46,,,,
,,,,,,,,,,
2083,,"{""P0_Q0"":3}",survey,98,6857818,0.0-5.0-1.46,[],,,
,,,,,,,,,,
981,TestRecordings/drakpum.wav,0,audio-button-response,99,6858808,0.0-5.0-0.47,,,,
,,,,,,,,,,
1132,,"{""P0_Q0"":2}",survey,100,6859946,0.0-5.0-1.47,[],,,
,,,,,,,,,,
1077,TestRecordings/pmeit.wav,0,audio-button-response,101,6861032,0.0-5.0-0.48,,,,
,,,,,,,,,,
1301,,"{""P0_Q0"":4}",survey,102,6862338,0.0-5.0-1.48,[],,,
,,,,,,,,,,
1164,TestRecordings/dlahm.wav,0,audio-button-response,103,6863512,0.0-5.0-0.49,,,,
,,,,,,,,,,
1307,,"{""P0_Q0"":6}",survey,104,6864826,0.0-5.0-1.49,[],,,
,,,,,,,,,,
1653,TestRecordings/stauk.wav,0,audio-button-response,105,6866488,0.0-5.0-0.50,,,,
,,,,,,,,,,
2885,,"{""P0_Q0"":3}",survey,106,6869379,0.0-5.0-1.50,[],,,
,,,,,,,,,,
1854,TestRecordings/kmeip.wav,0,audio-button-response,107,6871239,0.0-5.0-0.51,,,,
,,,,,,,,,,
1492,,"{""P0_Q0"":3}",survey,108,6872738,0.0-5.0-1.51,[],,,
,,,,,,,,,,
1348,TestRecordings/drain.wav,0,audio-button-response,109,6874095,0.0-5.0-0.52,,,,
,,,,,,,,,,
1499,,"{""P0_Q0"":5}",survey,110,6875602,0.0-5.0-1.52,[],,,
,,,,,,,,,,
1174,TestRecordings/drantung.wav,0,audio-button-response,111,6876784,0.0-5.0-0.53,,,,
,,,,,,,,,,
1412,,"{""P0_Q0"":3}",survey,112,6878202,0.0-5.0-1.53,[],,,
,,,,,,,,,,
1164,TestRecordings/mkait.wav,0,audio-button-response,113,6879375,0.0-5.0-0.54,,,,
,,,,,,,,,,
2847,,"{""P0_Q0"":6}",survey,114,6882226,0.0-5.0-1.54,[],,,
,,,,,,,,,,
1133,TestRecordings/bem.wav,0,audio-button-response,115,6883367,0.0-5.0-0.55,,,,
,,,,,,,,,,
3196,,"{""P0_Q0"":4}",survey,116,6886570,0.0-5.0-1.55,[],,,
,,,,,,,,,,
1076,TestRecordings/twen.wav,0,audio-button-response,117,6887655,0.0-5.0-0.56,,,,
,,,,,,,,,,
3053,,"{""P0_Q0"":4}",survey,118,6890713,0.0-5.0-1.56,[],,,
,,,,,,,,,,
2623,TestRecordings/pemdut.wav,0,audio-button-response,119,6893345,0.0-5.0-0.57,,,,
,,,,,,,,,,
1473,,"{""P0_Q0"":6}",survey,120,6894825,0.0-5.0-1.57,[],,,
,,,,,,,,,,
982,TestRecordings/drumbeng.wav,0,audio-button-response,121,6895814,0.0-5.0-0.58,,,,
,,,,,,,,,,
1460,,"{""P0_Q0"":2}",survey,122,6897281,0.0-5.0-1.58,[],,,
,,,,,,,,,,
1124,TestRecordings/drustet.wav,0,audio-button-response,123,6898415,0.0-5.0-0.59,,,,
,,,,,,,,,,
2733,,"{""P0_Q0"":2}",survey,124,6901152,0.0-5.0-1.59,[],,,
,,,,,,,,,,
3542,, ,html-keyboard-response,125,6904695,0.0-6.0,,,,
,,,,,,,,,,
51179,,"{""P0_Q0"":""20"",""P0_Q1"":""Male"",""P0_Q2"":""Yes"",""P0_Q3"":""none"",""P0_Q4"":""0"",""P0_Q5"":""none""}",survey,126,6955890,0.0-7.0,[],,,
,,,,,,,,,,
121754,"<p style=""font-size:30px"">The experiment has ended</p><p style=""font-size:30px"",lang=""ko"">Thanks for participating in it!</p>", ,html-keyboard-response,127,7077641,0.0-8.0,,,,