rt,stimulus,response,trial_type,trial_index,time_elapsed,internal_node_id,accuracy,PracticeTest,ConsonantSequence,Grammaticality
,,,,,,,,,,
843173,"<p style=""font-size:30px"">Welcome to the experiment</p><p>Press spacebar to continue</p>", ,html-keyboard-response,0,843141,0.0-0.0,,,,
,,,,,,,,,,
2013,"<p style=""font-size:30px"">Please ensure that your headphones are on correctly</p><p>Press spacebar to continue</p>", ,html-keyboard-response,1,845156,0.0-1.0,,,,
,,,,,,,,,,
5375,"<p style=""font-size:30px"">In this experiment, you will listen to nonsense words</p><p style=""font-size:30px"",lang=""ko"">Your task is to rate the nonsense word you heard as a possible word of American English</p><p>Press spacebar to continue</p>", ,html-keyboard-response,2,850532,0.0-2.0,,,,
,,,,,,,,,,
2103,, ,html-keyboard-response,3,852636,0.0-3.0,,,,
,,,,,,,,,,
2247,"<p style=""font-size:30px"">Now let's move on to the actual experiment.</p><p style=""font-size:30px"",lang=""ko"">During the experiment, you will hear each of the nonce words only once.</p><p>Press spacebar to continue</p>", ,html-keyboard-response,4,854884,0.0-4.0,,,,
,,,,,,,,,,
3574,TestRecordings/bepgik.wav,0,audio-button-response,5,858467,0.0-5.0-0.0,,,,
,,,,,,,,,,
9598,,"{""P0_Q0"":7}",survey,6,868106,0.0-5.0-1.0,[],,,
,,,,,,,,,,
1506,TestRecordings/mkait.wav,0,audio-button-response,7,869619,0.0-5.0-0.1,,,,
,,,,,,,,,,
6188,,"{""P0_Q0"":3}",survey,8,875823,0.0-5.0-1.1,[],,,
,,,,,,,,,,
1493,TestRecordings/kmaut.wav,0,audio-button-response,9,877322,0.0-5.0-0.2,,,,
,,,,,,,,,,
5794,,"{""P0_Q0"":3}",survey,10,883128,0.0-5.0-1.2,[],,,
,,,,,,,,,,
1395,TestRecordings/ndeip.wav,0,audio-button-response,11,884530,0.0-5.0-0.3,,,,
,,,,,,,,,,
4066,,"{""P0_Q0"":2}",survey,12,888605,0.0-5.0-1.3,[],,,
,,,,,,,,,,
1382,TestRecordings/twen.wav,0,audio-button-response,13,889993,0.0-5.0-0.4,,,,
,,,,,,,,,,
2856,,"{""P0_Q0"":7}",survey,14,892861,0.0-5.0-1.4,[],,,
,,,,,,,,,,
1383,TestRecordings/giit.wav,0,audio-button-response,15,894249,0.0-5.0-0.5,,,,
,,,,,,,,,,
5626,,"{""P0_Q0"":3}",survey,16,899885,0.0-5.0-1.5,[],,,
,,,,,,,,,,
1584,TestRecordings/gatkun.wav,0,audio-button-response,17,901473,0.0-5.0-0.6,,,,
,,,,,,,,,,
2209,,"{""P0_Q0"":1}",survey,18,903692,0.0-5.0-1.6,[],,,
,,,,,,,,,,
1431,TestRecordings/sengdun.wav,0,audio-button-response,19,905129,0.0-5.0-0.7,,,,
,,,,,,,,,,
1651,,"{""P0_Q0"":1}",survey,20,906788,0.0-5.0-1.7,[],,,
,,,,,,,,,,
1352,TestRecordings/nboup.wav,0,audio-button-response,21,908145,0.0-5.0-0.8,,,,
,,,,,,,,,,
1884,,"{""P0_Q0"":3}",survey,22,910035,0.0-5.0-1.8,[],,,
,,,,,,,,,,
1015,TestRecordings/dlahm.wav,0,audio-button-response,23,911057,0.0-5.0-0.9,,,,
,,,,,,,,,,
2498,,"{""P0_Q0"":7}",survey,24,913563,0.0-5.0-1.9,[],,,
,,,,,,,,,,
1119,TestRecordings/stauk.wav,0,audio-button-response,25,914688,0.0-5.0-0.10,,,,
,,,,,,,,,,
1970,,"{""P0_Q0"":7}",survey,26,916667,0.0-5.0-1.10,[],,,
,,,,,,,,,,
1097,TestRecordings/stahm.wav,0,audio-button-response,27,917769,0.0-5.0-0.11,,,,
,,,,,,,,,,
2476,,"{""P0_Q0"":6}",survey,28,920252,0.0-5.0-1.11,[],,,
,,,,,,,,,,
951,TestRecordings/tloum.wav,0,audio-button-response,29,921208,0.0-5.0-0.12,,,,
,,,,,,,,,,
2115,,"{""P0_Q0"":5}",survey,30,923330,0.0-5.0-1.12,[],,,
,,,,,,,,,,
1206,TestRecordings/dlisbep.wav,0,audio-button-response,31,924544,0.0-5.0-0.13,,,,
,,,,,,,,,,
2628,,"{""P0_Q0"":7}",survey,32,927179,0.0-5.0-1.13,[],,,
,,,,,,,,,,
1184,TestRecordings/stuun.wav,0,audio-button-response,33,928369,0.0-5.0-0.14,,,,
,,,,,,,,,,
2331,,"{""P0_Q0"":7}",survey,34,930706,0.0-5.0-1.14,[],,,
,,,,,,,,,,
1485,TestRecordings/twas.wav,0,audio-button-response,35,932200,0.0-5.0-0.15,,,,
,,,,,,,,,,
4610,,"{""P0_Q0"":7}",survey,36,936819,0.0-5.0-1.15,[],,,
,,,,,,,,,,
1208,TestRecordings/tlemkun.wav,0,audio-button-response,37,938031,0.0-5.0-0.16,,,,
,,,,,,,,,,
7259,,"{""P0_Q0"":4}",survey,38,945299,0.0-5.0-1.16,[],,,
,,,,,,,,,,
1265,TestRecordings/gistum.wav,0,audio-button-response,39,946567,0.0-5.0-0.17,,,,
,,,,,,,,,,
2556,,"{""P0_Q0"":6}",survey,40,949130,0.0-5.0-1.17,[],,,
,,,,,,,,,,
1127,TestRecordings/ningpum.wav,0,audio-button-response,41,950263,0.0-5.0-0.18,,,,
,,,,,,,,,,
1268,,"{""P0_Q0"":1}",survey,42,951537,0.0-5.0-1.18,[],,,
,,,,,,,,,,
928,TestRecordings/tlik.wav,0,audio-button-response,43,952471,0.0-5.0-0.19,,,,
,,,,,,,,,,
4749,,"{""P0_Q0"":5}",survey,44,957226,0.0-5.0-1.19,[],,,
,,,,,,,,,,
951,TestRecordings/dloun.wav,0,audio-button-response,45,958183,0.0-5.0-0.20,,,,
,,,,,,,,,,
2574,,"{""P0_Q0"":3}",survey,46,960762,0.0-5.0-1.20,[],,,
,,,,,,,,,,
1743,TestRecordings/bem.wav,0,audio-button-response,47,962511,0.0-5.0-0.21,,,,
,,,,,,,,,,
5020,,"{""P0_Q0"":3}",survey,48,967537,0.0-5.0-1.21,[],,,
,,,,,,,,,,
2496,TestRecordings/pmeit.wav,0,audio-button-response,49,970038,0.0-5.0-0.22,,,,
,,,,,,,,,,
2485,,"{""P0_Q0"":5}",survey,50,972529,0.0-5.0-1.22,[],,,
,,,,,,,,,,
1176,TestRecordings/pwuk.wav,0,audio-button-response,51,973711,0.0-5.0-0.23,,,,
,,,,,,,,,,
2164,,"{""P0_Q0"":2}",survey,52,975880,0.0-5.0-1.23,[],,,
,,,,,,,,,,
1192,TestRecordings/mgit.wav,0,audio-button-response,53,977079,0.0-5.0-0.24,,,,
,,,,,,,,,,
2820,,"{""P0_Q0"":4}",survey,54,979905,0.0-5.0-1.24,[],,,
,,,,,,,,,,
1112,TestRecordings/pwam.wav,0,audio-button-response,55,981022,0.0-5.0-0.25,,,,
,,,,,,,,,,
2541,,"{""P0_Q0"":2}",survey,56,983569,0.0-5.0-1.25,[],,,
,,,,,,,,,,
1095,TestRecordings/drantung.wav,0,audio-button-response,57,984670,0.0-5.0-0.26,,,,
,,,,,,,,,,
2494,,"{""P0_Q0"":6}",survey,58,987169,0.0-5.0-1.26,[],,,
,,,,,,,,,,
1462,TestRecordings/paim.wav,0,audio-button-response,59,988638,0.0-5.0-0.27,,,,
,,,,,,,,,,
3900,,"{""P0_Q0"":4}",survey,60,992544,0.0-5.0-1.27,[],,,
,,,,,,,,,,
1320,TestRecordings/nutbim.wav,0,audio-button-response,61,993869,0.0-5.0-0.28,,,,
,,,,,,,,,,
1756,,"{""P0_Q0"":1}",survey,62,995632,0.0-5.0-1.28,[],,,
,,,,,,,,,,
2273,TestRecordings/gup.wav,0,audio-button-response,63,997909,0.0-5.0-0.29,,,,
,,,,,,,,,,
6419,,"{""P0_Q0"":2}",survey,64,1004335,0.0-5.0-1.29,[],,,
,,,,,,,,,,
1118,TestRecordings/tempuk.wav,0,audio-button-response,65,1005462,0.0-5.0-0.30,,,,
,,,,,,,,,,
4148,,"{""P0_Q0"":3}",survey,66,1009616,0.0-5.0-1.30,[],,,
,,,,,,,,,,
905,TestRecordings/nangdup.wav,0,audio-button-response,67,1010525,0.0-5.0-0.31,,,,
,,,,,,,,,,
1876,,"{""P0_Q0"":1}",survey,68,1012407,0.0-5.0-1.31,[],,,
,,,,,,,,,,
857,TestRecordings/ntek.wav,0,audio-button-response,69,1013269,0.0-5.0-0.32,,,,
,,,,,,,,,,
1932,,"{""P0_Q0"":5}",survey,70,1015207,0.0-5.0-1.32,[],,,
,,,,,,,,,,
1625,TestRecordings/drikteng.wav,0,audio-button-response,71,1016836,0.0-5.0-0.33,,,,
,,,,,,,,,,
2932,,"{""P0_Q0"":3}",survey,72,1019776,0.0-5.0-1.33,[],,,
,,,,,,,,,,
911,TestRecordings/tlem.wav,0,audio-button-response,73,1020692,0.0-5.0-0.34,,,,
,,,,,,,,,,
3604,,"{""P0_Q0"":5}",survey,74,1024303,0.0-5.0-1.34,[],,,
,,,,,,,,,,
1152,TestRecordings/dlemkus.wav,0,audio-button-response,75,1025460,0.0-5.0-0.35,,,,
,,,,,,,,,,
3636,,"{""P0_Q0"":3}",survey,76,1029103,0.0-5.0-1.35,[],,,
,,,,,,,,,,
2183,TestRecordings/trindes.wav,0,audio-button-response,77,1031293,0.0-5.0-0.36,,,,
,,,,,,,,,,
2252,,"{""P0_Q0"":5}",survey,78,1033551,0.0-5.0-1.36,[],,,
,,,,,,,,,,
991,TestRecordings/tep.wav,0,audio-button-response,79,1034548,0.0-5.0-0.37,,,,
,,,,,,,,,,
3116,,"{""P0_Q0"":6}",survey,80,1037671,0.0-5.0-1.37,[],,,
,,,,,,,,,,
1056,TestRecordings/mepgut.wav,0,audio-button-response,81,1038732,0.0-5.0-0.38,,,,
,,,,,,,,,,
1533,,"{""P0_Q0"":1}",survey,82,1040270,0.0-5.0-1.38,[],,,
,,,,,,,,,,
1122,TestRecordings/dmut.wav,0,audio-button-response,83,1041396,0.0-5.0-0.39,,,,
,,,,,,,,,,
1628,,"{""P0_Q0"":2}",survey,84,1043030,0.0-5.0-1.39,[],,,
,,,,,,,,,,
1136,TestRecordings/tlasdung.wav,0,audio-button-response,85,1044172,0.0-5.0-0.40,,,,
,,,,,,,,,,
1893,,"{""P0_Q0"":5}",survey,86,1046069,0.0-5.0-1.40,[],,,
,,,,,,,,,,
1537,TestRecordings/tisbeng.wav,0,audio-button-response,87,1047612,0.0-5.0-0.41,,,,
,,,,,,,,,,
3044,,"{""P0_Q0"":3}",survey,88,1050662,0.0-5.0-1.41,[],,,
,,,,,,,,,,
1113,TestRecordings/drakpum.wav,0,audio-button-response,89,1051779,0.0-5.0-0.42,,,,
,,,,,,,,,,
2694,,"{""P0_Q0"":4}",survey,90,1054479,0.0-5.0-1.42,[],,,
,,,,,,,,,,
1160,TestRecordings/punseng.wav,0,audio-button-response,91,1055644,0.0-5.0-0.43,,,,
,,,,,,,,,,
4148,,"{""P0_Q0"":2}",survey,92,1059798,0.0-5.0-1.43,[],,,
,,,,,,,,,,
1457,TestRecordings/pundes.wav,0,audio-button-response,93,1061259,0.0-5.0-0.44,,,,
,,,,,,,,,,
5724,,"{""P0_Q0"":3}",survey,94,1066989,0.0-5.0-1.44,[],,,
,,,,,,,,,,
1472,TestRecordings/trahm.wav,0,audio-button-response,95,1068466,0.0-5.0-0.45,,,,
,,,,,,,,,,
2356,,"{""P0_Q0"":6}",survey,96,1070829,0.0-5.0-1.45,[],,,
,,,,,,,,,,
1048,TestRecordings/pemdut.wav,0,audio-button-response,97,1071882,0.0-5.0-0.46,,,,
,,,,,,,,,,
2612,,"{""P0_Q0"":3}",survey,98,1074501,0.0-5.0-1.46,[],,,
,,,,,,,,,,
1288,TestRecordings/kmeip.wav,0,audio-button-response,99,1075794,0.0-5.0-0.47,,,,
,,,,,,,,,,
2812,,"{""P0_Q0"":1}",survey,100,1078613,0.0-5.0-1.47,[],,,
,,,,,,,,,,
959,TestRecordings/drain.wav,0,audio-button-response,101,1079578,0.0-5.0-0.48,,,,
,,,,,,,,,,
5885,,"{""P0_Q0"":5}",survey,102,1085469,0.0-5.0-1.48,[],,,
,,,,,,,,,,
1008,TestRecordings/drumbeng.wav,0,audio-button-response,103,1086482,0.0-5.0-0.49,,,,
,,,,,,,,,,
2012,,"{""P0_Q0"":2}",survey,104,1088500,0.0-5.0-1.49,[],,,
,,,,,,,,,,
869,TestRecordings/gipsus.wav,0,audio-button-response,105,1089378,0.0-5.0-0.50,,,,
,,,,,,,,,,
4684,,"{""P0_Q0"":1}",survey,106,1094069,0.0-5.0-1.50,[],,,
,,,,,,,,,,
1087,TestRecordings/tlipgat.wav,0,audio-button-response,107,1095162,0.0-5.0-0.51,,,,
,,,,,,,,,,
4715,,"{""P0_Q0"":4}",survey,108,1099884,0.0-5.0-1.51,[],,,
,,,,,,,,,,
1134,TestRecordings/tlepgim.wav,0,audio-button-response,109,1101025,0.0-5.0-0.52,,,,
,,,,,,,,,,
2108,,"{""P0_Q0"":3}",survey,110,1103140,0.0-5.0-1.52,[],,,
,,,,,,,,,,
918,TestRecordings/suntem.wav,0,audio-button-response,111,1104065,0.0-5.0-0.53,,,,
,,,,,,,,,,
1716,,"{""P0_Q0"":2}",survey,112,1105788,0.0-5.0-1.53,[],,,
,,,,,,,,,,
1007,TestRecordings/tlumgak.wav,0,audio-button-response,113,1106801,0.0-5.0-0.54,,,,
,,,,,,,,,,
3108,,"{""P0_Q0"":4}",survey,114,1109915,0.0-5.0-1.54,[],,,
,,,,,,,,,,
2790,TestRecordings/kutpim.wav,0,audio-button-response,115,1112713,0.0-5.0-0.55,,,,
,,,,,,,,,,
1603,,"{""P0_Q0"":2}",survey,116,1114324,0.0-5.0-1.55,[],,,
,,,,,,,,,,
1086,TestRecordings/skain.wav,0,audio-button-response,117,1115417,0.0-5.0-0.56,,,,
,,,,,,,,,,
3034,,"{""P0_Q0"":7}",survey,118,1118459,0.0-5.0-1.56,[],,,
,,,,,,,,,,
856,TestRecordings/pmiik.wav,0,audio-button-response,119,1119465,0.0-5.0-0.57,,,,
,,,,,,,,,,
1743,,"{""P0_Q0"":3}",survey,120,1121246,0.0-5.0-1.57,[],,,
,,,,,,,,,,
1074,TestRecordings/drustet.wav,0,audio-button-response,121,1122329,0.0-5.0-0.58,,,,
,,,,,,,,,,
1628,,"{""P0_Q0"":6}",survey,122,1123990,0.0-5.0-1.58,[],,,
,,,,,,,,,,
1012,TestRecordings/gitpes.wav,0,audio-button-response,123,1125008,0.0-5.0-0.59,,,,
,,,,,,,,,,
3016,,"{""P0_Q0"":4}",survey,124,1128037,0.0-5.0-1.59,[],,,
,,,,,,,,,,
4082,, ,html-keyboard-response,125,1132121,0.0-6.0,,,,
,,,,,,,,,,
24661,,"{""P0_Q0"":""22"",""P0_Q1"":""Man"",""P0_Q2"":""Yes"",""P0_Q3"":""None"",""P0_Q4"":""N/A"",""P0_Q5"":""N/A""}",survey,126,1156806,0.0-7.0,[],,,
,,,,,,,,,,
172217,"<p style=""font-size:30px"">The experiment has ended</p><p style=""font-size:30px"",lang=""ko"">Thanks for participating in it!</p>", ,html-keyboard-response,127,1329022,0.0-8.0,,,,