rt,stimulus,response,trial_type,trial_index,time_elapsed,internal_node_id,accuracy,PracticeTest,ConsonantSequence,Grammaticality
,,,,,,,,,,
847601,"<p style=""font-size:30px"">Welcome to the experiment</p><p>Press spacebar to continue</p>", ,html-keyboard-response,0,847569,0.0-0.0,,,,
,,,,,,,,,,
1498,"<p style=""font-size:30px"">Please ensure that your headphones are on correctly</p><p>Press spacebar to continue</p>", ,html-keyboard-response,1,849068,0.0-1.0,,,,
,,,,,,,,,,
7210,"<p style=""font-size:30px"">In this experiment, you will listen to nonsense words</p><p style=""font-size:30px"",lang=""ko"">Your task is to rate the nonsense word you heard as a possible word of American English</p><p>Press spacebar to continue</p>", ,html-keyboard-response,2,856279,0.0-2.0,,,,
,,,,,,,,,,
1384,, ,html-keyboard-response,3,857662,0.0-3.0,,,,
,,,,,,,,,,
3742,"<p style=""font-size:30px"">Now let's move on to the actual experiment.</p><p style=""font-size:30px"",lang=""ko"">During the experiment, you will hear each of the nonce words only once.</p><p>Press spacebar to continue</p>", ,html-keyboard-response,4,861406,0.0-4.0,,,,
,,,,,,,,,,
3453,TestRecordings/mgit.wav,0,audio-button-response,5,864902,0.0-5.0-0.0,,,,
,,,,,,,,,,
6246,,"{""P0_Q0"":2}",survey,6,871194,0.0-5.0-1.0,[],,,
,,,,,,,,,,
2579,TestRecordings/nangdup.wav,0,audio-button-response,7,873781,0.0-5.0-0.1,,,,
,,,,,,,,,,
5374,,"{""P0_Q0"":2}",survey,8,879168,0.0-5.0-1.1,[],,,
,,,,,,,,,,
1445,TestRecordings/pundes.wav,0,audio-button-response,9,880620,0.0-5.0-0.2,,,,
,,,,,,,,,,
5952,,"{""P0_Q0"":3}",survey,10,886584,0.0-5.0-1.2,[],,,
,,,,,,,,,,
1196,TestRecordings/dmut.wav,0,audio-button-response,11,887788,0.0-5.0-0.3,,,,
,,,,,,,,,,
2651,,"{""P0_Q0"":2}",survey,12,890448,0.0-5.0-1.3,[],,,
,,,,,,,,,,
3125,TestRecordings/nutbim.wav,0,audio-button-response,13,893580,0.0-5.0-0.4,,,,
,,,,,,,,,,
2828,,"{""P0_Q0"":3}",survey,14,896415,0.0-5.0-1.4,[],,,
,,,,,,,,,,
1554,TestRecordings/twas.wav,0,audio-button-response,15,897979,0.0-5.0-0.5,,,,
,,,,,,,,,,
1880,,"{""P0_Q0"":6}",survey,16,899870,0.0-5.0-1.5,[],,,
,,,,,,,,,,
2093,TestRecordings/tlasdung.wav,0,audio-button-response,17,901971,0.0-5.0-0.6,,,,
,,,,,,,,,,
1812,,"{""P0_Q0"":5}",survey,18,903790,0.0-5.0-1.6,[],,,
,,,,,,,,,,
1270,TestRecordings/pwam.wav,0,audio-button-response,19,905067,0.0-5.0-0.7,,,,
,,,,,,,,,,
2274,,"{""P0_Q0"":6}",survey,20,907350,0.0-5.0-1.7,[],,,
,,,,,,,,,,
1180,TestRecordings/twen.wav,0,audio-button-response,21,908539,0.0-5.0-0.8,,,,
,,,,,,,,,,
2579,,"{""P0_Q0"":6}",survey,22,911127,0.0-5.0-1.8,[],,,
,,,,,,,,,,
971,TestRecordings/drain.wav,0,audio-button-response,23,912107,0.0-5.0-0.9,,,,
,,,,,,,,,,
2419,,"{""P0_Q0"":7}",survey,24,914534,0.0-5.0-1.9,[],,,
,,,,,,,,,,
1204,TestRecordings/nboup.wav,0,audio-button-response,25,915747,0.0-5.0-0.10,,,,
,,,,,,,,,,
1434,,"{""P0_Q0"":7}",survey,26,917189,0.0-5.0-1.10,[],,,
,,,,,,,,,,
1044,TestRecordings/kmaut.wav,0,audio-button-response,27,918242,0.0-5.0-0.11,,,,
,,,,,,,,,,
3676,,"{""P0_Q0"":7}",survey,28,921925,0.0-5.0-1.11,[],,,
,,,,,,,,,,
1301,TestRecordings/sengdun.wav,0,audio-button-response,29,923234,0.0-5.0-0.12,,,,
,,,,,,,,,,
1388,,"{""P0_Q0"":6}",survey,30,924629,0.0-5.0-1.12,[],,,
,,,,,,,,,,
1238,TestRecordings/gatkun.wav,0,audio-button-response,31,925874,0.0-5.0-0.13,,,,
,,,,,,,,,,
1948,,"{""P0_Q0"":4}",survey,32,927829,0.0-5.0-1.13,[],,,
,,,,,,,,,,
1085,TestRecordings/gipsus.wav,0,audio-button-response,33,928922,0.0-5.0-0.14,,,,
,,,,,,,,,,
4420,,"{""P0_Q0"":4}",survey,34,933349,0.0-5.0-1.14,[],,,
,,,,,,,,,,
1476,TestRecordings/ningpum.wav,0,audio-button-response,35,934834,0.0-5.0-0.15,,,,
,,,,,,,,,,
2676,,"{""P0_Q0"":4}",survey,36,937516,0.0-5.0-1.15,[],,,
,,,,,,,,,,
1572,TestRecordings/gitpes.wav,0,audio-button-response,37,939098,0.0-5.0-0.16,,,,
,,,,,,,,,,
15188,,"{""P0_Q0"":5}",survey,38,954292,0.0-5.0-1.16,[],,,
,,,,,,,,,,
1110,TestRecordings/drumbeng.wav,0,audio-button-response,39,955409,0.0-5.0-0.17,,,,
,,,,,,,,,,
2339,,"{""P0_Q0"":3}",survey,40,957755,0.0-5.0-1.17,[],,,
,,,,,,,,,,
941,TestRecordings/giit.wav,0,audio-button-response,41,958705,0.0-5.0-0.18,,,,
,,,,,,,,,,
2308,,"{""P0_Q0"":3}",survey,42,961019,0.0-5.0-1.18,[],,,
,,,,,,,,,,
894,TestRecordings/tep.wav,0,audio-button-response,43,961921,0.0-5.0-0.19,,,,
,,,,,,,,,,
9853,,"{""P0_Q0"":4}",survey,44,971780,0.0-5.0-1.19,[],,,
,,,,,,,,,,
1398,TestRecordings/mepgut.wav,0,audio-button-response,45,973184,0.0-5.0-0.20,,,,
,,,,,,,,,,
6157,,"{""P0_Q0"":3}",survey,46,979347,0.0-5.0-1.20,[],,,
,,,,,,,,,,
1021,TestRecordings/stahm.wav,0,audio-button-response,47,980377,0.0-5.0-0.21,,,,
,,,,,,,,,,
1612,,"{""P0_Q0"":5}",survey,48,981994,0.0-5.0-1.21,[],,,
,,,,,,,,,,
965,TestRecordings/drakpum.wav,0,audio-button-response,49,982968,0.0-5.0-0.22,,,,
,,,,,,,,,,
1746,,"{""P0_Q0"":7}",survey,50,984723,0.0-5.0-1.22,[],,,
,,,,,,,,,,
1244,TestRecordings/punseng.wav,0,audio-button-response,51,985976,0.0-5.0-0.23,,,,
,,,,,,,,,,
2948,,"{""P0_Q0"":6}",survey,52,988930,0.0-5.0-1.23,[],,,
,,,,,,,,,,
2550,TestRecordings/pmeit.wav,0,audio-button-response,53,991488,0.0-5.0-0.24,,,,
,,,,,,,,,,
3908,,"{""P0_Q0"":5}",survey,54,995402,0.0-5.0-1.24,[],,,
,,,,,,,,,,
1126,TestRecordings/drantung.wav,0,audio-button-response,55,996535,0.0-5.0-0.25,,,,
,,,,,,,,,,
3083,,"{""P0_Q0"":5}",survey,56,999627,0.0-5.0-1.25,[],,,
,,,,,,,,,,
1006,TestRecordings/tloum.wav,0,audio-button-response,57,1000640,0.0-5.0-0.26,,,,
,,,,,,,,,,
5061,,"{""P0_Q0"":5}",survey,58,1005706,0.0-5.0-1.26,[],,,
,,,,,,,,,,
1085,TestRecordings/bem.wav,0,audio-button-response,59,1006799,0.0-5.0-0.27,,,,
,,,,,,,,,,
2797,,"{""P0_Q0"":5}",survey,60,1009602,0.0-5.0-1.27,[],,,
,,,,,,,,,,
1022,TestRecordings/suntem.wav,0,audio-button-response,61,1010631,0.0-5.0-0.28,,,,
,,,,,,,,,,
1772,,"{""P0_Q0"":3}",survey,62,1012409,0.0-5.0-1.28,[],,,
,,,,,,,,,,
1126,TestRecordings/tlipgat.wav,0,audio-button-response,63,1013543,0.0-5.0-0.29,,,,
,,,,,,,,,,
1517,,"{""P0_Q0"":6}",survey,64,1015065,0.0-5.0-1.29,[],,,
,,,,,,,,,,
1069,TestRecordings/trindes.wav,0,audio-button-response,65,1016143,0.0-5.0-0.30,,,,
,,,,,,,,,,
1725,,"{""P0_Q0"":6}",survey,66,1017873,0.0-5.0-1.30,[],,,
,,,,,,,,,,
1062,TestRecordings/stauk.wav,0,audio-button-response,67,1018942,0.0-5.0-0.31,,,,
,,,,,,,,,,
2556,,"{""P0_Q0"":7}",survey,68,1021505,0.0-5.0-1.31,[],,,
,,,,,,,,,,
1110,TestRecordings/dlahm.wav,0,audio-button-response,69,1022622,0.0-5.0-0.32,,,,
,,,,,,,,,,
2276,,"{""P0_Q0"":7}",survey,70,1024905,0.0-5.0-1.32,[],,,
,,,,,,,,,,
991,TestRecordings/pemdut.wav,0,audio-button-response,71,1025902,0.0-5.0-0.33,,,,
,,,,,,,,,,
2157,,"{""P0_Q0"":3}",survey,72,1028065,0.0-5.0-1.33,[],,,
,,,,,,,,,,
1117,TestRecordings/kutpim.wav,0,audio-button-response,73,1029191,0.0-5.0-0.34,,,,
,,,,,,,,,,
10444,,"{""P0_Q0"":4}",survey,74,1039640,0.0-5.0-1.34,[],,,
,,,,,,,,,,
966,TestRecordings/kmeip.wav,0,audio-button-response,75,1040614,0.0-5.0-0.35,,,,
,,,,,,,,,,
2077,,"{""P0_Q0"":6}",survey,76,1042696,0.0-5.0-1.35,[],,,
,,,,,,,,,,
989,TestRecordings/mkait.wav,0,audio-button-response,77,1043694,0.0-5.0-0.36,,,,
,,,,,,,,,,
1364,,"{""P0_Q0"":6}",survey,78,1045064,0.0-5.0-1.36,[],,,
,,,,,,,,,,
813,TestRecordings/tlik.wav,0,audio-button-response,79,1045886,0.0-5.0-0.37,,,,
,,,,,,,,,,
2163,,"{""P0_Q0"":6}",survey,80,1048056,0.0-5.0-1.37,[],,,
,,,,,,,,,,
1030,TestRecordings/bepgik.wav,0,audio-button-response,81,1049094,0.0-5.0-0.38,,,,
,,,,,,,,,,
2453,,"{""P0_Q0"":5}",survey,82,1051552,0.0-5.0-1.38,[],,,
,,,,,,,,,,
1158,TestRecordings/tlemkun.wav,0,audio-button-response,83,1052717,0.0-5.0-0.39,,,,
,,,,,,,,,,
1772,,"{""P0_Q0"":3}",survey,84,1054496,0.0-5.0-1.39,[],,,
,,,,,,,,,,
668,TestRecordings/gup.wav,0,audio-button-response,85,1055174,0.0-5.0-0.40,,,,
,,,,,,,,,,
2748,,"{""P0_Q0"":2}",survey,86,1057928,0.0-5.0-1.40,[],,,
,,,,,,,,,,
1061,TestRecordings/dlemkus.wav,0,audio-button-response,87,1058997,0.0-5.0-0.41,,,,
,,,,,,,,,,
2972,,"{""P0_Q0"":4}",survey,88,1061976,0.0-5.0-1.41,[],,,
,,,,,,,,,,
766,TestRecordings/ntek.wav,0,audio-button-response,89,1062749,0.0-5.0-0.42,,,,
,,,,,,,,,,
5748,,"{""P0_Q0"":5}",survey,90,1068503,0.0-5.0-1.42,[],,,
,,,,,,,,,,
910,TestRecordings/ndeip.wav,0,audio-button-response,91,1069422,0.0-5.0-0.43,,,,
,,,,,,,,,,
2329,,"{""P0_Q0"":7}",survey,92,1071760,0.0-5.0-1.43,[],,,
,,,,,,,,,,
1126,TestRecordings/dlisbep.wav,0,audio-button-response,93,1072894,0.0-5.0-0.44,,,,
,,,,,,,,,,
1853,,"{""P0_Q0"":6}",survey,94,1074752,0.0-5.0-1.44,[],,,
,,,,,,,,,,
1085,TestRecordings/tlepgim.wav,0,audio-button-response,95,1075845,0.0-5.0-0.45,,,,
,,,,,,,,,,
3813,,"{""P0_Q0"":6}",survey,96,1079664,0.0-5.0-1.45,[],,,
,,,,,,,,,,
830,TestRecordings/tlem.wav,0,audio-button-response,97,1080501,0.0-5.0-0.46,,,,
,,,,,,,,,,
1564,,"{""P0_Q0"":5}",survey,98,1082071,0.0-5.0-1.46,[],,,
,,,,,,,,,,
1237,TestRecordings/tlumgak.wav,0,audio-button-response,99,1083317,0.0-5.0-0.47,,,,
,,,,,,,,,,
5005,,"{""P0_Q0"":4}",survey,100,1088327,0.0-5.0-1.47,[],,,
,,,,,,,,,,
917,TestRecordings/drustet.wav,0,audio-button-response,101,1089252,0.0-5.0-0.48,,,,
,,,,,,,,,,
5420,,"{""P0_Q0"":4}",survey,102,1094679,0.0-5.0-1.48,[],,,
,,,,,,,,,,
1222,TestRecordings/paim.wav,0,audio-button-response,103,1095908,0.0-5.0-0.49,,,,
,,,,,,,,,,
1812,,"{""P0_Q0"":5}",survey,104,1097728,0.0-5.0-1.49,[],,,
,,,,,,,,,,
878,TestRecordings/gistum.wav,0,audio-button-response,105,1098613,0.0-5.0-0.50,,,,
,,,,,,,,,,
1429,,"{""P0_Q0"":4}",survey,106,1100046,0.0-5.0-1.50,[],,,
,,,,,,,,,,
926,TestRecordings/dloun.wav,0,audio-button-response,107,1100980,0.0-5.0-0.51,,,,
,,,,,,,,,,
1820,,"{""P0_Q0"":4}",survey,108,1102806,0.0-5.0-1.51,[],,,
,,,,,,,,,,
781,TestRecordings/pwuk.wav,0,audio-button-response,109,1103596,0.0-5.0-0.52,,,,
,,,,,,,,,,
2285,,"{""P0_Q0"":2}",survey,110,1105887,0.0-5.0-1.52,[],,,
,,,,,,,,,,
734,TestRecordings/pmiik.wav,0,audio-button-response,111,1106627,0.0-5.0-0.53,,,,
,,,,,,,,,,
1589,,"{""P0_Q0"":6}",survey,112,1108222,0.0-5.0-1.53,[],,,
,,,,,,,,,,
974,TestRecordings/tisbeng.wav,0,audio-button-response,113,1109204,0.0-5.0-0.54,,,,
,,,,,,,,,,
4220,,"{""P0_Q0"":5}",survey,114,1113430,0.0-5.0-1.54,[],,,
,,,,,,,,,,
789,TestRecordings/tempuk.wav,0,audio-button-response,115,1114227,0.0-5.0-0.55,,,,
,,,,,,,,,,
7070,,"{""P0_Q0"":6}",survey,116,1121302,0.0-5.0-1.55,[],,,
,,,,,,,,,,
1230,TestRecordings/drikteng.wav,0,audio-button-response,117,1122539,0.0-5.0-0.56,,,,
,,,,,,,,,,
3301,,"{""P0_Q0"":5}",survey,118,1125845,0.0-5.0-1.56,[],,,
,,,,,,,,,,
1205,TestRecordings/trahm.wav,0,audio-button-response,119,1127059,0.0-5.0-0.57,,,,
,,,,,,,,,,
1461,,"{""P0_Q0"":7}",survey,120,1128525,0.0-5.0-1.57,[],,,
,,,,,,,,,,
878,TestRecordings/stuun.wav,0,audio-button-response,121,1129411,0.0-5.0-0.58,,,,
,,,,,,,,,,
4171,,"{""P0_Q0"":5}",survey,122,1133589,0.0-5.0-1.58,[],,,
,,,,,,,,,,
942,TestRecordings/skain.wav,0,audio-button-response,123,1134539,0.0-5.0-0.59,,,,
,,,,,,,,,,
1667,,"{""P0_Q0"":6}",survey,124,1136212,0.0-5.0-1.59,[],,,
,,,,,,,,,,
3286,, ,html-keyboard-response,125,1139500,0.0-6.0,,,,
,,,,,,,,,,
138709,,"{""P0_Q0"":""19"",""P0_Q1"":""Male"",""P0_Q2"":""Yes"",""P0_Q3"":""German"",""P0_Q4"":""I have been learning the language since I was a child, but I am continuing my studies toward an intermediate level here in college."",""P0_Q5"":""Learned through various modes of instruction and at different rates throughout my childhood and as a teenager.""}",survey,126,1278244,0.0-7.0,[],,,
,,,,,,,,,,
126640,"<p style=""font-size:30px"">The experiment has ended</p><p style=""font-size:30px"",lang=""ko"">Thanks for participating in it!</p>", ,html-keyboard-response,127,1404882,0.0-8.0,,,,