rt,stimulus,response,trial_type,trial_index,time_elapsed,internal_node_id,accuracy,PracticeTest,ConsonantSequence,Grammaticality
,,,,,,,,,,
2728659,"<p style=""font-size:30px"">Welcome to the experiment</p><p>Press spacebar to continue</p>", ,html-keyboard-response,0,2728586,0.0-0.0,,,,
,,,,,,,,,,
9254,"<p style=""font-size:30px"">Please ensure that your headphones are on correctly</p><p>Press spacebar to continue</p>", ,html-keyboard-response,1,2737841,0.0-1.0,,,,
,,,,,,,,,,
2695,"<p style=""font-size:30px"">In this experiment, you will listen to nonsense words</p><p style=""font-size:30px"",lang=""ko"">Your task is to rate the nonsense word you heard as a possible word of American English</p><p>Press spacebar to continue</p>", ,html-keyboard-response,2,2740536,0.0-2.0,,,,
,,,,,,,,,,
2215,, ,html-keyboard-response,3,2742753,0.0-3.0,,,,
,,,,,,,,,,
1943,"<p style=""font-size:30px"">Now let's move on to the actual experiment.</p><p style=""font-size:30px"",lang=""ko"">During the experiment, you will hear each of the nonce words only once.</p><p>Press spacebar to continue</p>", ,html-keyboard-response,4,2744696,0.0-4.0,,,,
,,,,,,,,,,
3604,TestRecordings/drantung.wav,0,audio-button-response,5,2748311,0.0-5.0-0.0,,,,
,,,,,,,,,,
5956,,"{""P0_Q0"":4}",survey,6,2754308,0.0-5.0-1.0,[],,,
,,,,,,,,,,
2218,TestRecordings/twas.wav,0,audio-button-response,7,2756534,0.0-5.0-0.1,,,,
,,,,,,,,,,
2831,,"{""P0_Q0"":1}",survey,8,2759378,0.0-5.0-1.1,[],,,
,,,,,,,,,,
1165,TestRecordings/skain.wav,0,audio-button-response,9,2760550,0.0-5.0-0.2,,,,
,,,,,,,,,,
2425,,"{""P0_Q0"":1}",survey,10,2762988,0.0-5.0-1.2,[],,,
,,,,,,,,,,
1291,TestRecordings/gitpes.wav,0,audio-button-response,11,2764286,0.0-5.0-0.3,,,,
,,,,,,,,,,
4185,,"{""P0_Q0"":1}",survey,12,2768482,0.0-5.0-1.3,[],,,
,,,,,,,,,,
2374,TestRecordings/tlumgak.wav,0,audio-button-response,13,2770862,0.0-5.0-0.4,,,,
,,,,,,,,,,
3306,,"{""P0_Q0"":1}",survey,14,2774177,0.0-5.0-1.4,[],,,
,,,,,,,,,,
1334,TestRecordings/dlemkus.wav,0,audio-button-response,15,2775517,0.0-5.0-0.5,,,,
,,,,,,,,,,
1817,,"{""P0_Q0"":3}",survey,16,2777344,0.0-5.0-1.5,[],,,
,,,,,,,,,,
1142,TestRecordings/giit.wav,0,audio-button-response,17,2778494,0.0-5.0-0.6,,,,
,,,,,,,,,,
3635,,"{""P0_Q0"":6}",survey,18,2782137,0.0-5.0-1.6,[],,,
,,,,,,,,,,
1205,TestRecordings/gipsus.wav,0,audio-button-response,19,2783350,0.0-5.0-0.7,,,,
,,,,,,,,,,
2739,,"{""P0_Q0"":3}",survey,20,2786097,0.0-5.0-1.7,[],,,
,,,,,,,,,,
4974,TestRecordings/trindes.wav,0,audio-button-response,21,2791077,0.0-5.0-0.8,,,,
,,,,,,,,,,
2851,,"{""P0_Q0"":3}",survey,22,2793936,0.0-5.0-1.8,[],,,
,,,,,,,,,,
1958,TestRecordings/tlik.wav,0,audio-button-response,23,2795901,0.0-5.0-0.9,,,,
,,,,,,,,,,
3804,,"{""P0_Q0"":7}",survey,24,2799713,0.0-5.0-1.9,[],,,
,,,,,,,,,,
981,TestRecordings/bem.wav,0,audio-button-response,25,2800701,0.0-5.0-0.10,,,,
,,,,,,,,,,
2947,,"{""P0_Q0"":2}",survey,26,2803656,0.0-5.0-1.10,[],,,
,,,,,,,,,,
2046,TestRecordings/tlipgat.wav,0,audio-button-response,27,2805709,0.0-5.0-0.11,,,,
,,,,,,,,,,
4675,,"{""P0_Q0"":1}",survey,28,2810391,0.0-5.0-1.11,[],,,
,,,,,,,,,,
1166,TestRecordings/dmut.wav,0,audio-button-response,29,2811565,0.0-5.0-0.12,,,,
,,,,,,,,,,
2876,,"{""P0_Q0"":1}",survey,30,2814447,0.0-5.0-1.12,[],,,
,,,,,,,,,,
1471,TestRecordings/tlem.wav,0,audio-button-response,31,2815924,0.0-5.0-0.13,,,,
,,,,,,,,,,
2180,,"{""P0_Q0"":7}",survey,32,2818112,0.0-5.0-1.13,[],,,
,,,,,,,,,,
3636,TestRecordings/tlemkun.wav,0,audio-button-response,33,2821756,0.0-5.0-0.14,,,,
,,,,,,,,,,
2820,,"{""P0_Q0"":1}",survey,34,2824583,0.0-5.0-1.14,[],,,
,,,,,,,,,,
1869,TestRecordings/drikteng.wav,0,audio-button-response,35,2826459,0.0-5.0-0.15,,,,
,,,,,,,,,,
2117,,"{""P0_Q0"":1}",survey,36,2828582,0.0-5.0-1.15,[],,,
,,,,,,,,,,
2071,TestRecordings/stahm.wav,0,audio-button-response,37,2830660,0.0-5.0-0.16,,,,
,,,,,,,,,,
3924,,"{""P0_Q0"":3}",survey,38,2834590,0.0-5.0-1.16,[],,,
,,,,,,,,,,
1911,TestRecordings/stauk.wav,0,audio-button-response,39,2836507,0.0-5.0-0.17,,,,
,,,,,,,,,,
5676,,"{""P0_Q0"":5}",survey,40,2842191,0.0-5.0-1.17,[],,,
,,,,,,,,,,
2038,TestRecordings/nutbim.wav,0,audio-button-response,41,2844235,0.0-5.0-0.18,,,,
,,,,,,,,,,
2460,,"{""P0_Q0"":1}",survey,42,2846701,0.0-5.0-1.18,[],,,
,,,,,,,,,,
1910,TestRecordings/paim.wav,0,audio-button-response,43,2848618,0.0-5.0-0.19,,,,
,,,,,,,,,,
4045,,"{""P0_Q0"":4}",survey,44,2852670,0.0-5.0-1.19,[],,,
,,,,,,,,,,
2518,TestRecordings/dlahm.wav,0,audio-button-response,45,2855194,0.0-5.0-0.20,,,,
,,,,,,,,,,
1483,,"{""P0_Q0"":1}",survey,46,2856686,0.0-5.0-1.20,[],,,
,,,,,,,,,,
1006,TestRecordings/nboup.wav,0,audio-button-response,47,2857699,0.0-5.0-0.21,,,,
,,,,,,,,,,
1604,,"{""P0_Q0"":1}",survey,48,2859309,0.0-5.0-1.21,[],,,
,,,,,,,,,,
1207,TestRecordings/ningpum.wav,0,audio-button-response,49,2860522,0.0-5.0-0.22,,,,
,,,,,,,,,,
3116,,"{""P0_Q0"":1}",survey,50,2863646,0.0-5.0-1.22,[],,,
,,,,,,,,,,
1127,TestRecordings/ndeip.wav,0,audio-button-response,51,2864779,0.0-5.0-0.23,,,,
,,,,,,,,,,
2916,,"{""P0_Q0"":1}",survey,52,2867701,0.0-5.0-1.23,[],,,
,,,,,,,,,,
1487,TestRecordings/pemdut.wav,0,audio-button-response,53,2869195,0.0-5.0-0.24,,,,
,,,,,,,,,,
1387,,"{""P0_Q0"":1}",survey,54,2870589,0.0-5.0-1.24,[],,,
,,,,,,,,,,
1455,TestRecordings/dlisbep.wav,0,audio-button-response,55,2872050,0.0-5.0-0.25,,,,
,,,,,,,,,,
1892,,"{""P0_Q0"":1}",survey,56,2873949,0.0-5.0-1.25,[],,,
,,,,,,,,,,
1144,TestRecordings/gistum.wav,0,audio-button-response,57,2875098,0.0-5.0-0.26,,,,
,,,,,,,,,,
2100,,"{""P0_Q0"":1}",survey,58,2877204,0.0-5.0-1.26,[],,,
,,,,,,,,,,
1133,TestRecordings/pwam.wav,0,audio-button-response,59,2878346,0.0-5.0-0.27,,,,
,,,,,,,,,,
2372,,"{""P0_Q0"":2}",survey,60,2880725,0.0-5.0-1.27,[],,,
,,,,,,,,,,
2198,TestRecordings/tep.wav,0,audio-button-response,61,2882930,0.0-5.0-0.28,,,,
,,,,,,,,,,
3485,,"{""P0_Q0"":7}",survey,62,2886420,0.0-5.0-1.28,[],,,
,,,,,,,,,,
1231,TestRecordings/stuun.wav,0,audio-button-response,63,2887657,0.0-5.0-0.29,,,,
,,,,,,,,,,
1892,,"{""P0_Q0"":4}",survey,64,2889556,0.0-5.0-1.29,[],,,
,,,,,,,,,,
942,TestRecordings/twen.wav,0,audio-button-response,65,2890505,0.0-5.0-0.30,,,,
,,,,,,,,,,
1485,,"{""P0_Q0"":7}",survey,66,2891995,0.0-5.0-1.30,[],,,
,,,,,,,,,,
832,TestRecordings/dloun.wav,0,audio-button-response,67,2892834,0.0-5.0-0.31,,,,
,,,,,,,,,,
2622,,"{""P0_Q0"":7}",survey,68,2895461,0.0-5.0-1.31,[],,,
,,,,,,,,,,
1046,TestRecordings/mgit.wav,0,audio-button-response,69,2896514,0.0-5.0-0.32,,,,
,,,,,,,,,,
1573,,"{""P0_Q0"":7}",survey,70,2898092,0.0-5.0-1.32,[],,,
,,,,,,,,,,
973,TestRecordings/ntek.wav,0,audio-button-response,71,2899073,0.0-5.0-0.33,,,,
,,,,,,,,,,
1884,,"{""P0_Q0"":7}",survey,72,2900965,0.0-5.0-1.33,[],,,
,,,,,,,,,,
1222,TestRecordings/gatkun.wav,0,audio-button-response,73,2902193,0.0-5.0-0.34,,,,
,,,,,,,,,,
1363,,"{""P0_Q0"":1}",survey,74,2903563,0.0-5.0-1.34,[],,,
,,,,,,,,,,
1207,TestRecordings/kmaut.wav,0,audio-button-response,75,2904777,0.0-5.0-0.35,,,,
,,,,,,,,,,
3805,,"{""P0_Q0"":6}",survey,76,2908587,0.0-5.0-1.35,[],,,
,,,,,,,,,,
1166,TestRecordings/drustet.wav,0,audio-button-response,77,2909761,0.0-5.0-0.36,,,,
,,,,,,,,,,
2045,,"{""P0_Q0"":1}",survey,78,2911811,0.0-5.0-1.36,[],,,
,,,,,,,,,,
1359,TestRecordings/kutpim.wav,0,audio-button-response,79,2913176,0.0-5.0-0.37,,,,
,,,,,,,,,,
4932,,"{""P0_Q0"":1}",survey,80,2918115,0.0-5.0-1.37,[],,,
,,,,,,,,,,
902,TestRecordings/tloum.wav,0,audio-button-response,81,2919025,0.0-5.0-0.38,,,,
,,,,,,,,,,
2149,,"{""P0_Q0"":7}",survey,82,2921179,0.0-5.0-1.38,[],,,
,,,,,,,,,,
2703,TestRecordings/tempuk.wav,0,audio-button-response,83,2923888,0.0-5.0-0.39,,,,
,,,,,,,,,,
1805,,"{""P0_Q0"":5}",survey,84,2925699,0.0-5.0-1.39,[],,,
,,,,,,,,,,
1376,TestRecordings/pundes.wav,0,audio-button-response,85,2927080,0.0-5.0-0.40,,,,
,,,,,,,,,,
1357,,"{""P0_Q0"":1}",survey,86,2928442,0.0-5.0-1.40,[],,,
,,,,,,,,,,
1278,TestRecordings/sengdun.wav,0,audio-button-response,87,2929728,0.0-5.0-0.41,,,,
,,,,,,,,,,
2918,,"{""P0_Q0"":1}",survey,88,2932651,0.0-5.0-1.41,[],,,
,,,,,,,,,,
830,TestRecordings/bepgik.wav,0,audio-button-response,89,2933487,0.0-5.0-0.42,,,,
,,,,,,,,,,
2836,,"{""P0_Q0"":2}",survey,90,2936330,0.0-5.0-1.42,[],,,
,,,,,,,,,,
1239,TestRecordings/punseng.wav,0,audio-button-response,91,2937575,0.0-5.0-0.43,,,,
,,,,,,,,,,
1597,,"{""P0_Q0"":1}",survey,92,2939177,0.0-5.0-1.43,[],,,
,,,,,,,,,,
1079,TestRecordings/kmeip.wav,0,audio-button-response,93,2940264,0.0-5.0-0.44,,,,
,,,,,,,,,,
3053,,"{""P0_Q0"":1}",survey,94,2943322,0.0-5.0-1.44,[],,,
,,,,,,,,,,
1109,TestRecordings/tisbeng.wav,0,audio-button-response,95,2944439,0.0-5.0-0.45,,,,
,,,,,,,,,,
1524,,"{""P0_Q0"":1}",survey,96,2945970,0.0-5.0-1.45,[],,,
,,,,,,,,,,
1391,TestRecordings/nangdup.wav,0,audio-button-response,97,2947367,0.0-5.0-0.46,,,,
,,,,,,,,,,
1861,,"{""P0_Q0"":1}",survey,98,2949234,0.0-5.0-1.46,[],,,
,,,,,,,,,,
1591,TestRecordings/pwuk.wav,0,audio-button-response,99,2950831,0.0-5.0-0.47,,,,
,,,,,,,,,,
2405,,"{""P0_Q0"":5}",survey,100,2953242,0.0-5.0-1.47,[],,,
,,,,,,,,,,
1183,TestRecordings/gup.wav,0,audio-button-response,101,2954431,0.0-5.0-0.48,,,,
,,,,,,,,,,
1517,,"{""P0_Q0"":1}",survey,102,2955954,0.0-5.0-1.48,[],,,
,,,,,,,,,,
1638,TestRecordings/pmiik.wav,0,audio-button-response,103,2957599,0.0-5.0-0.49,,,,
,,,,,,,,,,
1420,,"{""P0_Q0"":1}",survey,104,2959026,0.0-5.0-1.49,[],,,
,,,,,,,,,,
2070,TestRecordings/suntem.wav,0,audio-button-response,105,2961104,0.0-5.0-0.50,,,,
,,,,,,,,,,
1732,,"{""P0_Q0"":2}",survey,106,2962840,0.0-5.0-1.50,[],,,
,,,,,,,,,,
1367,TestRecordings/tlasdung.wav,0,audio-button-response,107,2964215,0.0-5.0-0.51,,,,
,,,,,,,,,,
1413,,"{""P0_Q0"":2}",survey,108,2965634,0.0-5.0-1.51,[],,,
,,,,,,,,,,
1054,TestRecordings/drumbeng.wav,0,audio-button-response,109,2966694,0.0-5.0-0.52,,,,
,,,,,,,,,,
1573,,"{""P0_Q0"":2}",survey,110,2968273,0.0-5.0-1.52,[],,,
,,,,,,,,,,
1327,TestRecordings/trahm.wav,0,audio-button-response,111,2969606,0.0-5.0-0.53,,,,
,,,,,,,,,,
2892,,"{""P0_Q0"":2}",survey,112,2972504,0.0-5.0-1.53,[],,,
,,,,,,,,,,
885,TestRecordings/mkait.wav,0,audio-button-response,113,2973399,0.0-5.0-0.54,,,,
,,,,,,,,,,
7597,,"{""P0_Q0"":7}",survey,114,2981001,0.0-5.0-1.54,[],,,
,,,,,,,,,,
733,TestRecordings/mepgut.wav,0,audio-button-response,115,2981742,0.0-5.0-0.55,,,,
,,,,,,,,,,
3324,,"{""P0_Q0"":1}",survey,116,2985072,0.0-5.0-1.55,[],,,
,,,,,,,,,,
887,TestRecordings/drain.wav,0,audio-button-response,117,2985966,0.0-5.0-0.56,,,,
,,,,,,,,,,
1956,,"{""P0_Q0"":1}",survey,118,2987928,0.0-5.0-1.56,[],,,
,,,,,,,,,,
647,TestRecordings/tlepgim.wav,0,audio-button-response,119,2988582,0.0-5.0-0.57,,,,
,,,,,,,,,,
1260,,"{""P0_Q0"":1}",survey,120,2989848,0.0-5.0-1.57,[],,,
,,,,,,,,,,
1135,TestRecordings/pmeit.wav,0,audio-button-response,121,2990990,0.0-5.0-0.58,,,,
,,,,,,,,,,
3805,,"{""P0_Q0"":5}",survey,122,2994800,0.0-5.0-1.58,[],,,
,,,,,,,,,,
726,TestRecordings/drakpum.wav,0,audio-button-response,123,2995534,0.0-5.0-0.59,,,,
,,,,,,,,,,
2082,,"{""P0_Q0"":1}",survey,124,2997622,0.0-5.0-1.59,[],,,
,,,,,,,,,,
3695,, ,html-keyboard-response,125,3001319,0.0-6.0,,,,
,,,,,,,,,,
65295,,"{""P0_Q0"":""23"",""P0_Q1"":""female"",""P0_Q2"":""yes"",""P0_Q3"":""spanish, french"",""P0_Q4"":""Spanish -3 years old(20 years) French-15 years old (4 years)"",""P0_Q5"":""My learning experience with french has been easy because of a spanish background""}",survey,126,3066655,0.0-7.0,[],,,
,,,,,,,,,,
21411,"<p style=""font-size:30px"">The experiment has ended</p><p style=""font-size:30px"",lang=""ko"">Thanks for participating in it!</p>", ,html-keyboard-response,127,3088068,0.0-8.0,,,,