rt,stimulus,response,trial_type,trial_index,time_elapsed,internal_node_id,accuracy,PracticeTest,ConsonantSequence,Grammaticality
,,,,,,,,,,
770428,"<p style=""font-size:30px"">Welcome to the experiment</p><p>Press spacebar to continue</p>", ,html-keyboard-response,0,770394,0.0-0.0,,,,
,,,,,,,,,,
3607,"<p style=""font-size:30px"">Please ensure that your headphones are on correctly</p><p>Press spacebar to continue</p>", ,html-keyboard-response,1,774003,0.0-1.0,,,,
,,,,,,,,,,
5556,"<p style=""font-size:30px"">In this experiment, you will listen to nonsense words</p><p style=""font-size:30px"",lang=""ko"">Your task is to rate the nonsense word you heard as a possible word of American English</p><p>Press spacebar to continue</p>", ,html-keyboard-response,2,779559,0.0-2.0,,,,
,,,,,,,,,,
1231,, ,html-keyboard-response,3,780791,0.0-3.0,,,,
,,,,,,,,,,
4984,"<p style=""font-size:30px"">Now let's move on to the actual experiment.</p><p style=""font-size:30px"",lang=""ko"">During the experiment, you will hear each of the nonce words only once.</p><p>Press spacebar to continue</p>", ,html-keyboard-response,4,785775,0.0-4.0,,,,
,,,,,,,,,,
1811,TestRecordings/dlemkus.wav,0,audio-button-response,5,787607,0.0-5.0-0.0,,,,
,,,,,,,,,,
8072,,"{""P0_Q0"":4}",survey,6,795715,0.0-5.0-1.0,[],,,
,,,,,,,,,,
1337,TestRecordings/pemdut.wav,0,audio-button-response,7,797062,0.0-5.0-0.1,,,,
,,,,,,,,,,
2278,,"{""P0_Q0"":4}",survey,8,799356,0.0-5.0-1.1,[],,,
,,,,,,,,,,
1106,TestRecordings/dlisbep.wav,0,audio-button-response,9,800470,0.0-5.0-0.2,,,,
,,,,,,,,,,
1825,,"{""P0_Q0"":3}",survey,10,802306,0.0-5.0-1.2,[],,,
,,,,,,,,,,
1041,TestRecordings/gipsus.wav,0,audio-button-response,11,803358,0.0-5.0-0.3,,,,
,,,,,,,,,,
2089,,"{""P0_Q0"":6}",survey,12,805457,0.0-5.0-1.3,[],,,
,,,,,,,,,,
1124,TestRecordings/trindes.wav,0,audio-button-response,13,806590,0.0-5.0-0.4,,,,
,,,,,,,,,,
2225,,"{""P0_Q0"":6}",survey,14,808825,0.0-5.0-1.4,[],,,
,,,,,,,,,,
1068,TestRecordings/kutpim.wav,0,audio-button-response,15,809902,0.0-5.0-0.5,,,,
,,,,,,,,,,
2610,,"{""P0_Q0"":2}",survey,16,812521,0.0-5.0-1.5,[],,,
,,,,,,,,,,
1069,TestRecordings/drustet.wav,0,audio-button-response,17,813597,0.0-5.0-0.6,,,,
,,,,,,,,,,
2563,,"{""P0_Q0"":6}",survey,18,816167,0.0-5.0-1.6,[],,,
,,,,,,,,,,
1173,TestRecordings/punseng.wav,0,audio-button-response,19,817349,0.0-5.0-0.7,,,,
,,,,,,,,,,
1740,,"{""P0_Q0"":7}",survey,20,819096,0.0-5.0-1.7,[],,,
,,,,,,,,,,
1068,TestRecordings/tlem.wav,0,audio-button-response,21,820173,0.0-5.0-0.8,,,,
,,,,,,,,,,
1811,,"{""P0_Q0"":6}",survey,22,821992,0.0-5.0-1.8,[],,,
,,,,,,,,,,
1740,TestRecordings/suntem.wav,0,audio-button-response,23,823741,0.0-5.0-0.9,,,,
,,,,,,,,,,
3083,,"{""P0_Q0"":2}",survey,24,826832,0.0-5.0-1.9,[],,,
,,,,,,,,,,
1379,TestRecordings/mkait.wav,0,audio-button-response,25,828221,0.0-5.0-0.10,,,,
,,,,,,,,,,
1996,,"{""P0_Q0"":6}",survey,26,830226,0.0-5.0-1.10,[],,,
,,,,,,,,,,
1114,TestRecordings/tempuk.wav,0,audio-button-response,27,831349,0.0-5.0-0.11,,,,
,,,,,,,,,,
2612,,"{""P0_Q0"":4}",survey,28,833967,0.0-5.0-1.11,[],,,
,,,,,,,,,,
1252,TestRecordings/stahm.wav,0,audio-button-response,29,835229,0.0-5.0-0.12,,,,
,,,,,,,,,,
1355,,"{""P0_Q0"":7}",survey,30,836591,0.0-5.0-1.12,[],,,
,,,,,,,,,,
1180,TestRecordings/gitpes.wav,0,audio-button-response,31,837781,0.0-5.0-0.13,,,,
,,,,,,,,,,
1013,,"{""P0_Q0"":2}",survey,32,838800,0.0-5.0-1.13,[],,,
,,,,,,,,,,
821,TestRecordings/drain.wav,0,audio-button-response,33,839628,0.0-5.0-0.14,,,,
,,,,,,,,,,
1604,,"{""P0_Q0"":5}",survey,34,841238,0.0-5.0-1.14,[],,,
,,,,,,,,,,
942,TestRecordings/tlemkun.wav,0,audio-button-response,35,842189,0.0-5.0-0.15,,,,
,,,,,,,,,,
2477,,"{""P0_Q0"":5}",survey,36,844671,0.0-5.0-1.15,[],,,
,,,,,,,,,,
924,TestRecordings/pundes.wav,0,audio-button-response,37,845604,0.0-5.0-0.16,,,,
,,,,,,,,,,
2179,,"{""P0_Q0"":6}",survey,38,847791,0.0-5.0-1.16,[],,,
,,,,,,,,,,
1061,TestRecordings/giit.wav,0,audio-button-response,39,848861,0.0-5.0-0.17,,,,
,,,,,,,,,,
1877,,"{""P0_Q0"":7}",survey,40,850742,0.0-5.0-1.17,[],,,
,,,,,,,,,,
885,TestRecordings/pmiik.wav,0,audio-button-response,41,851635,0.0-5.0-0.18,,,,
,,,,,,,,,,
1874,,"{""P0_Q0"":7}",survey,42,853518,0.0-5.0-1.18,[],,,
,,,,,,,,,,
750,TestRecordings/tloum.wav,0,audio-button-response,43,854276,0.0-5.0-0.19,,,,
,,,,,,,,,,
1308,,"{""P0_Q0"":2}",survey,44,855590,0.0-5.0-1.19,[],,,
,,,,,,,,,,
669,TestRecordings/pwuk.wav,0,audio-button-response,45,856267,0.0-5.0-0.20,,,,
,,,,,,,,,,
2420,,"{""P0_Q0"":5}",survey,46,858694,0.0-5.0-1.20,[],,,
,,,,,,,,,,
766,TestRecordings/ntek.wav,0,audio-button-response,47,859468,0.0-5.0-0.21,,,,
,,,,,,,,,,
1170,,"{""P0_Q0"":6}",survey,48,860646,0.0-5.0-1.21,[],,,
,,,,,,,,,,
773,TestRecordings/gistum.wav,0,audio-button-response,49,861427,0.0-5.0-0.22,,,,
,,,,,,,,,,
2916,,"{""P0_Q0"":7}",survey,50,864349,0.0-5.0-1.22,[],,,
,,,,,,,,,,
933,TestRecordings/tlasdung.wav,0,audio-button-response,51,865292,0.0-5.0-0.23,,,,
,,,,,,,,,,
1546,,"{""P0_Q0"":7}",survey,52,866845,0.0-5.0-1.23,[],,,
,,,,,,,,,,
815,TestRecordings/twen.wav,0,audio-button-response,53,867666,0.0-5.0-0.24,,,,
,,,,,,,,,,
2756,,"{""P0_Q0"":5}",survey,54,870430,0.0-5.0-1.24,[],,,
,,,,,,,,,,
1154,TestRecordings/drikteng.wav,0,audio-button-response,55,871595,0.0-5.0-0.25,,,,
,,,,,,,,,,
1228,,"{""P0_Q0"":2}",survey,56,872829,0.0-5.0-1.25,[],,,
,,,,,,,,,,
947,TestRecordings/ningpum.wav,0,audio-button-response,57,873786,0.0-5.0-0.26,,,,
,,,,,,,,,,
1757,,"{""P0_Q0"":1}",survey,58,875550,0.0-5.0-1.26,[],,,
,,,,,,,,,,
1060,TestRecordings/stuun.wav,0,audio-button-response,59,876619,0.0-5.0-0.27,,,,
,,,,,,,,,,
1627,,"{""P0_Q0"":5}",survey,60,878253,0.0-5.0-1.27,[],,,
,,,,,,,,,,
748,TestRecordings/sengdun.wav,0,audio-button-response,61,879010,0.0-5.0-0.28,,,,
,,,,,,,,,,
2499,,"{""P0_Q0"":2}",survey,62,881517,0.0-5.0-1.28,[],,,
,,,,,,,,,,
711,TestRecordings/bem.wav,0,audio-button-response,63,882235,0.0-5.0-0.29,,,,
,,,,,,,,,,
1993,,"{""P0_Q0"":7}",survey,64,884236,0.0-5.0-1.29,[],,,
,,,,,,,,,,
886,TestRecordings/tlumgak.wav,0,audio-button-response,65,885131,0.0-5.0-0.30,,,,
,,,,,,,,,,
1122,,"{""P0_Q0"":2}",survey,66,886261,0.0-5.0-1.30,[],,,
,,,,,,,,,,
1445,TestRecordings/dlahm.wav,0,audio-button-response,67,887715,0.0-5.0-0.31,,,,
,,,,,,,,,,
1452,,"{""P0_Q0"":5}",survey,68,889173,0.0-5.0-1.31,[],,,
,,,,,,,,,,
622,TestRecordings/ndeip.wav,0,audio-button-response,69,889802,0.0-5.0-0.32,,,,
,,,,,,,,,,
1307,,"{""P0_Q0"":4}",survey,70,891117,0.0-5.0-1.32,[],,,
,,,,,,,,,,
541,TestRecordings/nangdup.wav,0,audio-button-response,71,891666,0.0-5.0-0.33,,,,
,,,,,,,,,,
1579,,"{""P0_Q0"":5}",survey,72,893252,0.0-5.0-1.33,[],,,
,,,,,,,,,,
981,TestRecordings/stauk.wav,0,audio-button-response,73,894243,0.0-5.0-0.34,,,,
,,,,,,,,,,
2516,,"{""P0_Q0"":4}",survey,74,896764,0.0-5.0-1.34,[],,,
,,,,,,,,,,
1071,TestRecordings/drakpum.wav,0,audio-button-response,75,897842,0.0-5.0-0.35,,,,
,,,,,,,,,,
3653,,"{""P0_Q0"":3}",survey,76,901501,0.0-5.0-1.35,[],,,
,,,,,,,,,,
645,TestRecordings/bepgik.wav,0,audio-button-response,77,902154,0.0-5.0-0.36,,,,
,,,,,,,,,,
1043,,"{""P0_Q0"":3}",survey,78,903203,0.0-5.0-1.36,[],,,
,,,,,,,,,,
1006,TestRecordings/trahm.wav,0,audio-button-response,79,904218,0.0-5.0-0.37,,,,
,,,,,,,,,,
1243,,"{""P0_Q0"":6}",survey,80,905468,0.0-5.0-1.37,[],,,
,,,,,,,,,,
534,TestRecordings/tep.wav,0,audio-button-response,81,906009,0.0-5.0-0.38,,,,
,,,,,,,,,,
1275,,"{""P0_Q0"":6}",survey,82,907291,0.0-5.0-1.38,[],,,
,,,,,,,,,,
781,TestRecordings/skain.wav,0,audio-button-response,83,908081,0.0-5.0-0.39,,,,
,,,,,,,,,,
1539,,"{""P0_Q0"":6}",survey,84,909628,0.0-5.0-1.39,[],,,
,,,,,,,,,,
670,TestRecordings/kmeip.wav,0,audio-button-response,85,910305,0.0-5.0-0.40,,,,
,,,,,,,,,,
1379,,"{""P0_Q0"":3}",survey,86,911692,0.0-5.0-1.40,[],,,
,,,,,,,,,,
541,TestRecordings/tisbeng.wav,0,audio-button-response,87,912241,0.0-5.0-0.41,,,,
,,,,,,,,,,
1181,,"{""P0_Q0"":5}",survey,88,913428,0.0-5.0-1.41,[],,,
,,,,,,,,,,
774,TestRecordings/gup.wav,0,audio-button-response,89,914210,0.0-5.0-0.42,,,,
,,,,,,,,,,
2107,,"{""P0_Q0"":2}",survey,90,916323,0.0-5.0-1.42,[],,,
,,,,,,,,,,
1060,TestRecordings/paim.wav,0,audio-button-response,91,917393,0.0-5.0-0.43,,,,
,,,,,,,,,,
1234,,"{""P0_Q0"":6}",survey,92,918635,0.0-5.0-1.43,[],,,
,,,,,,,,,,
871,TestRecordings/drumbeng.wav,0,audio-button-response,93,919512,0.0-5.0-0.44,,,,
,,,,,,,,,,
1003,,"{""P0_Q0"":2}",survey,94,920523,0.0-5.0-1.44,[],,,
,,,,,,,,,,
742,TestRecordings/nboup.wav,0,audio-button-response,95,921273,0.0-5.0-0.45,,,,
,,,,,,,,,,
1189,,"{""P0_Q0"":1}",survey,96,922468,0.0-5.0-1.45,[],,,
,,,,,,,,,,
917,TestRecordings/dmut.wav,0,audio-button-response,97,923393,0.0-5.0-0.46,,,,
,,,,,,,,,,
1043,,"{""P0_Q0"":3}",survey,98,924442,0.0-5.0-1.46,[],,,
,,,,,,,,,,
710,TestRecordings/mgit.wav,0,audio-button-response,99,925160,0.0-5.0-0.47,,,,
,,,,,,,,,,
1348,,"{""P0_Q0"":1}",survey,100,926515,0.0-5.0-1.47,[],,,
,,,,,,,,,,
1117,TestRecordings/nutbim.wav,0,audio-button-response,101,927641,0.0-5.0-0.48,,,,
,,,,,,,,,,
1499,,"{""P0_Q0"":1}",survey,102,929147,0.0-5.0-1.48,[],,,
,,,,,,,,,,
759,TestRecordings/pwam.wav,0,audio-button-response,103,929912,0.0-5.0-0.49,,,,
,,,,,,,,,,
1451,,"{""P0_Q0"":1}",survey,104,931371,0.0-5.0-1.49,[],,,
,,,,,,,,,,
718,TestRecordings/mepgut.wav,0,audio-button-response,105,932097,0.0-5.0-0.50,,,,
,,,,,,,,,,
1267,,"{""P0_Q0"":1}",survey,106,933370,0.0-5.0-1.50,[],,,
,,,,,,,,,,
721,TestRecordings/pmeit.wav,0,audio-button-response,107,934099,0.0-5.0-0.51,,,,
,,,,,,,,,,
1433,,"{""P0_Q0"":1}",survey,108,935538,0.0-5.0-1.51,[],,,
,,,,,,,,,,
854,TestRecordings/drantung.wav,0,audio-button-response,109,936401,0.0-5.0-0.52,,,,
,,,,,,,,,,
1787,,"{""P0_Q0"":1}",survey,110,938194,0.0-5.0-1.52,[],,,
,,,,,,,,,,
671,TestRecordings/tlepgim.wav,0,audio-button-response,111,938872,0.0-5.0-0.53,,,,
,,,,,,,,,,
1339,,"{""P0_Q0"":1}",survey,112,940218,0.0-5.0-1.53,[],,,
,,,,,,,,,,
646,TestRecordings/tlik.wav,0,audio-button-response,113,940872,0.0-5.0-0.54,,,,
,,,,,,,,,,
1100,,"{""P0_Q0"":1}",survey,114,941978,0.0-5.0-1.54,[],,,
,,,,,,,,,,
734,TestRecordings/twas.wav,0,audio-button-response,115,942720,0.0-5.0-0.55,,,,
,,,,,,,,,,
2411,,"{""P0_Q0"":5}",survey,116,945138,0.0-5.0-1.55,[],,,
,,,,,,,,,,
806,TestRecordings/tlipgat.wav,0,audio-button-response,117,945953,0.0-5.0-0.56,,,,
,,,,,,,,,,
1620,,"{""P0_Q0"":6}",survey,118,947578,0.0-5.0-1.56,[],,,
,,,,,,,,,,
941,TestRecordings/kmaut.wav,0,audio-button-response,119,948528,0.0-5.0-0.57,,,,
,,,,,,,,,,
1629,,"{""P0_Q0"":5}",survey,120,950162,0.0-5.0-1.57,[],,,
,,,,,,,,,,
717,TestRecordings/dloun.wav,0,audio-button-response,121,950887,0.0-5.0-0.58,,,,
,,,,,,,,,,
1740,,"{""P0_Q0"":6}",survey,122,952634,0.0-5.0-1.58,[],,,
,,,,,,,,,,
1286,TestRecordings/gatkun.wav,0,audio-button-response,123,953927,0.0-5.0-0.59,,,,
,,,,,,,,,,
2996,,"{""P0_Q0"":6}",survey,124,956930,0.0-5.0-1.59,[],,,
,,,,,,,,,,
4125,, ,html-keyboard-response,125,961056,0.0-6.0,,,,
,,,,,,,,,,
117276,,"{""P0_Q0"":""19"",""P0_Q1"":""Male"",""P0_Q2"":""Yes"",""P0_Q3"":""Hindi, Gujarati"",""P0_Q4"":""at age 4-5, languages spoken by my grandparents"",""P0_Q5"":""Learned through conversation with my grandparents when I was younger, in recent times consuming pop culture in those languages is how i stay familiar""}",survey,126,1078343,0.0-7.0,[],,,
,,,,,,,,,,
732604,"<p style=""font-size:30px"">The experiment has ended</p><p style=""font-size:30px"",lang=""ko"">Thanks for participating in it!</p>", ,html-keyboard-response,127,1810917,0.0-8.0,,,,