rt,stimulus,response,trial_type,trial_index,time_elapsed,internal_node_id,accuracy,PracticeTest,ConsonantSequence,Grammaticality
,,,,,,,,,,
840517,"<p style=""font-size:30px"">Welcome to the experiment</p><p>Press spacebar to continue</p>", ,html-keyboard-response,0,840483,0.0-0.0,,,,
,,,,,,,,,,
4435,"<p style=""font-size:30px"">Please ensure that your headphones are on correctly</p><p>Press spacebar to continue</p>", ,html-keyboard-response,1,844922,0.0-1.0,,,,
,,,,,,,,,,
3064,"<p style=""font-size:30px"">In this experiment, you will listen to nonsense words</p><p style=""font-size:30px"",lang=""ko"">Your task is to rate the nonsense word you heard as a possible word of American English</p><p>Press spacebar to continue</p>", ,html-keyboard-response,2,847986,0.0-2.0,,,,
,,,,,,,,,,
2783,, ,html-keyboard-response,3,850770,0.0-3.0,,,,
,,,,,,,,,,
6023,"<p style=""font-size:30px"">Now let's move on to the actual experiment.</p><p style=""font-size:30px"",lang=""ko"">During the experiment, you will hear each of the nonce words only once.</p><p>Press spacebar to continue</p>", ,html-keyboard-response,4,856794,0.0-4.0,,,,
,,,,,,,,,,
6260,TestRecordings/pwuk.wav,0,audio-button-response,5,863065,0.0-5.0-0.0,,,,
,,,,,,,,,,
23600,,"{""P0_Q0"":3}",survey,6,886701,0.0-5.0-1.0,[],,,
,,,,,,,,,,
6966,TestRecordings/ningpum.wav,0,audio-button-response,7,893672,0.0-5.0-0.1,,,,
,,,,,,,,,,
4015,,"{""P0_Q0"":2}",survey,8,897699,0.0-5.0-1.1,[],,,
,,,,,,,,,,
3581,TestRecordings/pwam.wav,0,audio-button-response,9,901287,0.0-5.0-0.2,,,,
,,,,,,,,,,
3215,,"{""P0_Q0"":1}",survey,10,904515,0.0-5.0-1.2,[],,,
,,,,,,,,,,
6263,TestRecordings/dloun.wav,0,audio-button-response,11,910782,0.0-5.0-0.3,,,,
,,,,,,,,,,
3010,,"{""P0_Q0"":5}",survey,12,913802,0.0-5.0-1.3,[],,,
,,,,,,,,,,
4055,TestRecordings/tlumgak.wav,0,audio-button-response,13,917862,0.0-5.0-0.4,,,,
,,,,,,,,,,
2521,,"{""P0_Q0"":1}",survey,14,920394,0.0-5.0-1.4,[],,,
,,,,,,,,,,
3400,TestRecordings/tlik.wav,0,audio-button-response,15,923798,0.0-5.0-0.5,,,,
,,,,,,,,,,
3055,,"{""P0_Q0"":2}",survey,16,926865,0.0-5.0-1.5,[],,,
,,,,,,,,,,
4175,TestRecordings/drumbeng.wav,0,audio-button-response,17,931046,0.0-5.0-0.6,,,,
,,,,,,,,,,
2035,,"{""P0_Q0"":2}",survey,18,933088,0.0-5.0-1.6,[],,,
,,,,,,,,,,
3040,TestRecordings/trindes.wav,0,audio-button-response,19,936134,0.0-5.0-0.7,,,,
,,,,,,,,,,
1900,,"{""P0_Q0"":6}",survey,20,938041,0.0-5.0-1.7,[],,,
,,,,,,,,,,
1744,TestRecordings/drain.wav,0,audio-button-response,21,939789,0.0-5.0-0.8,,,,
,,,,,,,,,,
3028,,"{""P0_Q0"":5}",survey,22,942824,0.0-5.0-1.8,[],,,
,,,,,,,,,,
2015,TestRecordings/nutbim.wav,0,audio-button-response,23,944846,0.0-5.0-0.9,,,,
,,,,,,,,,,
2459,,"{""P0_Q0"":2}",survey,24,947312,0.0-5.0-1.9,[],,,
,,,,,,,,,,
1639,TestRecordings/tempuk.wav,0,audio-button-response,25,948957,0.0-5.0-0.10,,,,
,,,,,,,,,,
3379,,"{""P0_Q0"":1}",survey,26,952344,0.0-5.0-1.10,[],,,
,,,,,,,,,,
1144,TestRecordings/tlem.wav,0,audio-button-response,27,953492,0.0-5.0-0.11,,,,
,,,,,,,,,,
2316,,"{""P0_Q0"":6}",survey,28,955815,0.0-5.0-1.11,[],,,
,,,,,,,,,,
1257,TestRecordings/dlahm.wav,0,audio-button-response,29,957076,0.0-5.0-0.12,,,,
,,,,,,,,,,
2060,,"{""P0_Q0"":7}",survey,30,959143,0.0-5.0-1.12,[],,,
,,,,,,,,,,
2040,TestRecordings/trahm.wav,0,audio-button-response,31,961188,0.0-5.0-0.13,,,,
,,,,,,,,,,
1483,,"{""P0_Q0"":6}",survey,32,962679,0.0-5.0-1.13,[],,,
,,,,,,,,,,
1400,TestRecordings/pmeit.wav,0,audio-button-response,33,964084,0.0-5.0-0.14,,,,
,,,,,,,,,,
2122,,"{""P0_Q0"":1}",survey,34,966215,0.0-5.0-1.14,[],,,
,,,,,,,,,,
1830,TestRecordings/tlemkun.wav,0,audio-button-response,35,968052,0.0-5.0-0.15,,,,
,,,,,,,,,,
2171,,"{""P0_Q0"":2}",survey,36,970230,0.0-5.0-1.15,[],,,
,,,,,,,,,,
1345,TestRecordings/dlisbep.wav,0,audio-button-response,37,971580,0.0-5.0-0.16,,,,
,,,,,,,,,,
1501,,"{""P0_Q0"":1}",survey,38,973086,0.0-5.0-1.16,[],,,
,,,,,,,,,,
2385,TestRecordings/dmut.wav,0,audio-button-response,39,975475,0.0-5.0-0.17,,,,
,,,,,,,,,,
1636,,"{""P0_Q0"":5}",survey,40,977119,0.0-5.0-1.17,[],,,
,,,,,,,,,,
2656,TestRecordings/pundes.wav,0,audio-button-response,41,979779,0.0-5.0-0.18,,,,
,,,,,,,,,,
1780,,"{""P0_Q0"":4}",survey,42,981566,0.0-5.0-1.18,[],,,
,,,,,,,,,,
1352,TestRecordings/nboup.wav,0,audio-button-response,43,982924,0.0-5.0-0.19,,,,
,,,,,,,,,,
1700,,"{""P0_Q0"":1}",survey,44,984630,0.0-5.0-1.19,[],,,
,,,,,,,,,,
1065,TestRecordings/stahm.wav,0,audio-button-response,45,985699,0.0-5.0-0.20,,,,
,,,,,,,,,,
1532,,"{""P0_Q0"":6}",survey,46,987238,0.0-5.0-1.20,[],,,
,,,,,,,,,,
1167,TestRecordings/stauk.wav,0,audio-button-response,47,988411,0.0-5.0-0.21,,,,
,,,,,,,,,,
1339,,"{""P0_Q0"":6}",survey,48,989757,0.0-5.0-1.21,[],,,
,,,,,,,,,,
1008,TestRecordings/dlemkus.wav,0,audio-button-response,49,990771,0.0-5.0-0.22,,,,
,,,,,,,,,,
1691,,"{""P0_Q0"":1}",survey,50,992469,0.0-5.0-1.22,[],,,
,,,,,,,,,,
945,TestRecordings/giit.wav,0,audio-button-response,51,993418,0.0-5.0-0.23,,,,
,,,,,,,,,,
2252,,"{""P0_Q0"":6}",survey,52,995677,0.0-5.0-1.23,[],,,
,,,,,,,,,,
881,TestRecordings/kmaut.wav,0,audio-button-response,53,996562,0.0-5.0-0.24,,,,
,,,,,,,,,,
1396,,"{""P0_Q0"":1}",survey,54,997965,0.0-5.0-1.24,[],,,
,,,,,,,,,,
1095,TestRecordings/paim.wav,0,audio-button-response,55,999066,0.0-5.0-0.25,,,,
,,,,,,,,,,
1907,,"{""P0_Q0"":3}",survey,56,1000981,0.0-5.0-1.25,[],,,
,,,,,,,,,,
1953,TestRecordings/ndeip.wav,0,audio-button-response,57,1002939,0.0-5.0-0.26,,,,
,,,,,,,,,,
2052,,"{""P0_Q0"":3}",survey,58,1004997,0.0-5.0-1.26,[],,,
,,,,,,,,,,
825,TestRecordings/skain.wav,0,audio-button-response,59,1005826,0.0-5.0-0.27,,,,
,,,,,,,,,,
2172,,"{""P0_Q0"":5}",survey,60,1008004,0.0-5.0-1.27,[],,,
,,,,,,,,,,
1048,TestRecordings/tloum.wav,0,audio-button-response,61,1009058,0.0-5.0-0.28,,,,
,,,,,,,,,,
1236,,"{""P0_Q0"":2}",survey,62,1010301,0.0-5.0-1.28,[],,,
,,,,,,,,,,
1096,TestRecordings/drustet.wav,0,audio-button-response,63,1011402,0.0-5.0-0.29,,,,
,,,,,,,,,,
1300,,"{""P0_Q0"":1}",survey,64,1012709,0.0-5.0-1.29,[],,,
,,,,,,,,,,
1024,TestRecordings/stuun.wav,0,audio-button-response,65,1013738,0.0-5.0-0.30,,,,
,,,,,,,,,,
1445,,"{""P0_Q0"":4}",survey,66,1015189,0.0-5.0-1.30,[],,,
,,,,,,,,,,
1024,TestRecordings/mepgut.wav,0,audio-button-response,67,1016217,0.0-5.0-0.31,,,,
,,,,,,,,,,
1533,,"{""P0_Q0"":1}",survey,68,1017756,0.0-5.0-1.31,[],,,
,,,,,,,,,,
817,TestRecordings/drakpum.wav,0,audio-button-response,69,1018577,0.0-5.0-0.32,,,,
,,,,,,,,,,
1990,,"{""P0_Q0"":1}",survey,70,1020572,0.0-5.0-1.32,[],,,
,,,,,,,,,,
943,TestRecordings/bepgik.wav,0,audio-button-response,71,1021522,0.0-5.0-0.33,,,,
,,,,,,,,,,
1337,,"{""P0_Q0"":1}",survey,72,1022868,0.0-5.0-1.33,[],,,
,,,,,,,,,,
864,TestRecordings/nangdup.wav,0,audio-button-response,73,1023738,0.0-5.0-0.34,,,,
,,,,,,,,,,
2085,,"{""P0_Q0"":1}",survey,74,1025827,0.0-5.0-1.34,[],,,
,,,,,,,,,,
1095,TestRecordings/gistum.wav,0,audio-button-response,75,1026930,0.0-5.0-0.35,,,,
,,,,,,,,,,
2355,,"{""P0_Q0"":2}",survey,76,1029292,0.0-5.0-1.35,[],,,
,,,,,,,,,,
985,TestRecordings/tisbeng.wav,0,audio-button-response,77,1030281,0.0-5.0-0.36,,,,
,,,,,,,,,,
1821,,"{""P0_Q0"":1}",survey,78,1032107,0.0-5.0-1.36,[],,,
,,,,,,,,,,
1416,TestRecordings/tlepgim.wav,0,audio-button-response,79,1033529,0.0-5.0-0.37,,,,
,,,,,,,,,,
2327,,"{""P0_Q0"":1}",survey,80,1035861,0.0-5.0-1.37,[],,,
,,,,,,,,,,
1023,TestRecordings/tep.wav,0,audio-button-response,81,1036889,0.0-5.0-0.38,,,,
,,,,,,,,,,
4827,,"{""P0_Q0"":3}",survey,82,1041723,0.0-5.0-1.38,[],,,
,,,,,,,,,,
832,TestRecordings/kmeip.wav,0,audio-button-response,83,1042560,0.0-5.0-0.39,,,,
,,,,,,,,,,
1291,,"{""P0_Q0"":1}",survey,84,1043859,0.0-5.0-1.39,[],,,
,,,,,,,,,,
1257,TestRecordings/tlasdung.wav,0,audio-button-response,85,1045120,0.0-5.0-0.40,,,,
,,,,,,,,,,
2083,,"{""P0_Q0"":1}",survey,86,1047211,0.0-5.0-1.40,[],,,
,,,,,,,,,,
865,TestRecordings/twen.wav,0,audio-button-response,87,1048080,0.0-5.0-0.41,,,,
,,,,,,,,,,
2420,,"{""P0_Q0"":4}",survey,88,1050507,0.0-5.0-1.41,[],,,
,,,,,,,,,,
832,TestRecordings/bem.wav,0,audio-button-response,89,1051344,0.0-5.0-0.42,,,,
,,,,,,,,,,
3501,,"{""P0_Q0"":3}",survey,90,1054851,0.0-5.0-1.42,[],,,
,,,,,,,,,,
728,TestRecordings/mkait.wav,0,audio-button-response,91,1055583,0.0-5.0-0.43,,,,
,,,,,,,,,,
1485,,"{""P0_Q0"":2}",survey,92,1057074,0.0-5.0-1.43,[],,,
,,,,,,,,,,
769,TestRecordings/tlipgat.wav,0,audio-button-response,93,1057847,0.0-5.0-0.44,,,,
,,,,,,,,,,
1163,,"{""P0_Q0"":1}",survey,94,1059018,0.0-5.0-1.44,[],,,
,,,,,,,,,,
1313,TestRecordings/pemdut.wav,0,audio-button-response,95,1060336,0.0-5.0-0.45,,,,
,,,,,,,,,,
1469,,"{""P0_Q0"":1}",survey,96,1061810,0.0-5.0-1.45,[],,,
,,,,,,,,,,
919,TestRecordings/gatkun.wav,0,audio-button-response,97,1062735,0.0-5.0-0.46,,,,
,,,,,,,,,,
1683,,"{""P0_Q0"":2}",survey,98,1064426,0.0-5.0-1.46,[],,,
,,,,,,,,,,
880,TestRecordings/pmiik.wav,0,audio-button-response,99,1065311,0.0-5.0-0.47,,,,
,,,,,,,,,,
1819,,"{""P0_Q0"":1}",survey,100,1067138,0.0-5.0-1.47,[],,,
,,,,,,,,,,
921,TestRecordings/sengdun.wav,0,audio-button-response,101,1068062,0.0-5.0-0.48,,,,
,,,,,,,,,,
1556,,"{""P0_Q0"":1}",survey,102,1069626,0.0-5.0-1.48,[],,,
,,,,,,,,,,
913,TestRecordings/suntem.wav,0,audio-button-response,103,1070545,0.0-5.0-0.49,,,,
,,,,,,,,,,
1521,,"{""P0_Q0"":1}",survey,104,1072073,0.0-5.0-1.49,[],,,
,,,,,,,,,,
1065,TestRecordings/mgit.wav,0,audio-button-response,105,1073143,0.0-5.0-0.50,,,,
,,,,,,,,,,
1716,,"{""P0_Q0"":1}",survey,106,1074865,0.0-5.0-1.50,[],,,
,,,,,,,,,,
768,TestRecordings/punseng.wav,0,audio-button-response,107,1075639,0.0-5.0-0.51,,,,
,,,,,,,,,,
1812,,"{""P0_Q0"":2}",survey,108,1077457,0.0-5.0-1.51,[],,,
,,,,,,,,,,
833,TestRecordings/twas.wav,0,audio-button-response,109,1078295,0.0-5.0-0.52,,,,
,,,,,,,,,,
2677,,"{""P0_Q0"":4}",survey,110,1080977,0.0-5.0-1.52,[],,,
,,,,,,,,,,
961,TestRecordings/gitpes.wav,0,audio-button-response,111,1081943,0.0-5.0-0.53,,,,
,,,,,,,,,,
2204,,"{""P0_Q0"":2}",survey,112,1084153,0.0-5.0-1.53,[],,,
,,,,,,,,,,
1280,TestRecordings/kutpim.wav,0,audio-button-response,113,1085438,0.0-5.0-0.54,,,,
,,,,,,,,,,
1907,,"{""P0_Q0"":1}",survey,114,1087352,0.0-5.0-1.54,[],,,
,,,,,,,,,,
833,TestRecordings/gup.wav,0,audio-button-response,115,1088191,0.0-5.0-0.55,,,,
,,,,,,,,,,
5309,,"{""P0_Q0"":4}",survey,116,1093504,0.0-5.0-1.55,[],,,
,,,,,,,,,,
888,TestRecordings/drikteng.wav,0,audio-button-response,117,1094398,0.0-5.0-0.56,,,,
,,,,,,,,,,
1643,,"{""P0_Q0"":1}",survey,118,1096048,0.0-5.0-1.56,[],,,
,,,,,,,,,,
1490,TestRecordings/drantung.wav,0,audio-button-response,119,1097542,0.0-5.0-0.57,,,,
,,,,,,,,,,
1733,,"{""P0_Q0"":2}",survey,120,1099280,0.0-5.0-1.57,[],,,
,,,,,,,,,,
1873,TestRecordings/ntek.wav,0,audio-button-response,121,1101158,0.0-5.0-0.58,,,,
,,,,,,,,,,
2372,,"{""P0_Q0"":4}",survey,122,1103536,0.0-5.0-1.58,[],,,
,,,,,,,,,,
880,TestRecordings/gipsus.wav,0,audio-button-response,123,1104422,0.0-5.0-0.59,,,,
,,,,,,,,,,
2188,,"{""P0_Q0"":2}",survey,124,1106616,0.0-5.0-1.59,[],,,
,,,,,,,,,,
7173,, ,html-keyboard-response,125,1113790,0.0-6.0,,,,
,,,,,,,,,,
57522,,"{""P0_Q0"":""25"",""P0_Q1"":""female"",""P0_Q2"":""yes"",""P0_Q3"":""French"",""P0_Q4"":""14-20"",""P0_Q5"":""learned through instruction in school and university""}",survey,126,1171321,0.0-7.0,[],,,
,,,,,,,,,,
47173,"<p style=""font-size:30px"">The experiment has ended</p><p style=""font-size:30px"",lang=""ko"">Thanks for participating in it!</p>", ,html-keyboard-response,127,1218494,0.0-8.0,,,,