,,,,,,,,,,,
,rt,stimulus,response,trial_type,trial_index,time_elapsed,internal_node_id,accuracy,PracticeTest,ConsonantSequence,Grammaticality
,,,,,,,,,,,
,890087,"<p style=""font-size:30px"">Welcome to the experiment</p><p>Press spacebar to continue</p>", ,html-keyboard-response,0,890062,0.0-0.0,,,,
,,,,,,,,,,,
,1566,"<p style=""font-size:30px"">Please ensure that your headphones are on correctly</p><p>Press spacebar to continue</p>", ,html-keyboard-response,1,891629,0.0-1.0,,,,
,,,,,,,,,,,
,4031,"<p style=""font-size:30px"">In this experiment, you will listen to nonsense words</p><p style=""font-size:30px"",lang=""ko"">Your task is to rate the nonsense word you heard as a possible word of American English</p><p>Press spacebar to continue</p>", ,html-keyboard-response,2,895660,0.0-2.0,,,,
,,,,,,,,,,,
,1422,, ,html-keyboard-response,3,897085,0.0-3.0,,,,
,,,,,,,,,,,
,6480,"<p style=""font-size:30px"">Now let's move on to the actual experiment.</p><p style=""font-size:30px"",lang=""ko"">During the experiment, you will hear each of the nonce words only once.</p><p>Press spacebar to continue</p>", ,html-keyboard-response,4,903565,0.0-4.0,,,,
,,,,,,,,,,,
,3449,TestRecordings/dloun.wav,0,audio-button-response,5,907022,0.0-5.0-0.0,,,,
,,,,,,,,,,,
,8578,,"{""P0_Q0"":3}",survey,6,915648,0.0-5.0-1.0,[],,,
,,,,,,,,,,,
,2485,TestRecordings/gatkun.wav,0,audio-button-response,7,918138,0.0-5.0-0.1,,,,
,,,,,,,,,,,
,2918,,"{""P0_Q0"":6}",survey,8,921071,0.0-5.0-1.1,[],,,
,,,,,,,,,,,
,1429,TestRecordings/dlahm.wav,0,audio-button-response,9,922506,0.0-5.0-0.2,,,,
,,,,,,,,,,,
,2521,,"{""P0_Q0"":4}",survey,10,925038,0.0-5.0-1.2,[],,,
,,,,,,,,,,,
,1246,TestRecordings/punseng.wav,0,audio-button-response,11,926290,0.0-5.0-0.3,,,,
,,,,,,,,,,,
,2498,,"{""P0_Q0"":2}",survey,12,928798,0.0-5.0-1.3,[],,,
,,,,,,,,,,,
,1102,TestRecordings/kmeip.wav,0,audio-button-response,13,929906,0.0-5.0-0.4,,,,
,,,,,,,,,,,
,2410,,"{""P0_Q0"":1}",survey,14,932325,0.0-5.0-1.4,[],,,
,,,,,,,,,,,
,1783,TestRecordings/pwam.wav,0,audio-button-response,15,934114,0.0-5.0-0.5,,,,
,,,,,,,,,,,
,3105,,"{""P0_Q0"":4}",survey,16,937229,0.0-5.0-1.5,[],,,
,,,,,,,,,,,
,2406,TestRecordings/paim.wav,0,audio-button-response,17,939641,0.0-5.0-0.6,,,,
,,,,,,,,,,,
,2539,,"{""P0_Q0"":6}",survey,18,942189,0.0-5.0-1.6,[],,,
,,,,,,,,,,,
,1727,TestRecordings/kutpim.wav,0,audio-button-response,19,943921,0.0-5.0-0.7,,,,
,,,,,,,,,,,
,2164,,"{""P0_Q0"":1}",survey,20,946093,0.0-5.0-1.7,[],,,
,,,,,,,,,,,
,1189,TestRecordings/pemdut.wav,0,audio-button-response,21,947289,0.0-5.0-0.8,,,,
,,,,,,,,,,,
,2979,,"{""P0_Q0"":1}",survey,22,950275,0.0-5.0-1.8,[],,,
,,,,,,,,,,,
,1239,TestRecordings/ntek.wav,0,audio-button-response,23,951521,0.0-5.0-0.9,,,,
,,,,,,,,,,,
,2781,,"{""P0_Q0"":2}",survey,24,954308,0.0-5.0-1.9,[],,,
,,,,,,,,,,,
,2544,TestRecordings/stuun.wav,0,audio-button-response,25,956856,0.0-5.0-0.10,,,,
,,,,,,,,,,,
,2476,,"{""P0_Q0"":7}",survey,26,959340,0.0-5.0-1.10,[],,,
,,,,,,,,,,,
,1447,TestRecordings/twas.wav,0,audio-button-response,27,960792,0.0-5.0-0.11,,,,
,,,,,,,,,,,
,4611,,"{""P0_Q0"":6}",survey,28,965410,0.0-5.0-1.11,[],,,
,,,,,,,,,,,
,1319,TestRecordings/tlumgak.wav,0,audio-button-response,29,966735,0.0-5.0-0.12,,,,
,,,,,,,,,,,
,2310,,"{""P0_Q0"":2}",survey,30,969051,0.0-5.0-1.12,[],,,
,,,,,,,,,,,
,1071,TestRecordings/trindes.wav,0,audio-button-response,31,970128,0.0-5.0-0.13,,,,
,,,,,,,,,,,
,2275,,"{""P0_Q0"":7}",survey,32,972410,0.0-5.0-1.13,[],,,
,,,,,,,,,,,
,1512,TestRecordings/pmeit.wav,0,audio-button-response,33,973927,0.0-5.0-0.14,,,,
,,,,,,,,,,,
,2724,,"{""P0_Q0"":4}",survey,34,976658,0.0-5.0-1.14,[],,,
,,,,,,,,,,,
,1096,TestRecordings/drustet.wav,0,audio-button-response,35,977759,0.0-5.0-0.15,,,,
,,,,,,,,,,,
,2020,,"{""P0_Q0"":3}",survey,36,979785,0.0-5.0-1.15,[],,,
,,,,,,,,,,,
,1041,TestRecordings/drakpum.wav,0,audio-button-response,37,980831,0.0-5.0-0.16,,,,
,,,,,,,,,,,
,1756,,"{""P0_Q0"":1}",survey,38,982594,0.0-5.0-1.16,[],,,
,,,,,,,,,,,
,1304,TestRecordings/tisbeng.wav,0,audio-button-response,39,983903,0.0-5.0-0.17,,,,
,,,,,,,,,,,
,1852,,"{""P0_Q0"":2}",survey,40,985761,0.0-5.0-1.17,[],,,
,,,,,,,,,,,
,1105,TestRecordings/stauk.wav,0,audio-button-response,41,986871,0.0-5.0-0.18,,,,
,,,,,,,,,,,
,2309,,"{""P0_Q0"":7}",survey,42,989185,0.0-5.0-1.18,[],,,
,,,,,,,,,,,
,1079,TestRecordings/ndeip.wav,0,audio-button-response,43,990270,0.0-5.0-0.19,,,,
,,,,,,,,,,,
,2043,,"{""P0_Q0"":5}",survey,44,992321,0.0-5.0-1.19,[],,,
,,,,,,,,,,,
,1448,TestRecordings/tlepgim.wav,0,audio-button-response,45,993775,0.0-5.0-0.20,,,,
,,,,,,,,,,,
,1739,,"{""P0_Q0"":2}",survey,46,995520,0.0-5.0-1.20,[],,,
,,,,,,,,,,,
,928,TestRecordings/gipsus.wav,0,audio-button-response,47,996455,0.0-5.0-0.21,,,,
,,,,,,,,,,,
,2684,,"{""P0_Q0"":5}",survey,48,999145,0.0-5.0-1.21,[],,,
,,,,,,,,,,,
,1302,TestRecordings/pmiik.wav,0,audio-button-response,49,1000454,0.0-5.0-0.22,,,,
,,,,,,,,,,,
,2804,,"{""P0_Q0"":4}",survey,50,1003265,0.0-5.0-1.22,[],,,
,,,,,,,,,,,
,2248,TestRecordings/gistum.wav,0,audio-button-response,51,1005518,0.0-5.0-0.23,,,,
,,,,,,,,,,,
,3267,,"{""P0_Q0"":6}",survey,52,1008792,0.0-5.0-1.23,[],,,
,,,,,,,,,,,
,1080,TestRecordings/kmaut.wav,0,audio-button-response,53,1009878,0.0-5.0-0.24,,,,
,,,,,,,,,,,
,2445,,"{""P0_Q0"":3}",survey,54,1012329,0.0-5.0-1.24,[],,,
,,,,,,,,,,,
,1166,TestRecordings/skain.wav,0,audio-button-response,55,1013501,0.0-5.0-0.25,,,,
,,,,,,,,,,,
,3083,,"{""P0_Q0"":3}",survey,56,1016592,0.0-5.0-1.25,[],,,
,,,,,,,,,,,
,1000,TestRecordings/bepgik.wav,0,audio-button-response,57,1017597,0.0-5.0-0.26,,,,
,,,,,,,,,,,
,2445,,"{""P0_Q0"":1}",survey,58,1020047,0.0-5.0-1.26,[],,,
,,,,,,,,,,,
,1112,TestRecordings/mkait.wav,0,audio-button-response,59,1021165,0.0-5.0-0.27,,,,
,,,,,,,,,,,
,5244,,"{""P0_Q0"":3}",survey,60,1026416,0.0-5.0-1.27,[],,,
,,,,,,,,,,,
,2288,TestRecordings/giit.wav,0,audio-button-response,61,1028708,0.0-5.0-0.28,,,,
,,,,,,,,,,,
,3556,,"{""P0_Q0"":4}",survey,62,1032272,0.0-5.0-1.28,[],,,
,,,,,,,,,,,
,1192,TestRecordings/tep.wav,0,audio-button-response,63,1033468,0.0-5.0-0.29,,,,
,,,,,,,,,,,
,2302,,"{""P0_Q0"":6}",survey,64,1035776,0.0-5.0-1.29,[],,,
,,,,,,,,,,,
,1207,TestRecordings/gup.wav,0,audio-button-response,65,1036988,0.0-5.0-0.30,,,,
,,,,,,,,,,,
,2299,,"{""P0_Q0"":3}",survey,66,1039295,0.0-5.0-1.30,[],,,
,,,,,,,,,,,
,1656,TestRecordings/nutbim.wav,0,audio-button-response,67,1040956,0.0-5.0-0.31,,,,
,,,,,,,,,,,
,1925,,"{""P0_Q0"":2}",survey,68,1042885,0.0-5.0-1.31,[],,,
,,,,,,,,,,,
,1545,TestRecordings/drikteng.wav,0,audio-button-response,69,1044435,0.0-5.0-0.32,,,,
,,,,,,,,,,,
,3085,,"{""P0_Q0"":3}",survey,70,1047527,0.0-5.0-1.32,[],,,
,,,,,,,,,,,
,1192,TestRecordings/drumbeng.wav,0,audio-button-response,71,1048723,0.0-5.0-0.33,,,,
,,,,,,,,,,,
,2430,,"{""P0_Q0"":1}",survey,72,1051159,0.0-5.0-1.33,[],,,
,,,,,,,,,,,
,1135,TestRecordings/tlasdung.wav,0,audio-button-response,73,1052299,0.0-5.0-0.34,,,,
,,,,,,,,,,,
,2269,,"{""P0_Q0"":1}",survey,74,1054573,0.0-5.0-1.34,[],,,
,,,,,,,,,,,
,1056,TestRecordings/trahm.wav,0,audio-button-response,75,1055634,0.0-5.0-0.35,,,,
,,,,,,,,,,,
,1883,,"{""P0_Q0"":5}",survey,76,1057526,0.0-5.0-1.35,[],,,
,,,,,,,,,,,
,958,TestRecordings/twen.wav,0,audio-button-response,77,1058490,0.0-5.0-0.36,,,,
,,,,,,,,,,,
,2348,,"{""P0_Q0"":2}",survey,78,1060845,0.0-5.0-1.36,[],,,
,,,,,,,,,,,
,1167,TestRecordings/drantung.wav,0,audio-button-response,79,1062018,0.0-5.0-0.37,,,,
,,,,,,,,,,,
,1917,,"{""P0_Q0"":2}",survey,80,1063941,0.0-5.0-1.37,[],,,
,,,,,,,,,,,
,1305,TestRecordings/drain.wav,0,audio-button-response,81,1065250,0.0-5.0-0.38,,,,
,,,,,,,,,,,
,4844,,"{""P0_Q0"":5}",survey,82,1070101,0.0-5.0-1.38,[],,,
,,,,,,,,,,,
,1679,TestRecordings/nangdup.wav,0,audio-button-response,83,1071786,0.0-5.0-0.39,,,,
,,,,,,,,,,,
,2684,,"{""P0_Q0"":1}",survey,84,1074477,0.0-5.0-1.39,[],,,
,,,,,,,,,,,
,1416,TestRecordings/tlik.wav,0,audio-button-response,85,1075898,0.0-5.0-0.40,,,,
,,,,,,,,,,,
,1539,,"{""P0_Q0"":4}",survey,86,1077444,0.0-5.0-1.40,[],,,
,,,,,,,,,,,
,1080,TestRecordings/suntem.wav,0,audio-button-response,87,1078530,0.0-5.0-0.41,,,,
,,,,,,,,,,,
,2091,,"{""P0_Q0"":1}",survey,88,1080628,0.0-5.0-1.41,[],,,
,,,,,,,,,,,
,1256,TestRecordings/stahm.wav,0,audio-button-response,89,1081890,0.0-5.0-0.42,,,,
,,,,,,,,,,,
,5718,,"{""P0_Q0"":5}",survey,90,1087612,0.0-5.0-1.42,[],,,
,,,,,,,,,,,
,1648,TestRecordings/bem.wav,0,audio-button-response,91,1089265,0.0-5.0-0.43,,,,
,,,,,,,,,,,
,3349,,"{""P0_Q0"":4}",survey,92,1092619,0.0-5.0-1.43,[],,,
,,,,,,,,,,,
,1129,TestRecordings/dlisbep.wav,0,audio-button-response,93,1093753,0.0-5.0-0.44,,,,
,,,,,,,,,,,
,1710,,"{""P0_Q0"":1}",survey,94,1095468,0.0-5.0-1.44,[],,,
,,,,,,,,,,,
,5184,TestRecordings/tempuk.wav,0,audio-button-response,95,1100656,0.0-5.0-0.45,,,,
,,,,,,,,,,,
,2325,,"{""P0_Q0"":1}",survey,96,1102987,0.0-5.0-1.45,[],,,
,,,,,,,,,,,
,1113,TestRecordings/nboup.wav,0,audio-button-response,97,1104104,0.0-5.0-0.46,,,,
,,,,,,,,,,,
,2100,,"{""P0_Q0"":1}",survey,98,1106210,0.0-5.0-1.46,[],,,
,,,,,,,,,,,
,975,TestRecordings/gitpes.wav,0,audio-button-response,99,1107192,0.0-5.0-0.47,,,,
,,,,,,,,,,,
,2395,,"{""P0_Q0"":1}",survey,100,1109594,0.0-5.0-1.47,[],,,
,,,,,,,,,,,
,1542,TestRecordings/sengdun.wav,0,audio-button-response,101,1111144,0.0-5.0-0.48,,,,
,,,,,,,,,,,
,3412,,"{""P0_Q0"":1}",survey,102,1114562,0.0-5.0-1.48,[],,,
,,,,,,,,,,,
,992,TestRecordings/pwuk.wav,0,audio-button-response,103,1115560,0.0-5.0-0.49,,,,
,,,,,,,,,,,
,1972,,"{""P0_Q0"":2}",survey,104,1117538,0.0-5.0-1.49,[],,,
,,,,,,,,,,,
,2287,TestRecordings/tlem.wav,0,audio-button-response,105,1119831,0.0-5.0-0.50,,,,
,,,,,,,,,,,
,3781,,"{""P0_Q0"":2}",survey,106,1123618,0.0-5.0-1.50,[],,,
,,,,,,,,,,,
,958,TestRecordings/tloum.wav,0,audio-button-response,107,1124583,0.0-5.0-0.51,,,,
,,,,,,,,,,,
,2212,,"{""P0_Q0"":2}",survey,108,1126801,0.0-5.0-1.51,[],,,
,,,,,,,,,,,
,1280,TestRecordings/ningpum.wav,0,audio-button-response,109,1128086,0.0-5.0-0.52,,,,
,,,,,,,,,,,
,2799,,"{""P0_Q0"":1}",survey,110,1130891,0.0-5.0-1.52,[],,,
,,,,,,,,,,,
,879,TestRecordings/dmut.wav,0,audio-button-response,111,1131775,0.0-5.0-0.53,,,,
,,,,,,,,,,,
,2325,,"{""P0_Q0"":4}",survey,112,1134105,0.0-5.0-1.53,[],,,
,,,,,,,,,,,
,1045,TestRecordings/dlemkus.wav,0,audio-button-response,113,1135158,0.0-5.0-0.54,,,,
,,,,,,,,,,,
,1972,,"{""P0_Q0"":3}",survey,114,1137137,0.0-5.0-1.54,[],,,
,,,,,,,,,,,
,1096,TestRecordings/mepgut.wav,0,audio-button-response,115,1138238,0.0-5.0-0.55,,,,
,,,,,,,,,,,
,2116,,"{""P0_Q0"":2}",survey,116,1140361,0.0-5.0-1.55,[],,,
,,,,,,,,,,,
,2975,TestRecordings/mgit.wav,0,audio-button-response,117,1143342,0.0-5.0-0.56,,,,
,,,,,,,,,,,
,4997,,"{""P0_Q0"":4}",survey,118,1148345,0.0-5.0-1.56,[],,,
,,,,,,,,,,,
,1456,TestRecordings/tlemkun.wav,0,audio-button-response,119,1149806,0.0-5.0-0.57,,,,
,,,,,,,,,,,
,1917,,"{""P0_Q0"":1}",survey,120,1151728,0.0-5.0-1.57,[],,,
,,,,,,,,,,,
,953,TestRecordings/pundes.wav,0,audio-button-response,121,1152686,0.0-5.0-0.58,,,,
,,,,,,,,,,,
,2605,,"{""P0_Q0"":2}",survey,122,1155295,0.0-5.0-1.58,[],,,
,,,,,,,,,,,
,920,TestRecordings/tlipgat.wav,0,audio-button-response,123,1156221,0.0-5.0-0.59,,,,
,,,,,,,,,,,
,4284,,"{""P0_Q0"":1}",survey,124,1160512,0.0-5.0-1.59,[],,,
,,,,,,,,,,,
,3822,, ,html-keyboard-response,125,1164334,0.0-6.0,,,,
,,,,,,,,,,,
,25947,,"{""P0_Q0"":""19"",""P0_Q1"":""female"",""P0_Q2"":""yes"",""P0_Q3"":""0"",""P0_Q4"":""n/a"",""P0_Q5"":""n/a""}",survey,126,1190296,0.0-7.0,[],,,
,,,,,,,,,,,
,436838,"<p style=""font-size:30px"">The experiment has ended</p><p style=""font-size:30px"",lang=""ko"">Thanks for participating in it!</p>", ,html-keyboard-response,127,1627111,0.0-8.0,,,,