rt,stimulus,response,trial_type,trial_index,time_elapsed,internal_node_id,accuracy,PracticeTest,ConsonantSequence,Grammaticality
,,,,,,,,,,
510179,"<p style=""font-size:30px"">Welcome to the experiment</p><p>Press spacebar to continue</p>", ,html-keyboard-response,0,510178,0.0-0.0,,,,
,,,,,,,,,,
412080,"<p style=""font-size:30px"">Please ensure that your headphones are on correctly</p><p>Press spacebar to continue</p>", ,html-keyboard-response,1,922247,0.0-1.0,,,,
,,,,,,,,,,
4301,"<p style=""font-size:30px"">In this experiment, you will listen to nonsense words</p><p style=""font-size:30px"",lang=""ko"">Your task is to rate the nonsense word you heard as a possible word of American English</p><p>Press spacebar to continue</p>", ,html-keyboard-response,2,926549,0.0-2.0,,,,
,,,,,,,,,,
1480,, ,html-keyboard-response,3,928029,0.0-3.0,,,,
,,,,,,,,,,
4479,"<p style=""font-size:30px"">Now let's move on to the actual experiment.</p><p style=""font-size:30px"",lang=""ko"">During the experiment, you will hear each of the nonce words only once.</p><p>Press spacebar to continue</p>", ,html-keyboard-response,4,932508,0.0-4.0,,,,
,,,,,,,,,,
5759,TestRecordings/mkait.wav,0,audio-button-response,5,938276,0.0-5.0-0.0,,,,
,,,,,,,,,,
10785,,"{""P0_Q0"":3}",survey,6,949097,0.0-5.0-1.0,[],,,
,,,,,,,,,,
2237,TestRecordings/ndeip.wav,0,audio-button-response,7,951339,0.0-5.0-0.1,,,,
,,,,,,,,,,
3373,,"{""P0_Q0"":5}",survey,8,954727,0.0-5.0-1.1,[],,,
,,,,,,,,,,
1694,TestRecordings/nboup.wav,0,audio-button-response,9,956427,0.0-5.0-0.2,,,,
,,,,,,,,,,
3176,,"{""P0_Q0"":1}",survey,10,959615,0.0-5.0-1.2,[],,,
,,,,,,,,,,
1750,TestRecordings/drain.wav,0,audio-button-response,11,961371,0.0-5.0-0.3,,,,
,,,,,,,,,,
2946,,"{""P0_Q0"":6}",survey,12,964327,0.0-5.0-1.3,[],,,
,,,,,,,,,,
1935,TestRecordings/paim.wav,0,audio-button-response,13,966267,0.0-5.0-0.4,,,,
,,,,,,,,,,
2161,,"{""P0_Q0"":5}",survey,14,968437,0.0-5.0-1.4,[],,,
,,,,,,,,,,
1832,TestRecordings/drikteng.wav,0,audio-button-response,15,970274,0.0-5.0-0.5,,,,
,,,,,,,,,,
2578,,"{""P0_Q0"":3}",survey,16,972862,0.0-5.0-1.5,[],,,
,,,,,,,,,,
1246,TestRecordings/tempuk.wav,0,audio-button-response,17,974113,0.0-5.0-0.6,,,,
,,,,,,,,,,
2452,,"{""P0_Q0"":2}",survey,18,976575,0.0-5.0-1.6,[],,,
,,,,,,,,,,
1046,TestRecordings/tep.wav,0,audio-button-response,19,977626,0.0-5.0-0.7,,,,
,,,,,,,,,,
2243,,"{""P0_Q0"":7}",survey,20,979877,0.0-5.0-1.7,[],,,
,,,,,,,,,,
1097,TestRecordings/skain.wav,0,audio-button-response,21,980978,0.0-5.0-0.8,,,,
,,,,,,,,,,
8715,,"{""P0_Q0"":3}",survey,22,989701,0.0-5.0-1.8,[],,,
,,,,,,,,,,
1046,TestRecordings/kmaut.wav,0,audio-button-response,23,990753,0.0-5.0-0.9,,,,
,,,,,,,,,,
5843,,"{""P0_Q0"":5}",survey,24,996604,0.0-5.0-1.9,[],,,
,,,,,,,,,,
2176,TestRecordings/mepgut.wav,0,audio-button-response,25,998785,0.0-5.0-0.10,,,,
,,,,,,,,,,
3627,,"{""P0_Q0"":1}",survey,26,1002420,0.0-5.0-1.10,[],,,
,,,,,,,,,,
1431,TestRecordings/pundes.wav,0,audio-button-response,27,1003857,0.0-5.0-0.11,,,,
,,,,,,,,,,
1756,,"{""P0_Q0"":2}",survey,28,1005619,0.0-5.0-1.11,[],,,
,,,,,,,,,,
952,TestRecordings/kmeip.wav,0,audio-button-response,29,1006576,0.0-5.0-0.12,,,,
,,,,,,,,,,
3108,,"{""P0_Q0"":3}",survey,30,1009692,0.0-5.0-1.12,[],,,
,,,,,,,,,,
1422,TestRecordings/bepgik.wav,0,audio-button-response,31,1011120,0.0-5.0-0.13,,,,
,,,,,,,,,,
5060,,"{""P0_Q0"":3}",survey,32,1016188,0.0-5.0-1.13,[],,,
,,,,,,,,,,
1376,TestRecordings/gup.wav,0,audio-button-response,33,1017568,0.0-5.0-0.14,,,,
,,,,,,,,,,
4861,,"{""P0_Q0"":2}",survey,34,1022434,0.0-5.0-1.14,[],,,
,,,,,,,,,,
1352,TestRecordings/tisbeng.wav,0,audio-button-response,35,1023792,0.0-5.0-0.15,,,,
,,,,,,,,,,
4460,,"{""P0_Q0"":6}",survey,36,1028259,0.0-5.0-1.15,[],,,
,,,,,,,,,,
1928,TestRecordings/tlumgak.wav,0,audio-button-response,37,1030191,0.0-5.0-0.16,,,,
,,,,,,,,,,
5117,,"{""P0_Q0"":2}",survey,38,1035314,0.0-5.0-1.16,[],,,
,,,,,,,,,,
2903,TestRecordings/sengdun.wav,0,audio-button-response,39,1038223,0.0-5.0-0.17,,,,
,,,,,,,,,,
1661,,"{""P0_Q0"":4}",survey,40,1039891,0.0-5.0-1.17,[],,,
,,,,,,,,,,
1799,TestRecordings/stahm.wav,0,audio-button-response,41,1041696,0.0-5.0-0.18,,,,
,,,,,,,,,,
1900,,"{""P0_Q0"":6}",survey,42,1043602,0.0-5.0-1.18,[],,,
,,,,,,,,,,
1305,TestRecordings/bem.wav,0,audio-button-response,43,1044912,0.0-5.0-0.19,,,,
,,,,,,,,,,
3237,,"{""P0_Q0"":4}",survey,44,1048155,0.0-5.0-1.19,[],,,
,,,,,,,,,,
2623,TestRecordings/ntek.wav,0,audio-button-response,45,1050783,0.0-5.0-0.20,,,,
,,,,,,,,,,
4580,,"{""P0_Q0"":3}",survey,46,1055369,0.0-5.0-1.20,[],,,
,,,,,,,,,,
1798,TestRecordings/kutpim.wav,0,audio-button-response,47,1057174,0.0-5.0-0.21,,,,
,,,,,,,,,,
2491,,"{""P0_Q0"":2}",survey,48,1059674,0.0-5.0-1.21,[],,,
,,,,,,,,,,
1007,TestRecordings/dloun.wav,0,audio-button-response,49,1060687,0.0-5.0-0.22,,,,
,,,,,,,,,,
2204,,"{""P0_Q0"":7}",survey,50,1062897,0.0-5.0-1.22,[],,,
,,,,,,,,,,
1384,TestRecordings/drakpum.wav,0,audio-button-response,51,1064286,0.0-5.0-0.23,,,,
,,,,,,,,,,
2876,,"{""P0_Q0"":2}",survey,52,1067168,0.0-5.0-1.23,[],,,
,,,,,,,,,,
1135,TestRecordings/tlipgat.wav,0,audio-button-response,53,1068310,0.0-5.0-0.24,,,,
,,,,,,,,,,
3557,,"{""P0_Q0"":1}",survey,54,1071873,0.0-5.0-1.24,[],,,
,,,,,,,,,,
1297,TestRecordings/suntem.wav,0,audio-button-response,55,1073174,0.0-5.0-0.25,,,,
,,,,,,,,,,
1636,,"{""P0_Q0"":1}",survey,56,1074816,0.0-5.0-1.25,[],,,
,,,,,,,,,,
977,TestRecordings/gatkun.wav,0,audio-button-response,57,1075798,0.0-5.0-0.26,,,,
,,,,,,,,,,
3004,,"{""P0_Q0"":2}",survey,58,1078808,0.0-5.0-1.26,[],,,
,,,,,,,,,,
1032,TestRecordings/gitpes.wav,0,audio-button-response,59,1079845,0.0-5.0-0.27,,,,
,,,,,,,,,,
2523,,"{""P0_Q0"":4}",survey,60,1082376,0.0-5.0-1.27,[],,,
,,,,,,,,,,
921,TestRecordings/dlahm.wav,0,audio-button-response,61,1083301,0.0-5.0-0.28,,,,
,,,,,,,,,,
2412,,"{""P0_Q0"":3}",survey,62,1085721,0.0-5.0-1.28,[],,,
,,,,,,,,,,
1143,TestRecordings/drantung.wav,0,audio-button-response,63,1086870,0.0-5.0-0.29,,,,
,,,,,,,,,,
2659,,"{""P0_Q0"":4}",survey,64,1089535,0.0-5.0-1.29,[],,,
,,,,,,,,,,
1088,TestRecordings/dlisbep.wav,0,audio-button-response,65,1090629,0.0-5.0-0.30,,,,
,,,,,,,,,,
2188,,"{""P0_Q0"":2}",survey,66,1092824,0.0-5.0-1.30,[],,,
,,,,,,,,,,
1065,TestRecordings/tlemkun.wav,0,audio-button-response,67,1093893,0.0-5.0-0.31,,,,
,,,,,,,,,,
1460,,"{""P0_Q0"":4}",survey,68,1095360,0.0-5.0-1.31,[],,,
,,,,,,,,,,
943,TestRecordings/trindes.wav,0,audio-button-response,69,1096309,0.0-5.0-0.32,,,,
,,,,,,,,,,
5981,,"{""P0_Q0"":6}",survey,70,1102296,0.0-5.0-1.32,[],,,
,,,,,,,,,,
1320,TestRecordings/drumbeng.wav,0,audio-button-response,71,1103621,0.0-5.0-0.33,,,,
,,,,,,,,,,
2476,,"{""P0_Q0"":5}",survey,72,1106103,0.0-5.0-1.33,[],,,
,,,,,,,,,,
1064,TestRecordings/tlepgim.wav,0,audio-button-response,73,1107173,0.0-5.0-0.34,,,,
,,,,,,,,,,
1548,,"{""P0_Q0"":4}",survey,74,1108728,0.0-5.0-1.34,[],,,
,,,,,,,,,,
1263,TestRecordings/pemdut.wav,0,audio-button-response,75,1109997,0.0-5.0-0.35,,,,
,,,,,,,,,,
1964,,"{""P0_Q0"":3}",survey,76,1111967,0.0-5.0-1.35,[],,,
,,,,,,,,,,
1273,TestRecordings/stuun.wav,0,audio-button-response,77,1113245,0.0-5.0-0.36,,,,
,,,,,,,,,,
1764,,"{""P0_Q0"":7}",survey,78,1115014,0.0-5.0-1.36,[],,,
,,,,,,,,,,
1183,TestRecordings/pmeit.wav,0,audio-button-response,79,1116205,0.0-5.0-0.37,,,,
,,,,,,,,,,
5485,,"{""P0_Q0"":7}",survey,80,1121695,0.0-5.0-1.37,[],,,
,,,,,,,,,,
1561,TestRecordings/stauk.wav,0,audio-button-response,81,1123260,0.0-5.0-0.38,,,,
,,,,,,,,,,
1716,,"{""P0_Q0"":7}",survey,82,1124983,0.0-5.0-1.38,[],,,
,,,,,,,,,,
1144,TestRecordings/tlasdung.wav,0,audio-button-response,83,1126133,0.0-5.0-0.39,,,,
,,,,,,,,,,
1516,,"{""P0_Q0"":3}",survey,84,1127654,0.0-5.0-1.39,[],,,
,,,,,,,,,,
1175,TestRecordings/gistum.wav,0,audio-button-response,85,1128836,0.0-5.0-0.40,,,,
,,,,,,,,,,
2779,,"{""P0_Q0"":3}",survey,86,1131623,0.0-5.0-1.40,[],,,
,,,,,,,,,,
1000,TestRecordings/punseng.wav,0,audio-button-response,87,1132628,0.0-5.0-0.41,,,,
,,,,,,,,,,
2861,,"{""P0_Q0"":3}",survey,88,1135495,0.0-5.0-1.41,[],,,
,,,,,,,,,,
1009,TestRecordings/gipsus.wav,0,audio-button-response,89,1136507,0.0-5.0-0.42,,,,
,,,,,,,,,,
2884,,"{""P0_Q0"":3}",survey,90,1139399,0.0-5.0-1.42,[],,,
,,,,,,,,,,
1263,TestRecordings/ningpum.wav,0,audio-button-response,91,1140667,0.0-5.0-0.43,,,,
,,,,,,,,,,
2437,,"{""P0_Q0"":2}",survey,92,1143109,0.0-5.0-1.43,[],,,
,,,,,,,,,,
1105,TestRecordings/drustet.wav,0,audio-button-response,93,1144219,0.0-5.0-0.44,,,,
,,,,,,,,,,
2437,,"{""P0_Q0"":2}",survey,94,1146662,0.0-5.0-1.44,[],,,
,,,,,,,,,,
1325,TestRecordings/mgit.wav,0,audio-button-response,95,1148004,0.0-5.0-0.45,,,,
,,,,,,,,,,
1940,,"{""P0_Q0"":3}",survey,96,1149949,0.0-5.0-1.45,[],,,
,,,,,,,,,,
872,TestRecordings/dmut.wav,0,audio-button-response,97,1150827,0.0-5.0-0.46,,,,
,,,,,,,,,,
2494,,"{""P0_Q0"":5}",survey,98,1153326,0.0-5.0-1.46,[],,,
,,,,,,,,,,
1574,TestRecordings/twen.wav,0,audio-button-response,99,1154907,0.0-5.0-0.47,,,,
,,,,,,,,,,
2940,,"{""P0_Q0"":7}",survey,100,1157854,0.0-5.0-1.47,[],,,
,,,,,,,,,,
2927,TestRecordings/nangdup.wav,0,audio-button-response,101,1160787,0.0-5.0-0.48,,,,
,,,,,,,,,,
1621,,"{""P0_Q0"":2}",survey,102,1162414,0.0-5.0-1.48,[],,,
,,,,,,,,,,
848,TestRecordings/tloum.wav,0,audio-button-response,103,1163267,0.0-5.0-0.49,,,,
,,,,,,,,,,
2259,,"{""P0_Q0"":3}",survey,104,1165533,0.0-5.0-1.49,[],,,
,,,,,,,,,,
1016,TestRecordings/pwam.wav,0,audio-button-response,105,1166555,0.0-5.0-0.50,,,,
,,,,,,,,,,
1652,,"{""P0_Q0"":5}",survey,106,1168212,0.0-5.0-1.50,[],,,
,,,,,,,,,,
1840,TestRecordings/trahm.wav,0,audio-button-response,107,1170058,0.0-5.0-0.51,,,,
,,,,,,,,,,
2251,,"{""P0_Q0"":7}",survey,108,1172316,0.0-5.0-1.51,[],,,
,,,,,,,,,,
1105,TestRecordings/twas.wav,0,audio-button-response,109,1173427,0.0-5.0-0.52,,,,
,,,,,,,,,,
1420,,"{""P0_Q0"":7}",survey,110,1174853,0.0-5.0-1.52,[],,,
,,,,,,,,,,
1032,TestRecordings/tlik.wav,0,audio-button-response,111,1175890,0.0-5.0-0.53,,,,
,,,,,,,,,,
1957,,"{""P0_Q0"":2}",survey,112,1177852,0.0-5.0-1.53,[],,,
,,,,,,,,,,
1159,TestRecordings/nutbim.wav,0,audio-button-response,113,1179018,0.0-5.0-0.54,,,,
,,,,,,,,,,
1708,,"{""P0_Q0"":2}",survey,114,1180733,0.0-5.0-1.54,[],,,
,,,,,,,,,,
976,TestRecordings/dlemkus.wav,0,audio-button-response,115,1181714,0.0-5.0-0.55,,,,
,,,,,,,,,,
2485,,"{""P0_Q0"":3}",survey,116,1184205,0.0-5.0-1.55,[],,,
,,,,,,,,,,
1087,TestRecordings/tlem.wav,0,audio-button-response,117,1185298,0.0-5.0-0.56,,,,
,,,,,,,,,,
1846,,"{""P0_Q0"":2}",survey,118,1187149,0.0-5.0-1.56,[],,,
,,,,,,,,,,
1423,TestRecordings/pmiik.wav,0,audio-button-response,119,1188578,0.0-5.0-0.57,,,,
,,,,,,,,,,
3108,,"{""P0_Q0"":2}",survey,120,1191692,0.0-5.0-1.57,[],,,
,,,,,,,,,,
904,TestRecordings/giit.wav,0,audio-button-response,121,1192601,0.0-5.0-0.58,,,,
,,,,,,,,,,
2665,,"{""P0_Q0"":4}",survey,122,1195274,0.0-5.0-1.58,[],,,
,,,,,,,,,,
1080,TestRecordings/pwuk.wav,0,audio-button-response,123,1196361,0.0-5.0-0.59,,,,
,,,,,,,,,,
2549,,"{""P0_Q0"":4}",survey,124,1198934,0.0-5.0-1.59,[],,,
,,,,,,,,,,
3115,, ,html-keyboard-response,125,1202051,0.0-6.0,,,,
,,,,,,,,,,
98318,,"{""P0_Q0"":""20"",""P0_Q1"":""female"",""P0_Q2"":""yes"",""P0_Q3"":""some spanish"",""P0_Q4"":""ages 9 to 16"",""P0_Q5"":""Spanish classes every grade from 2nd to 10th grade""}",survey,126,1300403,0.0-7.0,[],,,
,,,,,,,,,,
272360,"<p style=""font-size:30px"">The experiment has ended</p><p style=""font-size:30px"",lang=""ko"">Thanks for participating in it!</p>",meta,html-keyboard-response,127,1572756,0.0-8.0,,,,