rt,stimulus,response,trial_type,trial_index,time_elapsed,internal_node_id,accuracy,PracticeTest,ConsonantSequence,Grammaticality
,,,,,,,,,,
1352736,"<p style=""font-size:30px"">Welcome to the experiment</p><p>Press spacebar to continue</p>", ,html-keyboard-response,0,1352690,0.0-0.0,,,,
,,,,,,,,,,
3406,"<p style=""font-size:30px"">Please ensure that your headphones are on correctly</p><p>Press spacebar to continue</p>", ,html-keyboard-response,1,1356096,0.0-1.0,,,,
,,,,,,,,,,
5952,"<p style=""font-size:30px"">In this experiment, you will listen to nonsense words</p><p style=""font-size:30px"",lang=""ko"">Your task is to rate the nonsense word you heard as a possible word of American English</p><p>Press spacebar to continue</p>", ,html-keyboard-response,2,1362048,0.0-2.0,,,,
,,,,,,,,,,
2000,, ,html-keyboard-response,3,1364048,0.0-3.0,,,,
,,,,,,,,,,
4151,"<p style=""font-size:30px"">Now let's move on to the actual experiment.</p><p style=""font-size:30px"",lang=""ko"">During the experiment, you will hear each of the nonce words only once.</p><p>Press spacebar to continue</p>", ,html-keyboard-response,4,1368200,0.0-4.0,,,,
,,,,,,,,,,
6487,TestRecordings/tisbeng.wav,0,audio-button-response,5,1374695,0.0-5.0-0.0,,,,
,,,,,,,,,,
27896,,"{""P0_Q0"":3}",survey,6,1402626,0.0-5.0-1.0,[],,,
,,,,,,,,,,
2549,TestRecordings/gatkun.wav,0,audio-button-response,7,1405181,0.0-5.0-0.1,,,,
,,,,,,,,,,
3088,,"{""P0_Q0"":4}",survey,8,1408281,0.0-5.0-1.1,[],,,
,,,,,,,,,,
3310,TestRecordings/drustet.wav,0,audio-button-response,9,1411597,0.0-5.0-0.2,,,,
,,,,,,,,,,
2465,,"{""P0_Q0"":6}",survey,10,1414072,0.0-5.0-1.2,[],,,
,,,,,,,,,,
2103,TestRecordings/dlemkus.wav,0,audio-button-response,11,1416181,0.0-5.0-0.3,,,,
,,,,,,,,,,
3017,,"{""P0_Q0"":6}",survey,12,1419208,0.0-5.0-1.3,[],,,
,,,,,,,,,,
2823,TestRecordings/trahm.wav,0,audio-button-response,13,1422036,0.0-5.0-0.4,,,,
,,,,,,,,,,
2619,,"{""P0_Q0"":5}",survey,14,1424663,0.0-5.0-1.4,[],,,
,,,,,,,,,,
1727,TestRecordings/tempuk.wav,0,audio-button-response,15,1426396,0.0-5.0-0.5,,,,
,,,,,,,,,,
2537,,"{""P0_Q0"":7}",survey,16,1428943,0.0-5.0-1.5,[],,,
,,,,,,,,,,
2056,TestRecordings/stauk.wav,0,audio-button-response,17,1431004,0.0-5.0-0.6,,,,
,,,,,,,,,,
2355,,"{""P0_Q0"":7}",survey,18,1433366,0.0-5.0-1.6,[],,,
,,,,,,,,,,
1664,TestRecordings/gistum.wav,0,audio-button-response,19,1435035,0.0-5.0-0.7,,,,
,,,,,,,,,,
2131,,"{""P0_Q0"":3}",survey,20,1437174,0.0-5.0-1.7,[],,,
,,,,,,,,,,
1704,TestRecordings/pundes.wav,0,audio-button-response,21,1438883,0.0-5.0-0.8,,,,
,,,,,,,,,,
3620,,"{""P0_Q0"":3}",survey,22,1442510,0.0-5.0-1.8,[],,,
,,,,,,,,,,
1672,TestRecordings/sengdun.wav,0,audio-button-response,23,1444187,0.0-5.0-0.9,,,,
,,,,,,,,,,
1860,,"{""P0_Q0"":2}",survey,24,1446054,0.0-5.0-1.9,[],,,
,,,,,,,,,,
1551,TestRecordings/pmeit.wav,0,audio-button-response,25,1447611,0.0-5.0-0.10,,,,
,,,,,,,,,,
5258,,"{""P0_Q0"":4}",survey,26,1452877,0.0-5.0-1.10,[],,,
,,,,,,,,,,
1382,TestRecordings/gup.wav,0,audio-button-response,27,1454267,0.0-5.0-0.11,,,,
,,,,,,,,,,
2084,,"{""P0_Q0"":6}",survey,28,1456357,0.0-5.0-1.11,[],,,
,,,,,,,,,,
1344,TestRecordings/tlumgak.wav,0,audio-button-response,29,1457707,0.0-5.0-0.12,,,,
,,,,,,,,,,
1883,,"{""P0_Q0"":2}",survey,30,1459597,0.0-5.0-1.12,[],,,
,,,,,,,,,,
961,TestRecordings/dlahm.wav,0,audio-button-response,31,1460563,0.0-5.0-0.13,,,,
,,,,,,,,,,
1851,,"{""P0_Q0"":3}",survey,32,1462421,0.0-5.0-1.13,[],,,
,,,,,,,,,,
1624,TestRecordings/dloun.wav,0,audio-button-response,33,1464051,0.0-5.0-0.14,,,,
,,,,,,,,,,
2035,,"{""P0_Q0"":3}",survey,34,1466092,0.0-5.0-1.14,[],,,
,,,,,,,,,,
1479,TestRecordings/mgit.wav,0,audio-button-response,35,1467578,0.0-5.0-0.15,,,,
,,,,,,,,,,
1307,,"{""P0_Q0"":1}",survey,36,1468892,0.0-5.0-1.15,[],,,
,,,,,,,,,,
1577,TestRecordings/twas.wav,0,audio-button-response,37,1470474,0.0-5.0-0.16,,,,
,,,,,,,,,,
2788,,"{""P0_Q0"":6}",survey,38,1473268,0.0-5.0-1.16,[],,,
,,,,,,,,,,
2992,TestRecordings/kmeip.wav,0,audio-button-response,39,1476266,0.0-5.0-0.17,,,,
,,,,,,,,,,
2212,,"{""P0_Q0"":3}",survey,40,1478484,0.0-5.0-1.17,[],,,
,,,,,,,,,,
3177,TestRecordings/bepgik.wav,0,audio-button-response,41,1481665,0.0-5.0-0.18,,,,
,,,,,,,,,,
1692,,"{""P0_Q0"":2}",survey,42,1483364,0.0-5.0-1.18,[],,,
,,,,,,,,,,
960,TestRecordings/giit.wav,0,audio-button-response,43,1484329,0.0-5.0-0.19,,,,
,,,,,,,,,,
1723,,"{""P0_Q0"":6}",survey,44,1486060,0.0-5.0-1.19,[],,,
,,,,,,,,,,
1097,TestRecordings/drantung.wav,0,audio-button-response,45,1487161,0.0-5.0-0.20,,,,
,,,,,,,,,,
3957,,"{""P0_Q0"":2}",survey,46,1491123,0.0-5.0-1.20,[],,,
,,,,,,,,,,
1184,TestRecordings/ntek.wav,0,audio-button-response,47,1492313,0.0-5.0-0.21,,,,
,,,,,,,,,,
1500,,"{""P0_Q0"":3}",survey,48,1493819,0.0-5.0-1.21,[],,,
,,,,,,,,,,
1273,TestRecordings/mkait.wav,0,audio-button-response,49,1495097,0.0-5.0-0.22,,,,
,,,,,,,,,,
1716,,"{""P0_Q0"":3}",survey,50,1496819,0.0-5.0-1.22,[],,,
,,,,,,,,,,
913,TestRecordings/pwuk.wav,0,audio-button-response,51,1497736,0.0-5.0-0.23,,,,
,,,,,,,,,,
1675,,"{""P0_Q0"":6}",survey,52,1499419,0.0-5.0-1.23,[],,,
,,,,,,,,,,
1073,TestRecordings/twen.wav,0,audio-button-response,53,1500496,0.0-5.0-0.24,,,,
,,,,,,,,,,
1932,,"{""P0_Q0"":7}",survey,54,1502435,0.0-5.0-1.24,[],,,
,,,,,,,,,,
1488,TestRecordings/pemdut.wav,0,audio-button-response,55,1503928,0.0-5.0-0.25,,,,
,,,,,,,,,,
5501,,"{""P0_Q0"":3}",survey,56,1509435,0.0-5.0-1.25,[],,,
,,,,,,,,,,
1129,TestRecordings/stahm.wav,0,audio-button-response,57,1510568,0.0-5.0-0.26,,,,
,,,,,,,,,,
1988,,"{""P0_Q0"":7}",survey,58,1512563,0.0-5.0-1.26,[],,,
,,,,,,,,,,
1089,TestRecordings/tloum.wav,0,audio-button-response,59,1513656,0.0-5.0-0.27,,,,
,,,,,,,,,,
1692,,"{""P0_Q0"":3}",survey,60,1515354,0.0-5.0-1.27,[],,,
,,,,,,,,,,
1073,TestRecordings/trindes.wav,0,audio-button-response,61,1516432,0.0-5.0-0.28,,,,
,,,,,,,,,,
1541,,"{""P0_Q0"":5}",survey,62,1517978,0.0-5.0-1.28,[],,,
,,,,,,,,,,
1194,TestRecordings/tep.wav,0,audio-button-response,63,1519175,0.0-5.0-0.29,,,,
,,,,,,,,,,
2893,,"{""P0_Q0"":6}",survey,64,1522074,0.0-5.0-1.29,[],,,
,,,,,,,,,,
1009,TestRecordings/nangdup.wav,0,audio-button-response,65,1523088,0.0-5.0-0.30,,,,
,,,,,,,,,,
1284,,"{""P0_Q0"":2}",survey,66,1524378,0.0-5.0-1.30,[],,,
,,,,,,,,,,
1233,TestRecordings/kutpim.wav,0,audio-button-response,67,1525616,0.0-5.0-0.31,,,,
,,,,,,,,,,
2037,,"{""P0_Q0"":1}",survey,68,1527658,0.0-5.0-1.31,[],,,
,,,,,,,,,,
983,TestRecordings/ndeip.wav,0,audio-button-response,69,1528647,0.0-5.0-0.32,,,,
,,,,,,,,,,
2077,,"{""P0_Q0"":3}",survey,70,1530730,0.0-5.0-1.32,[],,,
,,,,,,,,,,
1151,TestRecordings/mepgut.wav,0,audio-button-response,71,1531887,0.0-5.0-0.33,,,,
,,,,,,,,,,
1388,,"{""P0_Q0"":2}",survey,72,1533281,0.0-5.0-1.33,[],,,
,,,,,,,,,,
1840,TestRecordings/suntem.wav,0,audio-button-response,73,1535127,0.0-5.0-0.34,,,,
,,,,,,,,,,
2149,,"{""P0_Q0"":2}",survey,74,1537282,0.0-5.0-1.34,[],,,
,,,,,,,,,,
1040,TestRecordings/tlem.wav,0,audio-button-response,75,1538327,0.0-5.0-0.35,,,,
,,,,,,,,,,
1452,,"{""P0_Q0"":6}",survey,76,1539785,0.0-5.0-1.35,[],,,
,,,,,,,,,,
2241,TestRecordings/drakpum.wav,0,audio-button-response,77,1542030,0.0-5.0-0.36,,,,
,,,,,,,,,,
1981,,"{""P0_Q0"":1}",survey,78,1544018,0.0-5.0-1.36,[],,,
,,,,,,,,,,
3088,TestRecordings/skain.wav,0,audio-button-response,79,1547110,0.0-5.0-0.37,,,,
,,,,,,,,,,
6508,,"{""P0_Q0"":5}",survey,80,1553625,0.0-5.0-1.37,[],,,
,,,,,,,,,,
1064,TestRecordings/kmaut.wav,0,audio-button-response,81,1554694,0.0-5.0-0.38,,,,
,,,,,,,,,,
1957,,"{""P0_Q0"":3}",survey,82,1556657,0.0-5.0-1.38,[],,,
,,,,,,,,,,
1544,TestRecordings/drikteng.wav,0,audio-button-response,83,1558206,0.0-5.0-0.39,,,,
,,,,,,,,,,
1557,,"{""P0_Q0"":1}",survey,84,1559768,0.0-5.0-1.39,[],,,
,,,,,,,,,,
953,TestRecordings/drain.wav,0,audio-button-response,85,1560726,0.0-5.0-0.40,,,,
,,,,,,,,,,
2179,,"{""P0_Q0"":7}",survey,86,1562912,0.0-5.0-1.40,[],,,
,,,,,,,,,,
911,TestRecordings/tlipgat.wav,0,audio-button-response,87,1563830,0.0-5.0-0.41,,,,
,,,,,,,,,,
1547,,"{""P0_Q0"":2}",survey,88,1565384,0.0-5.0-1.41,[],,,
,,,,,,,,,,
928,TestRecordings/punseng.wav,0,audio-button-response,89,1566318,0.0-5.0-0.42,,,,
,,,,,,,,,,
2292,,"{""P0_Q0"":5}",survey,90,1568615,0.0-5.0-1.42,[],,,
,,,,,,,,,,
1049,TestRecordings/tlepgim.wav,0,audio-button-response,91,1569669,0.0-5.0-0.43,,,,
,,,,,,,,,,
2957,,"{""P0_Q0"":2}",survey,92,1572632,0.0-5.0-1.43,[],,,
,,,,,,,,,,
1112,TestRecordings/dlisbep.wav,0,audio-button-response,93,1573749,0.0-5.0-0.44,,,,
,,,,,,,,,,
1301,,"{""P0_Q0"":1}",survey,94,1575055,0.0-5.0-1.44,[],,,
,,,,,,,,,,
1177,TestRecordings/stuun.wav,0,audio-button-response,95,1576238,0.0-5.0-0.45,,,,
,,,,,,,,,,
1277,,"{""P0_Q0"":6}",survey,96,1577519,0.0-5.0-1.45,[],,,
,,,,,,,,,,
1110,TestRecordings/nutbim.wav,0,audio-button-response,97,1578637,0.0-5.0-0.46,,,,
,,,,,,,,,,
1341,,"{""P0_Q0"":2}",survey,98,1579984,0.0-5.0-1.46,[],,,
,,,,,,,,,,
992,TestRecordings/ningpum.wav,0,audio-button-response,99,1580981,0.0-5.0-0.47,,,,
,,,,,,,,,,
2316,,"{""P0_Q0"":1}",survey,100,1583304,0.0-5.0-1.47,[],,,
,,,,,,,,,,
1152,TestRecordings/tlasdung.wav,0,audio-button-response,101,1584461,0.0-5.0-0.48,,,,
,,,,,,,,,,
1491,,"{""P0_Q0"":4}",survey,102,1585959,0.0-5.0-1.48,[],,,
,,,,,,,,,,
1017,TestRecordings/tlemkun.wav,0,audio-button-response,103,1586981,0.0-5.0-0.49,,,,
,,,,,,,,,,
1779,,"{""P0_Q0"":2}",survey,104,1588767,0.0-5.0-1.49,[],,,
,,,,,,,,,,
1232,TestRecordings/bem.wav,0,audio-button-response,105,1590005,0.0-5.0-0.50,,,,
,,,,,,,,,,
1988,,"{""P0_Q0"":6}",survey,106,1591998,0.0-5.0-1.50,[],,,
,,,,,,,,,,
1273,TestRecordings/pwam.wav,0,audio-button-response,107,1593276,0.0-5.0-0.51,,,,
,,,,,,,,,,
2564,,"{""P0_Q0"":5}",survey,108,1595847,0.0-5.0-1.51,[],,,
,,,,,,,,,,
976,TestRecordings/pmiik.wav,0,audio-button-response,109,1596828,0.0-5.0-0.52,,,,
,,,,,,,,,,
1725,,"{""P0_Q0"":3}",survey,110,1598558,0.0-5.0-1.52,[],,,
,,,,,,,,,,
1017,TestRecordings/tlik.wav,0,audio-button-response,111,1599580,0.0-5.0-0.53,,,,
,,,,,,,,,,
1725,,"{""P0_Q0"":6}",survey,112,1601310,0.0-5.0-1.53,[],,,
,,,,,,,,,,
993,TestRecordings/drumbeng.wav,0,audio-button-response,113,1602308,0.0-5.0-0.54,,,,
,,,,,,,,,,
1468,,"{""P0_Q0"":2}",survey,114,1603782,0.0-5.0-1.54,[],,,
,,,,,,,,,,
784,TestRecordings/dmut.wav,0,audio-button-response,115,1604572,0.0-5.0-0.55,,,,
,,,,,,,,,,
1436,,"{""P0_Q0"":6}",survey,116,1606014,0.0-5.0-1.55,[],,,
,,,,,,,,,,
1129,TestRecordings/nboup.wav,0,audio-button-response,117,1607148,0.0-5.0-0.56,,,,
,,,,,,,,,,
2668,,"{""P0_Q0"":6}",survey,118,1609822,0.0-5.0-1.56,[],,,
,,,,,,,,,,
1296,TestRecordings/paim.wav,0,audio-button-response,119,1611124,0.0-5.0-0.57,,,,
,,,,,,,,,,
2899,,"{""P0_Q0"":7}",survey,120,1614030,0.0-5.0-1.57,[],,,
,,,,,,,,,,
1041,TestRecordings/gipsus.wav,0,audio-button-response,121,1615075,0.0-5.0-0.58,,,,
,,,,,,,,,,
1605,,"{""P0_Q0"":2}",survey,122,1616686,0.0-5.0-1.58,[],,,
,,,,,,,,,,
1280,TestRecordings/gitpes.wav,0,audio-button-response,123,1617971,0.0-5.0-0.59,,,,
,,,,,,,,,,
2548,,"{""P0_Q0"":1}",survey,124,1620525,0.0-5.0-1.59,[],,,
,,,,,,,,,,
6694,, ,html-keyboard-response,125,1627220,0.0-6.0,,,,
,,,,,,,,,,
90412,,"{""P0_Q0"":""22"",""P0_Q1"":""Female"",""P0_Q2"":""Yes"",""P0_Q3"":""A little Spanish"",""P0_Q4"":""age 15-20"",""P0_Q5"":""Spanish high school classes and 2 college classes""}",survey,126,1717643,0.0-7.0,[],,,
,,,,,,,,,,
225124,"<p style=""font-size:30px"">The experiment has ended</p><p style=""font-size:30px"",lang=""ko"">Thanks for participating in it!</p>", ,html-keyboard-response,127,1942759,0.0-8.0,,,,