rt,stimulus,response,trial_type,trial_index,time_elapsed,internal_node_id,accuracy,PracticeTest,ConsonantSequence,Grammaticality
,,,,,,,,,,
798283,"<p style=""font-size:30px"">Welcome to the experiment</p><p>Press spacebar to continue</p>", ,html-keyboard-response,0,798271,0.0-0.0,,,,
,,,,,,,,,,
2789,"<p style=""font-size:30px"">Please ensure that your headphones are on correctly</p><p>Press spacebar to continue</p>", ,html-keyboard-response,1,801062,0.0-1.0,,,,
,,,,,,,,,,
3487,"<p style=""font-size:30px"">In this experiment, you will listen to nonsense words</p><p style=""font-size:30px"",lang=""ko"">Your task is to rate the nonsense word you heard as a possible word of American English</p><p>Press spacebar to continue</p>", ,html-keyboard-response,2,804550,0.0-2.0,,,,
,,,,,,,,,,
1415,, ,html-keyboard-response,3,805965,0.0-3.0,,,,
,,,,,,,,,,
3272,"<p style=""font-size:30px"">Now let's move on to the actual experiment.</p><p style=""font-size:30px"",lang=""ko"">During the experiment, you will hear each of the nonce words only once.</p><p>Press spacebar to continue</p>", ,html-keyboard-response,4,809237,0.0-4.0,,,,
,,,,,,,,,,
1479,TestRecordings/drain.wav,0,audio-button-response,5,810725,0.0-5.0-0.0,,,,
,,,,,,,,,,
5866,,"{""P0_Q0"":6}",survey,6,816626,0.0-5.0-1.0,[],,,
,,,,,,,,,,
2261,TestRecordings/trindes.wav,0,audio-button-response,7,818892,0.0-5.0-0.1,,,,
,,,,,,,,,,
2998,,"{""P0_Q0"":5}",survey,8,821904,0.0-5.0-1.1,[],,,
,,,,,,,,,,
1134,TestRecordings/pundes.wav,0,audio-button-response,9,823044,0.0-5.0-0.2,,,,
,,,,,,,,,,
1081,,"{""P0_Q0"":2}",survey,10,824136,0.0-5.0-1.2,[],,,
,,,,,,,,,,
1238,TestRecordings/stuun.wav,0,audio-button-response,11,825380,0.0-5.0-0.3,,,,
,,,,,,,,,,
2561,,"{""P0_Q0"":4}",survey,12,827951,0.0-5.0-1.3,[],,,
,,,,,,,,,,
1014,TestRecordings/nboup.wav,0,audio-button-response,13,828972,0.0-5.0-0.4,,,,
,,,,,,,,,,
3475,,"{""P0_Q0"":1}",survey,14,832455,0.0-5.0-1.4,[],,,
,,,,,,,,,,
983,TestRecordings/kmaut.wav,0,audio-button-response,15,833443,0.0-5.0-0.5,,,,
,,,,,,,,,,
2443,,"{""P0_Q0"":1}",survey,16,835896,0.0-5.0-1.5,[],,,
,,,,,,,,,,
1044,TestRecordings/nutbim.wav,0,audio-button-response,17,836948,0.0-5.0-0.6,,,,
,,,,,,,,,,
1426,,"{""P0_Q0"":3}",survey,18,838383,0.0-5.0-1.6,[],,,
,,,,,,,,,,
879,TestRecordings/pemdut.wav,0,audio-button-response,19,839267,0.0-5.0-0.7,,,,
,,,,,,,,,,
1643,,"{""P0_Q0"":5}",survey,20,840918,0.0-5.0-1.7,[],,,
,,,,,,,,,,
1025,TestRecordings/tlepgim.wav,0,audio-button-response,21,841947,0.0-5.0-0.8,,,,
,,,,,,,,,,
2027,,"{""P0_Q0"":2}",survey,22,843982,0.0-5.0-1.8,[],,,
,,,,,,,,,,
959,TestRecordings/kmeip.wav,0,audio-button-response,23,844947,0.0-5.0-0.9,,,,
,,,,,,,,,,
1290,,"{""P0_Q0"":2}",survey,24,846246,0.0-5.0-1.9,[],,,
,,,,,,,,,,
807,TestRecordings/bem.wav,0,audio-button-response,25,847059,0.0-5.0-0.10,,,,
,,,,,,,,,,
2435,,"{""P0_Q0"":3}",survey,26,849502,0.0-5.0-1.10,[],,,
,,,,,,,,,,
1039,TestRecordings/gup.wav,0,audio-button-response,27,850547,0.0-5.0-0.11,,,,
,,,,,,,,,,
1420,,"{""P0_Q0"":2}",survey,28,851974,0.0-5.0-1.11,[],,,
,,,,,,,,,,
790,TestRecordings/tloum.wav,0,audio-button-response,29,852770,0.0-5.0-0.12,,,,
,,,,,,,,,,
1732,,"{""P0_Q0"":1}",survey,30,854510,0.0-5.0-1.12,[],,,
,,,,,,,,,,
1365,TestRecordings/tlasdung.wav,0,audio-button-response,31,855883,0.0-5.0-0.13,,,,
,,,,,,,,,,
1276,,"{""P0_Q0"":2}",survey,32,857165,0.0-5.0-1.13,[],,,
,,,,,,,,,,
856,TestRecordings/mkait.wav,0,audio-button-response,33,858026,0.0-5.0-0.14,,,,
,,,,,,,,,,
1357,,"{""P0_Q0"":3}",survey,34,859389,0.0-5.0-1.14,[],,,
,,,,,,,,,,
1001,TestRecordings/twen.wav,0,audio-button-response,35,860395,0.0-5.0-0.15,,,,
,,,,,,,,,,
3884,,"{""P0_Q0"":4}",survey,36,864285,0.0-5.0-1.15,[],,,
,,,,,,,,,,
1008,TestRecordings/giit.wav,0,audio-button-response,37,865298,0.0-5.0-0.16,,,,
,,,,,,,,,,
2125,,"{""P0_Q0"":4}",survey,38,867430,0.0-5.0-1.16,[],,,
,,,,,,,,,,
1100,TestRecordings/drakpum.wav,0,audio-button-response,39,868538,0.0-5.0-0.17,,,,
,,,,,,,,,,
2677,,"{""P0_Q0"":3}",survey,40,871222,0.0-5.0-1.17,[],,,
,,,,,,,,,,
1559,TestRecordings/tlem.wav,0,audio-button-response,41,872786,0.0-5.0-0.18,,,,
,,,,,,,,,,
1395,,"{""P0_Q0"":3}",survey,42,874188,0.0-5.0-1.18,[],,,
,,,,,,,,,,
1361,TestRecordings/sengdun.wav,0,audio-button-response,43,875554,0.0-5.0-0.19,,,,
,,,,,,,,,,
1797,,"{""P0_Q0"":2}",survey,44,877357,0.0-5.0-1.19,[],,,
,,,,,,,,,,
918,TestRecordings/gitpes.wav,0,audio-button-response,45,878281,0.0-5.0-0.20,,,,
,,,,,,,,,,
1620,,"{""P0_Q0"":1}",survey,46,879909,0.0-5.0-1.20,[],,,
,,,,,,,,,,
1032,TestRecordings/tempuk.wav,0,audio-button-response,47,880945,0.0-5.0-0.21,,,,
,,,,,,,,,,
1253,,"{""P0_Q0"":1}",survey,48,882204,0.0-5.0-1.21,[],,,
,,,,,,,,,,
2509,TestRecordings/kutpim.wav,0,audio-button-response,49,884722,0.0-5.0-0.22,,,,
,,,,,,,,,,
1412,,"{""P0_Q0"":2}",survey,50,886140,0.0-5.0-1.22,[],,,
,,,,,,,,,,
1001,TestRecordings/tlipgat.wav,0,audio-button-response,51,887146,0.0-5.0-0.23,,,,
,,,,,,,,,,
1356,,"{""P0_Q0"":1}",survey,52,888508,0.0-5.0-1.23,[],,,
,,,,,,,,,,
1336,TestRecordings/tlik.wav,0,audio-button-response,53,889849,0.0-5.0-0.24,,,,
,,,,,,,,,,
1468,,"{""P0_Q0"":3}",survey,54,891324,0.0-5.0-1.24,[],,,
,,,,,,,,,,
1353,TestRecordings/dlisbep.wav,0,audio-button-response,55,892682,0.0-5.0-0.25,,,,
,,,,,,,,,,
2316,,"{""P0_Q0"":2}",survey,56,895003,0.0-5.0-1.25,[],,,
,,,,,,,,,,
1174,TestRecordings/dloun.wav,0,audio-button-response,57,896185,0.0-5.0-0.26,,,,
,,,,,,,,,,
1254,,"{""P0_Q0"":4}",survey,58,897446,0.0-5.0-1.26,[],,,
,,,,,,,,,,
1249,TestRecordings/stahm.wav,0,audio-button-response,59,898705,0.0-5.0-0.27,,,,
,,,,,,,,,,
2724,,"{""P0_Q0"":6}",survey,60,901435,0.0-5.0-1.27,[],,,
,,,,,,,,,,
1056,TestRecordings/pwam.wav,0,audio-button-response,61,902497,0.0-5.0-0.28,,,,
,,,,,,,,,,
1932,,"{""P0_Q0"":4}",survey,62,904435,0.0-5.0-1.28,[],,,
,,,,,,,,,,
816,TestRecordings/pmiik.wav,0,audio-button-response,63,905256,0.0-5.0-0.29,,,,
,,,,,,,,,,
2444,,"{""P0_Q0"":2}",survey,64,907706,0.0-5.0-1.29,[],,,
,,,,,,,,,,
874,TestRecordings/pmeit.wav,0,audio-button-response,65,908584,0.0-5.0-0.30,,,,
,,,,,,,,,,
1475,,"{""P0_Q0"":3}",survey,66,910066,0.0-5.0-1.30,[],,,
,,,,,,,,,,
881,TestRecordings/dlahm.wav,0,audio-button-response,67,910953,0.0-5.0-0.31,,,,
,,,,,,,,,,
1179,,"{""P0_Q0"":2}",survey,68,912139,0.0-5.0-1.31,[],,,
,,,,,,,,,,
993,TestRecordings/mgit.wav,0,audio-button-response,69,913137,0.0-5.0-0.32,,,,
,,,,,,,,,,
3453,,"{""P0_Q0"":4}",survey,70,916595,0.0-5.0-1.32,[],,,
,,,,,,,,,,
1511,TestRecordings/twas.wav,0,audio-button-response,71,918112,0.0-5.0-0.33,,,,
,,,,,,,,,,
1412,,"{""P0_Q0"":3}",survey,72,919531,0.0-5.0-1.33,[],,,
,,,,,,,,,,
1080,TestRecordings/gatkun.wav,0,audio-button-response,73,920616,0.0-5.0-0.34,,,,
,,,,,,,,,,
1245,,"{""P0_Q0"":1}",survey,74,921867,0.0-5.0-1.34,[],,,
,,,,,,,,,,
952,TestRecordings/dlemkus.wav,0,audio-button-response,75,922824,0.0-5.0-0.35,,,,
,,,,,,,,,,
1366,,"{""P0_Q0"":1}",survey,76,924194,0.0-5.0-1.35,[],,,
,,,,,,,,,,
968,TestRecordings/nangdup.wav,0,audio-button-response,77,925168,0.0-5.0-0.36,,,,
,,,,,,,,,,
1628,,"{""P0_Q0"":1}",survey,78,926802,0.0-5.0-1.36,[],,,
,,,,,,,,,,
1127,TestRecordings/drumbeng.wav,0,audio-button-response,79,927936,0.0-5.0-0.37,,,,
,,,,,,,,,,
1060,,"{""P0_Q0"":1}",survey,80,929003,0.0-5.0-1.37,[],,,
,,,,,,,,,,
967,TestRecordings/drantung.wav,0,audio-button-response,81,929976,0.0-5.0-0.38,,,,
,,,,,,,,,,
1428,,"{""P0_Q0"":1}",survey,82,931410,0.0-5.0-1.38,[],,,
,,,,,,,,,,
927,TestRecordings/drustet.wav,0,audio-button-response,83,932343,0.0-5.0-0.39,,,,
,,,,,,,,,,
2524,,"{""P0_Q0"":1}",survey,84,934874,0.0-5.0-1.39,[],,,
,,,,,,,,,,
833,TestRecordings/dmut.wav,0,audio-button-response,85,935712,0.0-5.0-0.40,,,,
,,,,,,,,,,
1508,,"{""P0_Q0"":3}",survey,86,937225,0.0-5.0-1.40,[],,,
,,,,,,,,,,
1032,TestRecordings/drikteng.wav,0,audio-button-response,87,938264,0.0-5.0-0.41,,,,
,,,,,,,,,,
1339,,"{""P0_Q0"":2}",survey,88,939610,0.0-5.0-1.41,[],,,
,,,,,,,,,,
1498,TestRecordings/ntek.wav,0,audio-button-response,89,941111,0.0-5.0-0.42,,,,
,,,,,,,,,,
1757,,"{""P0_Q0"":1}",survey,90,942874,0.0-5.0-1.42,[],,,
,,,,,,,,,,
896,TestRecordings/gipsus.wav,0,audio-button-response,91,943776,0.0-5.0-0.43,,,,
,,,,,,,,,,
2998,,"{""P0_Q0"":2}",survey,92,946780,0.0-5.0-1.43,[],,,
,,,,,,,,,,
1119,TestRecordings/suntem.wav,0,audio-button-response,93,947903,0.0-5.0-0.44,,,,
,,,,,,,,,,
1357,,"{""P0_Q0"":2}",survey,94,949265,0.0-5.0-1.44,[],,,
,,,,,,,,,,
896,TestRecordings/tlumgak.wav,0,audio-button-response,95,950167,0.0-5.0-0.45,,,,
,,,,,,,,,,
1156,,"{""P0_Q0"":1}",survey,96,951329,0.0-5.0-1.45,[],,,
,,,,,,,,,,
855,TestRecordings/pwuk.wav,0,audio-button-response,97,952191,0.0-5.0-0.46,,,,
,,,,,,,,,,
1333,,"{""P0_Q0"":3}",survey,98,953529,0.0-5.0-1.46,[],,,
,,,,,,,,,,
793,TestRecordings/tep.wav,0,audio-button-response,99,954327,0.0-5.0-0.47,,,,
,,,,,,,,,,
2188,,"{""P0_Q0"":6}",survey,100,956521,0.0-5.0-1.47,[],,,
,,,,,,,,,,
1456,TestRecordings/trahm.wav,0,audio-button-response,101,957983,0.0-5.0-0.48,,,,
,,,,,,,,,,
1700,,"{""P0_Q0"":6}",survey,102,959689,0.0-5.0-1.48,[],,,
,,,,,,,,,,
855,TestRecordings/bepgik.wav,0,audio-button-response,103,960551,0.0-5.0-0.49,,,,
,,,,,,,,,,
1708,,"{""P0_Q0"":1}",survey,104,962265,0.0-5.0-1.49,[],,,
,,,,,,,,,,
1032,TestRecordings/stauk.wav,0,audio-button-response,105,963303,0.0-5.0-0.50,,,,
,,,,,,,,,,
4325,,"{""P0_Q0"":7}",survey,106,967634,0.0-5.0-1.50,[],,,
,,,,,,,,,,
948,TestRecordings/ndeip.wav,0,audio-button-response,107,968590,0.0-5.0-0.51,,,,
,,,,,,,,,,
3714,,"{""P0_Q0"":6}",survey,108,972313,0.0-5.0-1.51,[],,,
,,,,,,,,,,
935,TestRecordings/skain.wav,0,audio-button-response,109,973254,0.0-5.0-0.52,,,,
,,,,,,,,,,
3069,,"{""P0_Q0"":5}",survey,110,976328,0.0-5.0-1.52,[],,,
,,,,,,,,,,
1288,TestRecordings/tisbeng.wav,0,audio-button-response,111,977622,0.0-5.0-0.53,,,,
,,,,,,,,,,
1188,,"{""P0_Q0"":2}",survey,112,978816,0.0-5.0-1.53,[],,,
,,,,,,,,,,
992,TestRecordings/punseng.wav,0,audio-button-response,113,979813,0.0-5.0-0.54,,,,
,,,,,,,,,,
1637,,"{""P0_Q0"":1}",survey,114,981456,0.0-5.0-1.54,[],,,
,,,,,,,,,,
920,TestRecordings/gistum.wav,0,audio-button-response,115,982382,0.0-5.0-0.55,,,,
,,,,,,,,,,
1364,,"{""P0_Q0"":2}",survey,116,983752,0.0-5.0-1.55,[],,,
,,,,,,,,,,
1192,TestRecordings/paim.wav,0,audio-button-response,117,984949,0.0-5.0-0.56,,,,
,,,,,,,,,,
2502,,"{""P0_Q0"":4}",survey,118,987457,0.0-5.0-1.56,[],,,
,,,,,,,,,,
1052,TestRecordings/ningpum.wav,0,audio-button-response,119,988517,0.0-5.0-0.57,,,,
,,,,,,,,,,
1357,,"{""P0_Q0"":1}",survey,120,989879,0.0-5.0-1.57,[],,,
,,,,,,,,,,
1008,TestRecordings/mepgut.wav,0,audio-button-response,121,990893,0.0-5.0-0.58,,,,
,,,,,,,,,,
1243,,"{""P0_Q0"":1}",survey,122,992144,0.0-5.0-1.58,[],,,
,,,,,,,,,,
808,TestRecordings/tlemkun.wav,0,audio-button-response,123,992957,0.0-5.0-0.59,,,,
,,,,,,,,,,
1636,,"{""P0_Q0"":1}",survey,124,994600,0.0-5.0-1.59,[],,,
,,,,,,,,,,
3309,, ,html-keyboard-response,125,997909,0.0-6.0,,,,
,,,,,,,,,,
32681,,"{""P0_Q0"":""21"",""P0_Q1"":""female"",""P0_Q2"":""yes"",""P0_Q3"":""none"",""P0_Q4"":""n/a"",""P0_Q5"":""highschool spanish""}",survey,126,1030608,0.0-7.0,[],,,
,,,,,,,,,,
548725,"<p style=""font-size:30px"">The experiment has ended</p><p style=""font-size:30px"",lang=""ko"">Thanks for participating in it!</p>", ,html-keyboard-response,127,1579315,0.0-8.0,,,,