rt,stimulus,response,trial_type,trial_index,time_elapsed,internal_node_id,accuracy,PracticeTest,ConsonantSequence,Grammaticality
,,,,,,,,,,
865015,"<p style=""font-size:30px"">Welcome to the experiment</p><p>Press spacebar to continue</p>", ,html-keyboard-response,0,864978,0.0-0.0,,,,
,,,,,,,,,,
1818,"<p style=""font-size:30px"">Please ensure that your headphones are on correctly</p><p>Press spacebar to continue</p>", ,html-keyboard-response,1,866798,0.0-1.0,,,,
,,,,,,,,,,
3891,"<p style=""font-size:30px"">In this experiment, you will listen to nonsense words</p><p style=""font-size:30px"",lang=""ko"">Your task is to rate the nonsense word you heard as a possible word of American English</p><p>Press spacebar to continue</p>", ,html-keyboard-response,2,870688,0.0-2.0,,,,
,,,,,,,,,,
1103,, ,html-keyboard-response,3,871792,0.0-3.0,,,,
,,,,,,,,,,
2255,"<p style=""font-size:30px"">Now let's move on to the actual experiment.</p><p style=""font-size:30px"",lang=""ko"">During the experiment, you will hear each of the nonce words only once.</p><p>Press spacebar to continue</p>", ,html-keyboard-response,4,874048,0.0-4.0,,,,
,,,,,,,,,,
2320,TestRecordings/tep.wav,0,audio-button-response,5,876672,0.0-5.0-0.0,,,,
,,,,,,,,,,
9361,,"{""P0_Q0"":4}",survey,6,886068,0.0-5.0-1.0,[],,,
,,,,,,,,,,
2444,TestRecordings/drantung.wav,0,audio-button-response,7,888519,0.0-5.0-0.1,,,,
,,,,,,,,,,
5031,,"{""P0_Q0"":2}",survey,8,893563,0.0-5.0-1.1,[],,,
,,,,,,,,,,
1389,TestRecordings/pmeit.wav,0,audio-button-response,9,894959,0.0-5.0-0.2,,,,
,,,,,,,,,,
4897,,"{""P0_Q0"":5}",survey,10,899866,0.0-5.0-1.2,[],,,
,,,,,,,,,,
2805,TestRecordings/drikteng.wav,0,audio-button-response,11,902678,0.0-5.0-0.3,,,,
,,,,,,,,,,
2603,,"{""P0_Q0"":2}",survey,12,905290,0.0-5.0-1.3,[],,,
,,,,,,,,,,
2797,TestRecordings/kutpim.wav,0,audio-button-response,13,908094,0.0-5.0-0.4,,,,
,,,,,,,,,,
2859,,"{""P0_Q0"":2}",survey,14,910961,0.0-5.0-1.4,[],,,
,,,,,,,,,,
1974,TestRecordings/stahm.wav,0,audio-button-response,15,912942,0.0-5.0-0.5,,,,
,,,,,,,,,,
3672,,"{""P0_Q0"":6}",survey,16,916624,0.0-5.0-1.5,[],,,
,,,,,,,,,,
3391,TestRecordings/giit.wav,0,audio-button-response,17,920022,0.0-5.0-0.6,,,,
,,,,,,,,,,
3961,,"{""P0_Q0"":2}",survey,18,923992,0.0-5.0-1.6,[],,,
,,,,,,,,,,
4407,TestRecordings/bepgik.wav,0,audio-button-response,19,928405,0.0-5.0-0.7,,,,
,,,,,,,,,,
3132,,"{""P0_Q0"":5}",survey,20,931544,0.0-5.0-1.7,[],,,
,,,,,,,,,,
3814,TestRecordings/ntek.wav,0,audio-button-response,21,935365,0.0-5.0-0.8,,,,
,,,,,,,,,,
3003,,"{""P0_Q0"":5}",survey,22,938376,0.0-5.0-1.8,[],,,
,,,,,,,,,,
1654,TestRecordings/tlumgak.wav,0,audio-button-response,23,940036,0.0-5.0-0.9,,,,
,,,,,,,,,,
2180,,"{""P0_Q0"":1}",survey,24,942224,0.0-5.0-1.9,[],,,
,,,,,,,,,,
6204,TestRecordings/ndeip.wav,0,audio-button-response,25,948436,0.0-5.0-0.10,,,,
,,,,,,,,,,
4275,,"{""P0_Q0"":4}",survey,26,952719,0.0-5.0-1.10,[],,,
,,,,,,,,,,
3685,TestRecordings/stauk.wav,0,audio-button-response,27,956411,0.0-5.0-0.11,,,,
,,,,,,,,,,
11213,,"{""P0_Q0"":5}",survey,28,967630,0.0-5.0-1.11,[],,,
,,,,,,,,,,
1111,TestRecordings/kmaut.wav,0,audio-button-response,29,968747,0.0-5.0-0.12,,,,
,,,,,,,,,,
1948,,"{""P0_Q0"":2}",survey,30,970701,0.0-5.0-1.12,[],,,
,,,,,,,,,,
1381,TestRecordings/dlisbep.wav,0,audio-button-response,31,972091,0.0-5.0-0.13,,,,
,,,,,,,,,,
1820,,"{""P0_Q0"":2}",survey,32,973917,0.0-5.0-1.13,[],,,
,,,,,,,,,,
1008,TestRecordings/nutbim.wav,0,audio-button-response,33,974930,0.0-5.0-0.14,,,,
,,,,,,,,,,
4845,,"{""P0_Q0"":3}",survey,34,979782,0.0-5.0-1.14,[],,,
,,,,,,,,,,
1166,TestRecordings/dmut.wav,0,audio-button-response,35,980954,0.0-5.0-0.15,,,,
,,,,,,,,,,
2973,,"{""P0_Q0"":5}",survey,36,983933,0.0-5.0-1.15,[],,,
,,,,,,,,,,
1119,TestRecordings/mkait.wav,0,audio-button-response,37,985058,0.0-5.0-0.16,,,,
,,,,,,,,,,
2661,,"{""P0_Q0"":7}",survey,38,987726,0.0-5.0-1.16,[],,,
,,,,,,,,,,
1015,TestRecordings/suntem.wav,0,audio-button-response,39,988746,0.0-5.0-0.17,,,,
,,,,,,,,,,
1965,,"{""P0_Q0"":7}",survey,40,990717,0.0-5.0-1.17,[],,,
,,,,,,,,,,
1135,TestRecordings/dlahm.wav,0,audio-button-response,41,991858,0.0-5.0-0.18,,,,
,,,,,,,,,,
2108,,"{""P0_Q0"":7}",survey,42,993972,0.0-5.0-1.18,[],,,
,,,,,,,,,,
2745,TestRecordings/twas.wav,0,audio-button-response,43,996722,0.0-5.0-0.19,,,,
,,,,,,,,,,
4636,,"{""P0_Q0"":3}",survey,44,1001364,0.0-5.0-1.19,[],,,
,,,,,,,,,,
1239,TestRecordings/mepgut.wav,0,audio-button-response,45,1002609,0.0-5.0-0.20,,,,
,,,,,,,,,,
3021,,"{""P0_Q0"":5}",survey,46,1005636,0.0-5.0-1.20,[],,,
,,,,,,,,,,
1119,TestRecordings/pmiik.wav,0,audio-button-response,47,1006762,0.0-5.0-0.21,,,,
,,,,,,,,,,
2965,,"{""P0_Q0"":1}",survey,48,1009732,0.0-5.0-1.21,[],,,
,,,,,,,,,,
1111,TestRecordings/pundes.wav,0,audio-button-response,49,1010849,0.0-5.0-0.22,,,,
,,,,,,,,,,
2933,,"{""P0_Q0"":1}",survey,50,1013788,0.0-5.0-1.22,[],,,
,,,,,,,,,,
1630,TestRecordings/tlasdung.wav,0,audio-button-response,51,1015424,0.0-5.0-0.23,,,,
,,,,,,,,,,
1693,,"{""P0_Q0"":2}",survey,52,1017123,0.0-5.0-1.23,[],,,
,,,,,,,,,,
912,TestRecordings/bem.wav,0,audio-button-response,53,1018040,0.0-5.0-0.24,,,,
,,,,,,,,,,
2988,,"{""P0_Q0"":3}",survey,54,1021035,0.0-5.0-1.24,[],,,
,,,,,,,,,,
4231,TestRecordings/tempuk.wav,0,audio-button-response,55,1025273,0.0-5.0-0.25,,,,
,,,,,,,,,,
3021,,"{""P0_Q0"":2}",survey,56,1028299,0.0-5.0-1.25,[],,,
,,,,,,,,,,
1062,TestRecordings/tlemkun.wav,0,audio-button-response,57,1029368,0.0-5.0-0.26,,,,
,,,,,,,,,,
3101,,"{""P0_Q0"":1}",survey,58,1032474,0.0-5.0-1.26,[],,,
,,,,,,,,,,
1567,TestRecordings/pemdut.wav,0,audio-button-response,59,1034048,0.0-5.0-0.27,,,,
,,,,,,,,,,
2460,,"{""P0_Q0"":5}",survey,60,1036514,0.0-5.0-1.27,[],,,
,,,,,,,,,,
985,TestRecordings/drakpum.wav,0,audio-button-response,61,1037503,0.0-5.0-0.28,,,,
,,,,,,,,,,
1700,,"{""P0_Q0"":2}",survey,62,1039210,0.0-5.0-1.28,[],,,
,,,,,,,,,,
847,TestRecordings/gipsus.wav,0,audio-button-response,63,1040063,0.0-5.0-0.29,,,,
,,,,,,,,,,
1556,,"{""P0_Q0"":1}",survey,64,1041625,0.0-5.0-1.29,[],,,
,,,,,,,,,,
1022,TestRecordings/tlipgat.wav,0,audio-button-response,65,1042655,0.0-5.0-0.30,,,,
,,,,,,,,,,
1883,,"{""P0_Q0"":1}",survey,66,1044545,0.0-5.0-1.30,[],,,
,,,,,,,,,,
1230,TestRecordings/pwuk.wav,0,audio-button-response,67,1045783,0.0-5.0-0.31,,,,
,,,,,,,,,,
1924,,"{""P0_Q0"":6}",survey,68,1047713,0.0-5.0-1.31,[],,,
,,,,,,,,,,
889,TestRecordings/gup.wav,0,audio-button-response,69,1048607,0.0-5.0-0.32,,,,
,,,,,,,,,,
5621,,"{""P0_Q0"":1}",survey,70,1054234,0.0-5.0-1.32,[],,,
,,,,,,,,,,
1192,TestRecordings/stuun.wav,0,audio-button-response,71,1055430,0.0-5.0-0.33,,,,
,,,,,,,,,,
1900,,"{""P0_Q0"":5}",survey,72,1057337,0.0-5.0-1.33,[],,,
,,,,,,,,,,
855,TestRecordings/nangdup.wav,0,audio-button-response,73,1058198,0.0-5.0-0.34,,,,
,,,,,,,,,,
2116,,"{""P0_Q0"":1}",survey,74,1060320,0.0-5.0-1.34,[],,,
,,,,,,,,,,
1087,TestRecordings/tlem.wav,0,audio-button-response,75,1061414,0.0-5.0-0.35,,,,
,,,,,,,,,,
1490,,"{""P0_Q0"":5}",survey,76,1062913,0.0-5.0-1.35,[],,,
,,,,,,,,,,
1392,TestRecordings/tisbeng.wav,0,audio-button-response,77,1064310,0.0-5.0-0.36,,,,
,,,,,,,,,,
5669,,"{""P0_Q0"":2}",survey,78,1069985,0.0-5.0-1.36,[],,,
,,,,,,,,,,
1127,TestRecordings/tlik.wav,0,audio-button-response,79,1071118,0.0-5.0-0.37,,,,
,,,,,,,,,,
1525,,"{""P0_Q0"":6}",survey,80,1072648,0.0-5.0-1.37,[],,,
,,,,,,,,,,
911,TestRecordings/dlemkus.wav,0,audio-button-response,81,1073566,0.0-5.0-0.38,,,,
,,,,,,,,,,
1684,,"{""P0_Q0"":2}",survey,82,1075256,0.0-5.0-1.38,[],,,
,,,,,,,,,,
1183,TestRecordings/twen.wav,0,audio-button-response,83,1076446,0.0-5.0-0.39,,,,
,,,,,,,,,,
4748,,"{""P0_Q0"":3}",survey,84,1081200,0.0-5.0-1.39,[],,,
,,,,,,,,,,
1150,TestRecordings/paim.wav,0,audio-button-response,85,1082358,0.0-5.0-0.40,,,,
,,,,,,,,,,
2530,,"{""P0_Q0"":7}",survey,86,1084895,0.0-5.0-1.40,[],,,
,,,,,,,,,,
1040,TestRecordings/drumbeng.wav,0,audio-button-response,87,1085942,0.0-5.0-0.41,,,,
,,,,,,,,,,
1812,,"{""P0_Q0"":3}",survey,88,1087760,0.0-5.0-1.41,[],,,
,,,,,,,,,,
942,TestRecordings/punseng.wav,0,audio-button-response,89,1088710,0.0-5.0-0.42,,,,
,,,,,,,,,,
1400,,"{""P0_Q0"":2}",survey,90,1090119,0.0-5.0-1.42,[],,,
,,,,,,,,,,
1143,TestRecordings/trindes.wav,0,audio-button-response,91,1091269,0.0-5.0-0.43,,,,
,,,,,,,,,,
1957,,"{""P0_Q0"":2}",survey,92,1093231,0.0-5.0-1.43,[],,,
,,,,,,,,,,
1006,TestRecordings/kmeip.wav,0,audio-button-response,93,1094246,0.0-5.0-0.44,,,,
,,,,,,,,,,
2293,,"{""P0_Q0"":2}",survey,94,1096544,0.0-5.0-1.44,[],,,
,,,,,,,,,,
1736,TestRecordings/gitpes.wav,0,audio-button-response,95,1098285,0.0-5.0-0.45,,,,
,,,,,,,,,,
1276,,"{""P0_Q0"":2}",survey,96,1099567,0.0-5.0-1.45,[],,,
,,,,,,,,,,
944,TestRecordings/nboup.wav,0,audio-button-response,97,1100517,0.0-5.0-0.46,,,,
,,,,,,,,,,
1533,,"{""P0_Q0"":4}",survey,98,1102055,0.0-5.0-1.46,[],,,
,,,,,,,,,,
831,TestRecordings/dloun.wav,0,audio-button-response,99,1102892,0.0-5.0-0.47,,,,
,,,,,,,,,,
2372,,"{""P0_Q0"":5}",survey,100,1105270,0.0-5.0-1.47,[],,,
,,,,,,,,,,
849,TestRecordings/tloum.wav,0,audio-button-response,101,1106124,0.0-5.0-0.48,,,,
,,,,,,,,,,
1362,,"{""P0_Q0"":1}",survey,102,1107495,0.0-5.0-1.48,[],,,
,,,,,,,,,,
1239,TestRecordings/sengdun.wav,0,audio-button-response,103,1108740,0.0-5.0-0.49,,,,
,,,,,,,,,,
2132,,"{""P0_Q0"":4}",survey,104,1110878,0.0-5.0-1.49,[],,,
,,,,,,,,,,
935,TestRecordings/tlepgim.wav,0,audio-button-response,105,1111819,0.0-5.0-0.50,,,,
,,,,,,,,,,
1812,,"{""P0_Q0"":1}",survey,106,1113638,0.0-5.0-1.50,[],,,
,,,,,,,,,,
773,TestRecordings/pwam.wav,0,audio-button-response,107,1114419,0.0-5.0-0.51,,,,
,,,,,,,,,,
1739,,"{""P0_Q0"":1}",survey,108,1116166,0.0-5.0-1.51,[],,,
,,,,,,,,,,
1265,TestRecordings/trahm.wav,0,audio-button-response,109,1117437,0.0-5.0-0.52,,,,
,,,,,,,,,,
2836,,"{""P0_Q0"":2}",survey,110,1120279,0.0-5.0-1.52,[],,,
,,,,,,,,,,
1054,TestRecordings/gatkun.wav,0,audio-button-response,111,1121340,0.0-5.0-0.53,,,,
,,,,,,,,,,
1444,,"{""P0_Q0"":1}",survey,112,1122790,0.0-5.0-1.53,[],,,
,,,,,,,,,,
1032,TestRecordings/drustet.wav,0,audio-button-response,113,1123828,0.0-5.0-0.54,,,,
,,,,,,,,,,
1795,,"{""P0_Q0"":1}",survey,114,1125630,0.0-5.0-1.54,[],,,
,,,,,,,,,,
1048,TestRecordings/gistum.wav,0,audio-button-response,115,1126684,0.0-5.0-0.55,,,,
,,,,,,,,,,
1555,,"{""P0_Q0"":1}",survey,116,1128246,0.0-5.0-1.55,[],,,
,,,,,,,,,,
1016,TestRecordings/drain.wav,0,audio-button-response,117,1129268,0.0-5.0-0.56,,,,
,,,,,,,,,,
5148,,"{""P0_Q0"":4}",survey,118,1134421,0.0-5.0-1.56,[],,,
,,,,,,,,,,
1216,TestRecordings/ningpum.wav,0,audio-button-response,119,1135643,0.0-5.0-0.57,,,,
,,,,,,,,,,
3820,,"{""P0_Q0"":1}",survey,120,1139469,0.0-5.0-1.57,[],,,
,,,,,,,,,,
807,TestRecordings/skain.wav,0,audio-button-response,121,1140283,0.0-5.0-0.58,,,,
,,,,,,,,,,
2913,,"{""P0_Q0"":5}",survey,122,1143225,0.0-5.0-1.58,[],,,
,,,,,,,,,,
714,TestRecordings/mgit.wav,0,audio-button-response,123,1143946,0.0-5.0-0.59,,,,
,,,,,,,,,,
2841,,"{""P0_Q0"":6}",survey,124,1146798,0.0-5.0-1.59,[],,,
,,,,,,,,,,
3323,, ,html-keyboard-response,125,1150123,0.0-6.0,,,,
,,,,,,,,,,
119246,,"{""P0_Q0"":""18"",""P0_Q1"":""Male"",""P0_Q2"":""Yes"",""P0_Q3"":""Spainish"",""P0_Q4"":""age 13, Spainish"",""P0_Q5"":""Practicing a lot by reading newspapers. listening to music, and watching tv shows""}",survey,126,1269385,0.0-7.0,[],,,
,,,,,,,,,,
60419,"<p style=""font-size:30px"">The experiment has ended</p><p style=""font-size:30px"",lang=""ko"">Thanks for participating in it!</p>", ,html-keyboard-response,127,1329803,0.0-8.0,,,,