rt,stimulus,response,trial_type,trial_index,time_elapsed,internal_node_id,accuracy,PracticeTest,ConsonantSequence,Grammaticality
,,,,,,,,,,
1325418,"<p style=""font-size:30px"">Welcome to the experiment</p><p>Press spacebar to continue</p>", ,html-keyboard-response,0,1325366,0.0-0.0,,,,
,,,,,,,,,,
1569,"<p style=""font-size:30px"">Please ensure that your headphones are on correctly</p><p>Press spacebar to continue</p>", ,html-keyboard-response,1,1326937,0.0-1.0,,,,
,,,,,,,,,,
4123,"<p style=""font-size:30px"">In this experiment, you will listen to nonsense words</p><p style=""font-size:30px"",lang=""ko"">Your task is to rate the nonsense word you heard as a possible word of American English</p><p>Press spacebar to continue</p>", ,html-keyboard-response,2,1331062,0.0-2.0,,,,
,,,,,,,,,,
1095,, ,html-keyboard-response,3,1332158,0.0-3.0,,,,
,,,,,,,,,,
2360,"<p style=""font-size:30px"">Now let's move on to the actual experiment.</p><p style=""font-size:30px"",lang=""ko"">During the experiment, you will hear each of the nonce words only once.</p><p>Press spacebar to continue</p>", ,html-keyboard-response,4,1334518,0.0-4.0,,,,
,,,,,,,,,,
2198,TestRecordings/stauk.wav,0,audio-button-response,5,1337101,0.0-5.0-0.0,,,,
,,,,,,,,,,
5498,,"{""P0_Q0"":5}",survey,6,1342635,0.0-5.0-1.0,[],,,
,,,,,,,,,,
1800,TestRecordings/pundes.wav,0,audio-button-response,7,1344445,0.0-5.0-0.1,,,,
,,,,,,,,,,
2260,,"{""P0_Q0"":3}",survey,8,1346722,0.0-5.0-1.1,[],,,
,,,,,,,,,,
1087,TestRecordings/kmeip.wav,0,audio-button-response,9,1347820,0.0-5.0-0.2,,,,
,,,,,,,,,,
1697,,"{""P0_Q0"":3}",survey,10,1349528,0.0-5.0-1.2,[],,,
,,,,,,,,,,
1059,TestRecordings/bem.wav,0,audio-button-response,11,1350597,0.0-5.0-0.3,,,,
,,,,,,,,,,
1419,,"{""P0_Q0"":5}",survey,12,1352025,0.0-5.0-1.3,[],,,
,,,,,,,,,,
1018,TestRecordings/stuun.wav,0,audio-button-response,13,1353052,0.0-5.0-0.4,,,,
,,,,,,,,,,
1866,,"{""P0_Q0"":7}",survey,14,1354927,0.0-5.0-1.4,[],,,
,,,,,,,,,,
1188,TestRecordings/punseng.wav,0,audio-button-response,15,1356124,0.0-5.0-0.5,,,,
,,,,,,,,,,
2571,,"{""P0_Q0"":2}",survey,16,1358704,0.0-5.0-1.5,[],,,
,,,,,,,,,,
1066,TestRecordings/pmeit.wav,0,audio-button-response,17,1359780,0.0-5.0-0.6,,,,
,,,,,,,,,,
1857,,"{""P0_Q0"":3}",survey,18,1361647,0.0-5.0-1.6,[],,,
,,,,,,,,,,
1628,TestRecordings/gistum.wav,0,audio-button-response,19,1363284,0.0-5.0-0.7,,,,
,,,,,,,,,,
1883,,"{""P0_Q0"":4}",survey,20,1365174,0.0-5.0-1.7,[],,,
,,,,,,,,,,
1315,TestRecordings/drumbeng.wav,0,audio-button-response,21,1366499,0.0-5.0-0.8,,,,
,,,,,,,,,,
1876,,"{""P0_Q0"":3}",survey,22,1368383,0.0-5.0-1.8,[],,,
,,,,,,,,,,
1180,TestRecordings/tlumgak.wav,0,audio-button-response,23,1369571,0.0-5.0-0.9,,,,
,,,,,,,,,,
1540,,"{""P0_Q0"":1}",survey,24,1371118,0.0-5.0-1.9,[],,,
,,,,,,,,,,
853,TestRecordings/dmut.wav,0,audio-button-response,25,1371980,0.0-5.0-0.10,,,,
,,,,,,,,,,
1698,,"{""P0_Q0"":1}",survey,26,1373687,0.0-5.0-1.10,[],,,
,,,,,,,,,,
876,TestRecordings/mkait.wav,0,audio-button-response,27,1374571,0.0-5.0-0.11,,,,
,,,,,,,,,,
1565,,"{""P0_Q0"":3}",survey,28,1376142,0.0-5.0-1.11,[],,,
,,,,,,,,,,
1093,TestRecordings/twas.wav,0,audio-button-response,29,1377243,0.0-5.0-0.12,,,,
,,,,,,,,,,
2124,,"{""P0_Q0"":6}",survey,30,1379374,0.0-5.0-1.12,[],,,
,,,,,,,,,,
1572,TestRecordings/trindes.wav,0,audio-button-response,31,1380955,0.0-5.0-0.13,,,,
,,,,,,,,,,
1196,,"{""P0_Q0"":5}",survey,32,1382158,0.0-5.0-1.13,[],,,
,,,,,,,,,,
860,TestRecordings/tep.wav,0,audio-button-response,33,1383027,0.0-5.0-0.14,,,,
,,,,,,,,,,
2787,,"{""P0_Q0"":7}",survey,34,1385822,0.0-5.0-1.14,[],,,
,,,,,,,,,,
869,TestRecordings/giit.wav,0,audio-button-response,35,1386699,0.0-5.0-0.15,,,,
,,,,,,,,,,
1556,,"{""P0_Q0"":4}",survey,36,1388261,0.0-5.0-1.15,[],,,
,,,,,,,,,,
1715,TestRecordings/drantung.wav,0,audio-button-response,37,1389987,0.0-5.0-0.16,,,,
,,,,,,,,,,
1555,,"{""P0_Q0"":2}",survey,38,1391549,0.0-5.0-1.16,[],,,
,,,,,,,,,,
1123,TestRecordings/gitpes.wav,0,audio-button-response,39,1392683,0.0-5.0-0.17,,,,
,,,,,,,,,,
4413,,"{""P0_Q0"":3}",survey,40,1397102,0.0-5.0-1.17,[],,,
,,,,,,,,,,
852,TestRecordings/tlik.wav,0,audio-button-response,41,1397963,0.0-5.0-0.18,,,,
,,,,,,,,,,
1515,,"{""P0_Q0"":3}",survey,42,1399485,0.0-5.0-1.18,[],,,
,,,,,,,,,,
893,TestRecordings/pemdut.wav,0,audio-button-response,43,1400386,0.0-5.0-0.19,,,,
,,,,,,,,,,
1805,,"{""P0_Q0"":2}",survey,44,1402196,0.0-5.0-1.19,[],,,
,,,,,,,,,,
867,TestRecordings/nboup.wav,0,audio-button-response,45,1403074,0.0-5.0-0.20,,,,
,,,,,,,,,,
1573,,"{""P0_Q0"":1}",survey,46,1404653,0.0-5.0-1.20,[],,,
,,,,,,,,,,
1133,TestRecordings/tisbeng.wav,0,audio-button-response,47,1405793,0.0-5.0-0.21,,,,
,,,,,,,,,,
1556,,"{""P0_Q0"":1}",survey,48,1407356,0.0-5.0-1.21,[],,,
,,,,,,,,,,
861,TestRecordings/gipsus.wav,0,audio-button-response,49,1408225,0.0-5.0-0.22,,,,
,,,,,,,,,,
1676,,"{""P0_Q0"":2}",survey,50,1409908,0.0-5.0-1.22,[],,,
,,,,,,,,,,
885,TestRecordings/dlemkus.wav,0,audio-button-response,51,1410802,0.0-5.0-0.23,,,,
,,,,,,,,,,
1267,,"{""P0_Q0"":2}",survey,52,1412076,0.0-5.0-1.23,[],,,
,,,,,,,,,,
972,TestRecordings/kutpim.wav,0,audio-button-response,53,1413058,0.0-5.0-0.24,,,,
,,,,,,,,,,
1268,,"{""P0_Q0"":3}",survey,54,1414332,0.0-5.0-1.24,[],,,
,,,,,,,,,,
670,TestRecordings/kmaut.wav,0,audio-button-response,55,1415010,0.0-5.0-0.25,,,,
,,,,,,,,,,
1507,,"{""P0_Q0"":4}",survey,56,1416524,0.0-5.0-1.25,[],,,
,,,,,,,,,,
820,TestRecordings/bepgik.wav,0,audio-button-response,57,1417353,0.0-5.0-0.26,,,,
,,,,,,,,,,
2372,,"{""P0_Q0"":3}",survey,58,1419732,0.0-5.0-1.26,[],,,
,,,,,,,,,,
868,TestRecordings/stahm.wav,0,audio-button-response,59,1420611,0.0-5.0-0.27,,,,
,,,,,,,,,,
1592,,"{""P0_Q0"":7}",survey,60,1422212,0.0-5.0-1.27,[],,,
,,,,,,,,,,
805,TestRecordings/drain.wav,0,audio-button-response,61,1423025,0.0-5.0-0.28,,,,
,,,,,,,,,,
1716,,"{""P0_Q0"":5}",survey,62,1424748,0.0-5.0-1.28,[],,,
,,,,,,,,,,
1045,TestRecordings/drustet.wav,0,audio-button-response,63,1425801,0.0-5.0-0.29,,,,
,,,,,,,,,,
1524,,"{""P0_Q0"":2}",survey,64,1427331,0.0-5.0-1.29,[],,,
,,,,,,,,,,
941,TestRecordings/mepgut.wav,0,audio-button-response,65,1428280,0.0-5.0-0.30,,,,
,,,,,,,,,,
1349,,"{""P0_Q0"":2}",survey,66,1429635,0.0-5.0-1.30,[],,,
,,,,,,,,,,
917,TestRecordings/tlem.wav,0,audio-button-response,67,1430561,0.0-5.0-0.31,,,,
,,,,,,,,,,
1333,,"{""P0_Q0"":2}",survey,68,1431899,0.0-5.0-1.31,[],,,
,,,,,,,,,,
790,TestRecordings/gup.wav,0,audio-button-response,69,1432696,0.0-5.0-0.32,,,,
,,,,,,,,,,
1181,,"{""P0_Q0"":4}",survey,70,1433884,0.0-5.0-1.32,[],,,
,,,,,,,,,,
1748,TestRecordings/twen.wav,0,audio-button-response,71,1435640,0.0-5.0-0.33,,,,
,,,,,,,,,,
1332,,"{""P0_Q0"":7}",survey,72,1436980,0.0-5.0-1.33,[],,,
,,,,,,,,,,
1524,TestRecordings/tlemkun.wav,0,audio-button-response,73,1438513,0.0-5.0-0.34,,,,
,,,,,,,,,,
1109,,"{""P0_Q0"":2}",survey,74,1439626,0.0-5.0-1.34,[],,,
,,,,,,,,,,
757,TestRecordings/mgit.wav,0,audio-button-response,75,1440393,0.0-5.0-0.35,,,,
,,,,,,,,,,
956,,"{""P0_Q0"":2}",survey,76,1441355,0.0-5.0-1.35,[],,,
,,,,,,,,,,
1102,TestRecordings/drikteng.wav,0,audio-button-response,77,1442465,0.0-5.0-0.36,,,,
,,,,,,,,,,
3412,,"{""P0_Q0"":2}",survey,78,1445883,0.0-5.0-1.36,[],,,
,,,,,,,,,,
989,TestRecordings/sengdun.wav,0,audio-button-response,79,1446880,0.0-5.0-0.37,,,,
,,,,,,,,,,
1125,,"{""P0_Q0"":2}",survey,80,1448011,0.0-5.0-1.37,[],,,
,,,,,,,,,,
691,TestRecordings/suntem.wav,0,audio-button-response,81,1448711,0.0-5.0-0.38,,,,
,,,,,,,,,,
1387,,"{""P0_Q0"":2}",survey,82,1450107,0.0-5.0-1.38,[],,,
,,,,,,,,,,
877,TestRecordings/tlepgim.wav,0,audio-button-response,83,1450992,0.0-5.0-0.39,,,,
,,,,,,,,,,
1811,,"{""P0_Q0"":2}",survey,84,1452810,0.0-5.0-1.39,[],,,
,,,,,,,,,,
1134,TestRecordings/trahm.wav,0,audio-button-response,85,1453951,0.0-5.0-0.40,,,,
,,,,,,,,,,
1308,,"{""P0_Q0"":7}",survey,86,1455266,0.0-5.0-1.40,[],,,
,,,,,,,,,,
700,TestRecordings/tlipgat.wav,0,audio-button-response,87,1455976,0.0-5.0-0.41,,,,
,,,,,,,,,,
1236,,"{""P0_Q0"":3}",survey,88,1457218,0.0-5.0-1.41,[],,,
,,,,,,,,,,
628,TestRecordings/dloun.wav,0,audio-button-response,89,1457856,0.0-5.0-0.42,,,,
,,,,,,,,,,
1749,,"{""P0_Q0"":3}",survey,90,1459610,0.0-5.0-1.42,[],,,
,,,,,,,,,,
837,TestRecordings/ntek.wav,0,audio-button-response,91,1460456,0.0-5.0-0.43,,,,
,,,,,,,,,,
1428,,"{""P0_Q0"":2}",survey,92,1461889,0.0-5.0-1.43,[],,,
,,,,,,,,,,
781,TestRecordings/pwuk.wav,0,audio-button-response,93,1462680,0.0-5.0-0.44,,,,
,,,,,,,,,,
1635,,"{""P0_Q0"":4}",survey,94,1464321,0.0-5.0-1.44,[],,,
,,,,,,,,,,
895,TestRecordings/skain.wav,0,audio-button-response,95,1465223,0.0-5.0-0.45,,,,
,,,,,,,,,,
2013,,"{""P0_Q0"":7}",survey,96,1467242,0.0-5.0-1.45,[],,,
,,,,,,,,,,
949,TestRecordings/gatkun.wav,0,audio-button-response,97,1468199,0.0-5.0-0.46,,,,
,,,,,,,,,,
1154,,"{""P0_Q0"":2}",survey,98,1469361,0.0-5.0-1.46,[],,,
,,,,,,,,,,
757,TestRecordings/pwam.wav,0,audio-button-response,99,1470127,0.0-5.0-0.47,,,,
,,,,,,,,,,
1884,,"{""P0_Q0"":3}",survey,100,1472018,0.0-5.0-1.47,[],,,
,,,,,,,,,,
1211,TestRecordings/paim.wav,0,audio-button-response,101,1473239,0.0-5.0-0.48,,,,
,,,,,,,,,,
1365,,"{""P0_Q0"":3}",survey,102,1474610,0.0-5.0-1.48,[],,,
,,,,,,,,,,
828,TestRecordings/ningpum.wav,0,audio-button-response,103,1475446,0.0-5.0-0.49,,,,
,,,,,,,,,,
1180,,"{""P0_Q0"":2}",survey,104,1476633,0.0-5.0-1.49,[],,,
,,,,,,,,,,
901,TestRecordings/drakpum.wav,0,audio-button-response,105,1477543,0.0-5.0-0.50,,,,
,,,,,,,,,,
1628,,"{""P0_Q0"":2}",survey,106,1479177,0.0-5.0-1.50,[],,,
,,,,,,,,,,
780,TestRecordings/ndeip.wav,0,audio-button-response,107,1479966,0.0-5.0-0.51,,,,
,,,,,,,,,,
1341,,"{""P0_Q0"":2}",survey,108,1481313,0.0-5.0-1.51,[],,,
,,,,,,,,,,
812,TestRecordings/dlisbep.wav,0,audio-button-response,109,1482135,0.0-5.0-0.52,,,,
,,,,,,,,,,
1332,,"{""P0_Q0"":1}",survey,110,1483473,0.0-5.0-1.52,[],,,
,,,,,,,,,,
909,TestRecordings/nutbim.wav,0,audio-button-response,111,1484390,0.0-5.0-0.53,,,,
,,,,,,,,,,
2261,,"{""P0_Q0"":2}",survey,112,1486657,0.0-5.0-1.53,[],,,
,,,,,,,,,,
829,TestRecordings/pmiik.wav,0,audio-button-response,113,1487494,0.0-5.0-0.54,,,,
,,,,,,,,,,
1596,,"{""P0_Q0"":2}",survey,114,1489097,0.0-5.0-1.54,[],,,
,,,,,,,,,,
790,TestRecordings/tloum.wav,0,audio-button-response,115,1489894,0.0-5.0-0.55,,,,
,,,,,,,,,,
1180,,"{""P0_Q0"":3}",survey,116,1491081,0.0-5.0-1.55,[],,,
,,,,,,,,,,
765,TestRecordings/nangdup.wav,0,audio-button-response,117,1491854,0.0-5.0-0.56,,,,
,,,,,,,,,,
1717,,"{""P0_Q0"":2}",survey,118,1493577,0.0-5.0-1.56,[],,,
,,,,,,,,,,
589,TestRecordings/dlahm.wav,0,audio-button-response,119,1494174,0.0-5.0-0.57,,,,
,,,,,,,,,,
1276,,"{""P0_Q0"":2}",survey,120,1495456,0.0-5.0-1.57,[],,,
,,,,,,,,,,
869,TestRecordings/tlasdung.wav,0,audio-button-response,121,1496334,0.0-5.0-0.58,,,,
,,,,,,,,,,
1292,,"{""P0_Q0"":2}",survey,122,1497632,0.0-5.0-1.58,[],,,
,,,,,,,,,,
789,TestRecordings/tempuk.wav,0,audio-button-response,123,1498430,0.0-5.0-0.59,,,,
,,,,,,,,,,
1261,,"{""P0_Q0"":2}",survey,124,1499697,0.0-5.0-1.59,[],,,
,,,,,,,,,,
4020,, ,html-keyboard-response,125,1503719,0.0-6.0,,,,
,,,,,,,,,,
110787,,"{""P0_Q0"":""20"",""P0_Q1"":""Male"",""P0_Q2"":""Yes"",""P0_Q3"":""Some German"",""P0_Q4"":""Starting at age 12 to now almost every day."",""P0_Q5"":""I took German levels 0-5 in high school, one college level german class, and use duolingo to keep my mind fresh on the language every day.""}",survey,126,1614519,0.0-7.0,[],,,
,,,,,,,,,,
311090,"<p style=""font-size:30px"">The experiment has ended</p><p style=""font-size:30px"",lang=""ko"">Thanks for participating in it!</p>", ,html-keyboard-response,127,1925602,0.0-8.0,,,,