rt,stimulus,response,trial_type,trial_index,time_elapsed,internal_node_id,accuracy,PracticeTest,ConsonantSequence,Grammaticality
,,,,,,,,,,
555432,"<p style=""font-size:30px"">Welcome to the experiment</p><p>Press spacebar to continue</p>", ,html-keyboard-response,0,555433,0.0-0.0,,,,
,,,,,,,,,,
1876,"<p style=""font-size:30px"">Please ensure that your headphones are on correctly</p><p>Press spacebar to continue</p>", ,html-keyboard-response,1,557310,0.0-1.0,,,,
,,,,,,,,,,
3695,"<p style=""font-size:30px"">In this experiment, you will listen to nonsense words</p><p style=""font-size:30px"",lang=""ko"">Your task is to rate the nonsense word you heard as a possible word of American English</p><p>Press spacebar to continue</p>", ,html-keyboard-response,2,561005,0.0-2.0,,,,
,,,,,,,,,,
1392,, ,html-keyboard-response,3,562397,0.0-3.0,,,,
,,,,,,,,,,
3879,"<p style=""font-size:30px"">Now let's move on to the actual experiment.</p><p style=""font-size:30px"",lang=""ko"">During the experiment, you will hear each of the nonce words only once.</p><p>Press spacebar to continue</p>", ,html-keyboard-response,4,566277,0.0-4.0,,,,
,,,,,,,,,,
3845,TestRecordings/drustet.wav,0,audio-button-response,5,570132,0.0-5.0-0.0,,,,
,,,,,,,,,,
10667,,"{""P0_Q0"":2}",survey,6,580841,0.0-5.0-1.0,[],,,
,,,,,,,,,,
2124,TestRecordings/tep.wav,0,audio-button-response,7,582972,0.0-5.0-0.1,,,,
,,,,,,,,,,
5103,,"{""P0_Q0"":7}",survey,8,588087,0.0-5.0-1.1,[],,,
,,,,,,,,,,
3487,TestRecordings/mkait.wav,0,audio-button-response,9,591579,0.0-5.0-0.2,,,,
,,,,,,,,,,
4055,,"{""P0_Q0"":6}",survey,10,595646,0.0-5.0-1.2,[],,,
,,,,,,,,,,
1764,TestRecordings/kmaut.wav,0,audio-button-response,11,597419,0.0-5.0-0.3,,,,
,,,,,,,,,,
3497,,"{""P0_Q0"":3}",survey,12,600927,0.0-5.0-1.3,[],,,
,,,,,,,,,,
2583,TestRecordings/trindes.wav,0,audio-button-response,13,603515,0.0-5.0-0.4,,,,
,,,,,,,,,,
3779,,"{""P0_Q0"":4}",survey,14,607302,0.0-5.0-1.4,[],,,
,,,,,,,,,,
1930,TestRecordings/stahm.wav,0,audio-button-response,15,609242,0.0-5.0-0.5,,,,
,,,,,,,,,,
2554,,"{""P0_Q0"":7}",survey,16,611805,0.0-5.0-1.5,[],,,
,,,,,,,,,,
1582,TestRecordings/drumbeng.wav,0,audio-button-response,17,613394,0.0-5.0-0.6,,,,
,,,,,,,,,,
3019,,"{""P0_Q0"":1}",survey,18,616421,0.0-5.0-1.6,[],,,
,,,,,,,,,,
3039,TestRecordings/tlasdung.wav,0,audio-button-response,19,619466,0.0-5.0-0.7,,,,
,,,,,,,,,,
2140,,"{""P0_Q0"":2}",survey,20,621613,0.0-5.0-1.7,[],,,
,,,,,,,,,,
1559,TestRecordings/gitpes.wav,0,audio-button-response,21,623177,0.0-5.0-0.8,,,,
,,,,,,,,,,
3979,,"{""P0_Q0"":1}",survey,22,627165,0.0-5.0-1.8,[],,,
,,,,,,,,,,
1534,TestRecordings/kmeip.wav,0,audio-button-response,23,628705,0.0-5.0-0.9,,,,
,,,,,,,,,,
3035,,"{""P0_Q0"":1}",survey,24,631749,0.0-5.0-1.9,[],,,
,,,,,,,,,,
3095,TestRecordings/gipsus.wav,0,audio-button-response,25,634849,0.0-5.0-0.10,,,,
,,,,,,,,,,
2500,,"{""P0_Q0"":3}",survey,26,637358,0.0-5.0-1.10,[],,,
,,,,,,,,,,
1827,TestRecordings/tlem.wav,0,audio-button-response,27,639193,0.0-5.0-0.11,,,,
,,,,,,,,,,
2141,,"{""P0_Q0"":7}",survey,28,641340,0.0-5.0-1.11,[],,,
,,,,,,,,,,
1167,TestRecordings/pwuk.wav,0,audio-button-response,29,642513,0.0-5.0-0.12,,,,
,,,,,,,,,,
1939,,"{""P0_Q0"":4}",survey,30,644459,0.0-5.0-1.12,[],,,
,,,,,,,,,,
1257,TestRecordings/dlisbep.wav,0,audio-button-response,31,645720,0.0-5.0-0.13,,,,
,,,,,,,,,,
1427,,"{""P0_Q0"":2}",survey,32,647155,0.0-5.0-1.13,[],,,
,,,,,,,,,,
1416,TestRecordings/dlemkus.wav,0,audio-button-response,33,648577,0.0-5.0-0.14,,,,
,,,,,,,,,,
2940,,"{""P0_Q0"":2}",survey,34,651523,0.0-5.0-1.14,[],,,
,,,,,,,,,,
1527,TestRecordings/twas.wav,0,audio-button-response,35,653057,0.0-5.0-0.15,,,,
,,,,,,,,,,
1780,,"{""P0_Q0"":5}",survey,36,654843,0.0-5.0-1.15,[],,,
,,,,,,,,,,
1462,TestRecordings/pundes.wav,0,audio-button-response,37,656312,0.0-5.0-0.16,,,,
,,,,,,,,,,
1372,,"{""P0_Q0"":2}",survey,38,657691,0.0-5.0-1.16,[],,,
,,,,,,,,,,
1320,TestRecordings/gatkun.wav,0,audio-button-response,39,659016,0.0-5.0-0.17,,,,
,,,,,,,,,,
1379,,"{""P0_Q0"":1}",survey,40,660402,0.0-5.0-1.17,[],,,
,,,,,,,,,,
1720,TestRecordings/pwam.wav,0,audio-button-response,41,662128,0.0-5.0-0.18,,,,
,,,,,,,,,,
3061,,"{""P0_Q0"":3}",survey,42,665195,0.0-5.0-1.18,[],,,
,,,,,,,,,,
1383,TestRecordings/bem.wav,0,audio-button-response,43,666584,0.0-5.0-0.19,,,,
,,,,,,,,,,
1364,,"{""P0_Q0"":5}",survey,44,667954,0.0-5.0-1.19,[],,,
,,,,,,,,,,
2129,TestRecordings/trahm.wav,0,audio-button-response,45,670088,0.0-5.0-0.20,,,,
,,,,,,,,,,
3300,,"{""P0_Q0"":4}",survey,46,673394,0.0-5.0-1.20,[],,,
,,,,,,,,,,
1336,TestRecordings/ningpum.wav,0,audio-button-response,47,674736,0.0-5.0-0.21,,,,
,,,,,,,,,,
1460,,"{""P0_Q0"":1}",survey,48,676201,0.0-5.0-1.21,[],,,
,,,,,,,,,,
1665,TestRecordings/tlepgim.wav,0,audio-button-response,49,677871,0.0-5.0-0.22,,,,
,,,,,,,,,,
1381,,"{""P0_Q0"":1}",survey,50,679258,0.0-5.0-1.22,[],,,
,,,,,,,,,,
1409,TestRecordings/pmiik.wav,0,audio-button-response,51,680671,0.0-5.0-0.23,,,,
,,,,,,,,,,
2540,,"{""P0_Q0"":3}",survey,52,683217,0.0-5.0-1.23,[],,,
,,,,,,,,,,
1208,TestRecordings/tlik.wav,0,audio-button-response,53,684432,0.0-5.0-0.24,,,,
,,,,,,,,,,
2348,,"{""P0_Q0"":6}",survey,54,686786,0.0-5.0-1.24,[],,,
,,,,,,,,,,
1182,TestRecordings/gup.wav,0,audio-button-response,55,687975,0.0-5.0-0.25,,,,
,,,,,,,,,,
2373,,"{""P0_Q0"":5}",survey,56,690354,0.0-5.0-1.25,[],,,
,,,,,,,,,,
1535,TestRecordings/drikteng.wav,0,audio-button-response,57,691894,0.0-5.0-0.26,,,,
,,,,,,,,,,
2405,,"{""P0_Q0"":1}",survey,58,694305,0.0-5.0-1.26,[],,,
,,,,,,,,,,
1704,TestRecordings/mepgut.wav,0,audio-button-response,59,696014,0.0-5.0-0.27,,,,
,,,,,,,,,,
1357,,"{""P0_Q0"":1}",survey,60,697378,0.0-5.0-1.27,[],,,
,,,,,,,,,,
1229,TestRecordings/suntem.wav,0,audio-button-response,61,698615,0.0-5.0-0.28,,,,
,,,,,,,,,,
1365,,"{""P0_Q0"":1}",survey,62,699985,0.0-5.0-1.28,[],,,
,,,,,,,,,,
1096,TestRecordings/ntek.wav,0,audio-button-response,63,701086,0.0-5.0-0.29,,,,
,,,,,,,,,,
1580,,"{""P0_Q0"":5}",survey,64,702672,0.0-5.0-1.29,[],,,
,,,,,,,,,,
1417,TestRecordings/stauk.wav,0,audio-button-response,65,704095,0.0-5.0-0.30,,,,
,,,,,,,,,,
1260,,"{""P0_Q0"":6}",survey,66,705360,0.0-5.0-1.30,[],,,
,,,,,,,,,,
1528,TestRecordings/sengdun.wav,0,audio-button-response,67,706894,0.0-5.0-0.31,,,,
,,,,,,,,,,
3159,,"{""P0_Q0"":1}",survey,68,710058,0.0-5.0-1.31,[],,,
,,,,,,,,,,
1205,TestRecordings/twen.wav,0,audio-button-response,69,711270,0.0-5.0-0.32,,,,
,,,,,,,,,,
4093,,"{""P0_Q0"":2}",survey,70,715369,0.0-5.0-1.32,[],,,
,,,,,,,,,,
1087,TestRecordings/tempuk.wav,0,audio-button-response,71,716462,0.0-5.0-0.33,,,,
,,,,,,,,,,
1691,,"{""P0_Q0"":1}",survey,72,718160,0.0-5.0-1.33,[],,,
,,,,,,,,,,
1279,TestRecordings/punseng.wav,0,audio-button-response,73,719445,0.0-5.0-0.34,,,,
,,,,,,,,,,
1028,,"{""P0_Q0"":1}",survey,74,720480,0.0-5.0-1.34,[],,,
,,,,,,,,,,
863,TestRecordings/bepgik.wav,0,audio-button-response,75,721350,0.0-5.0-0.35,,,,
,,,,,,,,,,
1004,,"{""P0_Q0"":1}",survey,76,722359,0.0-5.0-1.35,[],,,
,,,,,,,,,,
1057,TestRecordings/nutbim.wav,0,audio-button-response,77,723422,0.0-5.0-0.36,,,,
,,,,,,,,,,
3356,,"{""P0_Q0"":1}",survey,78,726784,0.0-5.0-1.36,[],,,
,,,,,,,,,,
1545,TestRecordings/tlemkun.wav,0,audio-button-response,79,728334,0.0-5.0-0.37,,,,
,,,,,,,,,,
3189,,"{""P0_Q0"":1}",survey,80,731528,0.0-5.0-1.37,[],,,
,,,,,,,,,,
1048,TestRecordings/tloum.wav,0,audio-button-response,81,732581,0.0-5.0-0.38,,,,
,,,,,,,,,,
1060,,"{""P0_Q0"":3}",survey,82,733647,0.0-5.0-1.38,[],,,
,,,,,,,,,,
1104,TestRecordings/dmut.wav,0,audio-button-response,83,734757,0.0-5.0-0.39,,,,
,,,,,,,,,,
1428,,"{""P0_Q0"":2}",survey,84,736191,0.0-5.0-1.39,[],,,
,,,,,,,,,,
1096,TestRecordings/pemdut.wav,0,audio-button-response,85,737293,0.0-5.0-0.40,,,,
,,,,,,,,,,
2611,,"{""P0_Q0"":2}",survey,86,739911,0.0-5.0-1.40,[],,,
,,,,,,,,,,
1472,TestRecordings/skain.wav,0,audio-button-response,87,741389,0.0-5.0-0.41,,,,
,,,,,,,,,,
2117,,"{""P0_Q0"":4}",survey,88,743512,0.0-5.0-1.41,[],,,
,,,,,,,,,,
1646,TestRecordings/paim.wav,0,audio-button-response,89,745164,0.0-5.0-0.42,,,,
,,,,,,,,,,
1705,,"{""P0_Q0"":5}",survey,90,746880,0.0-5.0-1.42,[],,,
,,,,,,,,,,
1144,TestRecordings/kutpim.wav,0,audio-button-response,91,748029,0.0-5.0-0.43,,,,
,,,,,,,,,,
2350,,"{""P0_Q0"":1}",survey,92,750385,0.0-5.0-1.43,[],,,
,,,,,,,,,,
2519,TestRecordings/drantung.wav,0,audio-button-response,93,752909,0.0-5.0-0.44,,,,
,,,,,,,,,,
1269,,"{""P0_Q0"":1}",survey,94,754183,0.0-5.0-1.44,[],,,
,,,,,,,,,,
1127,TestRecordings/giit.wav,0,audio-button-response,95,755317,0.0-5.0-0.45,,,,
,,,,,,,,,,
2749,,"{""P0_Q0"":5}",survey,96,758071,0.0-5.0-1.45,[],,,
,,,,,,,,,,
984,TestRecordings/pmeit.wav,0,audio-button-response,97,759060,0.0-5.0-0.46,,,,
,,,,,,,,,,
1341,,"{""P0_Q0"":2}",survey,98,760406,0.0-5.0-1.46,[],,,
,,,,,,,,,,
1479,TestRecordings/dloun.wav,0,audio-button-response,99,761892,0.0-5.0-0.47,,,,
,,,,,,,,,,
1900,,"{""P0_Q0"":2}",survey,100,763798,0.0-5.0-1.47,[],,,
,,,,,,,,,,
1289,TestRecordings/tisbeng.wav,0,audio-button-response,101,765092,0.0-5.0-0.48,,,,
,,,,,,,,,,
2150,,"{""P0_Q0"":3}",survey,102,767247,0.0-5.0-1.48,[],,,
,,,,,,,,,,
1221,TestRecordings/ndeip.wav,0,audio-button-response,103,768476,0.0-5.0-0.49,,,,
,,,,,,,,,,
2804,,"{""P0_Q0"":5}",survey,104,771286,0.0-5.0-1.49,[],,,
,,,,,,,,,,
1120,TestRecordings/gistum.wav,0,audio-button-response,105,772411,0.0-5.0-0.50,,,,
,,,,,,,,,,
1860,,"{""P0_Q0"":1}",survey,106,774278,0.0-5.0-1.50,[],,,
,,,,,,,,,,
1425,TestRecordings/nboup.wav,0,audio-button-response,107,775708,0.0-5.0-0.51,,,,
,,,,,,,,,,
2094,,"{""P0_Q0"":1}",survey,108,777807,0.0-5.0-1.51,[],,,
,,,,,,,,,,
1391,TestRecordings/mgit.wav,0,audio-button-response,109,779203,0.0-5.0-0.52,,,,
,,,,,,,,,,
1725,,"{""P0_Q0"":5}",survey,110,780934,0.0-5.0-1.52,[],,,
,,,,,,,,,,
1520,TestRecordings/stuun.wav,0,audio-button-response,111,782459,0.0-5.0-0.53,,,,
,,,,,,,,,,
1220,,"{""P0_Q0"":6}",survey,112,783685,0.0-5.0-1.53,[],,,
,,,,,,,,,,
1888,TestRecordings/tlumgak.wav,0,audio-button-response,113,785579,0.0-5.0-0.54,,,,
,,,,,,,,,,
1830,,"{""P0_Q0"":2}",survey,114,787415,0.0-5.0-1.54,[],,,
,,,,,,,,,,
1105,TestRecordings/drain.wav,0,audio-button-response,115,788531,0.0-5.0-0.55,,,,
,,,,,,,,,,
1293,,"{""P0_Q0"":7}",survey,116,789829,0.0-5.0-1.55,[],,,
,,,,,,,,,,
1048,TestRecordings/dlahm.wav,0,audio-button-response,117,790883,0.0-5.0-0.56,,,,
,,,,,,,,,,
1773,,"{""P0_Q0"":7}",survey,118,792661,0.0-5.0-1.56,[],,,
,,,,,,,,,,
1056,TestRecordings/drakpum.wav,0,audio-button-response,119,793723,0.0-5.0-0.57,,,,
,,,,,,,,,,
1277,,"{""P0_Q0"":2}",survey,120,795005,0.0-5.0-1.57,[],,,
,,,,,,,,,,
1025,TestRecordings/tlipgat.wav,0,audio-button-response,121,796034,0.0-5.0-0.58,,,,
,,,,,,,,,,
1492,,"{""P0_Q0"":1}",survey,122,797533,0.0-5.0-1.58,[],,,
,,,,,,,,,,
943,TestRecordings/nangdup.wav,0,audio-button-response,123,798482,0.0-5.0-0.59,,,,
,,,,,,,,,,
1237,,"{""P0_Q0"":1}",survey,124,799725,0.0-5.0-1.59,[],,,
,,,,,,,,,,
5366,, ,html-keyboard-response,125,805092,0.0-6.0,,,,
,,,,,,,,,,
26740,,"{""P0_Q0"":""23"",""P0_Q1"":""female"",""P0_Q2"":""yes"",""P0_Q3"":""none"",""P0_Q4"":""n/a"",""P0_Q5"":""n/a""}",survey,126,831846,0.0-7.0,[],,,
,,,,,,,,,,
845213,"<p style=""font-size:30px"">The experiment has ended</p><p style=""font-size:30px"",lang=""ko"">Thanks for participating in it!</p>", ,html-keyboard-response,127,1677026,0.0-8.0,,,,