rt,stimulus,response,trial_type,trial_index,time_elapsed,internal_node_id,accuracy,PracticeTest,ConsonantSequence,Grammaticality
,,,,,,,,,,
103395,"<p style=""font-size:30px"">Welcome to the experiment</p><p>Press spacebar to continue</p>", ,html-keyboard-response,0,103391,0.0-0.0,,,,
,,,,,,,,,,
1510,"<p style=""font-size:30px"">Please ensure that your headphones are on correctly</p><p>Press spacebar to continue</p>", ,html-keyboard-response,1,104902,0.0-1.0,,,,
,,,,,,,,,,
4816,"<p style=""font-size:30px"">In this experiment, you will listen to nonsense words</p><p style=""font-size:30px"",lang=""ko"">Your task is to rate the nonsense word you heard as a possible word of American English</p><p>Press spacebar to continue</p>", ,html-keyboard-response,2,109718,0.0-2.0,,,,
,,,,,,,,,,
1224,, ,html-keyboard-response,3,110943,0.0-3.0,,,,
,,,,,,,,,,
3782,"<p style=""font-size:30px"">Now let's move on to the actual experiment.</p><p style=""font-size:30px"",lang=""ko"">During the experiment, you will hear each of the nonce words only once.</p><p>Press spacebar to continue</p>", ,html-keyboard-response,4,114726,0.0-4.0,,,,
,,,,,,,,,,
3237,TestRecordings/ntek.wav,0,audio-button-response,5,117972,0.0-5.0-0.0,,,,
,,,,,,,,,,
5547,,"{""P0_Q0"":6}",survey,6,123562,0.0-5.0-1.0,[],,,
,,,,,,,,,,
1894,TestRecordings/stahm.wav,0,audio-button-response,7,125461,0.0-5.0-0.1,,,,
,,,,,,,,,,
4446,,"{""P0_Q0"":5}",survey,8,129920,0.0-5.0-1.1,[],,,
,,,,,,,,,,
1470,TestRecordings/mkait.wav,0,audio-button-response,9,131396,0.0-5.0-0.2,,,,
,,,,,,,,,,
1851,,"{""P0_Q0"":7}",survey,10,133259,0.0-5.0-1.2,[],,,
,,,,,,,,,,
1460,TestRecordings/gitpes.wav,0,audio-button-response,11,134724,0.0-5.0-0.3,,,,
,,,,,,,,,,
2749,,"{""P0_Q0"":2}",survey,12,137491,0.0-5.0-1.3,[],,,
,,,,,,,,,,
1283,TestRecordings/kmeip.wav,0,audio-button-response,13,138779,0.0-5.0-0.4,,,,
,,,,,,,,,,
1914,,"{""P0_Q0"":1}",survey,14,140712,0.0-5.0-1.4,[],,,
,,,,,,,,,,
1029,TestRecordings/nutbim.wav,0,audio-button-response,15,141748,0.0-5.0-0.5,,,,
,,,,,,,,,,
2184,,"{""P0_Q0"":1}",survey,16,143943,0.0-5.0-1.5,[],,,
,,,,,,,,,,
1126,TestRecordings/tlik.wav,0,audio-button-response,17,145075,0.0-5.0-0.6,,,,
,,,,,,,,,,
2961,,"{""P0_Q0"":7}",survey,18,148046,0.0-5.0-1.6,[],,,
,,,,,,,,,,
999,TestRecordings/pundes.wav,0,audio-button-response,19,149051,0.0-5.0-0.7,,,,
,,,,,,,,,,
1738,,"{""P0_Q0"":2}",survey,20,150798,0.0-5.0-1.7,[],,,
,,,,,,,,,,
1013,TestRecordings/kmaut.wav,0,audio-button-response,21,151819,0.0-5.0-0.8,,,,
,,,,,,,,,,
1930,,"{""P0_Q0"":2}",survey,22,153757,0.0-5.0-1.8,[],,,
,,,,,,,,,,
920,TestRecordings/gistum.wav,0,audio-button-response,23,154683,0.0-5.0-0.9,,,,
,,,,,,,,,,
1704,,"{""P0_Q0"":1}",survey,24,156397,0.0-5.0-1.9,[],,,
,,,,,,,,,,
904,TestRecordings/pmiik.wav,0,audio-button-response,25,157307,0.0-5.0-0.10,,,,
,,,,,,,,,,
3322,,"{""P0_Q0"":2}",survey,26,160638,0.0-5.0-1.10,[],,,
,,,,,,,,,,
1015,TestRecordings/drain.wav,0,audio-button-response,27,161658,0.0-5.0-0.11,,,,
,,,,,,,,,,
1818,,"{""P0_Q0"":4}",survey,28,163485,0.0-5.0-1.11,[],,,
,,,,,,,,,,
1097,TestRecordings/bem.wav,0,audio-button-response,29,164586,0.0-5.0-0.12,,,,
,,,,,,,,,,
1603,,"{""P0_Q0"":5}",survey,30,166196,0.0-5.0-1.12,[],,,
,,,,,,,,,,
1111,TestRecordings/paim.wav,0,audio-button-response,31,167314,0.0-5.0-0.13,,,,
,,,,,,,,,,
2769,,"{""P0_Q0"":4}",survey,32,170092,0.0-5.0-1.13,[],,,
,,,,,,,,,,
1416,TestRecordings/tempuk.wav,0,audio-button-response,33,171514,0.0-5.0-0.14,,,,
,,,,,,,,,,
1892,,"{""P0_Q0"":4}",survey,34,173413,0.0-5.0-1.14,[],,,
,,,,,,,,,,
1017,TestRecordings/skain.wav,0,audio-button-response,35,174434,0.0-5.0-0.15,,,,
,,,,,,,,,,
1572,,"{""P0_Q0"":3}",survey,36,176013,0.0-5.0-1.15,[],,,
,,,,,,,,,,
976,TestRecordings/tlumgak.wav,0,audio-button-response,37,176994,0.0-5.0-0.16,,,,
,,,,,,,,,,
1932,,"{""P0_Q0"":1}",survey,38,178932,0.0-5.0-1.16,[],,,
,,,,,,,,,,
1191,TestRecordings/twen.wav,0,audio-button-response,39,180129,0.0-5.0-0.17,,,,
,,,,,,,,,,
1610,,"{""P0_Q0"":5}",survey,40,181748,0.0-5.0-1.17,[],,,
,,,,,,,,,,
1064,TestRecordings/mepgut.wav,0,audio-button-response,41,182817,0.0-5.0-0.18,,,,
,,,,,,,,,,
2028,,"{""P0_Q0"":2}",survey,42,184852,0.0-5.0-1.18,[],,,
,,,,,,,,,,
1024,TestRecordings/trindes.wav,0,audio-button-response,43,185881,0.0-5.0-0.19,,,,
,,,,,,,,,,
1826,,"{""P0_Q0"":1}",survey,44,187715,0.0-5.0-1.19,[],,,
,,,,,,,,,,
1265,TestRecordings/mgit.wav,0,audio-button-response,45,188985,0.0-5.0-0.20,,,,
,,,,,,,,,,
1852,,"{""P0_Q0"":4}",survey,46,190843,0.0-5.0-1.20,[],,,
,,,,,,,,,,
2705,TestRecordings/dmut.wav,0,audio-button-response,47,193552,0.0-5.0-0.21,,,,
,,,,,,,,,,
5257,,"{""P0_Q0"":2}",survey,48,198816,0.0-5.0-1.21,[],,,
,,,,,,,,,,
1026,TestRecordings/tlepgim.wav,0,audio-button-response,49,199848,0.0-5.0-0.22,,,,
,,,,,,,,,,
1511,,"{""P0_Q0"":2}",survey,50,201380,0.0-5.0-1.22,[],,,
,,,,,,,,,,
1199,TestRecordings/gup.wav,0,audio-button-response,51,202584,0.0-5.0-0.23,,,,
,,,,,,,,,,
1602,,"{""P0_Q0"":4}",survey,52,204195,0.0-5.0-1.23,[],,,
,,,,,,,,,,
935,TestRecordings/tloum.wav,0,audio-button-response,53,205136,0.0-5.0-0.24,,,,
,,,,,,,,,,
1297,,"{""P0_Q0"":1}",survey,54,206443,0.0-5.0-1.24,[],,,
,,,,,,,,,,
895,TestRecordings/gatkun.wav,0,audio-button-response,55,207345,0.0-5.0-0.25,,,,
,,,,,,,,,,
1626,,"{""P0_Q0"":2}",survey,56,208979,0.0-5.0-1.25,[],,,
,,,,,,,,,,
1007,TestRecordings/gipsus.wav,0,audio-button-response,57,209992,0.0-5.0-0.26,,,,
,,,,,,,,,,
1837,,"{""P0_Q0"":2}",survey,58,211835,0.0-5.0-1.26,[],,,
,,,,,,,,,,
1214,TestRecordings/ningpum.wav,0,audio-button-response,59,213056,0.0-5.0-0.27,,,,
,,,,,,,,,,
2042,,"{""P0_Q0"":1}",survey,60,215106,0.0-5.0-1.27,[],,,
,,,,,,,,,,
1344,TestRecordings/drumbeng.wav,0,audio-button-response,61,216455,0.0-5.0-0.28,,,,
,,,,,,,,,,
1156,,"{""P0_Q0"":2}",survey,62,217617,0.0-5.0-1.28,[],,,
,,,,,,,,,,
975,TestRecordings/stuun.wav,0,audio-button-response,63,218599,0.0-5.0-0.29,,,,
,,,,,,,,,,
1706,,"{""P0_Q0"":5}",survey,64,220314,0.0-5.0-1.29,[],,,
,,,,,,,,,,
825,TestRecordings/pwuk.wav,0,audio-button-response,65,221143,0.0-5.0-0.30,,,,
,,,,,,,,,,
1413,,"{""P0_Q0"":3}",survey,66,222562,0.0-5.0-1.30,[],,,
,,,,,,,,,,
1200,TestRecordings/drikteng.wav,0,audio-button-response,67,223767,0.0-5.0-0.31,,,,
,,,,,,,,,,
1797,,"{""P0_Q0"":1}",survey,68,225570,0.0-5.0-1.31,[],,,
,,,,,,,,,,
3528,TestRecordings/tisbeng.wav,0,audio-button-response,69,229103,0.0-5.0-0.32,,,,
,,,,,,,,,,
3556,,"{""P0_Q0"":3}",survey,70,232665,0.0-5.0-1.32,[],,,
,,,,,,,,,,
864,TestRecordings/dlisbep.wav,0,audio-button-response,71,233535,0.0-5.0-0.33,,,,
,,,,,,,,,,
1812,,"{""P0_Q0"":1}",survey,72,235353,0.0-5.0-1.33,[],,,
,,,,,,,,,,
943,TestRecordings/pemdut.wav,0,audio-button-response,73,236302,0.0-5.0-0.34,,,,
,,,,,,,,,,
1108,,"{""P0_Q0"":2}",survey,74,237416,0.0-5.0-1.34,[],,,
,,,,,,,,,,
897,TestRecordings/twas.wav,0,audio-button-response,75,238318,0.0-5.0-0.35,,,,
,,,,,,,,,,
3213,,"{""P0_Q0"":4}",survey,76,241537,0.0-5.0-1.35,[],,,
,,,,,,,,,,
936,TestRecordings/pwam.wav,0,audio-button-response,77,242478,0.0-5.0-0.36,,,,
,,,,,,,,,,
2068,,"{""P0_Q0"":2}",survey,78,244552,0.0-5.0-1.36,[],,,
,,,,,,,,,,
1032,TestRecordings/drantung.wav,0,audio-button-response,79,245591,0.0-5.0-0.37,,,,
,,,,,,,,,,
1385,,"{""P0_Q0"":2}",survey,80,246985,0.0-5.0-1.37,[],,,
,,,,,,,,,,
968,TestRecordings/ndeip.wav,0,audio-button-response,81,247958,0.0-5.0-0.38,,,,
,,,,,,,,,,
1493,,"{""P0_Q0"":5}",survey,82,249456,0.0-5.0-1.38,[],,,
,,,,,,,,,,
921,TestRecordings/punseng.wav,0,audio-button-response,83,250381,0.0-5.0-0.39,,,,
,,,,,,,,,,
1765,,"{""P0_Q0"":2}",survey,84,252152,0.0-5.0-1.39,[],,,
,,,,,,,,,,
1176,TestRecordings/sengdun.wav,0,audio-button-response,85,253334,0.0-5.0-0.40,,,,
,,,,,,,,,,
1531,,"{""P0_Q0"":1}",survey,86,254872,0.0-5.0-1.40,[],,,
,,,,,,,,,,
905,TestRecordings/tlipgat.wav,0,audio-button-response,87,255781,0.0-5.0-0.41,,,,
,,,,,,,,,,
1380,,"{""P0_Q0"":1}",survey,88,257168,0.0-5.0-1.41,[],,,
,,,,,,,,,,
1264,TestRecordings/trahm.wav,0,audio-button-response,89,258437,0.0-5.0-0.42,,,,
,,,,,,,,,,
1889,,"{""P0_Q0"":5}",survey,90,260354,0.0-5.0-1.42,[],,,
,,,,,,,,,,
917,TestRecordings/drakpum.wav,0,audio-button-response,91,261277,0.0-5.0-0.43,,,,
,,,,,,,,,,
2088,,"{""P0_Q0"":2}",survey,92,263376,0.0-5.0-1.43,[],,,
,,,,,,,,,,
1032,TestRecordings/tlemkun.wav,0,audio-button-response,93,264413,0.0-5.0-0.44,,,,
,,,,,,,,,,
1400,,"{""P0_Q0"":2}",survey,94,265824,0.0-5.0-1.44,[],,,
,,,,,,,,,,
1112,TestRecordings/suntem.wav,0,audio-button-response,95,266941,0.0-5.0-0.45,,,,
,,,,,,,,,,
1371,,"{""P0_Q0"":3}",survey,96,268319,0.0-5.0-1.45,[],,,
,,,,,,,,,,
942,TestRecordings/tlasdung.wav,0,audio-button-response,97,269268,0.0-5.0-0.46,,,,
,,,,,,,,,,
2362,,"{""P0_Q0"":2}",survey,98,271640,0.0-5.0-1.46,[],,,
,,,,,,,,,,
744,TestRecordings/nboup.wav,0,audio-button-response,99,272388,0.0-5.0-0.47,,,,
,,,,,,,,,,
1651,,"{""P0_Q0"":5}",survey,100,274047,0.0-5.0-1.47,[],,,
,,,,,,,,,,
791,TestRecordings/dlahm.wav,0,audio-button-response,101,274845,0.0-5.0-0.48,,,,
,,,,,,,,,,
1516,,"{""P0_Q0"":5}",survey,102,276367,0.0-5.0-1.48,[],,,
,,,,,,,,,,
1120,TestRecordings/tlem.wav,0,audio-button-response,103,277492,0.0-5.0-0.49,,,,
,,,,,,,,,,
1435,,"{""P0_Q0"":5}",survey,104,278935,0.0-5.0-1.49,[],,,
,,,,,,,,,,
703,TestRecordings/dloun.wav,0,audio-button-response,105,279644,0.0-5.0-0.50,,,,
,,,,,,,,,,
1707,,"{""P0_Q0"":6}",survey,106,281358,0.0-5.0-1.50,[],,,
,,,,,,,,,,
736,TestRecordings/tep.wav,0,audio-button-response,107,282100,0.0-5.0-0.51,,,,
,,,,,,,,,,
1396,,"{""P0_Q0"":4}",survey,108,283503,0.0-5.0-1.51,[],,,
,,,,,,,,,,
956,TestRecordings/kutpim.wav,0,audio-button-response,109,284467,0.0-5.0-0.52,,,,
,,,,,,,,,,
1491,,"{""P0_Q0"":2}",survey,110,285967,0.0-5.0-1.52,[],,,
,,,,,,,,,,
1000,TestRecordings/drustet.wav,0,audio-button-response,111,286972,0.0-5.0-0.53,,,,
,,,,,,,,,,
3876,,"{""P0_Q0"":2}",survey,112,290854,0.0-5.0-1.53,[],,,
,,,,,,,,,,
1056,TestRecordings/dlemkus.wav,0,audio-button-response,113,291916,0.0-5.0-0.54,,,,
,,,,,,,,,,
1877,,"{""P0_Q0"":2}",survey,114,293797,0.0-5.0-1.54,[],,,
,,,,,,,,,,
1318,TestRecordings/pmeit.wav,0,audio-button-response,115,295123,0.0-5.0-0.55,,,,
,,,,,,,,,,
1325,,"{""P0_Q0"":6}",survey,116,296453,0.0-5.0-1.55,[],,,
,,,,,,,,,,
760,TestRecordings/giit.wav,0,audio-button-response,117,297219,0.0-5.0-0.56,,,,
,,,,,,,,,,
1516,,"{""P0_Q0"":6}",survey,118,298741,0.0-5.0-1.56,[],,,
,,,,,,,,,,
864,TestRecordings/bepgik.wav,0,audio-button-response,119,299611,0.0-5.0-0.57,,,,
,,,,,,,,,,
2580,,"{""P0_Q0"":3}",survey,120,302198,0.0-5.0-1.57,[],,,
,,,,,,,,,,
1209,TestRecordings/stauk.wav,0,audio-button-response,121,303411,0.0-5.0-0.58,,,,
,,,,,,,,,,
1820,,"{""P0_Q0"":6}",survey,122,305237,0.0-5.0-1.58,[],,,
,,,,,,,,,,
984,TestRecordings/nangdup.wav,0,audio-button-response,123,306226,0.0-5.0-0.59,,,,
,,,,,,,,,,
1212,,"{""P0_Q0"":2}",survey,124,307445,0.0-5.0-1.59,[],,,
,,,,,,,,,,
3526,, ,html-keyboard-response,125,310971,0.0-6.0,,,,
,,,,,,,,,,
77155,,"{""P0_Q0"":""20"",""P0_Q1"":""female"",""P0_Q2"":""yes"",""P0_Q3"":""spanish"",""P0_Q4"":""started at age 5, taken through age 17"",""P0_Q5"":""took spanish classes througout elementary and high shool""}",survey,126,388139,0.0-7.0,[],,,
,,,,,,,,,,
362419,"<p style=""font-size:30px"">The experiment has ended</p><p style=""font-size:30px"",lang=""ko"">Thanks for participating in it!</p>", ,html-keyboard-response,127,750540,0.0-8.0,,,,