rt,stimulus,response,trial_type,trial_index,time_elapsed,internal_node_id,accuracy,PracticeTest,ConsonantSequence,Grammaticality
,,,,,,,,,,
951118,"<p style=""font-size:30px"">Welcome to the experiment</p><p>Press spacebar to continue</p>", ,html-keyboard-response,0,951086,0.0-0.0,,,,
,,,,,,,,,,
19022,"<p style=""font-size:30px"">Please ensure that your headphones are on correctly</p><p>Press spacebar to continue</p>", ,html-keyboard-response,1,970109,0.0-1.0,,,,
,,,,,,,,,,
7823,"<p style=""font-size:30px"">In this experiment, you will listen to nonsense words</p><p style=""font-size:30px"",lang=""ko"">Your task is to rate the nonsense word you heard as a possible word of American English</p><p>Press spacebar to continue</p>", ,html-keyboard-response,2,977933,0.0-2.0,,,,
,,,,,,,,,,
2166,, ,html-keyboard-response,3,980099,0.0-3.0,,,,
,,,,,,,,,,
3664,"<p style=""font-size:30px"">Now let's move on to the actual experiment.</p><p style=""font-size:30px"",lang=""ko"">During the experiment, you will hear each of the nonce words only once.</p><p>Press spacebar to continue</p>", ,html-keyboard-response,4,983764,0.0-4.0,,,,
,,,,,,,,,,
3406,TestRecordings/pwam.wav,0,audio-button-response,5,987179,0.0-5.0-0.0,,,,
,,,,,,,,,,
12888,,"{""P0_Q0"":1}",survey,6,1000103,0.0-5.0-1.0,[],,,
,,,,,,,,,,
2516,TestRecordings/pmiik.wav,0,audio-button-response,7,1002626,0.0-5.0-0.1,,,,
,,,,,,,,,,
2839,,"{""P0_Q0"":2}",survey,8,1005478,0.0-5.0-1.1,[],,,
,,,,,,,,,,
2159,TestRecordings/paim.wav,0,audio-button-response,9,1007642,0.0-5.0-0.2,,,,
,,,,,,,,,,
3016,,"{""P0_Q0"":2}",survey,10,1010670,0.0-5.0-1.2,[],,,
,,,,,,,,,,
1206,TestRecordings/nangdup.wav,0,audio-button-response,11,1011882,0.0-5.0-0.3,,,,
,,,,,,,,,,
4418,,"{""P0_Q0"":1}",survey,12,1016310,0.0-5.0-1.3,[],,,
,,,,,,,,,,
1334,TestRecordings/punseng.wav,0,audio-button-response,13,1017649,0.0-5.0-0.4,,,,
,,,,,,,,,,
3186,,"{""P0_Q0"":2}",survey,14,1020845,0.0-5.0-1.4,[],,,
,,,,,,,,,,
1831,TestRecordings/dmut.wav,0,audio-button-response,15,1022681,0.0-5.0-0.5,,,,
,,,,,,,,,,
4362,,"{""P0_Q0"":4}",survey,16,1027052,0.0-5.0-1.5,[],,,
,,,,,,,,,,
2486,TestRecordings/dlisbep.wav,0,audio-button-response,17,1029544,0.0-5.0-0.6,,,,
,,,,,,,,,,
2524,,"{""P0_Q0"":1}",survey,18,1032076,0.0-5.0-1.6,[],,,
,,,,,,,,,,
1503,TestRecordings/ndeip.wav,0,audio-button-response,19,1033584,0.0-5.0-0.7,,,,
,,,,,,,,,,
7059,,"{""P0_Q0"":4}",survey,20,1040652,0.0-5.0-1.7,[],,,
,,,,,,,,,,
1663,TestRecordings/mepgut.wav,0,audio-button-response,21,1042319,0.0-5.0-0.8,,,,
,,,,,,,,,,
3451,,"{""P0_Q0"":1}",survey,22,1045778,0.0-5.0-1.8,[],,,
,,,,,,,,,,
2464,TestRecordings/kmaut.wav,0,audio-button-response,23,1048247,0.0-5.0-0.9,,,,
,,,,,,,,,,
3820,,"{""P0_Q0"":4}",survey,24,1052074,0.0-5.0-1.9,[],,,
,,,,,,,,,,
1270,TestRecordings/drakpum.wav,0,audio-button-response,25,1053351,0.0-5.0-0.10,,,,
,,,,,,,,,,
5107,,"{""P0_Q0"":2}",survey,26,1058466,0.0-5.0-1.10,[],,,
,,,,,,,,,,
1543,TestRecordings/tloum.wav,0,audio-button-response,27,1060015,0.0-5.0-0.11,,,,
,,,,,,,,,,
2684,,"{""P0_Q0"":3}",survey,28,1062706,0.0-5.0-1.11,[],,,
,,,,,,,,,,
2080,TestRecordings/nutbim.wav,0,audio-button-response,29,1064791,0.0-5.0-0.12,,,,
,,,,,,,,,,
7676,,"{""P0_Q0"":2}",survey,30,1072473,0.0-5.0-1.12,[],,,
,,,,,,,,,,
1775,TestRecordings/ningpum.wav,0,audio-button-response,31,1074253,0.0-5.0-0.13,,,,
,,,,,,,,,,
2063,,"{""P0_Q0"":1}",survey,32,1076323,0.0-5.0-1.13,[],,,
,,,,,,,,,,
1309,TestRecordings/kmeip.wav,0,audio-button-response,33,1077638,0.0-5.0-0.14,,,,
,,,,,,,,,,
5733,,"{""P0_Q0"":2}",survey,34,1083376,0.0-5.0-1.14,[],,,
,,,,,,,,,,
1064,TestRecordings/bem.wav,0,audio-button-response,35,1084446,0.0-5.0-0.15,,,,
,,,,,,,,,,
6820,,"{""P0_Q0"":5}",survey,36,1091272,0.0-5.0-1.15,[],,,
,,,,,,,,,,
1585,TestRecordings/drikteng.wav,0,audio-button-response,37,1092861,0.0-5.0-0.16,,,,
,,,,,,,,,,
3004,,"{""P0_Q0"":5}",survey,38,1095872,0.0-5.0-1.16,[],,,
,,,,,,,,,,
1440,TestRecordings/tlasdung.wav,0,audio-button-response,39,1097317,0.0-5.0-0.17,,,,
,,,,,,,,,,
5460,,"{""P0_Q0"":5}",survey,40,1102783,0.0-5.0-1.17,[],,,
,,,,,,,,,,
1696,TestRecordings/skain.wav,0,audio-button-response,41,1104484,0.0-5.0-0.18,,,,
,,,,,,,,,,
4309,,"{""P0_Q0"":5}",survey,42,1108799,0.0-5.0-1.18,[],,,
,,,,,,,,,,
1541,TestRecordings/mkait.wav,0,audio-button-response,43,1110348,0.0-5.0-0.19,,,,
,,,,,,,,,,
4588,,"{""P0_Q0"":7}",survey,44,1114942,0.0-5.0-1.19,[],,,
,,,,,,,,,,
1888,TestRecordings/nboup.wav,0,audio-button-response,45,1116836,0.0-5.0-0.20,,,,
,,,,,,,,,,
4141,,"{""P0_Q0"":1}",survey,46,1120983,0.0-5.0-1.20,[],,,
,,,,,,,,,,
1320,TestRecordings/drumbeng.wav,0,audio-button-response,47,1122307,0.0-5.0-0.21,,,,
,,,,,,,,,,
4508,,"{""P0_Q0"":2}",survey,48,1126822,0.0-5.0-1.21,[],,,
,,,,,,,,,,
1312,TestRecordings/dloun.wav,0,audio-button-response,49,1128140,0.0-5.0-0.22,,,,
,,,,,,,,,,
4243,,"{""P0_Q0"":4}",survey,50,1132390,0.0-5.0-1.22,[],,,
,,,,,,,,,,
1510,TestRecordings/trahm.wav,0,audio-button-response,51,1133907,0.0-5.0-0.23,,,,
,,,,,,,,,,
2421,,"{""P0_Q0"":7}",survey,52,1136333,0.0-5.0-1.23,[],,,
,,,,,,,,,,
1208,TestRecordings/stauk.wav,0,audio-button-response,53,1137546,0.0-5.0-0.24,,,,
,,,,,,,,,,
2454,,"{""P0_Q0"":5}",survey,54,1140007,0.0-5.0-1.24,[],,,
,,,,,,,,,,
1085,TestRecordings/pwuk.wav,0,audio-button-response,55,1141098,0.0-5.0-0.25,,,,
,,,,,,,,,,
2093,,"{""P0_Q0"":7}",survey,56,1143196,0.0-5.0-1.25,[],,,
,,,,,,,,,,
1007,TestRecordings/gistum.wav,0,audio-button-response,57,1144210,0.0-5.0-0.26,,,,
,,,,,,,,,,
2605,,"{""P0_Q0"":3}",survey,58,1146820,0.0-5.0-1.26,[],,,
,,,,,,,,,,
1136,TestRecordings/gatkun.wav,0,audio-button-response,59,1147962,0.0-5.0-0.27,,,,
,,,,,,,,,,
2044,,"{""P0_Q0"":1}",survey,60,1150013,0.0-5.0-1.27,[],,,
,,,,,,,,,,
888,TestRecordings/giit.wav,0,audio-button-response,61,1150905,0.0-5.0-0.28,,,,
,,,,,,,,,,
3061,,"{""P0_Q0"":5}",survey,62,1153973,0.0-5.0-1.28,[],,,
,,,,,,,,,,
1095,TestRecordings/gup.wav,0,audio-button-response,63,1155073,0.0-5.0-0.29,,,,
,,,,,,,,,,
1652,,"{""P0_Q0"":2}",survey,64,1156733,0.0-5.0-1.29,[],,,
,,,,,,,,,,
1112,TestRecordings/drustet.wav,0,audio-button-response,65,1157849,0.0-5.0-0.30,,,,
,,,,,,,,,,
1538,,"{""P0_Q0"":1}",survey,66,1159396,0.0-5.0-1.30,[],,,
,,,,,,,,,,
1136,TestRecordings/gitpes.wav,0,audio-button-response,67,1160537,0.0-5.0-0.31,,,,
,,,,,,,,,,
1564,,"{""P0_Q0"":1}",survey,68,1162108,0.0-5.0-1.31,[],,,
,,,,,,,,,,
990,TestRecordings/drain.wav,0,audio-button-response,69,1163105,0.0-5.0-0.32,,,,
,,,,,,,,,,
9500,,"{""P0_Q0"":4}",survey,70,1172612,0.0-5.0-1.32,[],,,
,,,,,,,,,,
974,TestRecordings/dlahm.wav,0,audio-button-response,71,1173593,0.0-5.0-0.33,,,,
,,,,,,,,,,
1796,,"{""P0_Q0"":1}",survey,72,1175395,0.0-5.0-1.33,[],,,
,,,,,,,,,,
975,TestRecordings/pundes.wav,0,audio-button-response,73,1176377,0.0-5.0-0.34,,,,
,,,,,,,,,,
3236,,"{""P0_Q0"":2}",survey,74,1179619,0.0-5.0-1.34,[],,,
,,,,,,,,,,
855,TestRecordings/mgit.wav,0,audio-button-response,75,1180480,0.0-5.0-0.35,,,,
,,,,,,,,,,
2798,,"{""P0_Q0"":4}",survey,76,1183284,0.0-5.0-1.35,[],,,
,,,,,,,,,,
1278,TestRecordings/tisbeng.wav,0,audio-button-response,77,1184568,0.0-5.0-0.36,,,,
,,,,,,,,,,
2541,,"{""P0_Q0"":1}",survey,78,1187115,0.0-5.0-1.36,[],,,
,,,,,,,,,,
1245,TestRecordings/tlem.wav,0,audio-button-response,79,1188368,0.0-5.0-0.37,,,,
,,,,,,,,,,
1709,,"{""P0_Q0"":5}",survey,80,1190082,0.0-5.0-1.37,[],,,
,,,,,,,,,,
1279,TestRecordings/tlepgim.wav,0,audio-button-response,81,1191368,0.0-5.0-0.38,,,,
,,,,,,,,,,
2308,,"{""P0_Q0"":3}",survey,82,1193682,0.0-5.0-1.38,[],,,
,,,,,,,,,,
1263,TestRecordings/trindes.wav,0,audio-button-response,83,1194951,0.0-5.0-0.39,,,,
,,,,,,,,,,
2964,,"{""P0_Q0"":4}",survey,84,1197921,0.0-5.0-1.39,[],,,
,,,,,,,,,,
2087,TestRecordings/stuun.wav,0,audio-button-response,85,1200015,0.0-5.0-0.40,,,,
,,,,,,,,,,
5260,,"{""P0_Q0"":4}",survey,86,1205281,0.0-5.0-1.40,[],,,
,,,,,,,,,,
1767,TestRecordings/tempuk.wav,0,audio-button-response,87,1207055,0.0-5.0-0.41,,,,
,,,,,,,,,,
2436,,"{""P0_Q0"":2}",survey,88,1209498,0.0-5.0-1.41,[],,,
,,,,,,,,,,
2006,TestRecordings/twas.wav,0,audio-button-response,89,1211511,0.0-5.0-0.42,,,,
,,,,,,,,,,
1732,,"{""P0_Q0"":3}",survey,90,1213250,0.0-5.0-1.42,[],,,
,,,,,,,,,,
1102,TestRecordings/gipsus.wav,0,audio-button-response,91,1214359,0.0-5.0-0.43,,,,
,,,,,,,,,,
1757,,"{""P0_Q0"":1}",survey,92,1216121,0.0-5.0-1.43,[],,,
,,,,,,,,,,
2927,TestRecordings/tlemkun.wav,0,audio-button-response,93,1219054,0.0-5.0-0.44,,,,
,,,,,,,,,,
2629,,"{""P0_Q0"":1}",survey,94,1221690,0.0-5.0-1.44,[],,,
,,,,,,,,,,
1095,TestRecordings/tlumgak.wav,0,audio-button-response,95,1222790,0.0-5.0-0.45,,,,
,,,,,,,,,,
2037,,"{""P0_Q0"":1}",survey,96,1224832,0.0-5.0-1.45,[],,,
,,,,,,,,,,
790,TestRecordings/drantung.wav,0,audio-button-response,97,1225630,0.0-5.0-0.46,,,,
,,,,,,,,,,
3429,,"{""P0_Q0"":2}",survey,98,1229064,0.0-5.0-1.46,[],,,
,,,,,,,,,,
1142,TestRecordings/suntem.wav,0,audio-button-response,99,1230214,0.0-5.0-0.47,,,,
,,,,,,,,,,
4324,,"{""P0_Q0"":2}",survey,100,1234544,0.0-5.0-1.47,[],,,
,,,,,,,,,,
815,TestRecordings/dlemkus.wav,0,audio-button-response,101,1235365,0.0-5.0-0.48,,,,
,,,,,,,,,,
1755,,"{""P0_Q0"":2}",survey,102,1237128,0.0-5.0-1.48,[],,,
,,,,,,,,,,
910,TestRecordings/twen.wav,0,audio-button-response,103,1238044,0.0-5.0-0.49,,,,
,,,,,,,,,,
3693,,"{""P0_Q0"":3}",survey,104,1241745,0.0-5.0-1.49,[],,,
,,,,,,,,,,
878,TestRecordings/pmeit.wav,0,audio-button-response,105,1242629,0.0-5.0-0.50,,,,
,,,,,,,,,,
1613,,"{""P0_Q0"":2}",survey,106,1244248,0.0-5.0-1.50,[],,,
,,,,,,,,,,
655,TestRecordings/kutpim.wav,0,audio-button-response,107,1244909,0.0-5.0-0.51,,,,
,,,,,,,,,,
3541,,"{""P0_Q0"":1}",survey,108,1248456,0.0-5.0-1.51,[],,,
,,,,,,,,,,
903,TestRecordings/bepgik.wav,0,audio-button-response,109,1249364,0.0-5.0-0.52,,,,
,,,,,,,,,,
1643,,"{""P0_Q0"":2}",survey,110,1251015,0.0-5.0-1.52,[],,,
,,,,,,,,,,
838,TestRecordings/tlik.wav,0,audio-button-response,111,1251860,0.0-5.0-0.53,,,,
,,,,,,,,,,
4157,,"{""P0_Q0"":5}",survey,112,1256023,0.0-5.0-1.53,[],,,
,,,,,,,,,,
1111,TestRecordings/pemdut.wav,0,audio-button-response,113,1257140,0.0-5.0-0.54,,,,
,,,,,,,,,,
1628,,"{""P0_Q0"":2}",survey,114,1258775,0.0-5.0-1.54,[],,,
,,,,,,,,,,
718,TestRecordings/tep.wav,0,audio-button-response,115,1259500,0.0-5.0-0.55,,,,
,,,,,,,,,,
3381,,"{""P0_Q0"":6}",survey,116,1262885,0.0-5.0-1.55,[],,,
,,,,,,,,,,
1103,TestRecordings/sengdun.wav,0,audio-button-response,117,1263996,0.0-5.0-0.56,,,,
,,,,,,,,,,
1549,,"{""P0_Q0"":2}",survey,118,1265568,0.0-5.0-1.56,[],,,
,,,,,,,,,,
893,TestRecordings/stahm.wav,0,audio-button-response,119,1266468,0.0-5.0-0.57,,,,
,,,,,,,,,,
1693,,"{""P0_Q0"":2}",survey,120,1268193,0.0-5.0-1.57,[],,,
,,,,,,,,,,
682,TestRecordings/ntek.wav,0,audio-button-response,121,1268884,0.0-5.0-0.58,,,,
,,,,,,,,,,
1760,,"{""P0_Q0"":2}",survey,122,1270655,0.0-5.0-1.58,[],,,
,,,,,,,,,,
964,TestRecordings/tlipgat.wav,0,audio-button-response,123,1271627,0.0-5.0-0.59,,,,
,,,,,,,,,,
1666,,"{""P0_Q0"":1}",survey,124,1273302,0.0-5.0-1.59,[],,,
,,,,,,,,,,
3469,, ,html-keyboard-response,125,1276772,0.0-6.0,,,,
,,,,,,,,,,
54647,,"{""P0_Q0"":""19"",""P0_Q1"":""male"",""P0_Q2"":""yes"",""P0_Q3"":""none"",""P0_Q4"":""1, I learned it as my first language. "",""P0_Q5"":""N/A""}",survey,126,1331437,0.0-7.0,[],,,
,,,,,,,,,,
379621,"<p style=""font-size:30px"">The experiment has ended</p><p style=""font-size:30px"",lang=""ko"">Thanks for participating in it!</p>", ,html-keyboard-response,127,1711039,0.0-8.0,,,,