rt,stimulus,response,trial_type,trial_index,time_elapsed,internal_node_id,accuracy,PracticeTest,ConsonantSequence,Grammaticality
,,,,,,,,,,
87666,"<p style=""font-size:30px"">Welcome to the experiment</p><p>Press spacebar to continue</p>", ,html-keyboard-response,0,87670,0.0-0.0,,,,
,,,,,,,,,,
2454,"<p style=""font-size:30px"">Please ensure that your headphones are on correctly</p><p>Press spacebar to continue</p>", ,html-keyboard-response,1,90124,0.0-1.0,,,,
,,,,,,,,,,
2775,"<p style=""font-size:30px"">In this experiment, you will listen to nonsense words</p><p style=""font-size:30px"",lang=""ko"">Your task is to rate the nonsense word you heard as a possible word of American English</p><p>Press spacebar to continue</p>", ,html-keyboard-response,2,92900,0.0-2.0,,,,
,,,,,,,,,,
1894,, ,html-keyboard-response,3,94796,0.0-3.0,,,,
,,,,,,,,,,
2816,"<p style=""font-size:30px"">Now let's move on to the actual experiment.</p><p style=""font-size:30px"",lang=""ko"">During the experiment, you will hear each of the nonce words only once.</p><p>Press spacebar to continue</p>", ,html-keyboard-response,4,97613,0.0-4.0,,,,
,,,,,,,,,,
5507,TestRecordings/tlemkun.wav,0,audio-button-response,5,103637,0.0-5.0-0.0,,,,
,,,,,,,,,,
4857,,"{""P0_Q0"":3}",survey,6,108538,0.0-5.0-1.0,[],,,
,,,,,,,,,,
2618,TestRecordings/tlipgat.wav,0,audio-button-response,7,111163,0.0-5.0-0.1,,,,
,,,,,,,,,,
2479,,"{""P0_Q0"":2}",survey,8,113655,0.0-5.0-1.1,[],,,
,,,,,,,,,,
2339,TestRecordings/gipsus.wav,0,audio-button-response,9,116003,0.0-5.0-0.2,,,,
,,,,,,,,,,
2264,,"{""P0_Q0"":6}",survey,10,118278,0.0-5.0-1.2,[],,,
,,,,,,,,,,
2243,TestRecordings/skain.wav,0,audio-button-response,11,120531,0.0-5.0-0.3,,,,
,,,,,,,,,,
3650,,"{""P0_Q0"":3}",survey,12,124190,0.0-5.0-1.3,[],,,
,,,,,,,,,,
1740,TestRecordings/bepgik.wav,0,audio-button-response,13,125938,0.0-5.0-0.4,,,,
,,,,,,,,,,
2243,,"{""P0_Q0"":4}",survey,14,128189,0.0-5.0-1.4,[],,,
,,,,,,,,,,
1877,TestRecordings/tempuk.wav,0,audio-button-response,15,130075,0.0-5.0-0.5,,,,
,,,,,,,,,,
6305,,"{""P0_Q0"":3}",survey,16,136389,0.0-5.0-1.5,[],,,
,,,,,,,,,,
2196,TestRecordings/kmaut.wav,0,audio-button-response,17,138594,0.0-5.0-0.6,,,,
,,,,,,,,,,
7770,,"{""P0_Q0"":2}",survey,18,146373,0.0-5.0-1.6,[],,,
,,,,,,,,,,
2364,TestRecordings/sengdun.wav,0,audio-button-response,19,148746,0.0-5.0-0.7,,,,
,,,,,,,,,,
2923,,"{""P0_Q0"":6}",survey,20,151676,0.0-5.0-1.7,[],,,
,,,,,,,,,,
2571,TestRecordings/ningpum.wav,0,audio-button-response,21,154257,0.0-5.0-0.8,,,,
,,,,,,,,,,
2627,,"{""P0_Q0"":2}",survey,22,156892,0.0-5.0-1.8,[],,,
,,,,,,,,,,
2238,TestRecordings/dlemkus.wav,0,audio-button-response,23,159138,0.0-5.0-0.9,,,,
,,,,,,,,,,
4875,,"{""P0_Q0"":3}",survey,24,164020,0.0-5.0-1.9,[],,,
,,,,,,,,,,
1732,TestRecordings/pwuk.wav,0,audio-button-response,25,165761,0.0-5.0-0.10,,,,
,,,,,,,,,,
3506,,"{""P0_Q0"":2}",survey,26,169275,0.0-5.0-1.10,[],,,
,,,,,,,,,,
1821,TestRecordings/tloum.wav,0,audio-button-response,27,171104,0.0-5.0-0.11,,,,
,,,,,,,,,,
2164,,"{""P0_Q0"":5}",survey,28,173275,0.0-5.0-1.11,[],,,
,,,,,,,,,,
3085,TestRecordings/nboup.wav,0,audio-button-response,29,176369,0.0-5.0-0.12,,,,
,,,,,,,,,,
5244,,"{""P0_Q0"":2}",survey,30,181619,0.0-5.0-1.12,[],,,
,,,,,,,,,,
2365,TestRecordings/kutpim.wav,0,audio-button-response,31,183992,0.0-5.0-0.13,,,,
,,,,,,,,,,
2492,,"{""P0_Q0"":5}",survey,32,186491,0.0-5.0-1.13,[],,,
,,,,,,,,,,
2125,TestRecordings/trahm.wav,0,audio-button-response,33,188624,0.0-5.0-0.14,,,,
,,,,,,,,,,
3556,,"{""P0_Q0"":5}",survey,34,192187,0.0-5.0-1.14,[],,,
,,,,,,,,,,
2410,TestRecordings/drumbeng.wav,0,audio-button-response,35,194607,0.0-5.0-0.15,,,,
,,,,,,,,,,
2518,,"{""P0_Q0"":4}",survey,36,197131,0.0-5.0-1.15,[],,,
,,,,,,,,,,
1500,TestRecordings/pwam.wav,0,audio-button-response,37,198640,0.0-5.0-0.16,,,,
,,,,,,,,,,
4548,,"{""P0_Q0"":4}",survey,38,203194,0.0-5.0-1.16,[],,,
,,,,,,,,,,
1357,TestRecordings/stuun.wav,0,audio-button-response,39,204559,0.0-5.0-0.17,,,,
,,,,,,,,,,
1780,,"{""P0_Q0"":3}",survey,40,206345,0.0-5.0-1.17,[],,,
,,,,,,,,,,
982,TestRecordings/gistum.wav,0,audio-button-response,41,207335,0.0-5.0-0.18,,,,
,,,,,,,,,,
2451,,"{""P0_Q0"":6}",survey,42,209794,0.0-5.0-1.18,[],,,
,,,,,,,,,,
1324,TestRecordings/tlem.wav,0,audio-button-response,43,211127,0.0-5.0-0.19,,,,
,,,,,,,,,,
2140,,"{""P0_Q0"":4}",survey,44,213273,0.0-5.0-1.19,[],,,
,,,,,,,,,,
1358,TestRecordings/tlepgim.wav,0,audio-button-response,45,214639,0.0-5.0-0.20,,,,
,,,,,,,,,,
1701,,"{""P0_Q0"":5}",survey,46,216346,0.0-5.0-1.20,[],,,
,,,,,,,,,,
965,TestRecordings/kmeip.wav,0,audio-button-response,47,217318,0.0-5.0-0.21,,,,
,,,,,,,,,,
2884,,"{""P0_Q0"":4}",survey,48,220209,0.0-5.0-1.21,[],,,
,,,,,,,,,,
1044,TestRecordings/tlik.wav,0,audio-button-response,49,221262,0.0-5.0-0.22,,,,
,,,,,,,,,,
2061,,"{""P0_Q0"":3}",survey,50,223329,0.0-5.0-1.22,[],,,
,,,,,,,,,,
1173,TestRecordings/gitpes.wav,0,audio-button-response,51,224510,0.0-5.0-0.23,,,,
,,,,,,,,,,
2053,,"{""P0_Q0"":6}",survey,52,226568,0.0-5.0-1.23,[],,,
,,,,,,,,,,
1622,TestRecordings/trindes.wav,0,audio-button-response,53,228198,0.0-5.0-0.24,,,,
,,,,,,,,,,
1660,,"{""P0_Q0"":6}",survey,54,229865,0.0-5.0-1.24,[],,,
,,,,,,,,,,
2029,TestRecordings/suntem.wav,0,audio-button-response,55,231902,0.0-5.0-0.25,,,,
,,,,,,,,,,
1598,,"{""P0_Q0"":2}",survey,56,233507,0.0-5.0-1.25,[],,,
,,,,,,,,,,
2611,TestRecordings/tlumgak.wav,0,audio-button-response,57,236126,0.0-5.0-0.26,,,,
,,,,,,,,,,
1956,,"{""P0_Q0"":2}",survey,58,238088,0.0-5.0-1.26,[],,,
,,,,,,,,,,
1653,TestRecordings/bem.wav,0,audio-button-response,59,239750,0.0-5.0-0.27,,,,
,,,,,,,,,,
2739,,"{""P0_Q0"":2}",survey,60,242497,0.0-5.0-1.27,[],,,
,,,,,,,,,,
2125,TestRecordings/paim.wav,0,audio-button-response,61,244629,0.0-5.0-0.28,,,,
,,,,,,,,,,
2260,,"{""P0_Q0"":4}",survey,62,246896,0.0-5.0-1.28,[],,,
,,,,,,,,,,
1125,TestRecordings/pundes.wav,0,audio-button-response,63,248029,0.0-5.0-0.29,,,,
,,,,,,,,,,
2701,,"{""P0_Q0"":4}",survey,64,250736,0.0-5.0-1.29,[],,,
,,,,,,,,,,
1204,TestRecordings/gup.wav,0,audio-button-response,65,251949,0.0-5.0-0.30,,,,
,,,,,,,,,,
2596,,"{""P0_Q0"":1}",survey,66,254551,0.0-5.0-1.30,[],,,
,,,,,,,,,,
1397,TestRecordings/twen.wav,0,audio-button-response,67,255957,0.0-5.0-0.31,,,,
,,,,,,,,,,
1731,,"{""P0_Q0"":3}",survey,68,257696,0.0-5.0-1.31,[],,,
,,,,,,,,,,
1438,TestRecordings/drustet.wav,0,audio-button-response,69,259141,0.0-5.0-0.32,,,,
,,,,,,,,,,
2268,,"{""P0_Q0"":5}",survey,70,261415,0.0-5.0-1.32,[],,,
,,,,,,,,,,
1604,TestRecordings/tlasdung.wav,0,audio-button-response,71,263028,0.0-5.0-0.33,,,,
,,,,,,,,,,
1883,,"{""P0_Q0"":5}",survey,72,264920,0.0-5.0-1.33,[],,,
,,,,,,,,,,
1326,TestRecordings/punseng.wav,0,audio-button-response,73,266253,0.0-5.0-0.34,,,,
,,,,,,,,,,
2733,,"{""P0_Q0"":4}",survey,74,268991,0.0-5.0-1.34,[],,,
,,,,,,,,,,
1445,TestRecordings/ndeip.wav,0,audio-button-response,75,270445,0.0-5.0-0.35,,,,
,,,,,,,,,,
1869,,"{""P0_Q0"":6}",survey,76,272318,0.0-5.0-1.35,[],,,
,,,,,,,,,,
1245,TestRecordings/dloun.wav,0,audio-button-response,77,273572,0.0-5.0-0.36,,,,
,,,,,,,,,,
1723,,"{""P0_Q0"":3}",survey,78,275303,0.0-5.0-1.36,[],,,
,,,,,,,,,,
1373,TestRecordings/drantung.wav,0,audio-button-response,79,276685,0.0-5.0-0.37,,,,
,,,,,,,,,,
1868,,"{""P0_Q0"":6}",survey,80,278558,0.0-5.0-1.37,[],,,
,,,,,,,,,,
1189,TestRecordings/giit.wav,0,audio-button-response,81,279756,0.0-5.0-0.38,,,,
,,,,,,,,,,
3181,,"{""P0_Q0"":3}",survey,82,282943,0.0-5.0-1.38,[],,,
,,,,,,,,,,
1350,TestRecordings/nangdup.wav,0,audio-button-response,83,284300,0.0-5.0-0.39,,,,
,,,,,,,,,,
2437,,"{""P0_Q0"":3}",survey,84,286743,0.0-5.0-1.39,[],,,
,,,,,,,,,,
1437,TestRecordings/ntek.wav,0,audio-button-response,85,288188,0.0-5.0-0.40,,,,
,,,,,,,,,,
2748,,"{""P0_Q0"":6}",survey,86,290942,0.0-5.0-1.40,[],,,
,,,,,,,,,,
1300,TestRecordings/stauk.wav,0,audio-button-response,87,292252,0.0-5.0-0.41,,,,
,,,,,,,,,,
1988,,"{""P0_Q0"":7}",survey,88,294246,0.0-5.0-1.41,[],,,
,,,,,,,,,,
1104,TestRecordings/mkait.wav,0,audio-button-response,89,295364,0.0-5.0-0.42,,,,
,,,,,,,,,,
2363,,"{""P0_Q0"":2}",survey,90,297733,0.0-5.0-1.42,[],,,
,,,,,,,,,,
1404,TestRecordings/pmeit.wav,0,audio-button-response,91,299148,0.0-5.0-0.43,,,,
,,,,,,,,,,
3229,,"{""P0_Q0"":1}",survey,92,302381,0.0-5.0-1.43,[],,,
,,,,,,,,,,
1022,TestRecordings/dmut.wav,0,audio-button-response,93,303411,0.0-5.0-0.44,,,,
,,,,,,,,,,
5327,,"{""P0_Q0"":2}",survey,94,308744,0.0-5.0-1.44,[],,,
,,,,,,,,,,
1209,TestRecordings/drakpum.wav,0,audio-button-response,95,309963,0.0-5.0-0.45,,,,
,,,,,,,,,,
3230,,"{""P0_Q0"":1}",survey,96,313198,0.0-5.0-1.45,[],,,
,,,,,,,,,,
1220,TestRecordings/nutbim.wav,0,audio-button-response,97,314426,0.0-5.0-0.46,,,,
,,,,,,,,,,
1803,,"{""P0_Q0"":2}",survey,98,316237,0.0-5.0-1.46,[],,,
,,,,,,,,,,
1011,TestRecordings/pmiik.wav,0,audio-button-response,99,317259,0.0-5.0-0.47,,,,
,,,,,,,,,,
2383,,"{""P0_Q0"":1}",survey,100,319646,0.0-5.0-1.47,[],,,
,,,,,,,,,,
1204,TestRecordings/pemdut.wav,0,audio-button-response,101,320858,0.0-5.0-0.48,,,,
,,,,,,,,,,
1948,,"{""P0_Q0"":1}",survey,102,322812,0.0-5.0-1.48,[],,,
,,,,,,,,,,
1021,TestRecordings/dlahm.wav,0,audio-button-response,103,323842,0.0-5.0-0.49,,,,
,,,,,,,,,,
2476,,"{""P0_Q0"":1}",survey,104,326325,0.0-5.0-1.49,[],,,
,,,,,,,,,,
1452,TestRecordings/drikteng.wav,0,audio-button-response,105,327786,0.0-5.0-0.50,,,,
,,,,,,,,,,
2212,,"{""P0_Q0"":3}",survey,106,330004,0.0-5.0-1.50,[],,,
,,,,,,,,,,
1054,TestRecordings/drain.wav,0,audio-button-response,107,331066,0.0-5.0-0.51,,,,
,,,,,,,,,,
4141,,"{""P0_Q0"":7}",survey,108,335213,0.0-5.0-1.51,[],,,
,,,,,,,,,,
1189,TestRecordings/dlisbep.wav,0,audio-button-response,109,336409,0.0-5.0-0.52,,,,
,,,,,,,,,,
2276,,"{""P0_Q0"":1}",survey,110,338692,0.0-5.0-1.52,[],,,
,,,,,,,,,,
1461,TestRecordings/mgit.wav,0,audio-button-response,111,340161,0.0-5.0-0.53,,,,
,,,,,,,,,,
2125,,"{""P0_Q0"":2}",survey,112,342291,0.0-5.0-1.53,[],,,
,,,,,,,,,,
1212,TestRecordings/gatkun.wav,0,audio-button-response,113,343514,0.0-5.0-0.54,,,,
,,,,,,,,,,
2171,,"{""P0_Q0"":2}",survey,114,345692,0.0-5.0-1.54,[],,,
,,,,,,,,,,
950,TestRecordings/tisbeng.wav,0,audio-button-response,115,346649,0.0-5.0-0.55,,,,
,,,,,,,,,,
1597,,"{""P0_Q0"":1}",survey,116,348251,0.0-5.0-1.55,[],,,
,,,,,,,,,,
972,TestRecordings/mepgut.wav,0,audio-button-response,117,349233,0.0-5.0-0.56,,,,
,,,,,,,,,,
2117,,"{""P0_Q0"":1}",survey,118,351355,0.0-5.0-1.56,[],,,
,,,,,,,,,,
780,TestRecordings/tep.wav,0,audio-button-response,119,352145,0.0-5.0-0.57,,,,
,,,,,,,,,,
1868,,"{""P0_Q0"":7}",survey,120,354019,0.0-5.0-1.57,[],,,
,,,,,,,,,,
1230,TestRecordings/stahm.wav,0,audio-button-response,121,355257,0.0-5.0-0.58,,,,
,,,,,,,,,,
2618,,"{""P0_Q0"":5}",survey,122,357881,0.0-5.0-1.58,[],,,
,,,,,,,,,,
1092,TestRecordings/twas.wav,0,audio-button-response,123,358985,0.0-5.0-0.59,,,,
,,,,,,,,,,
2084,,"{""P0_Q0"":2}",survey,124,361092,0.0-5.0-1.59,[],,,
,,,,,,,,,,
3508,, ,html-keyboard-response,125,364601,0.0-6.0,,,,
,,,,,,,,,,
90106,,"{""P0_Q0"":""22"",""P0_Q1"":""Female/Cis Woman"",""P0_Q2"":""Yes"",""P0_Q3"":""A bit of German"",""P0_Q4"":""4"",""P0_Q5"":""I took German for 4 years between the ages of 11 and 15. I was very bad at it, but can still understand some German and minimal Dutch as I have travlled to Germany and the Netherlands *my Dad speaks Dutch many times.""}",survey,126,454746,0.0-7.0,[],,,
,,,,,,,,,,
323363,"<p style=""font-size:30px"">The experiment has ended</p><p style=""font-size:30px"",lang=""ko"">Thanks for participating in it!</p>", ,html-keyboard-response,127,778098,0.0-8.0,,,,