rt,stimulus,response,trial_type,trial_index,time_elapsed,internal_node_id,accuracy,PracticeTest,ConsonantSequence,Grammaticality
,,,,,,,,,,
1204282,"<p style=""font-size:30px"">Welcome to the experiment</p><p>Press spacebar to continue</p>", ,html-keyboard-response,0,1204248,0.0-0.0,,,,
,,,,,,,,,,
14109,"<p style=""font-size:30px"">Please ensure that your headphones are on correctly</p><p>Press spacebar to continue</p>", ,html-keyboard-response,1,1218356,0.0-1.0,,,,
,,,,,,,,,,
2663,"<p style=""font-size:30px"">In this experiment, you will listen to nonsense words</p><p style=""font-size:30px"",lang=""ko"">Your task is to rate the nonsense word you heard as a possible word of American English</p><p>Press spacebar to continue</p>", ,html-keyboard-response,2,1221020,0.0-2.0,,,,
,,,,,,,,,,
1591,, ,html-keyboard-response,3,1222612,0.0-3.0,,,,
,,,,,,,,,,
2615,"<p style=""font-size:30px"">Now let's move on to the actual experiment.</p><p style=""font-size:30px"",lang=""ko"">During the experiment, you will hear each of the nonce words only once.</p><p>Press spacebar to continue</p>", ,html-keyboard-response,4,1225228,0.0-4.0,,,,
,,,,,,,,,,
3903,TestRecordings/dloun.wav,0,audio-button-response,5,1229139,0.0-5.0-0.0,,,,
,,,,,,,,,,
6048,,"{""P0_Q0"":""(Possible)""}",survey,6,1235224,0.0-5.0-1.0,[],,,
,,,,,,,,,,
4877,TestRecordings/suntem.wav,0,audio-button-response,7,1240106,0.0-5.0-0.1,,,,
,,,,,,,,,,
3960,,"{""P0_Q0"":""(Possible)""}",survey,8,1244078,0.0-5.0-1.1,[],,,
,,,,,,,,,,
3535,TestRecordings/paim.wav,0,audio-button-response,9,1247617,0.0-5.0-0.2,,,,
,,,,,,,,,,
1658,,"{""P0_Q0"":""(Possible)""}",survey,10,1249286,0.0-5.0-1.2,[],,,
,,,,,,,,,,
1750,TestRecordings/ntek.wav,0,audio-button-response,11,1251042,0.0-5.0-0.3,,,,
,,,,,,,,,,
4258,,"{""P0_Q0"":""(Possible)""}",survey,12,1255310,0.0-5.0-1.3,[],,,
,,,,,,,,,,
4439,TestRecordings/pmeit.wav,0,audio-button-response,13,1259753,0.0-5.0-0.4,,,,
,,,,,,,,,,
1739,,"{""P0_Q0"":""(Possible)""}",survey,14,1261500,0.0-5.0-1.4,[],,,
,,,,,,,,,,
1959,TestRecordings/tlasdung.wav,0,audio-button-response,15,1263465,0.0-5.0-0.5,,,,
,,,,,,,,,,
1512,,"{""P0_Q0"":""(Impossible)""}",survey,16,1264987,0.0-5.0-1.5,[],,,
,,,,,,,,,,
2656,TestRecordings/gup.wav,0,audio-button-response,17,1267649,0.0-5.0-0.6,,,,
,,,,,,,,,,
3098,,"{""P0_Q0"":""(Possible)""}",survey,18,1270755,0.0-5.0-1.6,[],,,
,,,,,,,,,,
1407,TestRecordings/dmut.wav,0,audio-button-response,19,1272168,0.0-5.0-0.7,,,,
,,,,,,,,,,
1651,,"{""P0_Q0"":""(Impossible)""}",survey,20,1273827,0.0-5.0-1.7,[],,,
,,,,,,,,,,
1888,TestRecordings/bem.wav,0,audio-button-response,21,1275720,0.0-5.0-0.8,,,,
,,,,,,,,,,
1996,,"{""P0_Q0"":""(Impossible)""}",survey,22,1277723,0.0-5.0-1.8,[],,,
,,,,,,,,,,
3626,TestRecordings/gipsus.wav,0,audio-button-response,23,1281354,0.0-5.0-0.9,,,,
,,,,,,,,,,
1442,,"{""P0_Q0"":""(Possible)""}",survey,24,1282803,0.0-5.0-1.9,[],,,
,,,,,,,,,,
4648,TestRecordings/drumbeng.wav,0,audio-button-response,25,1287456,0.0-5.0-0.10,,,,
,,,,,,,,,,
1450,,"{""P0_Q0"":""(Impossible)""}",survey,26,1288915,0.0-5.0-1.10,[],,,
,,,,,,,,,,
2359,TestRecordings/gatkun.wav,0,audio-button-response,27,1291279,0.0-5.0-0.11,,,,
,,,,,,,,,,
1772,,"{""P0_Q0"":""(Impossible)""}",survey,28,1293058,0.0-5.0-1.11,[],,,
,,,,,,,,,,
3265,TestRecordings/trahm.wav,0,audio-button-response,29,1296327,0.0-5.0-0.12,,,,
,,,,,,,,,,
1461,,"{""P0_Q0"":""(Impossible)""}",survey,30,1297794,0.0-5.0-1.12,[],,,
,,,,,,,,,,
2197,TestRecordings/twen.wav,0,audio-button-response,31,1299999,0.0-5.0-0.13,,,,
,,,,,,,,,,
1907,,"{""P0_Q0"":""(Possible)""}",survey,32,1301913,0.0-5.0-1.13,[],,,
,,,,,,,,,,
2008,TestRecordings/tloum.wav,0,audio-button-response,33,1303927,0.0-5.0-0.14,,,,
,,,,,,,,,,
1556,,"{""P0_Q0"":""(Impossible)""}",survey,34,1305489,0.0-5.0-1.14,[],,,
,,,,,,,,,,
1631,TestRecordings/tlemkun.wav,0,audio-button-response,35,1307127,0.0-5.0-0.15,,,,
,,,,,,,,,,
1803,,"{""P0_Q0"":""(Impossible)""}",survey,36,1308937,0.0-5.0-1.15,[],,,
,,,,,,,,,,
1489,TestRecordings/nboup.wav,0,audio-button-response,37,1310431,0.0-5.0-0.16,,,,
,,,,,,,,,,
1316,,"{""P0_Q0"":""(Impossible)""}",survey,38,1311753,0.0-5.0-1.16,[],,,
,,,,,,,,,,
1633,TestRecordings/tlumgak.wav,0,audio-button-response,39,1313390,0.0-5.0-0.17,,,,
,,,,,,,,,,
1308,,"{""P0_Q0"":""(Impossible)""}",survey,40,1314705,0.0-5.0-1.17,[],,,
,,,,,,,,,,
1632,TestRecordings/tlik.wav,0,audio-button-response,41,1316342,0.0-5.0-0.18,,,,
,,,,,,,,,,
1486,,"{""P0_Q0"":""(Possible)""}",survey,42,1317832,0.0-5.0-1.18,[],,,
,,,,,,,,,,
1854,TestRecordings/drakpum.wav,0,audio-button-response,43,1319694,0.0-5.0-0.19,,,,
,,,,,,,,,,
1116,,"{""P0_Q0"":""(Impossible)""}",survey,44,1320816,0.0-5.0-1.19,[],,,
,,,,,,,,,,
1641,TestRecordings/kmaut.wav,0,audio-button-response,45,1322463,0.0-5.0-0.20,,,,
,,,,,,,,,,
1332,,"{""P0_Q0"":""(Impossible)""}",survey,46,1323800,0.0-5.0-1.20,[],,,
,,,,,,,,,,
1841,TestRecordings/twas.wav,0,audio-button-response,47,1325646,0.0-5.0-0.21,,,,
,,,,,,,,,,
1252,,"{""P0_Q0"":""(Impossible)""}",survey,48,1326904,0.0-5.0-1.21,[],,,
,,,,,,,,,,
2065,TestRecordings/trindes.wav,0,audio-button-response,49,1328974,0.0-5.0-0.22,,,,
,,,,,,,,,,
3165,,"{""P0_Q0"":""(Impossible)""}",survey,50,1332144,0.0-5.0-1.22,[],,,
,,,,,,,,,,
2889,TestRecordings/stauk.wav,0,audio-button-response,51,1335038,0.0-5.0-0.23,,,,
,,,,,,,,,,
1260,,"{""P0_Q0"":""(Impossible)""}",survey,52,1336304,0.0-5.0-1.23,[],,,
,,,,,,,,,,
1385,TestRecordings/tlipgat.wav,0,audio-button-response,53,1337694,0.0-5.0-0.24,,,,
,,,,,,,,,,
2443,,"{""P0_Q0"":""(Possible)""}",survey,54,1340143,0.0-5.0-1.24,[],,,
,,,,,,,,,,
3438,TestRecordings/mepgut.wav,0,audio-button-response,55,1343589,0.0-5.0-0.25,,,,
,,,,,,,,,,
1141,,"{""P0_Q0"":""(Impossible)""}",survey,56,1344736,0.0-5.0-1.25,[],,,
,,,,,,,,,,
1680,TestRecordings/giit.wav,0,audio-button-response,57,1346421,0.0-5.0-0.26,,,,
,,,,,,,,,,
1443,,"{""P0_Q0"":""(Possible)""}",survey,58,1347871,0.0-5.0-1.26,[],,,
,,,,,,,,,,
1366,TestRecordings/gistum.wav,0,audio-button-response,59,1349245,0.0-5.0-0.27,,,,
,,,,,,,,,,
1140,,"{""P0_Q0"":""(Impossible)""}",survey,60,1350391,0.0-5.0-1.27,[],,,
,,,,,,,,,,
3696,TestRecordings/punseng.wav,0,audio-button-response,61,1354092,0.0-5.0-0.28,,,,
,,,,,,,,,,
1243,,"{""P0_Q0"":""(Possible)""}",survey,62,1355343,0.0-5.0-1.28,[],,,
,,,,,,,,,,
1345,TestRecordings/nangdup.wav,0,audio-button-response,63,1356692,0.0-5.0-0.29,,,,
,,,,,,,,,,
1229,,"{""P0_Q0"":""(Impossible)""}",survey,64,1357927,0.0-5.0-1.29,[],,,
,,,,,,,,,,
3187,TestRecordings/ningpum.wav,0,audio-button-response,65,1361124,0.0-5.0-0.30,,,,
,,,,,,,,,,
941,,"{""P0_Q0"":""(Impossible)""}",survey,66,1362071,0.0-5.0-1.30,[],,,
,,,,,,,,,,
1295,TestRecordings/skain.wav,0,audio-button-response,67,1363372,0.0-5.0-0.31,,,,
,,,,,,,,,,
1189,,"{""P0_Q0"":""(Impossible)""}",survey,68,1364566,0.0-5.0-1.31,[],,,
,,,,,,,,,,
1385,TestRecordings/mgit.wav,0,audio-button-response,69,1365956,0.0-5.0-0.32,,,,
,,,,,,,,,,
1148,,"{""P0_Q0"":""(Impossible)""}",survey,70,1367110,0.0-5.0-1.32,[],,,
,,,,,,,,,,
1281,TestRecordings/tlepgim.wav,0,audio-button-response,71,1368396,0.0-5.0-0.33,,,,
,,,,,,,,,,
1293,,"{""P0_Q0"":""(Impossible)""}",survey,72,1369694,0.0-5.0-1.33,[],,,
,,,,,,,,,,
992,TestRecordings/pmiik.wav,0,audio-button-response,73,1370692,0.0-5.0-0.34,,,,
,,,,,,,,,,
1188,,"{""P0_Q0"":""(Impossible)""}",survey,74,1371886,0.0-5.0-1.34,[],,,
,,,,,,,,,,
1682,TestRecordings/drantung.wav,0,audio-button-response,75,1373572,0.0-5.0-0.35,,,,
,,,,,,,,,,
1093,,"{""P0_Q0"":""(Impossible)""}",survey,76,1374670,0.0-5.0-1.35,[],,,
,,,,,,,,,,
1433,TestRecordings/dlemkus.wav,0,audio-button-response,77,1376108,0.0-5.0-0.36,,,,
,,,,,,,,,,
2405,,"{""P0_Q0"":""(Possible)""}",survey,78,1378517,0.0-5.0-1.36,[],,,
,,,,,,,,,,
1401,TestRecordings/gitpes.wav,0,audio-button-response,79,1379924,0.0-5.0-0.37,,,,
,,,,,,,,,,
1139,,"{""P0_Q0"":""(Impossible)""}",survey,80,1381070,0.0-5.0-1.37,[],,,
,,,,,,,,,,
1504,TestRecordings/pwuk.wav,0,audio-button-response,81,1382579,0.0-5.0-0.38,,,,
,,,,,,,,,,
1252,,"{""P0_Q0"":""(Possible)""}",survey,82,1383838,0.0-5.0-1.38,[],,,
,,,,,,,,,,
1456,TestRecordings/dlisbep.wav,0,audio-button-response,83,1385299,0.0-5.0-0.39,,,,
,,,,,,,,,,
1213,,"{""P0_Q0"":""(Impossible)""}",survey,84,1386517,0.0-5.0-1.39,[],,,
,,,,,,,,,,
1697,TestRecordings/pundes.wav,0,audio-button-response,85,1388219,0.0-5.0-0.40,,,,
,,,,,,,,,,
1949,,"{""P0_Q0"":""(Possible)""}",survey,86,1390173,0.0-5.0-1.40,[],,,
,,,,,,,,,,
1641,TestRecordings/stahm.wav,0,audio-button-response,87,1391819,0.0-5.0-0.41,,,,
,,,,,,,,,,
1493,,"{""P0_Q0"":""(Possible)""}",survey,88,1393317,0.0-5.0-1.41,[],,,
,,,,,,,,,,
1912,TestRecordings/drikteng.wav,0,audio-button-response,89,1395235,0.0-5.0-0.42,,,,
,,,,,,,,,,
1485,,"{""P0_Q0"":""(Impossible)""}",survey,90,1396726,0.0-5.0-1.42,[],,,
,,,,,,,,,,
2225,TestRecordings/pemdut.wav,0,audio-button-response,91,1398954,0.0-5.0-0.43,,,,
,,,,,,,,,,
1125,,"{""P0_Q0"":""(Impossible)""}",survey,92,1400085,0.0-5.0-1.43,[],,,
,,,,,,,,,,
1201,TestRecordings/kutpim.wav,0,audio-button-response,93,1401290,0.0-5.0-0.44,,,,
,,,,,,,,,,
1020,,"{""P0_Q0"":""(Impossible)""}",survey,94,1402316,0.0-5.0-1.44,[],,,
,,,,,,,,,,
4105,TestRecordings/stuun.wav,0,audio-button-response,95,1406426,0.0-5.0-0.45,,,,
,,,,,,,,,,
1636,,"{""P0_Q0"":""(Impossible)""}",survey,96,1408068,0.0-5.0-1.45,[],,,
,,,,,,,,,,
1391,TestRecordings/drain.wav,0,audio-button-response,97,1409466,0.0-5.0-0.46,,,,
,,,,,,,,,,
1244,,"{""P0_Q0"":""(Impossible)""}",survey,98,1410716,0.0-5.0-1.46,[],,,
,,,,,,,,,,
1529,TestRecordings/tempuk.wav,0,audio-button-response,99,1412250,0.0-5.0-0.47,,,,
,,,,,,,,,,
4757,,"{""P0_Q0"":""(Impossible)""}",survey,100,1417012,0.0-5.0-1.47,[],,,
,,,,,,,,,,
1920,TestRecordings/kmeip.wav,0,audio-button-response,101,1418938,0.0-5.0-0.48,,,,
,,,,,,,,,,
924,,"{""P0_Q0"":""(Impossible)""}",survey,102,1419868,0.0-5.0-1.48,[],,,
,,,,,,,,,,
1025,TestRecordings/nutbim.wav,0,audio-button-response,103,1420897,0.0-5.0-0.49,,,,
,,,,,,,,,,
963,,"{""P0_Q0"":""(Impossible)""}",survey,104,1421868,0.0-5.0-1.49,[],,,
,,,,,,,,,,
1601,TestRecordings/pwam.wav,0,audio-button-response,105,1423473,0.0-5.0-0.50,,,,
,,,,,,,,,,
1004,,"{""P0_Q0"":""(Possible)""}",survey,106,1424483,0.0-5.0-1.50,[],,,
,,,,,,,,,,
1583,TestRecordings/bepgik.wav,0,audio-button-response,107,1426073,0.0-5.0-0.51,,,,
,,,,,,,,,,
972,,"{""P0_Q0"":""(Impossible)""}",survey,108,1427051,0.0-5.0-1.51,[],,,
,,,,,,,,,,
1153,TestRecordings/mkait.wav,0,audio-button-response,109,1428209,0.0-5.0-0.52,,,,
,,,,,,,,,,
1020,,"{""P0_Q0"":""(Impossible)""}",survey,110,1429235,0.0-5.0-1.52,[],,,
,,,,,,,,,,
1792,TestRecordings/sengdun.wav,0,audio-button-response,111,1431033,0.0-5.0-0.53,,,,
,,,,,,,,,,
1253,,"{""P0_Q0"":""(Impossible)""}",survey,112,1432291,0.0-5.0-1.53,[],,,
,,,,,,,,,,
1288,TestRecordings/tisbeng.wav,0,audio-button-response,113,1433585,0.0-5.0-0.54,,,,
,,,,,,,,,,
1084,,"{""P0_Q0"":""(Impossible)""}",survey,114,1434675,0.0-5.0-1.54,[],,,
,,,,,,,,,,
1185,TestRecordings/drustet.wav,0,audio-button-response,115,1435864,0.0-5.0-0.55,,,,
,,,,,,,,,,
1432,,"{""P0_Q0"":""(Impossible)""}",survey,116,1437306,0.0-5.0-1.55,[],,,
,,,,,,,,,,
1226,TestRecordings/ndeip.wav,0,audio-button-response,117,1438537,0.0-5.0-0.56,,,,
,,,,,,,,,,
3060,,"{""P0_Q0"":""(Impossible)""}",survey,118,1441603,0.0-5.0-1.56,[],,,
,,,,,,,,,,
1936,TestRecordings/dlahm.wav,0,audio-button-response,119,1443544,0.0-5.0-0.57,,,,
,,,,,,,,,,
2678,,"{""P0_Q0"":""(Impossible)""}",survey,120,1446227,0.0-5.0-1.57,[],,,
,,,,,,,,,,
1128,TestRecordings/tlem.wav,0,audio-button-response,121,1447360,0.0-5.0-0.58,,,,
,,,,,,,,,,
1020,,"{""P0_Q0"":""(Possible)""}",survey,122,1448386,0.0-5.0-1.58,[],,,
,,,,,,,,,,
1633,TestRecordings/tep.wav,0,audio-button-response,123,1450024,0.0-5.0-0.59,,,,
,,,,,,,,,,
1124,,"{""P0_Q0"":""(Possible)""}",survey,124,1451154,0.0-5.0-1.59,[],,,
,,,,,,,,,,
3607,, ,html-keyboard-response,125,1454761,0.0-6.0,,,,
,,,,,,,,,,
60843,,"{""P0_Q0"":""23"",""P0_Q1"":""Female"",""P0_Q2"":""Yes"",""P0_Q3"":""Mandarin"",""P0_Q4"":""I grew up speaking mandarin along with english"",""P0_Q5"":""my English is much better than my mandarin but I spoke both since my parents speak both languages ""}",survey,126,1515618,0.0-7.0,[],,,
,,,,,,,,,,
63891,"<p style=""font-size:30px"">The experiment has ended</p><p style=""font-size:30px"",lang=""ko"">Thanks for participating in it!</p>", ,html-keyboard-response,127,1579507,0.0-8.0,,,,