rt,stimulus,response,trial_type,trial_index,time_elapsed,internal_node_id,accuracy,PracticeTest,ConsonantSequence,Grammaticality
,,,,,,,,,,
277635,"<p style=""font-size:30px"">Welcome to the experiment</p><p>Press spacebar to continue</p>", ,html-keyboard-response,0,277648,0.0-0.0,,,,
,,,,,,,,,,
1501,"<p style=""font-size:30px"">Please ensure that your headphones are on correctly</p><p>Press spacebar to continue</p>", ,html-keyboard-response,1,279151,0.0-1.0,,,,
,,,,,,,,,,
3992,"<p style=""font-size:30px"">In this experiment, you will listen to nonsense words</p><p style=""font-size:30px"",lang=""ko"">Your task is to rate the nonsense word you heard as a possible word of American English</p><p>Press spacebar to continue</p>", ,html-keyboard-response,2,283143,0.0-2.0,,,,
,,,,,,,,,,
2464,, ,html-keyboard-response,3,285608,0.0-3.0,,,,
,,,,,,,,,,
5984,"<p style=""font-size:30px"">Now let's move on to the actual experiment.</p><p style=""font-size:30px"",lang=""ko"">During the experiment, you will hear each of the nonce words only once.</p><p>Press spacebar to continue</p>", ,html-keyboard-response,4,291591,0.0-4.0,,,,
,,,,,,,,,,
3767,TestRecordings/pmeit.wav,0,audio-button-response,5,295365,0.0-5.0-0.0,,,,
,,,,,,,,,,
9765,,"{""P0_Q0"":""(Possible)""}",survey,6,305170,0.0-5.0-1.0,[],,,
,,,,,,,,,,
7693,TestRecordings/mkait.wav,0,audio-button-response,7,312868,0.0-5.0-0.1,,,,
,,,,,,,,,,
1624,,"{""P0_Q0"":""(Impossible)""}",survey,8,314504,0.0-5.0-1.1,[],,,
,,,,,,,,,,
1895,TestRecordings/trindes.wav,0,audio-button-response,9,316403,0.0-5.0-0.2,,,,
,,,,,,,,,,
1753,,"{""P0_Q0"":""(Possible)""}",survey,10,318167,0.0-5.0-1.2,[],,,
,,,,,,,,,,
1162,TestRecordings/twen.wav,0,audio-button-response,11,319339,0.0-5.0-0.3,,,,
,,,,,,,,,,
1745,,"{""P0_Q0"":""(Possible)""}",survey,12,321095,0.0-5.0-1.3,[],,,
,,,,,,,,,,
2775,TestRecordings/skain.wav,0,audio-button-response,13,323875,0.0-5.0-0.4,,,,
,,,,,,,,,,
1826,,"{""P0_Q0"":""(Possible)""}",survey,14,325710,0.0-5.0-1.4,[],,,
,,,,,,,,,,
1142,TestRecordings/trahm.wav,0,audio-button-response,15,326859,0.0-5.0-0.5,,,,
,,,,,,,,,,
1232,,"{""P0_Q0"":""(Possible)""}",survey,16,328101,0.0-5.0-1.5,[],,,
,,,,,,,,,,
880,TestRecordings/gipsus.wav,0,audio-button-response,17,328987,0.0-5.0-0.6,,,,
,,,,,,,,,,
5060,,"{""P0_Q0"":""(Impossible)""}",survey,18,334054,0.0-5.0-1.6,[],,,
,,,,,,,,,,
1784,TestRecordings/pemdut.wav,0,audio-button-response,19,335842,0.0-5.0-0.7,,,,
,,,,,,,,,,
1443,,"{""P0_Q0"":""(Impossible)""}",survey,20,337293,0.0-5.0-1.7,[],,,
,,,,,,,,,,
751,TestRecordings/gup.wav,0,audio-button-response,21,338050,0.0-5.0-0.8,,,,
,,,,,,,,,,
1331,,"{""P0_Q0"":""(Impossible)""}",survey,22,339389,0.0-5.0-1.8,[],,,
,,,,,,,,,,
2071,TestRecordings/tlumgak.wav,0,audio-button-response,23,341467,0.0-5.0-0.9,,,,
,,,,,,,,,,
2194,,"{""P0_Q0"":""(Impossible)""}",survey,24,343668,0.0-5.0-1.9,[],,,
,,,,,,,,,,
1736,TestRecordings/tloum.wav,0,audio-button-response,25,345410,0.0-5.0-0.10,,,,
,,,,,,,,,,
1121,,"{""P0_Q0"":""(Impossible)""}",survey,26,346541,0.0-5.0-1.10,[],,,
,,,,,,,,,,
1072,TestRecordings/tlepgim.wav,0,audio-button-response,27,347619,0.0-5.0-0.11,,,,
,,,,,,,,,,
860,,"{""P0_Q0"":""(Impossible)""}",survey,28,348484,0.0-5.0-1.11,[],,,
,,,,,,,,,,
1056,TestRecordings/mgit.wav,0,audio-button-response,29,349546,0.0-5.0-0.12,,,,
,,,,,,,,,,
1141,,"{""P0_Q0"":""(Impossible)""}",survey,30,350692,0.0-5.0-1.12,[],,,
,,,,,,,,,,
1544,TestRecordings/kutpim.wav,0,audio-button-response,31,352242,0.0-5.0-0.13,,,,
,,,,,,,,,,
2365,,"{""P0_Q0"":""(Impossible)""}",survey,32,354613,0.0-5.0-1.13,[],,,
,,,,,,,,,,
1256,TestRecordings/gitpes.wav,0,audio-button-response,33,355874,0.0-5.0-0.14,,,,
,,,,,,,,,,
1291,,"{""P0_Q0"":""(Impossible)""}",survey,34,357171,0.0-5.0-1.14,[],,,
,,,,,,,,,,
897,TestRecordings/dmut.wav,0,audio-button-response,35,358074,0.0-5.0-0.15,,,,
,,,,,,,,,,
1052,,"{""P0_Q0"":""(Impossible)""}",survey,36,359131,0.0-5.0-1.15,[],,,
,,,,,,,,,,
1793,TestRecordings/stauk.wav,0,audio-button-response,37,360929,0.0-5.0-0.16,,,,
,,,,,,,,,,
1092,,"{""P0_Q0"":""(Possible)""}",survey,38,362027,0.0-5.0-1.16,[],,,
,,,,,,,,,,
734,TestRecordings/pwuk.wav,0,audio-button-response,39,362769,0.0-5.0-0.17,,,,
,,,,,,,,,,
2340,,"{""P0_Q0"":""(Impossible)""}",survey,40,365115,0.0-5.0-1.17,[],,,
,,,,,,,,,,
1471,TestRecordings/kmaut.wav,0,audio-button-response,41,366593,0.0-5.0-0.18,,,,
,,,,,,,,,,
2644,,"{""P0_Q0"":""(Possible)""}",survey,42,369244,0.0-5.0-1.18,[],,,
,,,,,,,,,,
1015,TestRecordings/paim.wav,0,audio-button-response,43,370265,0.0-5.0-0.19,,,,
,,,,,,,,,,
1444,,"{""P0_Q0"":""(Possible)""}",survey,44,371715,0.0-5.0-1.19,[],,,
,,,,,,,,,,
1057,TestRecordings/drustet.wav,0,audio-button-response,45,372777,0.0-5.0-0.20,,,,
,,,,,,,,,,
11132,,"{""P0_Q0"":""(Impossible)""}",survey,46,383915,0.0-5.0-1.20,[],,,
,,,,,,,,,,
1016,TestRecordings/stuun.wav,0,audio-button-response,47,384936,0.0-5.0-0.21,,,,
,,,,,,,,,,
860,,"{""P0_Q0"":""(Possible)""}",survey,48,385802,0.0-5.0-1.21,[],,,
,,,,,,,,,,
758,TestRecordings/dlahm.wav,0,audio-button-response,49,386568,0.0-5.0-0.22,,,,
,,,,,,,,,,
893,,"{""P0_Q0"":""(Possible)""}",survey,50,387466,0.0-5.0-1.22,[],,,
,,,,,,,,,,
896,TestRecordings/pwam.wav,0,audio-button-response,51,388367,0.0-5.0-0.23,,,,
,,,,,,,,,,
2484,,"{""P0_Q0"":""(Possible)""}",survey,52,390857,0.0-5.0-1.23,[],,,
,,,,,,,,,,
527,TestRecordings/tlipgat.wav,0,audio-button-response,53,391391,0.0-5.0-0.24,,,,
,,,,,,,,,,
1307,,"{""P0_Q0"":""(Impossible)""}",survey,54,392706,0.0-5.0-1.24,[],,,
,,,,,,,,,,
1248,TestRecordings/tlik.wav,0,audio-button-response,55,393959,0.0-5.0-0.25,,,,
,,,,,,,,,,
1316,,"{""P0_Q0"":""(Possible)""}",survey,56,395281,0.0-5.0-1.25,[],,,
,,,,,,,,,,
1984,TestRecordings/bem.wav,0,audio-button-response,57,397271,0.0-5.0-0.26,,,,
,,,,,,,,,,
1431,,"{""P0_Q0"":""(Impossible)""}",survey,58,398707,0.0-5.0-1.26,[],,,
,,,,,,,,,,
1149,TestRecordings/stahm.wav,0,audio-button-response,59,399863,0.0-5.0-0.27,,,,
,,,,,,,,,,
7405,,"{""P0_Q0"":""(Possible)""}",survey,60,407273,0.0-5.0-1.27,[],,,
,,,,,,,,,,
768,TestRecordings/nboup.wav,0,audio-button-response,61,408047,0.0-5.0-0.28,,,,
,,,,,,,,,,
1093,,"{""P0_Q0"":""(Impossible)""}",survey,62,409145,0.0-5.0-1.28,[],,,
,,,,,,,,,,
1182,TestRecordings/tlasdung.wav,0,audio-button-response,63,410335,0.0-5.0-0.29,,,,
,,,,,,,,,,
869,,"{""P0_Q0"":""(Possible)""}",survey,64,411209,0.0-5.0-1.29,[],,,
,,,,,,,,,,
905,TestRecordings/drakpum.wav,0,audio-button-response,65,412119,0.0-5.0-0.30,,,,
,,,,,,,,,,
1260,,"{""P0_Q0"":""(Impossible)""}",survey,66,413385,0.0-5.0-1.30,[],,,
,,,,,,,,,,
825,TestRecordings/giit.wav,0,audio-button-response,67,414215,0.0-5.0-0.31,,,,
,,,,,,,,,,
2092,,"{""P0_Q0"":""(Possible)""}",survey,68,416312,0.0-5.0-1.31,[],,,
,,,,,,,,,,
2960,TestRecordings/nutbim.wav,0,audio-button-response,69,419278,0.0-5.0-0.32,,,,
,,,,,,,,,,
1773,,"{""P0_Q0"":""(Impossible)""}",survey,70,421056,0.0-5.0-1.32,[],,,
,,,,,,,,,,
1102,TestRecordings/suntem.wav,0,audio-button-response,71,422166,0.0-5.0-0.33,,,,
,,,,,,,,,,
1348,,"{""P0_Q0"":""(Impossible)""}",survey,72,423520,0.0-5.0-1.33,[],,,
,,,,,,,,,,
1008,TestRecordings/drikteng.wav,0,audio-button-response,73,424534,0.0-5.0-0.34,,,,
,,,,,,,,,,
740,,"{""P0_Q0"":""(Impossible)""}",survey,74,425280,0.0-5.0-1.34,[],,,
,,,,,,,,,,
865,TestRecordings/ndeip.wav,0,audio-button-response,75,426149,0.0-5.0-0.35,,,,
,,,,,,,,,,
1060,,"{""P0_Q0"":""(Impossible)""}",survey,76,427216,0.0-5.0-1.35,[],,,
,,,,,,,,,,
1248,TestRecordings/drantung.wav,0,audio-button-response,77,428470,0.0-5.0-0.36,,,,
,,,,,,,,,,
892,,"{""P0_Q0"":""(Impossible)""}",survey,78,429368,0.0-5.0-1.36,[],,,
,,,,,,,,,,
985,TestRecordings/drumbeng.wav,0,audio-button-response,79,430358,0.0-5.0-0.37,,,,
,,,,,,,,,,
821,,"{""P0_Q0"":""(Impossible)""}",survey,80,431184,0.0-5.0-1.37,[],,,
,,,,,,,,,,
1550,TestRecordings/tlem.wav,0,audio-button-response,81,432741,0.0-5.0-0.38,,,,
,,,,,,,,,,
1540,,"{""P0_Q0"":""(Possible)""}",survey,82,434287,0.0-5.0-1.38,[],,,
,,,,,,,,,,
1606,TestRecordings/dlemkus.wav,0,audio-button-response,83,435901,0.0-5.0-0.39,,,,
,,,,,,,,,,
813,,"{""P0_Q0"":""(Impossible)""}",survey,84,436719,0.0-5.0-1.39,[],,,
,,,,,,,,,,
704,TestRecordings/gistum.wav,0,audio-button-response,85,437429,0.0-5.0-0.40,,,,
,,,,,,,,,,
5004,,"{""P0_Q0"":""(Impossible)""}",survey,86,442439,0.0-5.0-1.40,[],,,
,,,,,,,,,,
3343,TestRecordings/ningpum.wav,0,audio-button-response,87,445789,0.0-5.0-0.41,,,,
,,,,,,,,,,
3773,,"{""P0_Q0"":""(Impossible)""}",survey,88,449567,0.0-5.0-1.41,[],,,
,,,,,,,,,,
863,TestRecordings/bepgik.wav,0,audio-button-response,89,450437,0.0-5.0-0.42,,,,
,,,,,,,,,,
4389,,"{""P0_Q0"":""(Impossible)""}",survey,90,454830,0.0-5.0-1.42,[],,,
,,,,,,,,,,
897,TestRecordings/twas.wav,0,audio-button-response,91,455732,0.0-5.0-0.43,,,,
,,,,,,,,,,
1196,,"{""P0_Q0"":""(Impossible)""}",survey,92,456934,0.0-5.0-1.43,[],,,
,,,,,,,,,,
873,TestRecordings/tep.wav,0,audio-button-response,93,457812,0.0-5.0-0.44,,,,
,,,,,,,,,,
2228,,"{""P0_Q0"":""(Possible)""}",survey,94,460046,0.0-5.0-1.44,[],,,
,,,,,,,,,,
1097,TestRecordings/sengdun.wav,0,audio-button-response,95,461148,0.0-5.0-0.45,,,,
,,,,,,,,,,
2163,,"{""P0_Q0"":""(Possible)""}",survey,96,463318,0.0-5.0-1.45,[],,,
,,,,,,,,,,
878,TestRecordings/tlemkun.wav,0,audio-button-response,97,464204,0.0-5.0-0.46,,,,
,,,,,,,,,,
892,,"{""P0_Q0"":""(Impossible)""}",survey,98,465101,0.0-5.0-1.46,[],,,
,,,,,,,,,,
1623,TestRecordings/punseng.wav,0,audio-button-response,99,466732,0.0-5.0-0.47,,,,
,,,,,,,,,,
973,,"{""P0_Q0"":""(Impossible)""}",survey,100,467709,0.0-5.0-1.47,[],,,
,,,,,,,,,,
1552,TestRecordings/nangdup.wav,0,audio-button-response,101,469267,0.0-5.0-0.48,,,,
,,,,,,,,,,
1741,,"{""P0_Q0"":""(Impossible)""}",survey,102,471014,0.0-5.0-1.48,[],,,
,,,,,,,,,,
1808,TestRecordings/tempuk.wav,0,audio-button-response,103,472827,0.0-5.0-0.49,,,,
,,,,,,,,,,
1163,,"{""P0_Q0"":""(Possible)""}",survey,104,473998,0.0-5.0-1.49,[],,,
,,,,,,,,,,
1967,TestRecordings/mepgut.wav,0,audio-button-response,105,475970,0.0-5.0-0.50,,,,
,,,,,,,,,,
2981,,"{""P0_Q0"":""(Impossible)""}",survey,106,478958,0.0-5.0-1.50,[],,,
,,,,,,,,,,
1640,TestRecordings/gatkun.wav,0,audio-button-response,107,480603,0.0-5.0-0.51,,,,
,,,,,,,,,,
1755,,"{""P0_Q0"":""(Impossible)""}",survey,108,482364,0.0-5.0-1.51,[],,,
,,,,,,,,,,
2304,TestRecordings/tisbeng.wav,0,audio-button-response,109,484675,0.0-5.0-0.52,,,,
,,,,,,,,,,
2300,,"{""P0_Q0"":""(Impossible)""}",survey,110,486981,0.0-5.0-1.52,[],,,
,,,,,,,,,,
1304,TestRecordings/pundes.wav,0,audio-button-response,111,488290,0.0-5.0-0.53,,,,
,,,,,,,,,,
1132,,"{""P0_Q0"":""(Possible)""}",survey,112,489428,0.0-5.0-1.53,[],,,
,,,,,,,,,,
1279,TestRecordings/kmeip.wav,0,audio-button-response,113,490715,0.0-5.0-0.54,,,,
,,,,,,,,,,
1540,,"{""P0_Q0"":""(Impossible)""}",survey,114,492260,0.0-5.0-1.54,[],,,
,,,,,,,,,,
1240,TestRecordings/pmiik.wav,0,audio-button-response,115,493506,0.0-5.0-0.55,,,,
,,,,,,,,,,
1556,,"{""P0_Q0"":""(Impossible)""}",survey,116,495068,0.0-5.0-1.55,[],,,
,,,,,,,,,,
3678,TestRecordings/dlisbep.wav,0,audio-button-response,117,498754,0.0-5.0-0.56,,,,
,,,,,,,,,,
1057,,"{""P0_Q0"":""(Impossible)""}",survey,118,499820,0.0-5.0-1.56,[],,,
,,,,,,,,,,
3537,TestRecordings/drain.wav,0,audio-button-response,119,503362,0.0-5.0-0.57,,,,
,,,,,,,,,,
1051,,"{""P0_Q0"":""(Possible)""}",survey,120,504420,0.0-5.0-1.57,[],,,
,,,,,,,,,,
753,TestRecordings/ntek.wav,0,audio-button-response,121,505177,0.0-5.0-0.58,,,,
,,,,,,,,,,
1172,,"{""P0_Q0"":""(Impossible)""}",survey,122,506355,0.0-5.0-1.58,[],,,
,,,,,,,,,,
745,TestRecordings/dloun.wav,0,audio-button-response,123,507105,0.0-5.0-0.59,,,,
,,,,,,,,,,
909,,"{""P0_Q0"":""(Impossible)""}",survey,124,508019,0.0-5.0-1.59,[],,,
,,,,,,,,,,
3269,, ,html-keyboard-response,125,511289,0.0-6.0,,,,
,,,,,,,,,,
28597,,"{""P0_Q0"":""21"",""P0_Q1"":""Male"",""P0_Q2"":""Yes"",""P0_Q3"":""None"",""P0_Q4"":""N/A"",""P0_Q5"":""N/A""}",survey,126,539917,0.0-7.0,[],,,
,,,,,,,,,,
195362,"<p style=""font-size:30px"">The experiment has ended</p><p style=""font-size:30px"",lang=""ko"">Thanks for participating in it!</p>", ,html-keyboard-response,127,735270,0.0-8.0,,,,