rt,stimulus,response,trial_type,trial_index,time_elapsed,internal_node_id,accuracy,PracticeTest,ConsonantSequence,Grammaticality
,,,,,,,,,,
929775,"<p style=""font-size:30px"">Welcome to the experiment</p><p>Press spacebar to continue</p>", ,html-keyboard-response,0,929768,0.0-0.0,,,,
,,,,,,,,,,
2869,"<p style=""font-size:30px"">Please ensure that your headphones are on correctly</p><p>Press spacebar to continue</p>", ,html-keyboard-response,1,932639,0.0-1.0,,,,
,,,,,,,,,,
3559,"<p style=""font-size:30px"">In this experiment, you will listen to nonsense words</p><p style=""font-size:30px"",lang=""ko"">Your task is to rate the nonsense word you heard as a possible word of American English</p><p>Press spacebar to continue</p>", ,html-keyboard-response,2,936198,0.0-2.0,,,,
,,,,,,,,,,
2223,, ,html-keyboard-response,3,938421,0.0-3.0,,,,
,,,,,,,,,,
5991,"<p style=""font-size:30px"">Now let's move on to the actual experiment.</p><p style=""font-size:30px"",lang=""ko"">During the experiment, you will hear each of the nonce words only once.</p><p>Press spacebar to continue</p>", ,html-keyboard-response,4,944414,0.0-4.0,,,,
,,,,,,,,,,
4558,TestRecordings/nutbim.wav,0,audio-button-response,5,948981,0.0-5.0-0.0,,,,
,,,,,,,,,,
21559,,"{""P0_Q0"":""(Impossible)""}",survey,6,970577,0.0-5.0-1.0,[],,,
,,,,,,,,,,
4437,TestRecordings/drumbeng.wav,0,audio-button-response,7,975019,0.0-5.0-0.1,,,,
,,,,,,,,,,
2432,,"{""P0_Q0"":""(Possible)""}",survey,8,977463,0.0-5.0-1.1,[],,,
,,,,,,,,,,
1949,TestRecordings/punseng.wav,0,audio-button-response,9,979420,0.0-5.0-0.2,,,,
,,,,,,,,,,
2060,,"{""P0_Q0"":""(Possible)""}",survey,10,981489,0.0-5.0-1.2,[],,,
,,,,,,,,,,
1701,TestRecordings/gup.wav,0,audio-button-response,11,983195,0.0-5.0-0.3,,,,
,,,,,,,,,,
1824,,"{""P0_Q0"":""(Impossible)""}",survey,12,985031,0.0-5.0-1.3,[],,,
,,,,,,,,,,
1302,TestRecordings/suntem.wav,0,audio-button-response,13,986339,0.0-5.0-0.4,,,,
,,,,,,,,,,
2864,,"{""P0_Q0"":""(Impossible)""}",survey,14,989214,0.0-5.0-1.4,[],,,
,,,,,,,,,,
1142,TestRecordings/stahm.wav,0,audio-button-response,15,990363,0.0-5.0-0.5,,,,
,,,,,,,,,,
1570,,"{""P0_Q0"":""(Possible)""}",survey,16,991943,0.0-5.0-1.5,[],,,
,,,,,,,,,,
1151,TestRecordings/gistum.wav,0,audio-button-response,17,993099,0.0-5.0-0.6,,,,
,,,,,,,,,,
1794,,"{""P0_Q0"":""(Impossible)""}",survey,18,994902,0.0-5.0-1.6,[],,,
,,,,,,,,,,
1368,TestRecordings/gitpes.wav,0,audio-button-response,19,996275,0.0-5.0-0.7,,,,
,,,,,,,,,,
1179,,"{""P0_Q0"":""(Impossible)""}",survey,20,997461,0.0-5.0-1.7,[],,,
,,,,,,,,,,
1192,TestRecordings/dlisbep.wav,0,audio-button-response,21,998659,0.0-5.0-0.8,,,,
,,,,,,,,,,
1980,,"{""P0_Q0"":""(Impossible)""}",survey,22,1000645,0.0-5.0-1.8,[],,,
,,,,,,,,,,
1160,TestRecordings/mepgut.wav,0,audio-button-response,23,1001810,0.0-5.0-0.9,,,,
,,,,,,,,,,
1818,,"{""P0_Q0"":""(Impossible)""}",survey,24,1003637,0.0-5.0-1.9,[],,,
,,,,,,,,,,
1375,TestRecordings/twen.wav,0,audio-button-response,25,1005019,0.0-5.0-0.10,,,,
,,,,,,,,,,
1272,,"{""P0_Q0"":""(Possible)""}",survey,26,1006300,0.0-5.0-1.10,[],,,
,,,,,,,,,,
832,TestRecordings/ndeip.wav,0,audio-button-response,27,1007138,0.0-5.0-0.11,,,,
,,,,,,,,,,
2259,,"{""P0_Q0"":""(Possible)""}",survey,28,1009404,0.0-5.0-1.11,[],,,
,,,,,,,,,,
1017,TestRecordings/stauk.wav,0,audio-button-response,29,1010427,0.0-5.0-0.12,,,,
,,,,,,,,,,
2651,,"{""P0_Q0"":""(Possible)""}",survey,30,1013086,0.0-5.0-1.12,[],,,
,,,,,,,,,,
998,TestRecordings/nangdup.wav,0,audio-button-response,31,1014090,0.0-5.0-0.13,,,,
,,,,,,,,,,
1924,,"{""P0_Q0"":""(Impossible)""}",survey,32,1016020,0.0-5.0-1.13,[],,,
,,,,,,,,,,
903,TestRecordings/pwuk.wav,0,audio-button-response,33,1016930,0.0-5.0-0.14,,,,
,,,,,,,,,,
3330,,"{""P0_Q0"":""(Possible)""}",survey,34,1020268,0.0-5.0-1.14,[],,,
,,,,,,,,,,
2039,TestRecordings/tempuk.wav,0,audio-button-response,35,1022314,0.0-5.0-0.15,,,,
,,,,,,,,,,
5700,,"{""P0_Q0"":""(Impossible)""}",survey,36,1028020,0.0-5.0-1.15,[],,,
,,,,,,,,,,
833,TestRecordings/tlik.wav,0,audio-button-response,37,1028858,0.0-5.0-0.16,,,,
,,,,,,,,,,
4307,,"{""P0_Q0"":""(Possible)""}",survey,38,1033172,0.0-5.0-1.16,[],,,
,,,,,,,,,,
2080,TestRecordings/trahm.wav,0,audio-button-response,39,1035257,0.0-5.0-0.17,,,,
,,,,,,,,,,
3996,,"{""P0_Q0"":""(Possible)""}",survey,40,1039260,0.0-5.0-1.17,[],,,
,,,,,,,,,,
958,TestRecordings/skain.wav,0,audio-button-response,41,1040225,0.0-5.0-0.18,,,,
,,,,,,,,,,
1739,,"{""P0_Q0"":""(Possible)""}",survey,42,1041971,0.0-5.0-1.18,[],,,
,,,,,,,,,,
2720,TestRecordings/trindes.wav,0,audio-button-response,43,1044697,0.0-5.0-0.19,,,,
,,,,,,,,,,
2267,,"{""P0_Q0"":""(Impossible)""}",survey,44,1046972,0.0-5.0-1.19,[],,,
,,,,,,,,,,
1216,TestRecordings/tlemkun.wav,0,audio-button-response,45,1048193,0.0-5.0-0.20,,,,
,,,,,,,,,,
2860,,"{""P0_Q0"":""(Possible)""}",survey,46,1051059,0.0-5.0-1.20,[],,,
,,,,,,,,,,
1264,TestRecordings/kutpim.wav,0,audio-button-response,47,1052328,0.0-5.0-0.21,,,,
,,,,,,,,,,
2075,,"{""P0_Q0"":""(Impossible)""}",survey,48,1054410,0.0-5.0-1.21,[],,,
,,,,,,,,,,
871,TestRecordings/giit.wav,0,audio-button-response,49,1055288,0.0-5.0-0.22,,,,
,,,,,,,,,,
1860,,"{""P0_Q0"":""(Possible)""}",survey,50,1057154,0.0-5.0-1.22,[],,,
,,,,,,,,,,
1064,TestRecordings/tep.wav,0,audio-button-response,51,1058224,0.0-5.0-0.23,,,,
,,,,,,,,,,
2380,,"{""P0_Q0"":""(Possible)""}",survey,52,1060610,0.0-5.0-1.23,[],,,
,,,,,,,,,,
1304,TestRecordings/sengdun.wav,0,audio-button-response,53,1061920,0.0-5.0-0.24,,,,
,,,,,,,,,,
2404,,"{""P0_Q0"":""(Impossible)""}",survey,54,1064331,0.0-5.0-1.24,[],,,
,,,,,,,,,,
1047,TestRecordings/tlumgak.wav,0,audio-button-response,55,1065384,0.0-5.0-0.25,,,,
,,,,,,,,,,
1717,,"{""P0_Q0"":""(Impossible)""}",survey,56,1067106,0.0-5.0-1.25,[],,,
,,,,,,,,,,
1144,TestRecordings/ningpum.wav,0,audio-button-response,57,1068256,0.0-5.0-0.26,,,,
,,,,,,,,,,
3684,,"{""P0_Q0"":""(Impossible)""}",survey,58,1071945,0.0-5.0-1.26,[],,,
,,,,,,,,,,
1271,TestRecordings/gatkun.wav,0,audio-button-response,59,1073224,0.0-5.0-0.27,,,,
,,,,,,,,,,
1747,,"{""P0_Q0"":""(Impossible)""}",survey,60,1074977,0.0-5.0-1.27,[],,,
,,,,,,,,,,
2008,TestRecordings/dloun.wav,0,audio-button-response,61,1077000,0.0-5.0-0.28,,,,
,,,,,,,,,,
2523,,"{""P0_Q0"":""(Possible)""}",survey,62,1079530,0.0-5.0-1.28,[],,,
,,,,,,,,,,
1096,TestRecordings/dmut.wav,0,audio-button-response,63,1080632,0.0-5.0-0.29,,,,
,,,,,,,,,,
1837,,"{""P0_Q0"":""(Impossible)""}",survey,64,1082473,0.0-5.0-1.29,[],,,
,,,,,,,,,,
1120,TestRecordings/dlahm.wav,0,audio-button-response,65,1083599,0.0-5.0-0.30,,,,
,,,,,,,,,,
1747,,"{""P0_Q0"":""(Impossible)""}",survey,66,1085353,0.0-5.0-1.30,[],,,
,,,,,,,,,,
1568,TestRecordings/tlasdung.wav,0,audio-button-response,67,1086927,0.0-5.0-0.31,,,,
,,,,,,,,,,
3828,,"{""P0_Q0"":""(Possible)""}",survey,68,1090761,0.0-5.0-1.31,[],,,
,,,,,,,,,,
2224,TestRecordings/tloum.wav,0,audio-button-response,69,1092991,0.0-5.0-0.32,,,,
,,,,,,,,,,
3437,,"{""P0_Q0"":""(Possible)""}",survey,70,1096433,0.0-5.0-1.32,[],,,
,,,,,,,,,,
1590,TestRecordings/pwam.wav,0,audio-button-response,71,1098030,0.0-5.0-0.33,,,,
,,,,,,,,,,
4188,,"{""P0_Q0"":""(Possible)""}",survey,72,1102225,0.0-5.0-1.33,[],,,
,,,,,,,,,,
1407,TestRecordings/pundes.wav,0,audio-button-response,73,1103639,0.0-5.0-0.34,,,,
,,,,,,,,,,
1772,,"{""P0_Q0"":""(Possible)""}",survey,74,1105416,0.0-5.0-1.34,[],,,
,,,,,,,,,,
1257,TestRecordings/kmaut.wav,0,audio-button-response,75,1106678,0.0-5.0-0.35,,,,
,,,,,,,,,,
4484,,"{""P0_Q0"":""(Possible)""}",survey,76,1111168,0.0-5.0-1.35,[],,,
,,,,,,,,,,
1102,TestRecordings/bepgik.wav,0,audio-button-response,77,1112278,0.0-5.0-0.36,,,,
,,,,,,,,,,
1868,,"{""P0_Q0"":""(Impossible)""}",survey,78,1114151,0.0-5.0-1.36,[],,,
,,,,,,,,,,
920,TestRecordings/bem.wav,0,audio-button-response,79,1115078,0.0-5.0-0.37,,,,
,,,,,,,,,,
1835,,"{""P0_Q0"":""(Impossible)""}",survey,80,1116920,0.0-5.0-1.37,[],,,
,,,,,,,,,,
1081,TestRecordings/nboup.wav,0,audio-button-response,81,1118006,0.0-5.0-0.38,,,,
,,,,,,,,,,
3500,,"{""P0_Q0"":""(Possible)""}",survey,82,1121512,0.0-5.0-1.38,[],,,
,,,,,,,,,,
1318,TestRecordings/dlemkus.wav,0,audio-button-response,83,1122838,0.0-5.0-0.39,,,,
,,,,,,,,,,
3019,,"{""P0_Q0"":""(Impossible)""}",survey,84,1125864,0.0-5.0-1.39,[],,,
,,,,,,,,,,
1120,TestRecordings/mkait.wav,0,audio-button-response,85,1126989,0.0-5.0-0.40,,,,
,,,,,,,,,,
1909,,"{""P0_Q0"":""(Possible)""}",survey,86,1128904,0.0-5.0-1.40,[],,,
,,,,,,,,,,
1087,TestRecordings/gipsus.wav,0,audio-button-response,87,1129997,0.0-5.0-0.41,,,,
,,,,,,,,,,
2451,,"{""P0_Q0"":""(Possible)""}",survey,88,1132455,0.0-5.0-1.41,[],,,
,,,,,,,,,,
1967,TestRecordings/tisbeng.wav,0,audio-button-response,89,1134429,0.0-5.0-0.42,,,,
,,,,,,,,,,
2732,,"{""P0_Q0"":""(Impossible)""}",survey,90,1137168,0.0-5.0-1.42,[],,,
,,,,,,,,,,
1183,TestRecordings/pmeit.wav,0,audio-button-response,91,1138357,0.0-5.0-0.43,,,,
,,,,,,,,,,
2933,,"{""P0_Q0"":""(Possible)""}",survey,92,1141295,0.0-5.0-1.43,[],,,
,,,,,,,,,,
1520,TestRecordings/tlem.wav,0,audio-button-response,93,1142821,0.0-5.0-0.44,,,,
,,,,,,,,,,
2012,,"{""P0_Q0"":""(Possible)""}",survey,94,1144840,0.0-5.0-1.44,[],,,
,,,,,,,,,,
1989,TestRecordings/stuun.wav,0,audio-button-response,95,1146837,0.0-5.0-0.45,,,,
,,,,,,,,,,
2061,,"{""P0_Q0"":""(Possible)""}",survey,96,1148902,0.0-5.0-1.45,[],,,
,,,,,,,,,,
1328,TestRecordings/twas.wav,0,audio-button-response,97,1150237,0.0-5.0-0.46,,,,
,,,,,,,,,,
1933,,"{""P0_Q0"":""(Possible)""}",survey,98,1152174,0.0-5.0-1.46,[],,,
,,,,,,,,,,
1192,TestRecordings/pmiik.wav,0,audio-button-response,99,1153373,0.0-5.0-0.47,,,,
,,,,,,,,,,
1572,,"{""P0_Q0"":""(Impossible)""}",survey,100,1154950,0.0-5.0-1.47,[],,,
,,,,,,,,,,
1223,TestRecordings/pemdut.wav,0,audio-button-response,101,1156180,0.0-5.0-0.48,,,,
,,,,,,,,,,
1841,,"{""P0_Q0"":""(Possible)""}",survey,102,1158030,0.0-5.0-1.48,[],,,
,,,,,,,,,,
1457,TestRecordings/drain.wav,0,audio-button-response,103,1159492,0.0-5.0-0.49,,,,
,,,,,,,,,,
2299,,"{""P0_Q0"":""(Possible)""}",survey,104,1161798,0.0-5.0-1.49,[],,,
,,,,,,,,,,
1511,TestRecordings/ntek.wav,0,audio-button-response,105,1163316,0.0-5.0-0.50,,,,
,,,,,,,,,,
2183,,"{""P0_Q0"":""(Possible)""}",survey,106,1165503,0.0-5.0-1.50,[],,,
,,,,,,,,,,
1286,TestRecordings/drikteng.wav,0,audio-button-response,107,1166796,0.0-5.0-0.51,,,,
,,,,,,,,,,
1482,,"{""P0_Q0"":""(Impossible)""}",survey,108,1168286,0.0-5.0-1.51,[],,,
,,,,,,,,,,
1177,TestRecordings/paim.wav,0,audio-button-response,109,1169468,0.0-5.0-0.52,,,,
,,,,,,,,,,
2636,,"{""P0_Q0"":""(Possible)""}",survey,110,1172110,0.0-5.0-1.52,[],,,
,,,,,,,,,,
1121,TestRecordings/tlipgat.wav,0,audio-button-response,111,1173235,0.0-5.0-0.53,,,,
,,,,,,,,,,
2156,,"{""P0_Q0"":""(Possible)""}",survey,112,1175397,0.0-5.0-1.53,[],,,
,,,,,,,,,,
832,TestRecordings/kmeip.wav,0,audio-button-response,113,1176235,0.0-5.0-0.54,,,,
,,,,,,,,,,
1652,,"{""P0_Q0"":""(Possible)""}",survey,114,1177893,0.0-5.0-1.54,[],,,
,,,,,,,,,,
1040,TestRecordings/drustet.wav,0,audio-button-response,115,1178939,0.0-5.0-0.55,,,,
,,,,,,,,,,
2019,,"{""P0_Q0"":""(Possible)""}",survey,116,1180965,0.0-5.0-1.55,[],,,
,,,,,,,,,,
1168,TestRecordings/drakpum.wav,0,audio-button-response,117,1182139,0.0-5.0-0.56,,,,
,,,,,,,,,,
1188,,"{""P0_Q0"":""(Possible)""}",survey,118,1183333,0.0-5.0-1.56,[],,,
,,,,,,,,,,
1144,TestRecordings/tlepgim.wav,0,audio-button-response,119,1184483,0.0-5.0-0.57,,,,
,,,,,,,,,,
2171,,"{""P0_Q0"":""(Possible)""}",survey,120,1186661,0.0-5.0-1.57,[],,,
,,,,,,,,,,
977,TestRecordings/drantung.wav,0,audio-button-response,121,1187643,0.0-5.0-0.58,,,,
,,,,,,,,,,
1453,,"{""P0_Q0"":""(Possible)""}",survey,122,1189102,0.0-5.0-1.58,[],,,
,,,,,,,,,,
813,TestRecordings/mgit.wav,0,audio-button-response,123,1189923,0.0-5.0-0.59,,,,
,,,,,,,,,,
1325,,"{""P0_Q0"":""(Impossible)""}",survey,124,1191253,0.0-5.0-1.59,[],,,
,,,,,,,,,,
3854,, ,html-keyboard-response,125,1195108,0.0-6.0,,,,
,,,,,,,,,,
125034,,"{""P0_Q0"":""20 years old "",""P0_Q1"":""female"",""P0_Q2"":""yes"",""P0_Q3"":""I know some spanish I am not fluent "",""P0_Q4"":""started learning spanish at age 5 for about 10 years"",""P0_Q5"":""It is challenging learning another language""}",survey,126,1320154,0.0-7.0,[],,,
,,,,,,,,,,
1380,"<p style=""font-size:30px"">The experiment has ended</p><p style=""font-size:30px"",lang=""ko"">Thanks for participating in it!</p>", ,html-keyboard-response,127,1321534,0.0-8.0,,,,