rt,stimulus,response,trial_type,trial_index,time_elapsed,internal_node_id,accuracy,PracticeTest,ConsonantSequence,Grammaticality
,,,,,,,,,,
1133610,"<p style=""font-size:30px"">Welcome to the experiment</p><p>Press spacebar to continue</p>", ,html-keyboard-response,0,1133583,0.0-0.0,,,,
,,,,,,,,,,
1750,"<p style=""font-size:30px"">Please ensure that your headphones are on correctly</p><p>Press spacebar to continue</p>", ,html-keyboard-response,1,1135334,0.0-1.0,,,,
,,,,,,,,,,
4455,"<p style=""font-size:30px"">In this experiment, you will listen to nonsense words</p><p style=""font-size:30px"",lang=""ko"">Your task is to rate the nonsense word you heard as a possible word of American English</p><p>Press spacebar to continue</p>", ,html-keyboard-response,2,1139790,0.0-2.0,,,,
,,,,,,,,,,
1831,, ,html-keyboard-response,3,1141622,0.0-3.0,,,,
,,,,,,,,,,
3231,"<p style=""font-size:30px"">Now let's move on to the actual experiment.</p><p style=""font-size:30px"",lang=""ko"">During the experiment, you will hear each of the nonce words only once.</p><p>Press spacebar to continue</p>", ,html-keyboard-response,4,1144854,0.0-4.0,,,,
,,,,,,,,,,
4136,TestRecordings/ndeip.wav,0,audio-button-response,5,1148997,0.0-5.0-0.0,,,,
,,,,,,,,,,
3565,,"{""P0_Q0"":""(Possible)""}",survey,6,1152602,0.0-5.0-1.0,[],,,
,,,,,,,,,,
4103,TestRecordings/tempuk.wav,0,audio-button-response,7,1156708,0.0-5.0-0.1,,,,
,,,,,,,,,,
2222,,"{""P0_Q0"":""(Possible)""}",survey,8,1158944,0.0-5.0-1.1,[],,,
,,,,,,,,,,
1783,TestRecordings/tep.wav,0,audio-button-response,9,1160732,0.0-5.0-0.2,,,,
,,,,,,,,,,
1281,,"{""P0_Q0"":""(Possible)""}",survey,10,1162024,0.0-5.0-1.2,[],,,
,,,,,,,,,,
2702,TestRecordings/mgit.wav,0,audio-button-response,11,1164732,0.0-5.0-0.3,,,,
,,,,,,,,,,
1307,,"{""P0_Q0"":""(Impossible)""}",survey,12,1166048,0.0-5.0-1.3,[],,,
,,,,,,,,,,
2046,TestRecordings/tlepgim.wav,0,audio-button-response,13,1168100,0.0-5.0-0.4,,,,
,,,,,,,,,,
1379,,"{""P0_Q0"":""(Impossible)""}",survey,14,1169487,0.0-5.0-1.4,[],,,
,,,,,,,,,,
2808,TestRecordings/kmaut.wav,0,audio-button-response,15,1172300,0.0-5.0-0.5,,,,
,,,,,,,,,,
1115,,"{""P0_Q0"":""(Impossible)""}",survey,16,1173423,0.0-5.0-1.5,[],,,
,,,,,,,,,,
1678,TestRecordings/pmiik.wav,0,audio-button-response,17,1175107,0.0-5.0-0.6,,,,
,,,,,,,,,,
1035,,"{""P0_Q0"":""(Impossible)""}",survey,18,1176151,0.0-5.0-1.6,[],,,
,,,,,,,,,,
1944,TestRecordings/drikteng.wav,0,audio-button-response,19,1178100,0.0-5.0-0.7,,,,
,,,,,,,,,,
1130,,"{""P0_Q0"":""(Impossible)""}",survey,20,1179238,0.0-5.0-1.7,[],,,
,,,,,,,,,,
1974,TestRecordings/dmut.wav,0,audio-button-response,21,1181219,0.0-5.0-0.8,,,,
,,,,,,,,,,
1972,,"{""P0_Q0"":""(Impossible)""}",survey,22,1183199,0.0-5.0-1.8,[],,,
,,,,,,,,,,
1225,TestRecordings/drantung.wav,0,audio-button-response,23,1184427,0.0-5.0-0.9,,,,
,,,,,,,,,,
1363,,"{""P0_Q0"":""(Possible)""}",survey,24,1185798,0.0-5.0-1.9,[],,,
,,,,,,,,,,
2400,TestRecordings/gatkun.wav,0,audio-button-response,25,1188203,0.0-5.0-0.10,,,,
,,,,,,,,,,
2874,,"{""P0_Q0"":""(Impossible)""}",survey,26,1191086,0.0-5.0-1.10,[],,,
,,,,,,,,,,
1724,TestRecordings/tlem.wav,0,audio-button-response,27,1192819,0.0-5.0-0.11,,,,
,,,,,,,,,,
1219,,"{""P0_Q0"":""(Possible)""}",survey,28,1194045,0.0-5.0-1.11,[],,,
,,,,,,,,,,
1416,TestRecordings/skain.wav,0,audio-button-response,29,1195467,0.0-5.0-0.12,,,,
,,,,,,,,,,
1316,,"{""P0_Q0"":""(Possible)""}",survey,30,1196789,0.0-5.0-1.12,[],,,
,,,,,,,,,,
1488,TestRecordings/punseng.wav,0,audio-button-response,31,1198282,0.0-5.0-0.13,,,,
,,,,,,,,,,
1147,,"{""P0_Q0"":""(Impossible)""}",survey,32,1199437,0.0-5.0-1.13,[],,,
,,,,,,,,,,
1393,TestRecordings/dlisbep.wav,0,audio-button-response,33,1200834,0.0-5.0-0.14,,,,
,,,,,,,,,,
1693,,"{""P0_Q0"":""(Impossible)""}",survey,34,1202532,0.0-5.0-1.14,[],,,
,,,,,,,,,,
1289,TestRecordings/tlumgak.wav,0,audio-button-response,35,1203826,0.0-5.0-0.15,,,,
,,,,,,,,,,
1348,,"{""P0_Q0"":""(Impossible)""}",survey,36,1205180,0.0-5.0-1.15,[],,,
,,,,,,,,,,
1249,TestRecordings/nboup.wav,0,audio-button-response,37,1206434,0.0-5.0-0.16,,,,
,,,,,,,,,,
1420,,"{""P0_Q0"":""(Possible)""}",survey,38,1207860,0.0-5.0-1.16,[],,,
,,,,,,,,,,
1473,TestRecordings/twas.wav,0,audio-button-response,39,1209338,0.0-5.0-0.17,,,,
,,,,,,,,,,
1586,,"{""P0_Q0"":""(Possible)""}",survey,40,1210932,0.0-5.0-1.17,[],,,
,,,,,,,,,,
1441,TestRecordings/nangdup.wav,0,audio-button-response,41,1212377,0.0-5.0-0.18,,,,
,,,,,,,,,,
1276,,"{""P0_Q0"":""(Possible)""}",survey,42,1213660,0.0-5.0-1.18,[],,,
,,,,,,,,,,
1665,TestRecordings/bem.wav,0,audio-button-response,43,1215330,0.0-5.0-0.19,,,,
,,,,,,,,,,
2356,,"{""P0_Q0"":""(Impossible)""}",survey,44,1217692,0.0-5.0-1.19,[],,,
,,,,,,,,,,
1608,TestRecordings/gup.wav,0,audio-button-response,45,1219306,0.0-5.0-0.20,,,,
,,,,,,,,,,
1556,,"{""P0_Q0"":""(Possible)""}",survey,46,1220868,0.0-5.0-1.20,[],,,
,,,,,,,,,,
1902,TestRecordings/pmeit.wav,0,audio-button-response,47,1222777,0.0-5.0-0.21,,,,
,,,,,,,,,,
2828,,"{""P0_Q0"":""(Impossible)""}",survey,48,1225611,0.0-5.0-1.21,[],,,
,,,,,,,,,,
1441,TestRecordings/ntek.wav,0,audio-button-response,49,1227057,0.0-5.0-0.22,,,,
,,,,,,,,,,
2516,,"{""P0_Q0"":""(Possible)""}",survey,50,1229580,0.0-5.0-1.22,[],,,
,,,,,,,,,,
1384,TestRecordings/gipsus.wav,0,audio-button-response,51,1230968,0.0-5.0-0.23,,,,
,,,,,,,,,,
1420,,"{""P0_Q0"":""(Possible)""}",survey,52,1232395,0.0-5.0-1.23,[],,,
,,,,,,,,,,
1335,TestRecordings/drumbeng.wav,0,audio-button-response,53,1233736,0.0-5.0-0.24,,,,
,,,,,,,,,,
1196,,"{""P0_Q0"":""(Possible)""}",survey,54,1234939,0.0-5.0-1.24,[],,,
,,,,,,,,,,
1009,TestRecordings/pwam.wav,0,audio-button-response,55,1235952,0.0-5.0-0.25,,,,
,,,,,,,,,,
2107,,"{""P0_Q0"":""(Possible)""}",survey,56,1238067,0.0-5.0-1.25,[],,,
,,,,,,,,,,
2040,TestRecordings/kmeip.wav,0,audio-button-response,57,1240113,0.0-5.0-0.26,,,,
,,,,,,,,,,
1893,,"{""P0_Q0"":""(Impossible)""}",survey,58,1242011,0.0-5.0-1.26,[],,,
,,,,,,,,,,
2448,TestRecordings/gitpes.wav,0,audio-button-response,59,1244464,0.0-5.0-0.27,,,,
,,,,,,,,,,
1277,,"{""P0_Q0"":""(Possible)""}",survey,60,1245747,0.0-5.0-1.27,[],,,
,,,,,,,,,,
1248,TestRecordings/drain.wav,0,audio-button-response,61,1247000,0.0-5.0-0.28,,,,
,,,,,,,,,,
1380,,"{""P0_Q0"":""(Possible)""}",survey,62,1248386,0.0-5.0-1.28,[],,,
,,,,,,,,,,
1193,TestRecordings/stuun.wav,0,audio-button-response,63,1249584,0.0-5.0-0.29,,,,
,,,,,,,,,,
1228,,"{""P0_Q0"":""(Possible)""}",survey,64,1250819,0.0-5.0-1.29,[],,,
,,,,,,,,,,
1648,TestRecordings/tlasdung.wav,0,audio-button-response,65,1252472,0.0-5.0-0.30,,,,
,,,,,,,,,,
2798,,"{""P0_Q0"":""(Possible)""}",survey,66,1255275,0.0-5.0-1.30,[],,,
,,,,,,,,,,
1505,TestRecordings/nutbim.wav,0,audio-button-response,67,1256784,0.0-5.0-0.31,,,,
,,,,,,,,,,
1028,,"{""P0_Q0"":""(Impossible)""}",survey,68,1257817,0.0-5.0-1.31,[],,,
,,,,,,,,,,
1210,TestRecordings/mepgut.wav,0,audio-button-response,69,1259032,0.0-5.0-0.32,,,,
,,,,,,,,,,
1108,,"{""P0_Q0"":""(Impossible)""}",survey,70,1260146,0.0-5.0-1.32,[],,,
,,,,,,,,,,
1505,TestRecordings/ningpum.wav,0,audio-button-response,71,1261656,0.0-5.0-0.33,,,,
,,,,,,,,,,
1947,,"{""P0_Q0"":""(Impossible)""}",survey,72,1263610,0.0-5.0-1.33,[],,,
,,,,,,,,,,
1289,TestRecordings/tlemkun.wav,0,audio-button-response,73,1264903,0.0-5.0-0.34,,,,
,,,,,,,,,,
1588,,"{""P0_Q0"":""(Impossible)""}",survey,74,1266497,0.0-5.0-1.34,[],,,
,,,,,,,,,,
1679,TestRecordings/paim.wav,0,audio-button-response,75,1268183,0.0-5.0-0.35,,,,
,,,,,,,,,,
1380,,"{""P0_Q0"":""(Possible)""}",survey,76,1269569,0.0-5.0-1.35,[],,,
,,,,,,,,,,
1040,TestRecordings/bepgik.wav,0,audio-button-response,77,1270616,0.0-5.0-0.36,,,,
,,,,,,,,,,
1156,,"{""P0_Q0"":""(Impossible)""}",survey,78,1271777,0.0-5.0-1.36,[],,,
,,,,,,,,,,
1128,TestRecordings/stahm.wav,0,audio-button-response,79,1272911,0.0-5.0-0.37,,,,
,,,,,,,,,,
1364,,"{""P0_Q0"":""(Possible)""}",survey,80,1274281,0.0-5.0-1.37,[],,,
,,,,,,,,,,
952,TestRecordings/pemdut.wav,0,audio-button-response,81,1275239,0.0-5.0-0.38,,,,
,,,,,,,,,,
1181,,"{""P0_Q0"":""(Impossible)""}",survey,82,1276425,0.0-5.0-1.38,[],,,
,,,,,,,,,,
1047,TestRecordings/dlemkus.wav,0,audio-button-response,83,1277479,0.0-5.0-0.39,,,,
,,,,,,,,,,
1098,,"{""P0_Q0"":""(Impossible)""}",survey,84,1278585,0.0-5.0-1.39,[],,,
,,,,,,,,,,
1170,TestRecordings/drakpum.wav,0,audio-button-response,85,1279759,0.0-5.0-0.40,,,,
,,,,,,,,,,
1883,,"{""P0_Q0"":""(Possible)""}",survey,86,1281649,0.0-5.0-1.40,[],,,
,,,,,,,,,,
1033,TestRecordings/gistum.wav,0,audio-button-response,87,1282687,0.0-5.0-0.41,,,,
,,,,,,,,,,
1315,,"{""P0_Q0"":""(Possible)""}",survey,88,1284009,0.0-5.0-1.41,[],,,
,,,,,,,,,,
1138,TestRecordings/pundes.wav,0,audio-button-response,89,1285151,0.0-5.0-0.42,,,,
,,,,,,,,,,
1323,,"{""P0_Q0"":""(Impossible)""}",survey,90,1286481,0.0-5.0-1.42,[],,,
,,,,,,,,,,
1082,TestRecordings/dloun.wav,0,audio-button-response,91,1287566,0.0-5.0-0.43,,,,
,,,,,,,,,,
1244,,"{""P0_Q0"":""(Possible)""}",survey,92,1288816,0.0-5.0-1.43,[],,,
,,,,,,,,,,
920,TestRecordings/pwuk.wav,0,audio-button-response,93,1289743,0.0-5.0-0.44,,,,
,,,,,,,,,,
1252,,"{""P0_Q0"":""(Possible)""}",survey,94,1291000,0.0-5.0-1.44,[],,,
,,,,,,,,,,
920,TestRecordings/dlahm.wav,0,audio-button-response,95,1291927,0.0-5.0-0.45,,,,
,,,,,,,,,,
1243,,"{""P0_Q0"":""(Possible)""}",survey,96,1293176,0.0-5.0-1.45,[],,,
,,,,,,,,,,
1023,TestRecordings/tisbeng.wav,0,audio-button-response,97,1294206,0.0-5.0-0.46,,,,
,,,,,,,,,,
1283,,"{""P0_Q0"":""(Impossible)""}",survey,98,1295496,0.0-5.0-1.46,[],,,
,,,,,,,,,,
896,TestRecordings/stauk.wav,0,audio-button-response,99,1296398,0.0-5.0-0.47,,,,
,,,,,,,,,,
1508,,"{""P0_Q0"":""(Possible)""}",survey,100,1297912,0.0-5.0-1.47,[],,,
,,,,,,,,,,
1025,TestRecordings/giit.wav,0,audio-button-response,101,1298942,0.0-5.0-0.48,,,,
,,,,,,,,,,
1420,,"{""P0_Q0"":""(Possible)""}",survey,102,1300368,0.0-5.0-1.48,[],,,
,,,,,,,,,,
1153,TestRecordings/suntem.wav,0,audio-button-response,103,1301526,0.0-5.0-0.49,,,,
,,,,,,,,,,
2731,,"{""P0_Q0"":""(Impossible)""}",survey,104,1304264,0.0-5.0-1.49,[],,,
,,,,,,,,,,
1233,TestRecordings/drustet.wav,0,audio-button-response,105,1305501,0.0-5.0-0.50,,,,
,,,,,,,,,,
1580,,"{""P0_Q0"":""(Possible)""}",survey,106,1307088,0.0-5.0-1.50,[],,,
,,,,,,,,,,
1321,TestRecordings/tlik.wav,0,audio-button-response,107,1308414,0.0-5.0-0.51,,,,
,,,,,,,,,,
1221,,"{""P0_Q0"":""(Possible)""}",survey,108,1309640,0.0-5.0-1.51,[],,,
,,,,,,,,,,
1530,TestRecordings/mkait.wav,0,audio-button-response,109,1311174,0.0-5.0-0.52,,,,
,,,,,,,,,,
7051,,"{""P0_Q0"":""(Impossible)""}",survey,110,1318231,0.0-5.0-1.52,[],,,
,,,,,,,,,,
1481,TestRecordings/kutpim.wav,0,audio-button-response,111,1319717,0.0-5.0-0.53,,,,
,,,,,,,,,,
3635,,"{""P0_Q0"":""(Possible)""}",survey,112,1323359,0.0-5.0-1.53,[],,,
,,,,,,,,,,
1647,TestRecordings/trahm.wav,0,audio-button-response,113,1325012,0.0-5.0-0.54,,,,
,,,,,,,,,,
1188,,"{""P0_Q0"":""(Possible)""}",survey,114,1326206,0.0-5.0-1.54,[],,,
,,,,,,,,,,
1257,TestRecordings/tloum.wav,0,audio-button-response,115,1327468,0.0-5.0-0.55,,,,
,,,,,,,,,,
2380,,"{""P0_Q0"":""(Possible)""}",survey,116,1329855,0.0-5.0-1.55,[],,,
,,,,,,,,,,
1280,TestRecordings/tlipgat.wav,0,audio-button-response,117,1331140,0.0-5.0-0.56,,,,
,,,,,,,,,,
1138,,"{""P0_Q0"":""(Impossible)""}",survey,118,1332286,0.0-5.0-1.56,[],,,
,,,,,,,,,,
1432,TestRecordings/trindes.wav,0,audio-button-response,119,1333725,0.0-5.0-0.57,,,,
,,,,,,,,,,
1461,,"{""P0_Q0"":""(Possible)""}",survey,120,1335191,0.0-5.0-1.57,[],,,
,,,,,,,,,,
1065,TestRecordings/twen.wav,0,audio-button-response,121,1336261,0.0-5.0-0.58,,,,
,,,,,,,,,,
1460,,"{""P0_Q0"":""(Possible)""}",survey,122,1337726,0.0-5.0-1.58,[],,,
,,,,,,,,,,
1528,TestRecordings/sengdun.wav,0,audio-button-response,123,1339260,0.0-5.0-0.59,,,,
,,,,,,,,,,
1197,,"{""P0_Q0"":""(Possible)""}",survey,124,1340462,0.0-5.0-1.59,[],,,
,,,,,,,,,,
3214,, ,html-keyboard-response,125,1343677,0.0-6.0,,,,
,,,,,,,,,,
68748,,"{""P0_Q0"":""20"",""P0_Q1"":""Males"",""P0_Q2"":""Yes"",""P0_Q3"":""Mandarin Chinese"",""P0_Q4"":""I have been learning chinese since i was five years old."",""P0_Q5"":""I have been taking chinese classes since kindergarten, and have taken college level courses since freshmen year of highschool.""}",survey,126,1412439,0.0-7.0,[],,,
,,,,,,,,,,
44410,"<p style=""font-size:30px"">The experiment has ended</p><p style=""font-size:30px"",lang=""ko"">Thanks for participating in it!</p>", ,html-keyboard-response,127,1456849,0.0-8.0,,,,