rt,stimulus,response,trial_type,trial_index,time_elapsed,internal_node_id,accuracy,PracticeTest,ConsonantSequence,Grammaticality
,,,,,,,,,,
4122249,"<p style=""font-size:30px"">Welcome to the experiment</p><p>Press spacebar to continue</p>", ,html-keyboard-response,0,4122064,0.0-0.0,,,,
,,,,,,,,,,
2615,"<p style=""font-size:30px"">Please ensure that your headphones are on correctly</p><p>Press spacebar to continue</p>", ,html-keyboard-response,1,4124679,0.0-1.0,,,,
,,,,,,,,,,
4830,"<p style=""font-size:30px"">In this experiment, you will listen to nonsense words</p><p style=""font-size:30px"",lang=""ko"">Your task is to rate the nonsense word you heard as a possible word of American English</p><p>Press spacebar to continue</p>", ,html-keyboard-response,2,4129510,0.0-2.0,,,,
,,,,,,,,,,
1392,, ,html-keyboard-response,3,4130902,0.0-3.0,,,,
,,,,,,,,,,
10928,"<p style=""font-size:30px"">Now let's move on to the actual experiment.</p><p style=""font-size:30px"",lang=""ko"">During the experiment, you will hear each of the nonce words only once.</p><p>Press spacebar to continue</p>", ,html-keyboard-response,4,4141831,0.0-4.0,,,,
,,,,,,,,,,
3686,TestRecordings/paim.wav,0,audio-button-response,5,4145525,0.0-5.0-0.0,,,,
,,,,,,,,,,
10542,,"{""P0_Q0"":""(Impossible)""}",survey,6,4156106,0.0-5.0-1.0,[],,,
,,,,,,,,,,
4459,TestRecordings/tlasdung.wav,0,audio-button-response,7,4160572,0.0-5.0-0.1,,,,
,,,,,,,,,,
3231,,"{""P0_Q0"":""(Impossible)""}",survey,8,4163815,0.0-5.0-1.1,[],,,
,,,,,,,,,,
2246,TestRecordings/giit.wav,0,audio-button-response,9,4166068,0.0-5.0-0.2,,,,
,,,,,,,,,,
1768,,"{""P0_Q0"":""(Possible)""}",survey,10,4167848,0.0-5.0-1.2,[],,,
,,,,,,,,,,
2214,TestRecordings/pmiik.wav,0,audio-button-response,11,4170067,0.0-5.0-0.3,,,,
,,,,,,,,,,
1953,,"{""P0_Q0"":""(Possible)""}",survey,12,4172031,0.0-5.0-1.3,[],,,
,,,,,,,,,,
2543,TestRecordings/stuun.wav,0,audio-button-response,13,4174580,0.0-5.0-0.4,,,,
,,,,,,,,,,
1268,,"{""P0_Q0"":""(Impossible)""}",survey,14,4175856,0.0-5.0-1.4,[],,,
,,,,,,,,,,
4398,TestRecordings/tlik.wav,0,audio-button-response,15,4180259,0.0-5.0-0.5,,,,
,,,,,,,,,,
1641,,"{""P0_Q0"":""(Possible)""}",survey,16,4181910,0.0-5.0-1.5,[],,,
,,,,,,,,,,
1528,TestRecordings/kmaut.wav,0,audio-button-response,17,4183443,0.0-5.0-0.6,,,,
,,,,,,,,,,
1042,,"{""P0_Q0"":""(Impossible)""}",survey,18,4184494,0.0-5.0-1.6,[],,,
,,,,,,,,,,
1496,TestRecordings/nangdup.wav,0,audio-button-response,19,4185995,0.0-5.0-0.7,,,,
,,,,,,,,,,
1586,,"{""P0_Q0"":""(Impossible)""}",survey,20,4187590,0.0-5.0-1.7,[],,,
,,,,,,,,,,
1272,TestRecordings/kutpim.wav,0,audio-button-response,21,4188867,0.0-5.0-0.8,,,,
,,,,,,,,,,
1075,,"{""P0_Q0"":""(Impossible)""}",survey,22,4189949,0.0-5.0-1.8,[],,,
,,,,,,,,,,
2200,TestRecordings/drustet.wav,0,audio-button-response,23,4192154,0.0-5.0-0.9,,,,
,,,,,,,,,,
1460,,"{""P0_Q0"":""(Impossible)""}",survey,24,4193621,0.0-5.0-1.9,[],,,
,,,,,,,,,,
1584,TestRecordings/drakpum.wav,0,audio-button-response,25,4195210,0.0-5.0-0.10,,,,
,,,,,,,,,,
1282,,"{""P0_Q0"":""(Impossible)""}",survey,26,4196501,0.0-5.0-1.10,[],,,
,,,,,,,,,,
1944,TestRecordings/tlemkun.wav,0,audio-button-response,27,4198450,0.0-5.0-0.11,,,,
,,,,,,,,,,
955,,"{""P0_Q0"":""(Impossible)""}",survey,28,4199412,0.0-5.0-1.11,[],,,
,,,,,,,,,,
1176,TestRecordings/ningpum.wav,0,audio-button-response,29,4200594,0.0-5.0-0.12,,,,
,,,,,,,,,,
1356,,"{""P0_Q0"":""(Impossible)""}",survey,30,4201957,0.0-5.0-1.12,[],,,
,,,,,,,,,,
1720,TestRecordings/mepgut.wav,0,audio-button-response,31,4203683,0.0-5.0-0.13,,,,
,,,,,,,,,,
1421,,"{""P0_Q0"":""(Impossible)""}",survey,32,4205108,0.0-5.0-1.13,[],,,
,,,,,,,,,,
1224,TestRecordings/tempuk.wav,0,audio-button-response,33,4206338,0.0-5.0-0.14,,,,
,,,,,,,,,,
1629,,"{""P0_Q0"":""(Impossible)""}",survey,34,4207973,0.0-5.0-1.14,[],,,
,,,,,,,,,,
1176,TestRecordings/gistum.wav,0,audio-button-response,35,4209154,0.0-5.0-0.15,,,,
,,,,,,,,,,
1133,,"{""P0_Q0"":""(Impossible)""}",survey,36,4210292,0.0-5.0-1.15,[],,,
,,,,,,,,,,
1625,TestRecordings/trindes.wav,0,audio-button-response,37,4211922,0.0-5.0-0.16,,,,
,,,,,,,,,,
1243,,"{""P0_Q0"":""(Impossible)""}",survey,38,4213172,0.0-5.0-1.16,[],,,
,,,,,,,,,,
1303,TestRecordings/stahm.wav,0,audio-button-response,39,4214481,0.0-5.0-0.17,,,,
,,,,,,,,,,
2253,,"{""P0_Q0"":""(Impossible)""}",survey,40,4216740,0.0-5.0-1.17,[],,,
,,,,,,,,,,
1080,TestRecordings/skain.wav,0,audio-button-response,41,4217826,0.0-5.0-0.18,,,,
,,,,,,,,,,
1228,,"{""P0_Q0"":""(Impossible)""}",survey,42,4219059,0.0-5.0-1.18,[],,,
,,,,,,,,,,
1416,TestRecordings/pmeit.wav,0,audio-button-response,43,4220481,0.0-5.0-0.19,,,,
,,,,,,,,,,
4516,,"{""P0_Q0"":""(Impossible)""}",survey,44,4225004,0.0-5.0-1.19,[],,,
,,,,,,,,,,
1089,TestRecordings/tlem.wav,0,audio-button-response,45,4226098,0.0-5.0-0.20,,,,
,,,,,,,,,,
1515,,"{""P0_Q0"":""(Possible)""}",survey,46,4227619,0.0-5.0-1.20,[],,,
,,,,,,,,,,
1223,TestRecordings/tep.wav,0,audio-button-response,47,4228848,0.0-5.0-0.21,,,,
,,,,,,,,,,
2037,,"{""P0_Q0"":""(Possible)""}",survey,48,4230891,0.0-5.0-1.21,[],,,
,,,,,,,,,,
1352,TestRecordings/sengdun.wav,0,audio-button-response,49,4232248,0.0-5.0-0.22,,,,
,,,,,,,,,,
868,,"{""P0_Q0"":""(Impossible)""}",survey,50,4233123,0.0-5.0-1.22,[],,,
,,,,,,,,,,
1754,TestRecordings/pwam.wav,0,audio-button-response,51,4234881,0.0-5.0-0.23,,,,
,,,,,,,,,,
956,,"{""P0_Q0"":""(Impossible)""}",survey,52,4235843,0.0-5.0-1.23,[],,,
,,,,,,,,,,
912,TestRecordings/dmut.wav,0,audio-button-response,53,4236761,0.0-5.0-0.24,,,,
,,,,,,,,,,
2532,,"{""P0_Q0"":""(Impossible)""}",survey,54,4239299,0.0-5.0-1.24,[],,,
,,,,,,,,,,
1054,TestRecordings/gup.wav,0,audio-button-response,55,4240360,0.0-5.0-0.25,,,,
,,,,,,,,,,
1700,,"{""P0_Q0"":""(Impossible)""}",survey,56,4242067,0.0-5.0-1.25,[],,,
,,,,,,,,,,
2345,TestRecordings/tlepgim.wav,0,audio-button-response,57,4244416,0.0-5.0-0.26,,,,
,,,,,,,,,,
1909,,"{""P0_Q0"":""(Impossible)""}",survey,58,4246331,0.0-5.0-1.26,[],,,
,,,,,,,,,,
2224,TestRecordings/nboup.wav,0,audio-button-response,59,4248561,0.0-5.0-0.27,,,,
,,,,,,,,,,
1907,,"{""P0_Q0"":""(Impossible)""}",survey,60,4250474,0.0-5.0-1.27,[],,,
,,,,,,,,,,
1145,TestRecordings/drantung.wav,0,audio-button-response,61,4251623,0.0-5.0-0.28,,,,
,,,,,,,,,,
1085,,"{""P0_Q0"":""(Impossible)""}",survey,62,4252714,0.0-5.0-1.28,[],,,
,,,,,,,,,,
1535,TestRecordings/tlumgak.wav,0,audio-button-response,63,4254256,0.0-5.0-0.29,,,,
,,,,,,,,,,
1021,,"{""P0_Q0"":""(Impossible)""}",survey,64,4255282,0.0-5.0-1.29,[],,,
,,,,,,,,,,
1475,TestRecordings/trahm.wav,0,audio-button-response,65,4256768,0.0-5.0-0.30,,,,
,,,,,,,,,,
1211,,"{""P0_Q0"":""(Impossible)""}",survey,66,4257985,0.0-5.0-1.30,[],,,
,,,,,,,,,,
1374,TestRecordings/ntek.wav,0,audio-button-response,67,4259368,0.0-5.0-0.31,,,,
,,,,,,,,,,
2789,,"{""P0_Q0"":""(Impossible)""}",survey,68,4262162,0.0-5.0-1.31,[],,,
,,,,,,,,,,
1121,TestRecordings/pwuk.wav,0,audio-button-response,69,4263288,0.0-5.0-0.32,,,,
,,,,,,,,,,
4067,,"{""P0_Q0"":""(Possible)""}",survey,70,4267361,0.0-5.0-1.32,[],,,
,,,,,,,,,,
1254,TestRecordings/gitpes.wav,0,audio-button-response,71,4268623,0.0-5.0-0.33,,,,
,,,,,,,,,,
956,,"{""P0_Q0"":""(Impossible)""}",survey,72,4269586,0.0-5.0-1.33,[],,,
,,,,,,,,,,
1136,TestRecordings/kmeip.wav,0,audio-button-response,73,4270727,0.0-5.0-0.34,,,,
,,,,,,,,,,
1091,,"{""P0_Q0"":""(Impossible)""}",survey,74,4271825,0.0-5.0-1.34,[],,,
,,,,,,,,,,
1512,TestRecordings/suntem.wav,0,audio-button-response,75,4273342,0.0-5.0-0.35,,,,
,,,,,,,,,,
1163,,"{""P0_Q0"":""(Impossible)""}",survey,76,4274513,0.0-5.0-1.35,[],,,
,,,,,,,,,,
1017,TestRecordings/ndeip.wav,0,audio-button-response,77,4275535,0.0-5.0-0.36,,,,
,,,,,,,,,,
1987,,"{""P0_Q0"":""(Impossible)""}",survey,78,4277529,0.0-5.0-1.36,[],,,
,,,,,,,,,,
1017,TestRecordings/drain.wav,0,audio-button-response,79,4278551,0.0-5.0-0.37,,,,
,,,,,,,,,,
1812,,"{""P0_Q0"":""(Possible)""}",survey,80,4280368,0.0-5.0-1.37,[],,,
,,,,,,,,,,
817,TestRecordings/nutbim.wav,0,audio-button-response,81,4281191,0.0-5.0-0.38,,,,
,,,,,,,,,,
2034,,"{""P0_Q0"":""(Impossible)""}",survey,82,4283233,0.0-5.0-1.38,[],,,
,,,,,,,,,,
1177,TestRecordings/tisbeng.wav,0,audio-button-response,83,4284414,0.0-5.0-0.39,,,,
,,,,,,,,,,
1269,,"{""P0_Q0"":""(Impossible)""}",survey,84,4285688,0.0-5.0-1.39,[],,,
,,,,,,,,,,
1041,TestRecordings/pemdut.wav,0,audio-button-response,85,4286734,0.0-5.0-0.40,,,,
,,,,,,,,,,
1011,,"{""P0_Q0"":""(Impossible)""}",survey,86,4287752,0.0-5.0-1.40,[],,,
,,,,,,,,,,
872,TestRecordings/drumbeng.wav,0,audio-button-response,87,4288630,0.0-5.0-0.41,,,,
,,,,,,,,,,
1025,,"{""P0_Q0"":""(Impossible)""}",survey,88,4289664,0.0-5.0-1.41,[],,,
,,,,,,,,,,
922,TestRecordings/punseng.wav,0,audio-button-response,89,4290590,0.0-5.0-0.42,,,,
,,,,,,,,,,
1021,,"{""P0_Q0"":""(Impossible)""}",survey,90,4291616,0.0-5.0-1.42,[],,,
,,,,,,,,,,
1041,TestRecordings/bem.wav,0,audio-button-response,91,4292662,0.0-5.0-0.43,,,,
,,,,,,,,,,
2588,,"{""P0_Q0"":""(Possible)""}",survey,92,4295256,0.0-5.0-1.43,[],,,
,,,,,,,,,,
3313,TestRecordings/mkait.wav,0,audio-button-response,93,4298574,0.0-5.0-0.44,,,,
,,,,,,,,,,
1132,,"{""P0_Q0"":""(Possible)""}",survey,94,4299712,0.0-5.0-1.44,[],,,
,,,,,,,,,,
856,TestRecordings/tloum.wav,0,audio-button-response,95,4300574,0.0-5.0-0.45,,,,
,,,,,,,,,,
917,,"{""P0_Q0"":""(Impossible)""}",survey,96,4301496,0.0-5.0-1.45,[],,,
,,,,,,,,,,
1193,TestRecordings/bepgik.wav,0,audio-button-response,97,4302694,0.0-5.0-0.46,,,,
,,,,,,,,,,
1532,,"{""P0_Q0"":""(Impossible)""}",survey,98,4304232,0.0-5.0-1.46,[],,,
,,,,,,,,,,
938,TestRecordings/dlisbep.wav,0,audio-button-response,99,4305174,0.0-5.0-0.47,,,,
,,,,,,,,,,
973,,"{""P0_Q0"":""(Impossible)""}",survey,100,4306152,0.0-5.0-1.47,[],,,
,,,,,,,,,,
704,TestRecordings/dlemkus.wav,0,audio-button-response,101,4306861,0.0-5.0-0.48,,,,
,,,,,,,,,,
925,,"{""P0_Q0"":""(Impossible)""}",survey,102,4307791,0.0-5.0-1.48,[],,,
,,,,,,,,,,
809,TestRecordings/dloun.wav,0,audio-button-response,103,4308605,0.0-5.0-0.49,,,,
,,,,,,,,,,
4730,,"{""P0_Q0"":""(Possible)""}",survey,104,4313343,0.0-5.0-1.49,[],,,
,,,,,,,,,,
958,TestRecordings/gatkun.wav,0,audio-button-response,105,4314309,0.0-5.0-0.50,,,,
,,,,,,,,,,
956,,"{""P0_Q0"":""(Impossible)""}",survey,106,4315270,0.0-5.0-1.50,[],,,
,,,,,,,,,,
1441,TestRecordings/pundes.wav,0,audio-button-response,107,4316717,0.0-5.0-0.51,,,,
,,,,,,,,,,
1107,,"{""P0_Q0"":""(Impossible)""}",survey,108,4317830,0.0-5.0-1.51,[],,,
,,,,,,,,,,
992,TestRecordings/mgit.wav,0,audio-button-response,109,4318829,0.0-5.0-0.52,,,,
,,,,,,,,,,
981,,"{""P0_Q0"":""(Possible)""}",survey,110,4319816,0.0-5.0-1.52,[],,,
,,,,,,,,,,
1021,TestRecordings/twen.wav,0,audio-button-response,111,4320844,0.0-5.0-0.53,,,,
,,,,,,,,,,
2900,,"{""P0_Q0"":""(Impossible)""}",survey,112,4323751,0.0-5.0-1.53,[],,,
,,,,,,,,,,
1385,TestRecordings/tlipgat.wav,0,audio-button-response,113,4325141,0.0-5.0-0.54,,,,
,,,,,,,,,,
1460,,"{""P0_Q0"":""(Impossible)""}",survey,114,4326607,0.0-5.0-1.54,[],,,
,,,,,,,,,,
1359,TestRecordings/stauk.wav,0,audio-button-response,115,4327972,0.0-5.0-0.55,,,,
,,,,,,,,,,
1108,,"{""P0_Q0"":""(Possible)""}",survey,116,4329086,0.0-5.0-1.55,[],,,
,,,,,,,,,,
1105,TestRecordings/drikteng.wav,0,audio-button-response,117,4330196,0.0-5.0-0.56,,,,
,,,,,,,,,,
1068,,"{""P0_Q0"":""(Impossible)""}",survey,118,4331270,0.0-5.0-1.56,[],,,
,,,,,,,,,,
945,TestRecordings/gipsus.wav,0,audio-button-response,119,4332220,0.0-5.0-0.57,,,,
,,,,,,,,,,
909,,"{""P0_Q0"":""(Impossible)""}",survey,120,4333135,0.0-5.0-1.57,[],,,
,,,,,,,,,,
824,TestRecordings/dlahm.wav,0,audio-button-response,121,4333963,0.0-5.0-0.58,,,,
,,,,,,,,,,
7910,,"{""P0_Q0"":""(Impossible)""}",survey,122,4341879,0.0-5.0-1.58,[],,,
,,,,,,,,,,
1216,TestRecordings/twas.wav,0,audio-button-response,123,4343100,0.0-5.0-0.59,,,,
,,,,,,,,,,
1173,,"{""P0_Q0"":""(Impossible)""}",survey,124,4344278,0.0-5.0-1.59,[],,,
,,,,,,,,,,
2038,, ,html-keyboard-response,125,4346317,0.0-6.0,,,,
,,,,,,,,,,
25740,,"{""P0_Q0"":""24"",""P0_Q1"":""female"",""P0_Q2"":""yes"",""P0_Q3"":""none"",""P0_Q4"":""n/a"",""P0_Q5"":""n/a""}",survey,126,4372071,0.0-7.0,[],,,
,,,,,,,,,,
162579,"<p style=""font-size:30px"">The experiment has ended</p><p style=""font-size:30px"",lang=""ko"">Thanks for participating in it!</p>", ,html-keyboard-response,127,4534644,0.0-8.0,,,,