rt,stimulus,response,trial_type,trial_index,time_elapsed,internal_node_id,accuracy,PracticeTest,ConsonantSequence,Grammaticality
,,,,,,,,,,
115159,"<p style=""font-size:30px"">Welcome to the experiment</p><p>Press spacebar to continue</p>", ,html-keyboard-response,0,115154,0.0-0.0,,,,
,,,,,,,,,,
830,"<p style=""font-size:30px"">Please ensure that your headphones are on correctly</p><p>Press spacebar to continue</p>", ,html-keyboard-response,1,115985,0.0-1.0,,,,
,,,,,,,,,,
5342,"<p style=""font-size:30px"">In this experiment, you will listen to nonsense words</p><p style=""font-size:30px"",lang=""ko"">Your task is to rate the nonsense word you heard as a possible word of American English</p><p>Press spacebar to continue</p>", ,html-keyboard-response,2,121329,0.0-2.0,,,,
,,,,,,,,,,
1415,, ,html-keyboard-response,3,122744,0.0-3.0,,,,
,,,,,,,,,,
3863,"<p style=""font-size:30px"">Now let's move on to the actual experiment.</p><p style=""font-size:30px"",lang=""ko"">During the experiment, you will hear each of the nonce words only once.</p><p>Press spacebar to continue</p>", ,html-keyboard-response,4,126608,0.0-4.0,,,,
,,,,,,,,,,
4798,TestRecordings/mkait.wav,0,audio-button-response,5,131415,0.0-5.0-0.0,,,,
,,,,,,,,,,
16265,,"{""P0_Q0"":""(Possible)""}",survey,6,147715,0.0-5.0-1.0,[],,,
,,,,,,,,,,
5566,TestRecordings/dlisbep.wav,0,audio-button-response,7,153286,0.0-5.0-0.1,,,,
,,,,,,,,,,
1853,,"{""P0_Q0"":""(Impossible)""}",survey,8,155154,0.0-5.0-1.1,[],,,
,,,,,,,,,,
2157,TestRecordings/tlumgak.wav,0,audio-button-response,9,157318,0.0-5.0-0.2,,,,
,,,,,,,,,,
3048,,"{""P0_Q0"":""(Impossible)""}",survey,10,160377,0.0-5.0-1.2,[],,,
,,,,,,,,,,
3887,TestRecordings/tlepgim.wav,0,audio-button-response,11,164270,0.0-5.0-0.3,,,,
,,,,,,,,,,
2327,,"{""P0_Q0"":""(Impossible)""}",survey,12,166609,0.0-5.0-1.3,[],,,
,,,,,,,,,,
4318,TestRecordings/trahm.wav,0,audio-button-response,13,170933,0.0-5.0-0.4,,,,
,,,,,,,,,,
2890,,"{""P0_Q0"":""(Possible)""}",survey,14,173832,0.0-5.0-1.4,[],,,
,,,,,,,,,,
1680,TestRecordings/tep.wav,0,audio-button-response,15,175517,0.0-5.0-0.5,,,,
,,,,,,,,,,
1840,,"{""P0_Q0"":""(Possible)""}",survey,16,177368,0.0-5.0-1.5,[],,,
,,,,,,,,,,
3061,TestRecordings/nutbim.wav,0,audio-button-response,17,180436,0.0-5.0-0.6,,,,
,,,,,,,,,,
3643,,"{""P0_Q0"":""(Impossible)""}",survey,18,184088,0.0-5.0-1.6,[],,,
,,,,,,,,,,
1503,TestRecordings/dlahm.wav,0,audio-button-response,19,185597,0.0-5.0-0.7,,,,
,,,,,,,,,,
2339,,"{""P0_Q0"":""(Possible)""}",survey,20,187943,0.0-5.0-1.7,[],,,
,,,,,,,,,,
3672,TestRecordings/bem.wav,0,audio-button-response,21,191620,0.0-5.0-0.8,,,,
,,,,,,,,,,
3777,,"{""P0_Q0"":""(Possible)""}",survey,22,195406,0.0-5.0-1.8,[],,,
,,,,,,,,,,
1720,TestRecordings/tempuk.wav,0,audio-button-response,23,197131,0.0-5.0-0.9,,,,
,,,,,,,,,,
3763,,"{""P0_Q0"":""(Impossible)""}",survey,24,200903,0.0-5.0-1.9,[],,,
,,,,,,,,,,
2695,TestRecordings/twas.wav,0,audio-button-response,25,203603,0.0-5.0-0.10,,,,
,,,,,,,,,,
6970,,"{""P0_Q0"":""(Impossible)""}",survey,26,210581,0.0-5.0-1.10,[],,,
,,,,,,,,,,
3417,TestRecordings/nangdup.wav,0,audio-button-response,27,214002,0.0-5.0-0.11,,,,
,,,,,,,,,,
2219,,"{""P0_Q0"":""(Impossible)""}",survey,28,216230,0.0-5.0-1.11,[],,,
,,,,,,,,,,
1471,TestRecordings/skain.wav,0,audio-button-response,29,217707,0.0-5.0-0.12,,,,
,,,,,,,,,,
4277,,"{""P0_Q0"":""(Possible)""}",survey,30,221990,0.0-5.0-1.12,[],,,
,,,,,,,,,,
2471,TestRecordings/mepgut.wav,0,audio-button-response,31,224467,0.0-5.0-0.13,,,,
,,,,,,,,,,
4101,,"{""P0_Q0"":""(Impossible)""}",survey,32,228572,0.0-5.0-1.13,[],,,
,,,,,,,,,,
1455,TestRecordings/drakpum.wav,0,audio-button-response,33,230034,0.0-5.0-0.14,,,,
,,,,,,,,,,
1692,,"{""P0_Q0"":""(Impossible)""}",survey,34,231732,0.0-5.0-1.14,[],,,
,,,,,,,,,,
2305,TestRecordings/drumbeng.wav,0,audio-button-response,35,234041,0.0-5.0-0.15,,,,
,,,,,,,,,,
1428,,"{""P0_Q0"":""(Impossible)""}",survey,36,235476,0.0-5.0-1.15,[],,,
,,,,,,,,,,
1238,TestRecordings/nboup.wav,0,audio-button-response,37,236721,0.0-5.0-0.16,,,,
,,,,,,,,,,
5396,,"{""P0_Q0"":""(Possible)""}",survey,38,242124,0.0-5.0-1.16,[],,,
,,,,,,,,,,
1319,TestRecordings/kutpim.wav,0,audio-button-response,39,243449,0.0-5.0-0.17,,,,
,,,,,,,,,,
1979,,"{""P0_Q0"":""(Impossible)""}",survey,40,245435,0.0-5.0-1.17,[],,,
,,,,,,,,,,
1816,TestRecordings/pmiik.wav,0,audio-button-response,41,247257,0.0-5.0-0.18,,,,
,,,,,,,,,,
2149,,"{""P0_Q0"":""(Impossible)""}",survey,42,249411,0.0-5.0-1.18,[],,,
,,,,,,,,,,
1192,TestRecordings/dloun.wav,0,audio-button-response,43,250609,0.0-5.0-0.19,,,,
,,,,,,,,,,
1978,,"{""P0_Q0"":""(Possible)""}",survey,44,252595,0.0-5.0-1.19,[],,,
,,,,,,,,,,
3256,TestRecordings/punseng.wav,0,audio-button-response,45,255856,0.0-5.0-0.20,,,,
,,,,,,,,,,
1460,,"{""P0_Q0"":""(Impossible)""}",survey,46,257323,0.0-5.0-1.20,[],,,
,,,,,,,,,,
5882,TestRecordings/suntem.wav,0,audio-button-response,47,263209,0.0-5.0-0.21,,,,
,,,,,,,,,,
6266,,"{""P0_Q0"":""(Impossible)""}",survey,48,269483,0.0-5.0-1.21,[],,,
,,,,,,,,,,
2240,TestRecordings/tisbeng.wav,0,audio-button-response,49,271728,0.0-5.0-0.22,,,,
,,,,,,,,,,
2452,,"{""P0_Q0"":""(Impossible)""}",survey,50,274186,0.0-5.0-1.22,[],,,
,,,,,,,,,,
3015,TestRecordings/drustet.wav,0,audio-button-response,51,277207,0.0-5.0-0.23,,,,
,,,,,,,,,,
4108,,"{""P0_Q0"":""(Impossible)""}",survey,52,281321,0.0-5.0-1.23,[],,,
,,,,,,,,,,
1769,TestRecordings/tlipgat.wav,0,audio-button-response,53,283095,0.0-5.0-0.24,,,,
,,,,,,,,,,
2691,,"{""P0_Q0"":""(Impossible)""}",survey,54,285793,0.0-5.0-1.24,[],,,
,,,,,,,,,,
1168,TestRecordings/stuun.wav,0,audio-button-response,55,286966,0.0-5.0-0.25,,,,
,,,,,,,,,,
3869,,"{""P0_Q0"":""(Possible)""}",survey,56,290843,0.0-5.0-1.25,[],,,
,,,,,,,,,,
2037,TestRecordings/dlemkus.wav,0,audio-button-response,57,292886,0.0-5.0-0.26,,,,
,,,,,,,,,,
2796,,"{""P0_Q0"":""(Impossible)""}",survey,58,295689,0.0-5.0-1.26,[],,,
,,,,,,,,,,
1409,TestRecordings/ningpum.wav,0,audio-button-response,59,297102,0.0-5.0-0.27,,,,
,,,,,,,,,,
4364,,"{""P0_Q0"":""(Impossible)""}",survey,60,301473,0.0-5.0-1.27,[],,,
,,,,,,,,,,
1113,TestRecordings/giit.wav,0,audio-button-response,61,302590,0.0-5.0-0.28,,,,
,,,,,,,,,,
3900,,"{""P0_Q0"":""(Possible)""}",survey,62,306496,0.0-5.0-1.28,[],,,
,,,,,,,,,,
1105,TestRecordings/pwuk.wav,0,audio-button-response,63,307606,0.0-5.0-0.29,,,,
,,,,,,,,,,
1579,,"{""P0_Q0"":""(Possible)""}",survey,64,309192,0.0-5.0-1.29,[],,,
,,,,,,,,,,
1303,TestRecordings/mgit.wav,0,audio-button-response,65,310501,0.0-5.0-0.30,,,,
,,,,,,,,,,
2061,,"{""P0_Q0"":""(Possible)""}",survey,66,312568,0.0-5.0-1.30,[],,,
,,,,,,,,,,
1288,TestRecordings/tlasdung.wav,0,audio-button-response,67,313862,0.0-5.0-0.31,,,,
,,,,,,,,,,
1901,,"{""P0_Q0"":""(Impossible)""}",survey,68,315768,0.0-5.0-1.31,[],,,
,,,,,,,,,,
1830,TestRecordings/pundes.wav,0,audio-button-response,69,317605,0.0-5.0-0.32,,,,
,,,,,,,,,,
1845,,"{""P0_Q0"":""(Impossible)""}",survey,70,319455,0.0-5.0-1.32,[],,,
,,,,,,,,,,
1215,TestRecordings/paim.wav,0,audio-button-response,71,320677,0.0-5.0-0.33,,,,
,,,,,,,,,,
4925,,"{""P0_Q0"":""(Impossible)""}",survey,72,325607,0.0-5.0-1.33,[],,,
,,,,,,,,,,
928,TestRecordings/bepgik.wav,0,audio-button-response,73,326540,0.0-5.0-0.34,,,,
,,,,,,,,,,
1668,,"{""P0_Q0"":""(Impossible)""}",survey,74,328215,0.0-5.0-1.34,[],,,
,,,,,,,,,,
816,TestRecordings/dmut.wav,0,audio-button-response,75,329036,0.0-5.0-0.35,,,,
,,,,,,,,,,
2068,,"{""P0_Q0"":""(Impossible)""}",survey,76,331111,0.0-5.0-1.35,[],,,
,,,,,,,,,,
855,TestRecordings/pmeit.wav,0,audio-button-response,77,331972,0.0-5.0-0.36,,,,
,,,,,,,,,,
1801,,"{""P0_Q0"":""(Possible)""}",survey,78,333783,0.0-5.0-1.36,[],,,
,,,,,,,,,,
1078,TestRecordings/kmaut.wav,0,audio-button-response,79,334868,0.0-5.0-0.37,,,,
,,,,,,,,,,
2267,,"{""P0_Q0"":""(Impossible)""}",survey,80,337141,0.0-5.0-1.37,[],,,
,,,,,,,,,,
961,TestRecordings/pemdut.wav,0,audio-button-response,81,338108,0.0-5.0-0.38,,,,
,,,,,,,,,,
1764,,"{""P0_Q0"":""(Impossible)""}",survey,82,339878,0.0-5.0-1.38,[],,,
,,,,,,,,,,
1209,TestRecordings/twen.wav,0,audio-button-response,83,341091,0.0-5.0-0.39,,,,
,,,,,,,,,,
1965,,"{""P0_Q0"":""(Possible)""}",survey,84,343062,0.0-5.0-1.39,[],,,
,,,,,,,,,,
1536,TestRecordings/sengdun.wav,0,audio-button-response,85,344603,0.0-5.0-0.40,,,,
,,,,,,,,,,
1316,,"{""P0_Q0"":""(Impossible)""}",survey,86,345926,0.0-5.0-1.40,[],,,
,,,,,,,,,,
887,TestRecordings/drain.wav,0,audio-button-response,87,346819,0.0-5.0-0.41,,,,
,,,,,,,,,,
1756,,"{""P0_Q0"":""(Impossible)""}",survey,88,348582,0.0-5.0-1.41,[],,,
,,,,,,,,,,
808,TestRecordings/pwam.wav,0,audio-button-response,89,349395,0.0-5.0-0.42,,,,
,,,,,,,,,,
1636,,"{""P0_Q0"":""(Impossible)""}",survey,90,351037,0.0-5.0-1.42,[],,,
,,,,,,,,,,
880,TestRecordings/tlik.wav,0,audio-button-response,91,351923,0.0-5.0-0.43,,,,
,,,,,,,,,,
2011,,"{""P0_Q0"":""(Possible)""}",survey,92,353941,0.0-5.0-1.43,[],,,
,,,,,,,,,,
1024,TestRecordings/gipsus.wav,0,audio-button-response,93,354971,0.0-5.0-0.44,,,,
,,,,,,,,,,
3532,,"{""P0_Q0"":""(Possible)""}",survey,94,358509,0.0-5.0-1.44,[],,,
,,,,,,,,,,
1217,TestRecordings/drikteng.wav,0,audio-button-response,95,359731,0.0-5.0-0.45,,,,
,,,,,,,,,,
2892,,"{""P0_Q0"":""(Possible)""}",survey,96,362629,0.0-5.0-1.45,[],,,
,,,,,,,,,,
798,TestRecordings/drantung.wav,0,audio-button-response,97,363434,0.0-5.0-0.46,,,,
,,,,,,,,,,
1788,,"{""P0_Q0"":""(Impossible)""}",survey,98,365229,0.0-5.0-1.46,[],,,
,,,,,,,,,,
1185,TestRecordings/gup.wav,0,audio-button-response,99,366419,0.0-5.0-0.47,,,,
,,,,,,,,,,
1940,,"{""P0_Q0"":""(Impossible)""}",survey,100,368364,0.0-5.0-1.47,[],,,
,,,,,,,,,,
1080,TestRecordings/ndeip.wav,0,audio-button-response,101,369451,0.0-5.0-0.48,,,,
,,,,,,,,,,
2068,,"{""P0_Q0"":""(Impossible)""}",survey,102,371524,0.0-5.0-1.48,[],,,
,,,,,,,,,,
1103,TestRecordings/tloum.wav,0,audio-button-response,103,372634,0.0-5.0-0.49,,,,
,,,,,,,,,,
1915,,"{""P0_Q0"":""(Impossible)""}",survey,104,374556,0.0-5.0-1.49,[],,,
,,,,,,,,,,
984,TestRecordings/gatkun.wav,0,audio-button-response,105,375546,0.0-5.0-0.50,,,,
,,,,,,,,,,
2236,,"{""P0_Q0"":""(Impossible)""}",survey,106,377787,0.0-5.0-1.50,[],,,
,,,,,,,,,,
1001,TestRecordings/stauk.wav,0,audio-button-response,107,378794,0.0-5.0-0.51,,,,
,,,,,,,,,,
1844,,"{""P0_Q0"":""(Possible)""}",survey,108,380644,0.0-5.0-1.51,[],,,
,,,,,,,,,,
753,TestRecordings/stahm.wav,0,audio-button-response,109,381402,0.0-5.0-0.52,,,,
,,,,,,,,,,
1548,,"{""P0_Q0"":""(Impossible)""}",survey,110,382956,0.0-5.0-1.52,[],,,
,,,,,,,,,,
792,TestRecordings/tlem.wav,0,audio-button-response,111,383753,0.0-5.0-0.53,,,,
,,,,,,,,,,
1765,,"{""P0_Q0"":""(Impossible)""}",survey,112,385524,0.0-5.0-1.53,[],,,
,,,,,,,,,,
1105,TestRecordings/gistum.wav,0,audio-button-response,113,386634,0.0-5.0-0.54,,,,
,,,,,,,,,,
1756,,"{""P0_Q0"":""(Impossible)""}",survey,114,388395,0.0-5.0-1.54,[],,,
,,,,,,,,,,
832,TestRecordings/ntek.wav,0,audio-button-response,115,389233,0.0-5.0-0.55,,,,
,,,,,,,,,,
1740,,"{""P0_Q0"":""(Possible)""}",survey,116,390980,0.0-5.0-1.55,[],,,
,,,,,,,,,,
1143,TestRecordings/gitpes.wav,0,audio-button-response,117,392129,0.0-5.0-0.56,,,,
,,,,,,,,,,
2612,,"{""P0_Q0"":""(Impossible)""}",survey,118,394747,0.0-5.0-1.56,[],,,
,,,,,,,,,,
1368,TestRecordings/trindes.wav,0,audio-button-response,119,396120,0.0-5.0-0.57,,,,
,,,,,,,,,,
2421,,"{""P0_Q0"":""(Impossible)""}",survey,120,398546,0.0-5.0-1.57,[],,,
,,,,,,,,,,
1584,TestRecordings/tlemkun.wav,0,audio-button-response,121,400136,0.0-5.0-0.58,,,,
,,,,,,,,,,
1916,,"{""P0_Q0"":""(Impossible)""}",survey,122,402058,0.0-5.0-1.58,[],,,
,,,,,,,,,,
1151,TestRecordings/kmeip.wav,0,audio-button-response,123,403216,0.0-5.0-0.59,,,,
,,,,,,,,,,
1820,,"{""P0_Q0"":""(Impossible)""}",survey,124,405042,0.0-5.0-1.59,[],,,
,,,,,,,,,,
4790,, ,html-keyboard-response,125,409833,0.0-6.0,,,,
,,,,,,,,,,
22332,,"{""P0_Q0"":""22"",""P0_Q1"":""Male"",""P0_Q2"":""Yes"",""P0_Q3"":""None"",""P0_Q4"":""none"",""P0_Q5"":""none""}",survey,126,432180,0.0-7.0,[],,,
,,,,,,,,,,
66642,"<p style=""font-size:30px"">The experiment has ended</p><p style=""font-size:30px"",lang=""ko"">Thanks for participating in it!</p>", ,html-keyboard-response,127,498820,0.0-8.0,,,,