rt,stimulus,response,trial_type,trial_index,time_elapsed,internal_node_id,accuracy,PracticeTest,ConsonantSequence,Grammaticality
,,,,,,,,,,
1914559,"<p style=""font-size:30px"">Welcome to the experiment</p><p>Press spacebar to continue</p>", ,html-keyboard-response,0,1914481,0.0-0.0,,,,
,,,,,,,,,,
4250,"<p style=""font-size:30px"">Please ensure that your headphones are on correctly</p><p>Press spacebar to continue</p>", ,html-keyboard-response,1,1918732,0.0-1.0,,,,
,,,,,,,,,,
5138,"<p style=""font-size:30px"">In this experiment, you will listen to nonsense words</p><p style=""font-size:30px"",lang=""ko"">Your task is to rate the nonsense word you heard as a possible word of American English</p><p>Press spacebar to continue</p>", ,html-keyboard-response,2,1923870,0.0-2.0,,,,
,,,,,,,,,,
1502,, ,html-keyboard-response,3,1925374,0.0-3.0,,,,
,,,,,,,,,,
2879,"<p style=""font-size:30px"">Now let's move on to the actual experiment.</p><p style=""font-size:30px"",lang=""ko"">During the experiment, you will hear each of the nonce words only once.</p><p>Press spacebar to continue</p>", ,html-keyboard-response,4,1928254,0.0-4.0,,,,
,,,,,,,,,,
2350,TestRecordings/dlisbep.wav,0,audio-button-response,5,1930638,0.0-5.0-0.0,,,,
,,,,,,,,,,
7979,,"{""P0_Q0"":""(Impossible)""}",survey,6,1938659,0.0-5.0-1.0,[],,,
,,,,,,,,,,
2352,TestRecordings/gipsus.wav,0,audio-button-response,7,1941022,0.0-5.0-0.1,,,,
,,,,,,,,,,
3049,,"{""P0_Q0"":""(Possible)""}",survey,8,1944083,0.0-5.0-1.1,[],,,
,,,,,,,,,,
2429,TestRecordings/trindes.wav,0,audio-button-response,9,1946525,0.0-5.0-0.2,,,,
,,,,,,,,,,
5202,,"{""P0_Q0"":""(Impossible)""}",survey,10,1951737,0.0-5.0-1.2,[],,,
,,,,,,,,,,
2228,TestRecordings/tlipgat.wav,0,audio-button-response,11,1953974,0.0-5.0-0.3,,,,
,,,,,,,,,,
5134,,"{""P0_Q0"":""(Impossible)""}",survey,12,1959120,0.0-5.0-1.3,[],,,
,,,,,,,,,,
2500,TestRecordings/trahm.wav,0,audio-button-response,13,1961629,0.0-5.0-0.4,,,,
,,,,,,,,,,
2305,,"{""P0_Q0"":""(Possible)""}",survey,14,1963943,0.0-5.0-1.4,[],,,
,,,,,,,,,,
1931,TestRecordings/ntek.wav,0,audio-button-response,15,1965885,0.0-5.0-0.5,,,,
,,,,,,,,,,
2266,,"{""P0_Q0"":""(Possible)""}",survey,16,1968160,0.0-5.0-1.5,[],,,
,,,,,,,,,,
1581,TestRecordings/gup.wav,0,audio-button-response,17,1969749,0.0-5.0-0.6,,,,
,,,,,,,,,,
1739,,"{""P0_Q0"":""(Possible)""}",survey,18,1971496,0.0-5.0-1.6,[],,,
,,,,,,,,,,
1547,TestRecordings/mkait.wav,0,audio-button-response,19,1973053,0.0-5.0-0.7,,,,
,,,,,,,,,,
2413,,"{""P0_Q0"":""(Impossible)""}",survey,20,1975471,0.0-5.0-1.7,[],,,
,,,,,,,,,,
1854,TestRecordings/suntem.wav,0,audio-button-response,21,1977332,0.0-5.0-0.8,,,,
,,,,,,,,,,
1763,,"{""P0_Q0"":""(Impossible)""}",survey,22,1979102,0.0-5.0-1.8,[],,,
,,,,,,,,,,
1642,TestRecordings/mepgut.wav,0,audio-button-response,23,1980756,0.0-5.0-0.9,,,,
,,,,,,,,,,
2133,,"{""P0_Q0"":""(Impossible)""}",survey,24,1982896,0.0-5.0-1.9,[],,,
,,,,,,,,,,
1715,TestRecordings/tlumgak.wav,0,audio-button-response,25,1984620,0.0-5.0-0.10,,,,
,,,,,,,,,,
2443,,"{""P0_Q0"":""(Impossible)""}",survey,26,1987071,0.0-5.0-1.10,[],,,
,,,,,,,,,,
1668,TestRecordings/tloum.wav,0,audio-button-response,27,1988748,0.0-5.0-0.11,,,,
,,,,,,,,,,
2180,,"{""P0_Q0"":""(Impossible)""}",survey,28,1990934,0.0-5.0-1.11,[],,,
,,,,,,,,,,
2006,TestRecordings/stahm.wav,0,audio-button-response,29,1992947,0.0-5.0-0.12,,,,
,,,,,,,,,,
2132,,"{""P0_Q0"":""(Possible)""}",survey,30,1995086,0.0-5.0-1.12,[],,,
,,,,,,,,,,
1229,TestRecordings/ndeip.wav,0,audio-button-response,31,1996324,0.0-5.0-0.13,,,,
,,,,,,,,,,
2259,,"{""P0_Q0"":""(Impossible)""}",survey,32,1998590,0.0-5.0-1.13,[],,,
,,,,,,,,,,
1347,TestRecordings/bepgik.wav,0,audio-button-response,33,1999947,0.0-5.0-0.14,,,,
,,,,,,,,,,
2413,,"{""P0_Q0"":""(Possible)""}",survey,34,2002366,0.0-5.0-1.14,[],,,
,,,,,,,,,,
1644,TestRecordings/ningpum.wav,0,audio-button-response,35,2004019,0.0-5.0-0.15,,,,
,,,,,,,,,,
1779,,"{""P0_Q0"":""(Impossible)""}",survey,36,2005804,0.0-5.0-1.15,[],,,
,,,,,,,,,,
1566,TestRecordings/paim.wav,0,audio-button-response,37,2007378,0.0-5.0-0.16,,,,
,,,,,,,,,,
2708,,"{""P0_Q0"":""(Possible)""}",survey,38,2010093,0.0-5.0-1.16,[],,,
,,,,,,,,,,
1429,TestRecordings/tempuk.wav,0,audio-button-response,39,2011531,0.0-5.0-0.17,,,,
,,,,,,,,,,
1868,,"{""P0_Q0"":""(Impossible)""}",survey,40,2013404,0.0-5.0-1.17,[],,,
,,,,,,,,,,
1285,TestRecordings/tep.wav,0,audio-button-response,41,2014698,0.0-5.0-0.18,,,,
,,,,,,,,,,
1893,,"{""P0_Q0"":""(Impossible)""}",survey,42,2016597,0.0-5.0-1.18,[],,,
,,,,,,,,,,
1453,TestRecordings/drumbeng.wav,0,audio-button-response,43,2018058,0.0-5.0-0.19,,,,
,,,,,,,,,,
1443,,"{""P0_Q0"":""(Possible)""}",survey,44,2019509,0.0-5.0-1.19,[],,,
,,,,,,,,,,
2395,TestRecordings/drikteng.wav,0,audio-button-response,45,2021914,0.0-5.0-0.20,,,,
,,,,,,,,,,
2062,,"{""P0_Q0"":""(Possible)""}",survey,46,2023982,0.0-5.0-1.20,[],,,
,,,,,,,,,,
1410,TestRecordings/pemdut.wav,0,audio-button-response,47,2025410,0.0-5.0-0.21,,,,
,,,,,,,,,,
1451,,"{""P0_Q0"":""(Impossible)""}",survey,48,2026868,0.0-5.0-1.21,[],,,
,,,,,,,,,,
1332,TestRecordings/tisbeng.wav,0,audio-button-response,49,2028210,0.0-5.0-0.22,,,,
,,,,,,,,,,
1708,,"{""P0_Q0"":""(Possible)""}",survey,50,2029924,0.0-5.0-1.22,[],,,
,,,,,,,,,,
1148,TestRecordings/pwuk.wav,0,audio-button-response,51,2031082,0.0-5.0-0.23,,,,
,,,,,,,,,,
1811,,"{""P0_Q0"":""(Possible)""}",survey,52,2032900,0.0-5.0-1.23,[],,,
,,,,,,,,,,
1078,TestRecordings/nutbim.wav,0,audio-button-response,53,2033986,0.0-5.0-0.24,,,,
,,,,,,,,,,
1666,,"{""P0_Q0"":""(Impossible)""}",survey,54,2035659,0.0-5.0-1.24,[],,,
,,,,,,,,,,
1260,TestRecordings/pundes.wav,0,audio-button-response,55,2036930,0.0-5.0-0.25,,,,
,,,,,,,,,,
1684,,"{""P0_Q0"":""(Possible)""}",survey,56,2038620,0.0-5.0-1.25,[],,,
,,,,,,,,,,
974,TestRecordings/dlemkus.wav,0,audio-button-response,57,2039602,0.0-5.0-0.26,,,,
,,,,,,,,,,
1700,,"{""P0_Q0"":""(Impossible)""}",survey,58,2041307,0.0-5.0-1.26,[],,,
,,,,,,,,,,
1198,TestRecordings/skain.wav,0,audio-button-response,59,2042514,0.0-5.0-0.27,,,,
,,,,,,,,,,
2037,,"{""P0_Q0"":""(Possible)""}",survey,60,2044555,0.0-5.0-1.27,[],,,
,,,,,,,,,,
1133,TestRecordings/sengdun.wav,0,audio-button-response,61,2045698,0.0-5.0-0.28,,,,
,,,,,,,,,,
1316,,"{""P0_Q0"":""(Impossible)""}",survey,62,2047019,0.0-5.0-1.28,[],,,
,,,,,,,,,,
1093,TestRecordings/stuun.wav,0,audio-button-response,63,2048122,0.0-5.0-0.29,,,,
,,,,,,,,,,
1146,,"{""P0_Q0"":""(Possible)""}",survey,64,2049276,0.0-5.0-1.29,[],,,
,,,,,,,,,,
949,TestRecordings/giit.wav,0,audio-button-response,65,2050234,0.0-5.0-0.30,,,,
,,,,,,,,,,
1580,,"{""P0_Q0"":""(Possible)""}",survey,66,2051819,0.0-5.0-1.30,[],,,
,,,,,,,,,,
1150,TestRecordings/tlasdung.wav,0,audio-button-response,67,2052977,0.0-5.0-0.31,,,,
,,,,,,,,,,
1707,,"{""P0_Q0"":""(Possible)""}",survey,68,2054691,0.0-5.0-1.31,[],,,
,,,,,,,,,,
1221,TestRecordings/twas.wav,0,audio-button-response,69,2055920,0.0-5.0-0.32,,,,
,,,,,,,,,,
1708,,"{""P0_Q0"":""(Possible)""}",survey,70,2057635,0.0-5.0-1.32,[],,,
,,,,,,,,,,
1069,TestRecordings/kmaut.wav,0,audio-button-response,71,2058713,0.0-5.0-0.33,,,,
,,,,,,,,,,
1469,,"{""P0_Q0"":""(Impossible)""}",survey,72,2060187,0.0-5.0-1.33,[],,,
,,,,,,,,,,
1181,TestRecordings/gitpes.wav,0,audio-button-response,73,2061377,0.0-5.0-0.34,,,,
,,,,,,,,,,
1308,,"{""P0_Q0"":""(Possible)""}",survey,74,2062691,0.0-5.0-1.34,[],,,
,,,,,,,,,,
1525,TestRecordings/twen.wav,0,audio-button-response,75,2064224,0.0-5.0-0.35,,,,
,,,,,,,,,,
1644,,"{""P0_Q0"":""(Impossible)""}",survey,76,2065875,0.0-5.0-1.35,[],,,
,,,,,,,,,,
1148,TestRecordings/drantung.wav,0,audio-button-response,77,2067032,0.0-5.0-0.36,,,,
,,,,,,,,,,
2523,,"{""P0_Q0"":""(Possible)""}",survey,78,2069562,0.0-5.0-1.36,[],,,
,,,,,,,,,,
1085,TestRecordings/stauk.wav,0,audio-button-response,79,2070656,0.0-5.0-0.37,,,,
,,,,,,,,,,
1565,,"{""P0_Q0"":""(Possible)""}",survey,80,2072226,0.0-5.0-1.37,[],,,
,,,,,,,,,,
1174,TestRecordings/tlepgim.wav,0,audio-button-response,81,2073408,0.0-5.0-0.38,,,,
,,,,,,,,,,
1940,,"{""P0_Q0"":""(Possible)""}",survey,82,2075353,0.0-5.0-1.38,[],,,
,,,,,,,,,,
1173,TestRecordings/drustet.wav,0,audio-button-response,83,2076536,0.0-5.0-0.39,,,,
,,,,,,,,,,
2068,,"{""P0_Q0"":""(Impossible)""}",survey,84,2078610,0.0-5.0-1.39,[],,,
,,,,,,,,,,
1565,TestRecordings/kutpim.wav,0,audio-button-response,85,2080184,0.0-5.0-0.40,,,,
,,,,,,,,,,
1485,,"{""P0_Q0"":""(Impossible)""}",survey,86,2081674,0.0-5.0-1.40,[],,,
,,,,,,,,,,
1068,TestRecordings/pwam.wav,0,audio-button-response,87,2082752,0.0-5.0-0.41,,,,
,,,,,,,,,,
1316,,"{""P0_Q0"":""(Possible)""}",survey,88,2084073,0.0-5.0-1.41,[],,,
,,,,,,,,,,
1300,TestRecordings/tlem.wav,0,audio-button-response,89,2085384,0.0-5.0-0.42,,,,
,,,,,,,,,,
1237,,"{""P0_Q0"":""(Possible)""}",survey,90,2086625,0.0-5.0-1.42,[],,,
,,,,,,,,,,
990,TestRecordings/drakpum.wav,0,audio-button-response,91,2087624,0.0-5.0-0.43,,,,
,,,,,,,,,,
1197,,"{""P0_Q0"":""(Impossible)""}",survey,92,2088826,0.0-5.0-1.43,[],,,
,,,,,,,,,,
990,TestRecordings/gatkun.wav,0,audio-button-response,93,2089824,0.0-5.0-0.44,,,,
,,,,,,,,,,
1588,,"{""P0_Q0"":""(Impossible)""}",survey,94,2091418,0.0-5.0-1.44,[],,,
,,,,,,,,,,
1004,TestRecordings/nboup.wav,0,audio-button-response,95,2092431,0.0-5.0-0.45,,,,
,,,,,,,,,,
1284,,"{""P0_Q0"":""(Impossible)""}",survey,96,2093721,0.0-5.0-1.45,[],,,
,,,,,,,,,,
843,TestRecordings/pmiik.wav,0,audio-button-response,97,2094575,0.0-5.0-0.46,,,,
,,,,,,,,,,
1380,,"{""P0_Q0"":""(Possible)""}",survey,98,2095961,0.0-5.0-1.46,[],,,
,,,,,,,,,,
877,TestRecordings/dloun.wav,0,audio-button-response,99,2096847,0.0-5.0-0.47,,,,
,,,,,,,,,,
1739,,"{""P0_Q0"":""(Possible)""}",survey,100,2098593,0.0-5.0-1.47,[],,,
,,,,,,,,,,
796,TestRecordings/gistum.wav,0,audio-button-response,101,2099399,0.0-5.0-0.48,,,,
,,,,,,,,,,
1565,,"{""P0_Q0"":""(Possible)""}",survey,102,2100970,0.0-5.0-1.48,[],,,
,,,,,,,,,,
781,TestRecordings/dlahm.wav,0,audio-button-response,103,2101759,0.0-5.0-0.49,,,,
,,,,,,,,,,
1560,,"{""P0_Q0"":""(Possible)""}",survey,104,2103329,0.0-5.0-1.49,[],,,
,,,,,,,,,,
3141,TestRecordings/pmeit.wav,0,audio-button-response,105,2106478,0.0-5.0-0.50,,,,
,,,,,,,,,,
1605,,"{""P0_Q0"":""(Possible)""}",survey,106,2108089,0.0-5.0-1.50,[],,,
,,,,,,,,,,
1325,TestRecordings/tlemkun.wav,0,audio-button-response,107,2109423,0.0-5.0-0.51,,,,
,,,,,,,,,,
1901,,"{""P0_Q0"":""(Impossible)""}",survey,108,2111328,0.0-5.0-1.51,[],,,
,,,,,,,,,,
941,TestRecordings/drain.wav,0,audio-button-response,109,2112279,0.0-5.0-0.52,,,,
,,,,,,,,,,
2020,,"{""P0_Q0"":""(Possible)""}",survey,110,2114305,0.0-5.0-1.52,[],,,
,,,,,,,,,,
1126,TestRecordings/mgit.wav,0,audio-button-response,111,2115438,0.0-5.0-0.53,,,,
,,,,,,,,,,
1964,,"{""P0_Q0"":""(Possible)""}",survey,112,2117408,0.0-5.0-1.53,[],,,
,,,,,,,,,,
1069,TestRecordings/punseng.wav,0,audio-button-response,113,2118486,0.0-5.0-0.54,,,,
,,,,,,,,,,
1637,,"{""P0_Q0"":""(Possible)""}",survey,114,2120128,0.0-5.0-1.54,[],,,
,,,,,,,,,,
878,TestRecordings/nangdup.wav,0,audio-button-response,115,2121014,0.0-5.0-0.55,,,,
,,,,,,,,,,
1219,,"{""P0_Q0"":""(Impossible)""}",survey,116,2122240,0.0-5.0-1.55,[],,,
,,,,,,,,,,
877,TestRecordings/kmeip.wav,0,audio-button-response,117,2123126,0.0-5.0-0.56,,,,
,,,,,,,,,,
1508,,"{""P0_Q0"":""(Possible)""}",survey,118,2124640,0.0-5.0-1.56,[],,,
,,,,,,,,,,
718,TestRecordings/dmut.wav,0,audio-button-response,119,2125366,0.0-5.0-0.57,,,,
,,,,,,,,,,
1268,,"{""P0_Q0"":""(Impossible)""}",survey,120,2126640,0.0-5.0-1.57,[],,,
,,,,,,,,,,
716,TestRecordings/tlik.wav,0,audio-button-response,121,2127366,0.0-5.0-0.58,,,,
,,,,,,,,,,
1597,,"{""P0_Q0"":""(Possible)""}",survey,122,2128968,0.0-5.0-1.58,[],,,
,,,,,,,,,,
654,TestRecordings/bem.wav,0,audio-button-response,123,2129630,0.0-5.0-0.59,,,,
,,,,,,,,,,
1931,,"{""P0_Q0"":""(Possible)""}",survey,124,2131568,0.0-5.0-1.59,[],,,
,,,,,,,,,,
7749,, ,html-keyboard-response,125,2139318,0.0-6.0,,,,
,,,,,,,,,,
60003,,"{""P0_Q0"":""20"",""P0_Q1"":""Male "",""P0_Q2"":""Yes "",""P0_Q3"":""Spanish "",""P0_Q4"":""Started in first grade through my life until sophomore year of high school "",""P0_Q5"":""It went well and I have retained a lot of spanish and can understand stuff that is being told to me ""}",survey,126,2199336,0.0-7.0,[],,,
,,,,,,,,,,
279131,"<p style=""font-size:30px"">The experiment has ended</p><p style=""font-size:30px"",lang=""ko"">Thanks for participating in it!</p>", ,html-keyboard-response,127,2478456,0.0-8.0,,,,