rt,stimulus,response,trial_type,trial_index,time_elapsed,internal_node_id,accuracy,PracticeTest,ConsonantSequence,Grammaticality
,,,,,,,,,,
1914129,"<p style=""font-size:30px"">Welcome to the experiment</p><p>Press spacebar to continue</p>", ,html-keyboard-response,0,1914023,0.0-0.0,,,,
,,,,,,,,,,
2377,"<p style=""font-size:30px"">Please ensure that your headphones are on correctly</p><p>Press spacebar to continue</p>", ,html-keyboard-response,1,1916403,0.0-1.0,,,,
,,,,,,,,,,
7298,"<p style=""font-size:30px"">In this experiment, you will listen to nonsense words</p><p style=""font-size:30px"",lang=""ko"">Your task is to rate the nonsense word you heard as a possible word of American English</p><p>Press spacebar to continue</p>", ,html-keyboard-response,2,1923701,0.0-2.0,,,,
,,,,,,,,,,
1799,, ,html-keyboard-response,3,1925500,0.0-3.0,,,,
,,,,,,,,,,
2983,"<p style=""font-size:30px"">Now let's move on to the actual experiment.</p><p style=""font-size:30px"",lang=""ko"">During the experiment, you will hear each of the nonce words only once.</p><p>Press spacebar to continue</p>", ,html-keyboard-response,4,1928484,0.0-4.0,,,,
,,,,,,,,,,
5023,TestRecordings/mgit.wav,0,audio-button-response,5,1933867,0.0-5.0-0.0,,,,
,,,,,,,,,,
3895,,"{""P0_Q0"":""(Impossible)""}",survey,6,1937799,0.0-5.0-1.0,[],,,
,,,,,,,,,,
1777,TestRecordings/tep.wav,0,audio-button-response,7,1939587,0.0-5.0-0.1,,,,
,,,,,,,,,,
2448,,"{""P0_Q0"":""(Possible)""}",survey,8,1942055,0.0-5.0-1.1,[],,,
,,,,,,,,,,
1731,TestRecordings/stuun.wav,0,audio-button-response,9,1943795,0.0-5.0-0.2,,,,
,,,,,,,,,,
2359,,"{""P0_Q0"":""(Possible)""}",survey,10,1946175,0.0-5.0-1.2,[],,,
,,,,,,,,,,
2082,TestRecordings/stauk.wav,0,audio-button-response,11,1948267,0.0-5.0-0.3,,,,
,,,,,,,,,,
2671,,"{""P0_Q0"":""(Possible)""}",survey,12,1950959,0.0-5.0-1.3,[],,,
,,,,,,,,,,
1266,TestRecordings/dlahm.wav,0,audio-button-response,13,1952234,0.0-5.0-0.4,,,,
,,,,,,,,,,
1839,,"{""P0_Q0"":""(Impossible)""}",survey,14,1954094,0.0-5.0-1.4,[],,,
,,,,,,,,,,
1153,TestRecordings/giit.wav,0,audio-button-response,15,1955257,0.0-5.0-0.5,,,,
,,,,,,,,,,
1624,,"{""P0_Q0"":""(Possible)""}",survey,16,1956896,0.0-5.0-1.5,[],,,
,,,,,,,,,,
1302,TestRecordings/drain.wav,0,audio-button-response,17,1958210,0.0-5.0-0.6,,,,
,,,,,,,,,,
1500,,"{""P0_Q0"":""(Possible)""}",survey,18,1959725,0.0-5.0-1.6,[],,,
,,,,,,,,,,
1515,TestRecordings/twen.wav,0,audio-button-response,19,1961250,0.0-5.0-0.7,,,,
,,,,,,,,,,
1374,,"{""P0_Q0"":""(Possible)""}",survey,20,1962645,0.0-5.0-1.7,[],,,
,,,,,,,,,,
1386,TestRecordings/nutbim.wav,0,audio-button-response,21,1964042,0.0-5.0-0.8,,,,
,,,,,,,,,,
1380,,"{""P0_Q0"":""(Impossible)""}",survey,22,1965445,0.0-5.0-1.8,[],,,
,,,,,,,,,,
1258,TestRecordings/ningpum.wav,0,audio-button-response,23,1966714,0.0-5.0-0.9,,,,
,,,,,,,,,,
1247,,"{""P0_Q0"":""(Impossible)""}",survey,24,1967973,0.0-5.0-1.9,[],,,
,,,,,,,,,,
1291,TestRecordings/pwuk.wav,0,audio-button-response,25,1969274,0.0-5.0-0.10,,,,
,,,,,,,,,,
1983,,"{""P0_Q0"":""(Possible)""}",survey,26,1971277,0.0-5.0-1.10,[],,,
,,,,,,,,,,
1082,TestRecordings/tlepgim.wav,0,audio-button-response,27,1972369,0.0-5.0-0.11,,,,
,,,,,,,,,,
1976,,"{""P0_Q0"":""(Impossible)""}",survey,28,1974356,0.0-5.0-1.11,[],,,
,,,,,,,,,,
2084,TestRecordings/dlisbep.wav,0,audio-button-response,29,1976448,0.0-5.0-0.12,,,,
,,,,,,,,,,
4130,,"{""P0_Q0"":""(Impossible)""}",survey,30,1980588,0.0-5.0-1.12,[],,,
,,,,,,,,,,
1156,TestRecordings/bepgik.wav,0,audio-button-response,31,1981752,0.0-5.0-0.13,,,,
,,,,,,,,,,
3251,,"{""P0_Q0"":""(Impossible)""}",survey,32,1985011,0.0-5.0-1.13,[],,,
,,,,,,,,,,
1284,TestRecordings/suntem.wav,0,audio-button-response,33,1986304,0.0-5.0-0.14,,,,
,,,,,,,,,,
1912,,"{""P0_Q0"":""(Impossible)""}",survey,34,1988226,0.0-5.0-1.14,[],,,
,,,,,,,,,,
1109,TestRecordings/pwam.wav,0,audio-button-response,35,1989344,0.0-5.0-0.15,,,,
,,,,,,,,,,
1379,,"{""P0_Q0"":""(Impossible)""}",survey,36,1990730,0.0-5.0-1.15,[],,,
,,,,,,,,,,
1030,TestRecordings/kutpim.wav,0,audio-button-response,37,1991767,0.0-5.0-0.16,,,,
,,,,,,,,,,
1978,,"{""P0_Q0"":""(Impossible)""}",survey,38,1993754,0.0-5.0-1.16,[],,,
,,,,,,,,,,
1061,TestRecordings/skain.wav,0,audio-button-response,39,1994824,0.0-5.0-0.17,,,,
,,,,,,,,,,
1195,,"{""P0_Q0"":""(Impossible)""}",survey,40,1996026,0.0-5.0-1.17,[],,,
,,,,,,,,,,
998,TestRecordings/nangdup.wav,0,audio-button-response,41,1997032,0.0-5.0-0.18,,,,
,,,,,,,,,,
1131,,"{""P0_Q0"":""(Impossible)""}",survey,42,1998170,0.0-5.0-1.18,[],,,
,,,,,,,,,,
893,TestRecordings/drumbeng.wav,0,audio-button-response,43,1999071,0.0-5.0-0.19,,,,
,,,,,,,,,,
5195,,"{""P0_Q0"":""(Impossible)""}",survey,44,2004273,0.0-5.0-1.19,[],,,
,,,,,,,,,,
1045,TestRecordings/paim.wav,0,audio-button-response,45,2005327,0.0-5.0-0.20,,,,
,,,,,,,,,,
1665,,"{""P0_Q0"":""(Possible)""}",survey,46,2007011,0.0-5.0-1.20,[],,,
,,,,,,,,,,
1067,TestRecordings/trahm.wav,0,audio-button-response,47,2008088,0.0-5.0-0.21,,,,
,,,,,,,,,,
1379,,"{""P0_Q0"":""(Impossible)""}",survey,48,2009491,0.0-5.0-1.21,[],,,
,,,,,,,,,,
883,TestRecordings/kmaut.wav,0,audio-button-response,49,2010382,0.0-5.0-0.22,,,,
,,,,,,,,,,
1600,,"{""P0_Q0"":""(Impossible)""}",survey,50,2011993,0.0-5.0-1.22,[],,,
,,,,,,,,,,
1213,TestRecordings/sengdun.wav,0,audio-button-response,51,2013215,0.0-5.0-0.23,,,,
,,,,,,,,,,
1449,,"{""P0_Q0"":""(Impossible)""}",survey,52,2014690,0.0-5.0-1.23,[],,,
,,,,,,,,,,
795,TestRecordings/gistum.wav,0,audio-button-response,53,2015495,0.0-5.0-0.24,,,,
,,,,,,,,,,
1213,,"{""P0_Q0"":""(Impossible)""}",survey,54,2016720,0.0-5.0-1.24,[],,,
,,,,,,,,,,
950,TestRecordings/mkait.wav,0,audio-button-response,55,2017678,0.0-5.0-0.25,,,,
,,,,,,,,,,
2129,,"{""P0_Q0"":""(Possible)""}",survey,56,2019825,0.0-5.0-1.25,[],,,
,,,,,,,,,,
844,TestRecordings/punseng.wav,0,audio-button-response,57,2020678,0.0-5.0-0.26,,,,
,,,,,,,,,,
2794,,"{""P0_Q0"":""(Impossible)""}",survey,58,2023498,0.0-5.0-1.26,[],,,
,,,,,,,,,,
1166,TestRecordings/bem.wav,0,audio-button-response,59,2024678,0.0-5.0-0.27,,,,
,,,,,,,,,,
1368,,"{""P0_Q0"":""(Impossible)""}",survey,60,2026057,0.0-5.0-1.27,[],,,
,,,,,,,,,,
1116,TestRecordings/tlem.wav,0,audio-button-response,61,2027182,0.0-5.0-0.28,,,,
,,,,,,,,,,
3795,,"{""P0_Q0"":""(Impossible)""}",survey,62,2030985,0.0-5.0-1.28,[],,,
,,,,,,,,,,
1653,TestRecordings/gipsus.wav,0,audio-button-response,63,2032646,0.0-5.0-0.29,,,,
,,,,,,,,,,
1594,,"{""P0_Q0"":""(Impossible)""}",survey,64,2034248,0.0-5.0-1.29,[],,,
,,,,,,,,,,
3429,TestRecordings/kmeip.wav,0,audio-button-response,65,2037685,0.0-5.0-0.30,,,,
,,,,,,,,,,
1866,,"{""P0_Q0"":""(Impossible)""}",survey,66,2039560,0.0-5.0-1.30,[],,,
,,,,,,,,,,
853,TestRecordings/tlik.wav,0,audio-button-response,67,2040421,0.0-5.0-0.31,,,,
,,,,,,,,,,
1154,,"{""P0_Q0"":""(Impossible)""}",survey,68,2041583,0.0-5.0-1.31,[],,,
,,,,,,,,,,
942,TestRecordings/drakpum.wav,0,audio-button-response,69,2042533,0.0-5.0-0.32,,,,
,,,,,,,,,,
1676,,"{""P0_Q0"":""(Impossible)""}",survey,70,2044215,0.0-5.0-1.32,[],,,
,,,,,,,,,,
886,TestRecordings/nboup.wav,0,audio-button-response,71,2045109,0.0-5.0-0.33,,,,
,,,,,,,,,,
1316,,"{""P0_Q0"":""(Impossible)""}",survey,72,2046431,0.0-5.0-1.33,[],,,
,,,,,,,,,,
868,TestRecordings/pmeit.wav,0,audio-button-response,73,2047309,0.0-5.0-0.34,,,,
,,,,,,,,,,
1564,,"{""P0_Q0"":""(Impossible)""}",survey,74,2048879,0.0-5.0-1.34,[],,,
,,,,,,,,,,
965,TestRecordings/dmut.wav,0,audio-button-response,75,2049853,0.0-5.0-0.35,,,,
,,,,,,,,,,
1677,,"{""P0_Q0"":""(Impossible)""}",survey,76,2051535,0.0-5.0-1.35,[],,,
,,,,,,,,,,
1446,TestRecordings/tlemkun.wav,0,audio-button-response,77,2052989,0.0-5.0-0.36,,,,
,,,,,,,,,,
2139,,"{""P0_Q0"":""(Impossible)""}",survey,78,2055134,0.0-5.0-1.36,[],,,
,,,,,,,,,,
981,TestRecordings/stahm.wav,0,audio-button-response,79,2056124,0.0-5.0-0.37,,,,
,,,,,,,,,,
2419,,"{""P0_Q0"":""(Possible)""}",survey,80,2058550,0.0-5.0-1.37,[],,,
,,,,,,,,,,
982,TestRecordings/dlemkus.wav,0,audio-button-response,81,2059540,0.0-5.0-0.38,,,,
,,,,,,,,,,
1339,,"{""P0_Q0"":""(Impossible)""}",survey,82,2060886,0.0-5.0-1.38,[],,,
,,,,,,,,,,
1046,TestRecordings/drustet.wav,0,audio-button-response,83,2061940,0.0-5.0-0.39,,,,
,,,,,,,,,,
2084,,"{""P0_Q0"":""(Impossible)""}",survey,84,2064030,0.0-5.0-1.39,[],,,
,,,,,,,,,,
2430,TestRecordings/ndeip.wav,0,audio-button-response,85,2066467,0.0-5.0-0.40,,,,
,,,,,,,,,,
1945,,"{""P0_Q0"":""(Possible)""}",survey,86,2068421,0.0-5.0-1.40,[],,,
,,,,,,,,,,
989,TestRecordings/gitpes.wav,0,audio-button-response,87,2069420,0.0-5.0-0.41,,,,
,,,,,,,,,,
1463,,"{""P0_Q0"":""(Impossible)""}",survey,88,2070903,0.0-5.0-1.41,[],,,
,,,,,,,,,,
940,TestRecordings/gatkun.wav,0,audio-button-response,89,2071852,0.0-5.0-0.42,,,,
,,,,,,,,,,
2044,,"{""P0_Q0"":""(Impossible)""}",survey,90,2073906,0.0-5.0-1.42,[],,,
,,,,,,,,,,
1110,TestRecordings/trindes.wav,0,audio-button-response,91,2075027,0.0-5.0-0.43,,,,
,,,,,,,,,,
5286,,"{""P0_Q0"":""(Possible)""}",survey,92,2080330,0.0-5.0-1.43,[],,,
,,,,,,,,,,
855,TestRecordings/gup.wav,0,audio-button-response,93,2081195,0.0-5.0-0.44,,,,
,,,,,,,,,,
1009,,"{""P0_Q0"":""(Impossible)""}",survey,94,2082223,0.0-5.0-1.44,[],,,
,,,,,,,,,,
723,TestRecordings/ntek.wav,0,audio-button-response,95,2082955,0.0-5.0-0.45,,,,
,,,,,,,,,,
1097,,"{""P0_Q0"":""(Impossible)""}",survey,96,2084061,0.0-5.0-1.45,[],,,
,,,,,,,,,,
837,TestRecordings/tloum.wav,0,audio-button-response,97,2084906,0.0-5.0-0.46,,,,
,,,,,,,,,,
1497,,"{""P0_Q0"":""(Impossible)""}",survey,98,2086413,0.0-5.0-1.46,[],,,
,,,,,,,,,,
1030,TestRecordings/tlipgat.wav,0,audio-button-response,99,2087450,0.0-5.0-0.47,,,,
,,,,,,,,,,
1338,,"{""P0_Q0"":""(Impossible)""}",survey,100,2088797,0.0-5.0-1.47,[],,,
,,,,,,,,,,
916,TestRecordings/mepgut.wav,0,audio-button-response,101,2089722,0.0-5.0-0.48,,,,
,,,,,,,,,,
1364,,"{""P0_Q0"":""(Impossible)""}",survey,102,2091092,0.0-5.0-1.48,[],,,
,,,,,,,,,,
805,TestRecordings/tlasdung.wav,0,audio-button-response,103,2091906,0.0-5.0-0.49,,,,
,,,,,,,,,,
1745,,"{""P0_Q0"":""(Impossible)""}",survey,104,2093660,0.0-5.0-1.49,[],,,
,,,,,,,,,,
805,TestRecordings/tisbeng.wav,0,audio-button-response,105,2094474,0.0-5.0-0.50,,,,
,,,,,,,,,,
1221,,"{""P0_Q0"":""(Impossible)""}",survey,106,2095701,0.0-5.0-1.50,[],,,
,,,,,,,,,,
1076,TestRecordings/pmiik.wav,0,audio-button-response,107,2096786,0.0-5.0-0.51,,,,
,,,,,,,,,,
1563,,"{""P0_Q0"":""(Impossible)""}",survey,108,2098356,0.0-5.0-1.51,[],,,
,,,,,,,,,,
1029,TestRecordings/pundes.wav,0,audio-button-response,109,2099393,0.0-5.0-0.52,,,,
,,,,,,,,,,
3733,,"{""P0_Q0"":""(Possible)""}",survey,110,2103132,0.0-5.0-1.52,[],,,
,,,,,,,,,,
949,TestRecordings/pemdut.wav,0,audio-button-response,111,2104089,0.0-5.0-0.53,,,,
,,,,,,,,,,
1493,,"{""P0_Q0"":""(Impossible)""}",survey,112,2105587,0.0-5.0-1.53,[],,,
,,,,,,,,,,
1276,TestRecordings/dloun.wav,0,audio-button-response,113,2106874,0.0-5.0-0.54,,,,
,,,,,,,,,,
2572,,"{""P0_Q0"":""(Impossible)""}",survey,114,2109452,0.0-5.0-1.54,[],,,
,,,,,,,,,,
4782,TestRecordings/drikteng.wav,0,audio-button-response,115,2114241,0.0-5.0-0.55,,,,
,,,,,,,,,,
1979,,"{""P0_Q0"":""(Impossible)""}",survey,116,2116227,0.0-5.0-1.55,[],,,
,,,,,,,,,,
1085,TestRecordings/drantung.wav,0,audio-button-response,117,2117320,0.0-5.0-0.56,,,,
,,,,,,,,,,
2028,,"{""P0_Q0"":""(Impossible)""}",survey,118,2119355,0.0-5.0-1.56,[],,,
,,,,,,,,,,
949,TestRecordings/tempuk.wav,0,audio-button-response,119,2120312,0.0-5.0-0.57,,,,
,,,,,,,,,,
1509,,"{""P0_Q0"":""(Impossible)""}",survey,120,2121827,0.0-5.0-1.57,[],,,
,,,,,,,,,,
932,TestRecordings/tlumgak.wav,0,audio-button-response,121,2122768,0.0-5.0-0.58,,,,
,,,,,,,,,,
2205,,"{""P0_Q0"":""(Impossible)""}",survey,122,2124978,0.0-5.0-1.58,[],,,
,,,,,,,,,,
837,TestRecordings/twas.wav,0,audio-button-response,123,2125824,0.0-5.0-0.59,,,,
,,,,,,,,,,
2011,,"{""P0_Q0"":""(Impossible)""}",survey,124,2127842,0.0-5.0-1.59,[],,,
,,,,,,,,,,
8423,, ,html-keyboard-response,125,2136265,0.0-6.0,,,,
,,,,,,,,,,
33029,,"{""P0_Q0"":""22"",""P0_Q1"":""Male"",""P0_Q2"":""Yes"",""P0_Q3"":""Spanish"",""P0_Q4"":""5 and for 10 years"",""P0_Q5"":""No other languages""}",survey,126,2169330,0.0-7.0,[],,,
,,,,,,,,,,
233044,"<p style=""font-size:30px"">The experiment has ended</p><p style=""font-size:30px"",lang=""ko"">Thanks for participating in it!</p>", ,html-keyboard-response,127,2402363,0.0-8.0,,,,