"rt","stimulus","response","trial_type","trial_index","time_elapsed","internal_node_id","accuracy","PracticeTest","ConsonantSequence","Grammaticality"
"2559970","<p style=""font-size:30px"",lang=""ko"">실험에 오신 것을 환영합니다</p><p lang=""ko"">스페이스바를 누르면 다음 페이지로 넘어갑니다</p>"," ","html-keyboard-response","0","2559760","0.0-0.0","","","",""
"11502","<p style=""font-size:30px"",lang=""ko"">해드폰을 본인에게 잘 맞게 착용하세요</p><p lang=""ko"">스페이스바를 누르면 다음 페이지로 넘어갑니다</p>"," ","html-keyboard-response","1","2571264","0.0-1.0","","","",""
"5846","<p style=""font-size:30px"",lang=""ko"">이 실험에서는 새로 만든 한국 단어를 들으실 겁니다</p><p style=""font-size:30px"",lang=""ko"">단어를 들리는대로 쓰세요. 그런 다음 그 단어가 한국어 단어로 가능한지 평가하세요</p><p lang=""ko"">스페이스바를 누르면 다음 페이지로 넘어갑니다</p>"," ","html-keyboard-response","2","2577111","0.0-2.0","","","",""
"1137","<p style=""font-size:30px"",lang=""ko"">원래 있는 단어로 예를 들어 봅시다</p><p lang=""ko"">스페이스바를 누르면 다음 페이지로 넘어갑니다</p>"," ","html-keyboard-response","3","2578249","0.0-3.0","","","",""
"5822","PracticeRecordings/kom_bear.wav","0","audio-button-response","4","2584171","0.0-4.0","","","",""
"2047","<p style=""font-size:30px"",lang=""ko"">이제 직접 단어를 듣고 쓰는 연습을 해봅시다. </p><p style=""font-size:30px"",lang=""ko"">스페이스바를 누르면 다음 페이지로 넘어갑니다</p>"," ","html-keyboard-response","5","2586219","0.0-5.0","","","",""
"3271","PracticeRecordings/kirin_giraffe.wav","0","audio-button-response","6","2589575","0.0-6.0-0.0","","","",""
"9162","kirin_giraffe","{""P0_Q0"":""ㄱ,ㅣ,ㄹ,ㅣ,ㄴ""}","survey","7","2598781","0.0-6.0-1.0","[]","practice","NA","TRUE"
"1435","<p style=""font-size:30px"",lang=""ko"">방금 들으신 단어는 ""ㄱ,ㅣ,ㄹ,ㅣ,ㄴ"" 이라고 쓰시면 됩니다</p><p lang=""ko"">스페이스바를 누르면 다음 페이지로 넘어갑니다</p>"," ","html-keyboard-response","8","2600217","0.0-6.0-2.0","","","",""
"1206","PracticeRecordings/saca_lion.wav","0","audio-button-response","9","2601496","0.0-6.0-0.1","","","",""
"5441","saca_lion","{""P0_Q0"":""ㅅ,ㅏ,ㅈ,ㅏ""}","survey","10","2606946","0.0-6.0-1.1","[]","practice","NA","FALSE"
"1095","<p style=""font-size:30px"",lang=""ko"">방금 들으신 단어는 ""ㅅ,ㅏ,ㅈ,ㅏ"" 라고 쓰시면 됩니다</p><p lang=""ko"">스페이스바를 누르면 다음 페이지로 넘어갑니다</p>"," ","html-keyboard-response","11","2608042","0.0-6.0-2.1","","","",""
"1213","PracticeRecordings/saseum_deer.wav","0","audio-button-response","12","2609340","0.0-6.0-0.2","","","",""
"4463","saseum_deer","{""P0_Q0"":""ㅅ,ㅏ,ㅅ,ㅡ,ㅁ""}","survey","13","2613811","0.0-6.0-1.2","[]","practice","NA","FALSE"
"823","<p style=""font-size:30px"",lang=""ko"">방금 들으신 단어는 ""ㅅ,ㅏ,ㅅ,ㅡ,ㅁ""이라고 쓰시면 됩니다</p><p lang=""ko"">스페이스바를 누르면 다음 페이지로 넘어갑니다</p>"," ","html-keyboard-response","14","2614635","0.0-6.0-2.2","","","",""
"1046","PracticeRecordings/thokki_rabbit.wav","0","audio-button-response","15","2615767","0.0-6.0-0.3","","","",""
"4303","thokki_rabbit","{""P0_Q0"":""ㅌ,ㅗ,ㄲ,ㅣ""}","survey","16","2620077","0.0-6.0-1.3","[]","practice","NA","FALSE"
"2579","<p style=""font-size:30px"",lang=""ko"">방금 들으신 단어는 ""ㅌ,ㅗ,ㄲ,ㅣ"" 라고 쓰시면 됩니다</p><p lang=""ko"">스페이스바를 누르면 다음 페이지로 넘어갑니다</p>"," ","html-keyboard-response","17","2622657","0.0-6.0-2.3","","","",""
"1478","<p style=""font-size:30px"",lang=""ko"">이제 만든 단어로 연습해봅시다.</p><p lang=""ko"">스페이스바를 누르면 다음 페이지로 넘어갑니다</p>"," ","html-keyboard-response","18","2624135","0.0-7.0","","","",""
"1947","PracticeRecordings/snen.wav","0","audio-button-response","19","2626169","0.0-8.0-0.0","","","",""
"4605","snen","{""P0_Q0"":""ㅅ,ㅡ,ㄴ,ㅐ,ㄴ""}","survey","20","2630782","0.0-8.0-1.0","[]","practice","NA","TRUE"
"5738","<p style=""font-size:30px"",lang=""ko"">들으신 단어는 <br> ""ㅅ,ㅡ,ㄴ,ㅐ,ㄴ""  ""ㅅ,ㅡ,ㄴ,ㅐ"" ""ㅅ,ㄴ,ㅐ,ㄴ (""으"" 소리가 안 들리는 경우)"" 등 <br> 사람에 따라 다양하게 들릴 수 있습니다 <br> 본인에게 들리는대로 쓰시면 됩니다.</p><p lang=""ko"">스페이스바를 누르면 다음 페이지로 넘어갑니다</p>"," ","html-keyboard-response","21","2636520","0.0-8.0-2.0","","","",""
"1820","PracticeRecordings/phrak.wav","0","audio-button-response","22","2638425","0.0-8.0-0.1","","","",""
"3596","phrak","{""P0_Q0"":""ㅍ,ㅡ,ㄹ,ㅏ,ㄱ""}","survey","23","2642027","0.0-8.0-1.1","[]","practice","NA","FALSE"
"1161","<p style=""font-size:30px"",lang=""ko"">들으신 단어는 <br> ""ㅍ,ㅡ,ㄹ,ㅏ,ㄱ"" ""ㅍ,ㅡ,ㄹ,ㅏ,ㅅ"" ""ㅋ,ㅡ,ㄹ,ㅏ,ㄱ"" ""ㅍ,ㄹ,ㅏ,ㄱ (""으"" 소리가 안 들리는 경우)"" 등 <br> 사람에 따라 다양하게 들릴 수 있습니다 <br> 본인에게 들리는대로 쓰시면 됩니다.</p><p lang=""ko"">스페이스바를 누르면 다음 페이지로 넘어갑니다</p>"," ","html-keyboard-response","24","2643189","0.0-8.0-2.1","","","",""
"825","PracticeRecordings/chka.wav","0","audio-button-response","25","2644097","0.0-8.0-0.2","","","",""
"7466","chka","{""P0_Q0"":""ㅅ,ㅡ,ㅋ,ㅏ,ㅇ,ㅏ,ㄹ""}","survey","26","2651570","0.0-8.0-1.2","[]","practice","NA","FALSE"
"2256","<p style=""font-size:30px"",lang=""ko"">들으신 단어는 ""ㅊ,ㅣ,ㄱ,ㅏ"", ""ㅊ,ㅡ,ㄱ,ㅏ"", ""ㅊ,ㄱ,ㅏ"", ""ㅊ,ㅟ,ㄱ,ㅏ"" 등 <br> 사람에 따라 다양하게 들릴 수 있습니다. <br> 본인에게 들리는대로 쓰시면 됩니다.</p><p lang=""ko"">스페이스바를 누르면 다음 페이지로 넘어갑니다</p>"," ","html-keyboard-response","27","2653826","0.0-8.0-2.2","","","",""
"1830",""," ","html-keyboard-response","28","2655657","0.0-9.0","","","",""
"3469","<p style=""font-size:30px"",lang=""ko"">이제 실험을 시작하겠습니다.</p><p style=""font-size:30px"",lang=""ko"">실전에서는 각각의 만든 단어를 한 번씩만 들을 수 있습니다.</p>"," ","html-keyboard-response","29","2659126","0.0-10.0","","","",""
"4562","<p style=""font-size:30px"",lang=""ko"">단어를 풀어 쓰신 후에 그 단어가 한국어로 가능한 단어인지 평가해주세요</p><p style=""font-size:30px"",lang=""ko"">1점은 한국어로 완전 불가능한 단어, 7점은 한국어로 완전 가능한 단어를 의미합니다</p><p lang=""ko"">스페이스바를 누르면 다음 페이지로 넘어갑니다</p>"," ","html-keyboard-response","30","2663689","0.0-11.0","","","",""
"2095","TestRecordings/thnakop.wav","0","audio-button-response","31","2665868","0.0-12.0-0.0","","","",""
"20600","","{""P0_Q0"":""ㅌ,ㅡ,ㄴ,ㅏ,ㄱ,ㅗ,ㅂ"",""P0_Q1"":3}","survey","32","2686484","0.0-12.0-1.0","[]","","",""
"1460","TestRecordings/kophak.wav","0","audio-button-response","33","2688030","0.0-12.0-0.1","","","",""
"8998","","{""P0_Q0"":""ㄱ,ㅗ,ㅂ"",""P0_Q1"":7}","survey","34","2697040","0.0-12.0-1.1","[]","","",""
"2511","TestRecordings/khmoting.wav","0","audio-button-response","35","2699634","0.0-12.0-0.2","","","",""
"9365","","{""P0_Q0"":""ㅋ,ㅡ,ㄴ,ㅗ,ㄷ,ㅣ,ㅇ"",""P0_Q1"":2}","survey","36","2709009","0.0-12.0-1.2","[]","","",""
"1955","TestRecordings/thum.wav","0","audio-button-response","37","2711048","0.0-12.0-0.3","","","",""
"4605","","{""P0_Q0"":""ㅌ,ㅡ,ㅁ"",""P0_Q1"":7}","survey","38","2715660","0.0-12.0-1.3","[]","","",""
"2111","TestRecordings/nthiton.wav","0","audio-button-response","39","2717857","0.0-12.0-0.4","","","",""
"9302","","{""P0_Q0"":""ㅇ,ㅡ,ㅇ,ㅌ,ㅣ,ㄷ,ㅗ,ㄴ"",""P0_Q1"":2}","survey","40","2727167","0.0-12.0-1.4","[]","","",""
"1511","TestRecordings/knop.wav","0","audio-button-response","41","2728761","0.0-12.0-0.5","","","",""
"8152","","{""P0_Q0"":""ㅋ,ㅡ,ㄴ,ㅗ,ㅂ"",""P0_Q1"":4}","survey","42","2736921","0.0-12.0-1.5","[]","","",""
"2581","TestRecordings/cwang.wav","0","audio-button-response","43","2739585","0.0-12.0-0.6","","","",""
"5548","","{""P0_Q0"":""ㅈ,ㅜ,ㅇ,ㅏ,ㅇ"",""P0_Q1"":6}","survey","44","2745142","0.0-12.0-1.6","[]","","",""
"1674","TestRecordings/mtak.wav","0","audio-button-response","45","2746900","0.0-12.0-0.7","","","",""
"6210","","{""P0_Q0"":""ㅇ,ㅡ,ㅇ,ㄷ,ㅏ,ㄱ"",""P0_Q1"":7}","survey","46","2753117","0.0-12.0-1.7","[]","","",""
"1788","TestRecordings/npokit.wav","0","audio-button-response","47","2754990","0.0-12.0-0.8","","","",""
"8582","","{""P0_Q0"":""ㅇ,ㅡ,ㅁ,ㅂ,ㅗ,ㄱ,ㅣ,ㅅ"",""P0_Q1"":1}","survey","48","2763579","0.0-12.0-1.8","[]","","",""
"1430","TestRecordings/sutik.wav","0","audio-button-response","49","2765092","0.0-12.0-0.9","","","",""
"5561","","{""P0_Q0"":""ㅅ,ㅜ,ㄷ,ㅣ,ㄱ"",""P0_Q1"":5}","survey","50","2770662","0.0-12.0-1.9","[]","","",""
"1384","TestRecordings/cmot.wav","0","audio-button-response","51","2772130","0.0-12.0-0.10","","","",""
"6354","","{""P0_Q0"":""ㅅ,ㅡ,ㅁ,ㅜ,ㅅ"",""P0_Q1"":2}","survey","52","2778491","0.0-12.0-1.10","[]","","",""
"1818","TestRecordings/swakhing.wav","0","audio-button-response","53","2780395","0.0-12.0-0.11","","","",""
"6388","","{""P0_Q0"":""ㅅ,ㅏ,ㅋ,ㅣ,ㅇ"",""P0_Q1"":4}","survey","54","2786790","0.0-12.0-1.11","[]","","",""
"1402","TestRecordings/cut.wav","0","audio-button-response","55","2788278","0.0-12.0-0.12","","","",""
"4512","","{""P0_Q0"":""ㅈ,ㅜ,ㅅ"",""P0_Q1"":7}","survey","56","2792798","0.0-12.0-1.12","[]","","",""
"1436","TestRecordings/cwasop.wav","0","audio-button-response","57","2794314","0.0-12.0-0.13","","","",""
"12742","","{""P0_Q0"":""ㅈ,ㅘ,ㅅ,ㅓ,ㅂ"",""P0_Q1"":6}","survey","58","2807062","0.0-12.0-1.13","[]","","",""
"1996","TestRecordings/pmisung.wav","0","audio-button-response","59","2809141","0.0-12.0-0.14","","","",""
"7082","","{""P0_Q0"":""ㅋ,ㄴ,ㅣ,ㅅ,ㅜ,ㅇ"",""P0_Q1"":2}","survey","60","2816231","0.0-12.0-1.14","[]","","",""
"1853","TestRecordings/nchitam.wav","0","audio-button-response","61","2818169","0.0-12.0-0.15","","","",""
"11349","","{""P0_Q0"":""ㅇ,ㅜ,ㅇ,ㅊ,ㅣ,ㄷ,ㅏ,ㅁ"",""P0_Q1"":3}","survey","62","2829526","0.0-12.0-1.15","[]","","",""
"1059","TestRecordings/mip.wav","0","audio-button-response","63","2830667","0.0-12.0-0.16","","","",""
"3700","","{""P0_Q0"":""ㅁ,ㅣ,ㅂ"",""P0_Q1"":7}","survey","64","2834374","0.0-12.0-1.16","[]","","",""
"1225","TestRecordings/kwat.wav","0","audio-button-response","65","2835681","0.0-12.0-0.17","","","",""
"4223","","{""P0_Q0"":""ㄱ,ㅘ,ㅅ"",""P0_Q1"":7}","survey","66","2839911","0.0-12.0-1.17","[]","","",""
"1901","TestRecordings/siphuk.wav","0","audio-button-response","67","2841900","0.0-12.0-0.18","","","",""
"6339","","{""P0_Q0"":""ㅅ,ㅣ,ㅍ,ㅜ"",""P0_Q1"":5}","survey","68","2848245","0.0-12.0-1.18","[]","","",""
"1682","TestRecordings/nthunit.wav","0","audio-button-response","69","2850010","0.0-12.0-0.19","","","",""
"8452","","{""P0_Q0"":""ㅇ,ㅡ,ㅇ,ㅌ,ㅜ,ㄴ,ㅣ,ㅅ"",""P0_Q1"":2}","survey","70","2858471","0.0-12.0-1.19","[]","","",""
"2162","TestRecordings/ntosin.wav","0","audio-button-response","71","2860717","0.0-12.0-0.20","","","",""
"9299","","{""P0_Q0"":""ㅇ,ㅡ,ㅇ,ㄷ,ㅜ,ㅅ,ㅣ,ㄴ"",""P0_Q1"":3}","survey","72","2870023","0.0-12.0-1.20","[]","","",""
"1910","TestRecordings/phwing.wav","0","audio-button-response","73","2872019","0.0-12.0-0.21","","","",""
"5182","","{""P0_Q0"":""ㅍ,ㅞ,ㅇ"",""P0_Q1"":5}","survey","74","2877209","0.0-12.0-1.21","[]","","",""
"1539","TestRecordings/nchak.wav","0","audio-button-response","75","2878830","0.0-12.0-0.22","","","",""
"4964","","{""P0_Q0"":""ㅇ,ㅡ,ㅇ,ㅊ,ㅏ,ㄱ"",""P0_Q1"":7}","survey","76","2883801","0.0-12.0-1.22","[]","","",""
"1518","TestRecordings/khonik.wav","0","audio-button-response","77","2885403","0.0-12.0-0.23","","","",""
"5765","","{""P0_Q0"":""ㅋ,ㅗ,ㄴ,ㅣ,ㄱ"",""P0_Q1"":4}","survey","78","2891176","0.0-12.0-1.23","[]","","",""
"1396","TestRecordings/phuthik.wav","0","audio-button-response","79","2892655","0.0-12.0-0.24","","","",""
"4812","","{""P0_Q0"":""ㅍ,ㅜ,ㅌ,ㅣ,ㄱ"",""P0_Q1"":3}","survey","80","2897473","0.0-12.0-1.24","[]","","",""
"1652","TestRecordings/swapong.wav","0","audio-button-response","81","2899210","0.0-12.0-0.25","","","",""
"6663","","{""P0_Q0"":""ㅅ,ㅘ,ㅂ,ㅗ,ㅇ"",""P0_Q1"":4}","survey","82","2905881","0.0-12.0-1.25","[]","","",""
"1241","TestRecordings/masuk.wav","0","audio-button-response","83","2907206","0.0-12.0-0.26","","","",""
"6109","","{""P0_Q0"":""ㅁ,ㅏ,ㅅ,ㅜ,ㄱ"",""P0_Q1"":7}","survey","84","2913321","0.0-12.0-1.26","[]","","",""
"1529","TestRecordings/nthochap.wav","0","audio-button-response","85","2914935","0.0-12.0-0.27","","","",""
"6804","","{""P0_Q0"":""ㅇ,ㅡ,ㅇ,ㅌ,ㅗ,ㅊ,ㅏ,ㄱ"",""P0_Q1"":2}","survey","86","2921745","0.0-12.0-1.27","[]","","",""
"1551","TestRecordings/phwim.wav","0","audio-button-response","87","2923382","0.0-12.0-0.28","","","",""
"4489","","{""P0_Q0"":""ㅍ,ㅣ,ㅁ"",""P0_Q1"":7}","survey","88","2927879","0.0-12.0-1.28","[]","","",""
"1334","TestRecordings/swicit.wav","0","audio-button-response","89","2929300","0.0-12.0-0.29","","","",""
"7605","","{""P0_Q0"":""ㅅ,ㅟ,ㅈ,ㅣ,ㅅ"",""P0_Q1"":4}","survey","90","2936912","0.0-12.0-1.29","[]","","",""
"1353","TestRecordings/nchat.wav","0","audio-button-response","91","2938349","0.0-12.0-0.30","","","",""
"5222","","{""P0_Q0"":""ㅇ,ㅡ,ㅇ,ㅊ,ㅏ,ㅅ"",""P0_Q1"":3}","survey","92","2943578","0.0-12.0-1.30","[]","","",""
"1807","TestRecordings/mkithun.wav","0","audio-button-response","93","2945468","0.0-12.0-0.31","","","",""
"6651","","{""P0_Q0"":""ㅇ,ㅡ,ㅇ,ㄱ,ㅣ,ㅌ,ㅜ,ㄴ"",""P0_Q1"":2}","survey","94","2952127","0.0-12.0-1.31","[]","","",""
"1296","TestRecordings/twikhit.wav","0","audio-button-response","95","2953508","0.0-12.0-0.32","","","",""
"7771","","{""P0_Q0"":""ㄷ,ㅟ,ㅋ,ㅣ,ㅅ"",""P0_Q1"":5}","survey","96","2961286","0.0-12.0-1.32","[]","","",""
"1833","TestRecordings/chwakap.wav","0","audio-button-response","97","2963142","0.0-12.0-0.33","","","",""
"5251","","{""P0_Q0"":""ㅊ,ㅏ,ㄱ,ㅏ,ㅂ"",""P0_Q1"":6}","survey","98","2968406","0.0-12.0-1.33","[]","","",""
"2641","TestRecordings/ncuk.wav","0","audio-button-response","99","2971130","0.0-12.0-0.34","","","",""
"6600","","{""P0_Q0"":""ㅇ,ㅗ,ㅇ,ㅈ,ㅜ,ㅂ"",""P0_Q1"":6}","survey","100","2977737","0.0-12.0-1.34","[]","","",""
"1289","TestRecordings/niphak.wav","0","audio-button-response","101","2979110","0.0-12.0-0.35","","","",""
"4330","","{""P0_Q0"":""ㄴ,ㅣ,ㅍ,ㅏ"",""P0_Q1"":7}","survey","102","2983447","0.0-12.0-1.35","[]","","",""
"1008","TestRecordings/khmip.wav","0","audio-button-response","103","2984538","0.0-12.0-0.36","","","",""
"4354","","{""P0_Q0"":""ㅋ,ㅡ,ㄴ,ㅣ,ㅂ"",""P0_Q1"":4}","survey","104","2988899","0.0-12.0-1.36","[]","","",""
"1329","TestRecordings/khun.wav","0","audio-button-response","105","2990312","0.0-12.0-0.37","","","",""
"3716","","{""P0_Q0"":""ㅋ,ㅜ,ㄴ"",""P0_Q1"":6}","survey","106","2994036","0.0-12.0-1.37","[]","","",""
"2390","TestRecordings/chwap.wav","0","audio-button-response","107","2996510","0.0-12.0-0.38","","","",""
"4261","","{""P0_Q0"":""ㅊ,ㅘ,ㅂ"",""P0_Q1"":7}","survey","108","3000778","0.0-12.0-1.38","[]","","",""
"1165","TestRecordings/chut.wav","0","audio-button-response","109","3002026","0.0-12.0-0.39","","","",""
"4772","","{""P0_Q0"":""ㅊ,ㅜ,ㄷ"",""P0_Q1"":6}","survey","110","3006806","0.0-12.0-1.39","[]","","",""
"1110","TestRecordings/thwicap.wav","0","audio-button-response","111","3007993","0.0-12.0-0.40","","","",""
"6637","","{""P0_Q0"":""ㅌ,ㅟ,ㅈ,ㅏ,ㅂ"",""P0_Q1"":6}","survey","112","3014636","0.0-12.0-1.40","[]","","",""
"1533","TestRecordings/pathik.wav","0","audio-button-response","113","3016254","0.0-12.0-0.41","","","",""
"4446","","{""P0_Q0"":""ㅂ,ㅏ,ㅌ,ㅣ,ㄱ"",""P0_Q1"":5}","survey","114","3020705","0.0-12.0-1.41","[]","","",""
"1666","TestRecordings/cwiphing.wav","0","audio-button-response","115","3022455","0.0-12.0-0.42","","","",""
"4679","","{""P0_Q0"":""ㅌ,ㅟ,ㅍ,ㅣ,ㅇ"",""P0_Q1"":5}","survey","116","3027140","0.0-12.0-1.42","[]","","",""
"1436","TestRecordings/pwacung.wav","0","audio-button-response","117","3028663","0.0-12.0-0.43","","","",""
"6190","","{""P0_Q0"":""ㅂ,ㅘ,ㅈ,ㅜ,ㅇ"",""P0_Q1"":7}","survey","118","3034861","0.0-12.0-1.43","[]","","",""
"1460","TestRecordings/mphithup.wav","0","audio-button-response","119","3036406","0.0-12.0-0.44","","","",""
"6992","","{""P0_Q0"":""ㅇ,ㅡ,ㅇ,ㅍ,ㅣ,ㅌ,ㅜ,ㅂ"",""P0_Q1"":2}","survey","120","3043405","0.0-12.0-1.44","[]","","",""
"1013","TestRecordings/nucok.wav","0","audio-button-response","121","3044503","0.0-12.0-0.45","","","",""
"6095","","{""P0_Q0"":""ㄴ,ㅜ,ㅈ,ㅗ,ㅂ"",""P0_Q1"":7}","survey","122","3050605","0.0-12.0-1.45","[]","","",""
"1549","TestRecordings/khnichat.wav","0","audio-button-response","123","3052240","0.0-12.0-0.46","","","",""
"6878","","{""P0_Q0"":""ㅋ,ㅡ,ㄴ,ㅣ,ㅊ,ㅏ,ㅂ"",""P0_Q1"":2}","survey","124","3059125","0.0-12.0-1.46","[]","","",""
"1155","TestRecordings/nchup.wav","0","audio-button-response","125","3060364","0.0-12.0-0.47","","","",""
"5816","","{""P0_Q0"":""ㅇ,ㅡ,ㅇ,ㅊ,ㅜ,ㄱ"",""P0_Q1"":7}","survey","126","3066188","0.0-12.0-1.47","[]","","",""
"1201","TestRecordings/takhut.wav","0","audio-button-response","127","3067473","0.0-12.0-0.48","","","",""
"7804","","{""P0_Q0"":""ㅂ,ㅘ,ㅋ,ㅜ,ㅅ"",""P0_Q1"":3}","survey","128","3075283","0.0-12.0-1.48","[]","","",""
"1619","TestRecordings/knothing.wav","0","audio-button-response","129","3076926","0.0-12.0-0.49","","","",""
"7277","","{""P0_Q0"":""ㅋ,ㅡ,ㄴ,ㅗ,ㅌ,ㅣ,ㅇ"",""P0_Q1"":3}","survey","130","3084210","0.0-12.0-1.49","[]","","",""
"973","TestRecordings/phmut.wav","0","audio-button-response","131","3085266","0.0-12.0-0.50","","","",""
"7359","","{""P0_Q0"":""ㅍ,ㅡ,ㅁ,ㅜ,ㅅ"",""P0_Q1"":6}","survey","132","3092634","0.0-12.0-1.50","[]","","",""
"1139","TestRecordings/pmuk.wav","0","audio-button-response","133","3093857","0.0-12.0-0.51","","","",""
"4055","","{""P0_Q0"":""ㅂ,ㅡ,ㄴ,ㅜ,ㅂ"",""P0_Q1"":6}","survey","134","3097918","0.0-12.0-1.51","[]","","",""
"1317","TestRecordings/pmathin.wav","0","audio-button-response","135","3099320","0.0-12.0-0.52","","","",""
"6261","","{""P0_Q0"":""ㅍ,ㅡ,ㅁ,ㅏ,ㅌ,ㅣ,ㄴ"",""P0_Q1"":3}","survey","136","3105588","0.0-12.0-1.52","[]","","",""
"1453","TestRecordings/khnacin.wav","0","audio-button-response","137","3107064","0.0-12.0-0.53","","","",""
"6685","","{""P0_Q0"":""ㅋ,ㅡ,ㄴ,ㅏ,ㅈ,ㅣ,ㄴ"",""P0_Q1"":6}","survey","138","3113756","0.0-12.0-1.53","[]","","",""
"1377","TestRecordings/mciphom.wav","0","audio-button-response","139","3115218","0.0-12.0-0.54","","","",""
"7387","","{""P0_Q0"":""ㅇ,ㅡ,ㅇ,ㅈ,ㅣ,ㅍ,ㅗ,ㄴ"",""P0_Q1"":2}","survey","140","3122612","0.0-12.0-1.54","[]","","",""
"1184","TestRecordings/phninot.wav","0","audio-button-response","141","3123881","0.0-12.0-0.55","","","",""
"6278","","{""P0_Q0"":""ㅍ,ㅡ,ㄴ,ㅣ,ㄴ,ㅗ,ㅅ"",""P0_Q1"":2}","survey","142","3130167","0.0-12.0-1.55","[]","","",""
"1082","TestRecordings/thnukip.wav","0","audio-button-response","143","3131333","0.0-12.0-0.56","","","",""
"8720","","{""P0_Q0"":""ㅌ,ㅡ,ㄴ,ㅜ,ㄱ,ㅣ,ㅂ"",""P0_Q1"":2}","survey","144","3140060","0.0-12.0-1.56","[]","","",""
"1679","TestRecordings/phmacot.wav","0","audio-button-response","145","3141823","0.0-12.0-0.57","","","",""
"7623","","{""P0_Q0"":""ㅍ,ㅡ,ㅁ,ㅏ,ㅈ,ㅗ,ㅅ"",""P0_Q1"":1}","survey","146","3149453","0.0-12.0-1.57","[]","","",""
"1193","TestRecordings/mtunak.wav","0","audio-button-response","147","3150729","0.0-12.0-0.58","","","",""
"6211","","{""P0_Q0"":""ㅇ,ㅡ,ㅇ,ㄷ,ㅜ,ㄴ,ㅏ,ㄱ"",""P0_Q1"":2}","survey","148","3156948","0.0-12.0-1.58","[]","","",""
"1346","TestRecordings/khwapan.wav","0","audio-button-response","149","3158376","0.0-12.0-0.59","","","",""
"5849","","{""P0_Q0"":""ㅋ,ㅘ,ㅂ,ㅏ,ㄴ"",""P0_Q1"":4}","survey","150","3164232","0.0-12.0-1.59","[]","","",""
"2757",""," ","html-keyboard-response","151","3166990","0.0-13.0","","","",""
"56266","","{""P0_Q0"":""22"",""P0_Q1"":""남"",""P0_Q2"":""5살"",""P0_Q3"":""아니오"",""P0_Q4"":""없습니다"",""P0_Q5"":""X"",""P0_Q6"":""X""}","survey","152","3223266","0.0-14.0","[]","","",""
"1219","<p style=""font-size:30px"",lang=""ko"">실험이 끝났습니다</p><p style=""font-size:30px"",lang=""ko"">참가해주셔서 고맙습니다</p>"," ","html-keyboard-response","153","3224485","0.0-15.0","","","",""
