"rt","stimulus","response","trial_type","trial_index","time_elapsed","internal_node_id","accuracy","PracticeTest","ConsonantSequence","Grammaticality"
"720199","<p style=""font-size:30px"",lang=""ko"">실험에 오신 것을 환영합니다</p><p lang=""ko"">스페이스바를 누르면 다음 페이지로 넘어갑니다</p>"," ","html-keyboard-response","0","720213","0.0-0.0","","","",""
"1150","<p style=""font-size:30px"",lang=""ko"">해드폰을 본인에게 잘 맞게 착용하세요</p><p lang=""ko"">스페이스바를 누르면 다음 페이지로 넘어갑니다</p>"," ","html-keyboard-response","1","721364","0.0-1.0","","","",""
"2182","<p style=""font-size:30px"",lang=""ko"">이 실험에서는 새로 만든 한국 단어를 들으실 겁니다</p><p style=""font-size:30px"",lang=""ko"">단어를 들리는대로 쓰세요. 그런 다음 그 단어가 한국어 단어로 가능한지 평가하세요</p><p lang=""ko"">스페이스바를 누르면 다음 페이지로 넘어갑니다</p>"," ","html-keyboard-response","2","723546","0.0-2.0","","","",""
"1905","<p style=""font-size:30px"",lang=""ko"">원래 있는 단어로 예를 들어 봅시다</p><p lang=""ko"">스페이스바를 누르면 다음 페이지로 넘어갑니다</p>"," ","html-keyboard-response","3","725451","0.0-3.0","","","",""
"4893","PracticeRecordings/kom_bear.wav","0","audio-button-response","4","730379","0.0-4.0","","","",""
"1748","<p style=""font-size:30px"",lang=""ko"">이제 직접 단어를 듣고 쓰는 연습을 해봅시다. </p><p style=""font-size:30px"",lang=""ko"">스페이스바를 누르면 다음 페이지로 넘어갑니다</p>"," ","html-keyboard-response","5","732128","0.0-5.0","","","",""
"3518","PracticeRecordings/kirin_giraffe.wav","0","audio-button-response","6","735669","0.0-6.0-0.0","","","",""
"5728","kirin_giraffe","{""P0_Q0"":""ㄱ,ㅣ,ㄹ,ㅣ,ㄴ""}","survey","7","741441","0.0-6.0-1.0","[]","practice","NA","TRUE"
"1916","<p style=""font-size:30px"",lang=""ko"">방금 들으신 단어는 ""ㄱ,ㅣ,ㄹ,ㅣ,ㄴ"" 이라고 쓰시면 됩니다</p><p lang=""ko"">스페이스바를 누르면 다음 페이지로 넘어갑니다</p>"," ","html-keyboard-response","8","743358","0.0-6.0-2.0","","","",""
"1571","PracticeRecordings/saca_lion.wav","0","audio-button-response","9","744953","0.0-6.0-0.1","","","",""
"8188","saca_lion","{""P0_Q0"":""ㅅ,ㅏ,ㅈ,ㅏ""}","survey","10","753150","0.0-6.0-1.1","[]","practice","NA","FALSE"
"1176","<p style=""font-size:30px"",lang=""ko"">방금 들으신 단어는 ""ㅅ,ㅏ,ㅈ,ㅏ"" 라고 쓰시면 됩니다</p><p lang=""ko"">스페이스바를 누르면 다음 페이지로 넘어갑니다</p>"," ","html-keyboard-response","11","754327","0.0-6.0-2.1","","","",""
"2003","PracticeRecordings/saseum_deer.wav","0","audio-button-response","12","756353","0.0-6.0-0.2","","","",""
"6673","saseum_deer","{""P0_Q0"":""ㅅ,ㅏ,ㅅ,ㅡ,ㅁ""}","survey","13","763035","0.0-6.0-1.2","[]","practice","NA","FALSE"
"2851","<p style=""font-size:30px"",lang=""ko"">방금 들으신 단어는 ""ㅅ,ㅏ,ㅅ,ㅡ,ㅁ""이라고 쓰시면 됩니다</p><p lang=""ko"">스페이스바를 누르면 다음 페이지로 넘어갑니다</p>"," ","html-keyboard-response","14","765887","0.0-6.0-2.2","","","",""
"2289","PracticeRecordings/thokki_rabbit.wav","0","audio-button-response","15","768200","0.0-6.0-0.3","","","",""
"6704","thokki_rabbit","{""P0_Q0"":""ㅌ,ㅗ,ㄲ,ㅣ""}","survey","16","774911","0.0-6.0-1.3","[]","practice","NA","FALSE"
"1559","<p style=""font-size:30px"",lang=""ko"">방금 들으신 단어는 ""ㅌ,ㅗ,ㄲ,ㅣ"" 라고 쓰시면 됩니다</p><p lang=""ko"">스페이스바를 누르면 다음 페이지로 넘어갑니다</p>"," ","html-keyboard-response","17","776471","0.0-6.0-2.3","","","",""
"1960","<p style=""font-size:30px"",lang=""ko"">이제 만든 단어로 연습해봅시다.</p><p lang=""ko"">스페이스바를 누르면 다음 페이지로 넘어갑니다</p>"," ","html-keyboard-response","18","778431","0.0-7.0","","","",""
"2595","PracticeRecordings/snen.wav","0","audio-button-response","19","781050","0.0-8.0-0.0","","","",""
"6090","snen","{""P0_Q0"":""ㅅ,ㅡ,ㄴ,ㅐ,ㄴ""}","survey","20","787147","0.0-8.0-1.0","[]","practice","NA","TRUE"
"4415","<p style=""font-size:30px"",lang=""ko"">들으신 단어는 <br> ""ㅅ,ㅡ,ㄴ,ㅐ,ㄴ""  ""ㅅ,ㅡ,ㄴ,ㅐ"" ""ㅅ,ㄴ,ㅐ,ㄴ (""으"" 소리가 안 들리는 경우)"" 등 <br> 사람에 따라 다양하게 들릴 수 있습니다 <br> 본인에게 들리는대로 쓰시면 됩니다.</p><p lang=""ko"">스페이스바를 누르면 다음 페이지로 넘어갑니다</p>"," ","html-keyboard-response","21","791563","0.0-8.0-2.0","","","",""
"1830","PracticeRecordings/phrak.wav","0","audio-button-response","22","793414","0.0-8.0-0.1","","","",""
"5897","phrak","{""P0_Q0"":""ㅍ,ㅡ,ㄹ,ㅏ,ㄱ""}","survey","23","799317","0.0-8.0-1.1","[]","practice","NA","FALSE"
"2783","<p style=""font-size:30px"",lang=""ko"">들으신 단어는 <br> ""ㅍ,ㅡ,ㄹ,ㅏ,ㄱ"" ""ㅍ,ㅡ,ㄹ,ㅏ,ㅅ"" ""ㅋ,ㅡ,ㄹ,ㅏ,ㄱ"" ""ㅍ,ㄹ,ㅏ,ㄱ (""으"" 소리가 안 들리는 경우)"" 등 <br> 사람에 따라 다양하게 들릴 수 있습니다 <br> 본인에게 들리는대로 쓰시면 됩니다.</p><p lang=""ko"">스페이스바를 누르면 다음 페이지로 넘어갑니다</p>"," ","html-keyboard-response","24","802101","0.0-8.0-2.1","","","",""
"1666","PracticeRecordings/chka.wav","0","audio-button-response","25","803791","0.0-8.0-0.2","","","",""
"6723","chka","{""P0_Q0"":""ㅅ,ㅡ,ㅋ,ㅏ""}","survey","26","810521","0.0-8.0-1.2","[]","practice","NA","FALSE"
"2955","<p style=""font-size:30px"",lang=""ko"">들으신 단어는 ""ㅊ,ㅣ,ㄱ,ㅏ"", ""ㅊ,ㅡ,ㄱ,ㅏ"", ""ㅊ,ㄱ,ㅏ"", ""ㅊ,ㅟ,ㄱ,ㅏ"" 등 <br> 사람에 따라 다양하게 들릴 수 있습니다. <br> 본인에게 들리는대로 쓰시면 됩니다.</p><p lang=""ko"">스페이스바를 누르면 다음 페이지로 넘어갑니다</p>"," ","html-keyboard-response","27","813476","0.0-8.0-2.2","","","",""
"2481",""," ","html-keyboard-response","28","815958","0.0-9.0","","","",""
"2366","<p style=""font-size:30px"",lang=""ko"">이제 실험을 시작하겠습니다.</p><p style=""font-size:30px"",lang=""ko"">실전에서는 각각의 만든 단어를 한 번씩만 들을 수 있습니다.</p>"," ","html-keyboard-response","29","818324","0.0-10.0","","","",""
"2958","<p style=""font-size:30px"",lang=""ko"">단어를 풀어 쓰신 후에 그 단어가 한국어로 가능한 단어인지 평가해주세요</p><p style=""font-size:30px"",lang=""ko"">1점은 한국어로 완전 불가능한 단어, 7점은 한국어로 완전 가능한 단어를 의미합니다</p><p lang=""ko"">스페이스바를 누르면 다음 페이지로 넘어갑니다</p>"," ","html-keyboard-response","30","821282","0.0-11.0","","","",""
"2297","TestRecordings/takhut.wav","0","audio-button-response","31","823601","0.0-12.0-0.0","","","",""
"15382","","{""P0_Q0"":""ㄷ,ㅏ,ㅋ,ㅜ,ㄷ"",""P0_Q1"":4}","survey","32","838999","0.0-12.0-1.0","[]","","",""
"2206","TestRecordings/phwim.wav","0","audio-button-response","33","841227","0.0-12.0-0.1","","","",""
"5814","","{""P0_Q0"":""ㅍ,ㅣ,ㅁ"",""P0_Q1"":6}","survey","34","847051","0.0-12.0-1.1","[]","","",""
"1635","TestRecordings/chwap.wav","0","audio-button-response","35","848708","0.0-12.0-0.2","","","",""
"5276","","{""P0_Q0"":""ㅊ,ㅗ,ㅏ,ㅂ"",""P0_Q1"":5}","survey","36","853991","0.0-12.0-1.2","[]","","",""
"1595","TestRecordings/twikhit.wav","0","audio-button-response","37","855609","0.0-12.0-0.3","","","",""
"7494","","{""P0_Q0"":""ㄷ,ㅜ,ㅣ,ㅋ,ㅣ,ㄷ"",""P0_Q1"":3}","survey","38","863111","0.0-12.0-1.3","[]","","",""
"2086","TestRecordings/khmoting.wav","0","audio-button-response","39","865220","0.0-12.0-0.4","","","",""
"13709","","{""P0_Q0"":""ㅋ,ㅡ,ㅁ,ㅗ,ㄷ,ㅣ,ㄴ"",""P0_Q1"":3}","survey","40","878937","0.0-12.0-1.4","[]","","",""
"1695","TestRecordings/thwicap.wav","0","audio-button-response","41","880654","0.0-12.0-0.5","","","",""
"7841","","{""P0_Q0"":""ㅌ,ㅣ,ㅈ,ㅏ,ㅂ"",""P0_Q1"":6}","survey","42","888504","0.0-12.0-1.5","[]","","",""
"1696","TestRecordings/pwacung.wav","0","audio-button-response","43","890222","0.0-12.0-0.6","","","",""
"10373","","{""P0_Q0"":""ㅂ,ㅗ,ㅏ,ㅈ,ㅜ,ㅇ"",""P0_Q1"":2}","survey","44","900602","0.0-12.0-1.6","[]","","",""
"1540","TestRecordings/swakhing.wav","0","audio-button-response","45","902167","0.0-12.0-0.7","","","",""
"6093","","{""P0_Q0"":""ㅅ,ㅗ,ㅏ,ㅋ,ㅣ,ㅇ"",""P0_Q1"":7}","survey","46","908267","0.0-12.0-1.7","[]","","",""
"1683","TestRecordings/cwasop.wav","0","audio-button-response","47","909973","0.0-12.0-0.8","","","",""
"6922","","{""P0_Q0"":""ㅈ,ㅗ,ㅏ,ㅅ,ㅗ,ㅂ"",""P0_Q1"":6}","survey","48","916903","0.0-12.0-1.8","[]","","",""
"1214","TestRecordings/niphak.wav","0","audio-button-response","49","918139","0.0-12.0-0.9","","","",""
"5414","","{""P0_Q0"":""ㄴ,ㅣ,ㅍ,ㅏ,ㄱ"",""P0_Q1"":7}","survey","50","923560","0.0-12.0-1.9","[]","","",""
"2287","TestRecordings/phmut.wav","0","audio-button-response","51","925871","0.0-12.0-0.10","","","",""
"11379","","{""P0_Q0"":""ㅍ,ㅁ,ㅜ,ㄷ"",""P0_Q1"":2}","survey","52","937257","0.0-12.0-1.10","[]","","",""
"2277","TestRecordings/mphithup.wav","0","audio-button-response","53","939557","0.0-12.0-0.11","","","",""
"6524","","{""P0_Q0"":""ㄴ,ㅍ,ㅣ,ㅌ,ㅜ,ㅂ"",""P0_Q1"":3}","survey","54","946089","0.0-12.0-1.11","[]","","",""
"1346","TestRecordings/chut.wav","0","audio-button-response","55","947456","0.0-12.0-0.12","","","",""
"4266","","{""P0_Q0"":""ㅊ,ㅜ,ㅅ"",""P0_Q1"":3}","survey","56","951730","0.0-12.0-1.12","[]","","",""
"1081","TestRecordings/mip.wav","0","audio-button-response","57","952832","0.0-12.0-0.13","","","",""
"4371","","{""P0_Q0"":""ㄴ,ㅣ,ㅂ"",""P0_Q1"":7}","survey","58","957209","0.0-12.0-1.13","[]","","",""
"1266","TestRecordings/cmot.wav","0","audio-button-response","59","958496","0.0-12.0-0.14","","","",""
"16698","","{""P0_Q0"":""ㅅ,ㅡ,ㅁ,ㅜ,ㄷ"",""P0_Q1"":6}","survey","60","975202","0.0-12.0-1.14","[]","","",""
"1739","TestRecordings/pmisung.wav","0","audio-button-response","61","976967","0.0-12.0-0.15","","","",""
"6462","","{""P0_Q0"":""ㅋ,ㄴ,ㅣ,ㅅ,ㅜ,ㅇ"",""P0_Q1"":3}","survey","62","983436","0.0-12.0-1.15","[]","","",""
"1115","TestRecordings/phuthik.wav","0","audio-button-response","63","984574","0.0-12.0-0.16","","","",""
"6440","","{""P0_Q0"":""ㅍ,ㅜ,ㅌ,ㅣ,ㅂ"",""P0_Q1"":6}","survey","64","991022","0.0-12.0-1.16","[]","","",""
"1977","TestRecordings/nthiton.wav","0","audio-button-response","65","993021","0.0-12.0-0.17","","","",""
"6431","","{""P0_Q0"":""ㄴ,ㅍ,ㅣ,ㄷ,ㅜ,ㄴ"",""P0_Q1"":2}","survey","66","999459","0.0-12.0-1.17","[]","","",""
"1209","TestRecordings/ncuk.wav","0","audio-button-response","67","1000690","0.0-12.0-0.18","","","",""
"7528","","{""P0_Q0"":""ㄴ,ㅈ,ㅜ,ㄱ"",""P0_Q1"":1}","survey","68","1008225","0.0-12.0-1.18","[]","","",""
"1137","TestRecordings/thnukip.wav","0","audio-button-response","69","1009383","0.0-12.0-0.19","","","",""
"12069","","{""P0_Q0"":""ㅌ,ㅊ,ㅡ,ㄴ,ㅜ,ㄱ,ㅣ,ㅂ"",""P0_Q1"":1}","survey","70","1021459","0.0-12.0-1.19","[]","","",""
"1258","TestRecordings/mtunak.wav","0","audio-button-response","71","1022740","0.0-12.0-0.20","","","",""
"7890","","{""P0_Q0"":""ㅁ,ㄷ,ㅜ,ㄴ,ㅏ,ㄱ"",""P0_Q1"":3}","survey","72","1030638","0.0-12.0-1.20","[]","","",""
"1176","TestRecordings/nthunit.wav","0","audio-button-response","73","1031835","0.0-12.0-0.21","","","",""
"12543","","{""P0_Q0"":""ㄴ,ㅌ,ㅜ,ㄴ,ㅣ,ㄷ"",""P0_Q1"":3}","survey","74","1044385","0.0-12.0-1.21","[]","","",""
"1227","TestRecordings/kwat.wav","0","audio-button-response","75","1045634","0.0-12.0-0.22","","","",""
"5530","","{""P0_Q0"":""ㄱ,ㅗ,ㅏ,ㄷ"",""P0_Q1"":7}","survey","76","1051171","0.0-12.0-1.22","[]","","",""
"1387","TestRecordings/thnakop.wav","0","audio-button-response","77","1052580","0.0-12.0-0.23","","","",""
"9650","","{""P0_Q0"":""ㅌ,ㅡ,ㄴ,ㅏ,ㄱ,ㅗ,ㅂ"",""P0_Q1"":5}","survey","78","1062238","0.0-12.0-1.23","[]","","",""
"1167","TestRecordings/khmip.wav","0","audio-button-response","79","1063427","0.0-12.0-0.24","","","",""
"6931","","{""P0_Q0"":""ㅋ,ㅁ,ㅣ,ㅂ"",""P0_Q1"":4}","survey","80","1070365","0.0-12.0-1.24","[]","","",""
"1342","TestRecordings/nchitam.wav","0","audio-button-response","81","1071730","0.0-12.0-0.25","","","",""
"10288","","{""P0_Q0"":""ㅁ,ㅊ,ㅣ,ㄷ,ㅏ,ㅁ"",""P0_Q1"":3}","survey","82","1082025","0.0-12.0-1.25","[]","","",""
"1755","TestRecordings/pmuk.wav","0","audio-button-response","83","1083802","0.0-12.0-0.26","","","",""
"6209","","{""P0_Q0"":""ㄷ,ㅁ,ㅜ,ㄱ"",""P0_Q1"":2}","survey","84","1090018","0.0-12.0-1.26","[]","","",""
"1547","TestRecordings/khwapan.wav","0","audio-button-response","85","1091587","0.0-12.0-0.27","","","",""
"8130","","{""P0_Q0"":""ㅋ,ㅗ,ㅏ,ㅂ,ㅏ,ㄴ"",""P0_Q1"":7}","survey","86","1099725","0.0-12.0-1.27","[]","","",""
"1446","TestRecordings/siphuk.wav","0","audio-button-response","87","1101193","0.0-12.0-0.28","","","",""
"9349","","{""P0_Q0"":""ㅊ,ㅣ,ㅍ,ㅜ,ㄱ"",""P0_Q1"":6}","survey","88","1110549","0.0-12.0-1.28","[]","","",""
"1307","TestRecordings/knop.wav","0","audio-button-response","89","1111878","0.0-12.0-0.29","","","",""
"10831","","{""P0_Q0"":""ㅋ,ㄴ,ㅗ,ㅂ"",""P0_Q1"":5}","survey","90","1122717","0.0-12.0-1.29","[]","","",""
"1718","TestRecordings/knothing.wav","0","audio-button-response","91","1124458","0.0-12.0-0.30","","","",""
"8277","","{""P0_Q0"":""ㅋ,ㄴ,ㅗ,ㅌ,ㅣ,ㅇ"",""P0_Q1"":5}","survey","92","1132742","0.0-12.0-1.30","[]","","",""
"1313","TestRecordings/nthochap.wav","0","audio-button-response","93","1134081","0.0-12.0-0.31","","","",""
"7758","","{""P0_Q0"":""ㄴ,ㅌ,ㅗ,ㅊ,ㅏ,ㅂ"",""P0_Q1"":3}","survey","94","1141846","0.0-12.0-1.31","[]","","",""
"1123","TestRecordings/nchak.wav","0","audio-button-response","95","1142991","0.0-12.0-0.32","","","",""
"7849","","{""P0_Q0"":""ㄴ,ㅊ,ㅏ,ㄱ"",""P0_Q1"":3}","survey","96","1150846","0.0-12.0-1.32","[]","","",""
"1565","TestRecordings/nucok.wav","0","audio-button-response","97","1152432","0.0-12.0-0.33","","","",""
"11110","","{""P0_Q0"":""ㄴ,ㅜ,ㅈ,ㅗ,ㄱ"",""P0_Q1"":6}","survey","98","1163551","0.0-12.0-1.33","[]","","",""
"1990","TestRecordings/cwiphing.wav","0","audio-button-response","99","1165563","0.0-12.0-0.34","","","",""
"8976","","{""P0_Q0"":""ㅊ,ㅜ,ㅣ,ㅍ,ㅣ,ㅇ"",""P0_Q1"":5}","survey","100","1174546","0.0-12.0-1.34","[]","","",""
"1467","TestRecordings/chwakap.wav","0","audio-button-response","101","1176035","0.0-12.0-0.35","","","",""
"6103","","{""P0_Q0"":""ㅊ,ㅗ,ㅏ,ㄱ,ㅏ,ㅂ"",""P0_Q1"":7}","survey","102","1182146","0.0-12.0-1.35","[]","","",""
"1496","TestRecordings/khun.wav","0","audio-button-response","103","1183666","0.0-12.0-0.36","","","",""
"4825","","{""P0_Q0"":""ㅋ,ㅜ,ㄴ"",""P0_Q1"":7}","survey","104","1188497","0.0-12.0-1.36","[]","","",""
"1530","TestRecordings/thum.wav","0","audio-button-response","105","1190050","0.0-12.0-0.37","","","",""
"3925","","{""P0_Q0"":""ㅌ,ㅜ,ㅁ"",""P0_Q1"":7}","survey","106","1193982","0.0-12.0-1.37","[]","","",""
"1472","TestRecordings/npokit.wav","0","audio-button-response","107","1195476","0.0-12.0-0.38","","","",""
"7966","","{""P0_Q0"":""ㄴ,ㅂ,ㅗ,ㄱ,ㅣ,ㄷ"",""P0_Q1"":2}","survey","108","1203450","0.0-12.0-1.38","[]","","",""
"1627","TestRecordings/khnichat.wav","0","audio-button-response","109","1205100","0.0-12.0-0.39","","","",""
"6619","","{""P0_Q0"":""ㅋ,ㄴ,ㅣ,ㅊ,ㅏ,ㄷ"",""P0_Q1"":5}","survey","110","1211728","0.0-12.0-1.39","[]","","",""
"1477","TestRecordings/phninot.wav","0","audio-button-response","111","1213227","0.0-12.0-0.40","","","",""
"8260","","{""P0_Q0"":""ㅍ,ㄴ,ㅣ,ㄴ,ㅗ,ㄷ"",""P0_Q1"":3}","survey","112","1221494","0.0-12.0-1.40","[]","","",""
"1518","TestRecordings/swicit.wav","0","audio-button-response","113","1223035","0.0-12.0-0.41","","","",""
"8023","","{""P0_Q0"":""ㅅ,ㅜ,ㅣ,ㅈ,ㅣ,ㄷ"",""P0_Q1"":7}","survey","114","1231064","0.0-12.0-1.41","[]","","",""
"1539","TestRecordings/mkithun.wav","0","audio-button-response","115","1232627","0.0-12.0-0.42","","","",""
"9000","","{""P0_Q0"":""ㄴ,ㄱ,ㅣ,ㅌ,ㅜ,ㄴ"",""P0_Q1"":3}","survey","116","1241634","0.0-12.0-1.42","[]","","",""
"1547","TestRecordings/ntosin.wav","0","audio-button-response","117","1243216","0.0-12.0-0.43","","","",""
"14667","","{""P0_Q0"":""ㄴ,ㄷ,ㅜ,ㅅ,ㅣ,ㄴ"",""P0_Q1"":3}","survey","118","1257889","0.0-12.0-1.43","[]","","",""
"1677","TestRecordings/khnacin.wav","0","audio-button-response","119","1259588","0.0-12.0-0.44","","","",""
"7244","","{""P0_Q0"":""ㅋ,ㄴ,ㅏ,ㅈ,ㅣ,ㄴ"",""P0_Q1"":3}","survey","120","1266840","0.0-12.0-1.44","[]","","",""
"1708","TestRecordings/mciphom.wav","0","audio-button-response","121","1268573","0.0-12.0-0.45","","","",""
"5773","","{""P0_Q0"":""ㄴ,ㅈ,ㅣ,ㅍ,ㅗ,ㅁ"",""P0_Q1"":3}","survey","122","1274353","0.0-12.0-1.45","[]","","",""
"1819","TestRecordings/swapong.wav","0","audio-button-response","123","1276195","0.0-12.0-0.46","","","",""
"9135","","{""P0_Q0"":""ㅅ,ㅗ,ㅏ,ㅂ,ㅗ,ㅇ"",""P0_Q1"":7}","survey","124","1285337","0.0-12.0-1.46","[]","","",""
"1169","TestRecordings/nchat.wav","0","audio-button-response","125","1286528","0.0-12.0-0.47","","","",""
"5891","","{""P0_Q0"":""ㄴ,ㅊ,ㅏ,ㅅ"",""P0_Q1"":2}","survey","126","1292426","0.0-12.0-1.47","[]","","",""
"1723","TestRecordings/pathik.wav","0","audio-button-response","127","1294172","0.0-12.0-0.48","","","",""
"5313","","{""P0_Q0"":""ㅂ,ㅏ,ㅌ,ㅣ,ㄱ"",""P0_Q1"":7}","survey","128","1299492","0.0-12.0-1.48","[]","","",""
"1317","TestRecordings/mtak.wav","0","audio-button-response","129","1300832","0.0-12.0-0.49","","","",""
"5121","","{""P0_Q0"":""ㄴ,ㄷ,ㅏ,ㄱ"",""P0_Q1"":5}","survey","130","1305959","0.0-12.0-1.49","[]","","",""
"1497","TestRecordings/masuk.wav","0","audio-button-response","131","1307479","0.0-12.0-0.50","","","",""
"5154","","{""P0_Q0"":""ㅁ,ㅏ,ㅅ,ㅜ,ㄱ"",""P0_Q1"":7}","survey","132","1312641","0.0-12.0-1.50","[]","","",""
"1200","TestRecordings/sutik.wav","0","audio-button-response","133","1313862","0.0-12.0-0.51","","","",""
"5256","","{""P0_Q0"":""ㅅ,ㅜ,ㄷ,ㅣ,ㄱ"",""P0_Q1"":7}","survey","134","1319126","0.0-12.0-1.51","[]","","",""
"1365","TestRecordings/nchup.wav","0","audio-button-response","135","1320511","0.0-12.0-0.52","","","",""
"7547","","{""P0_Q0"":""ㄴ,ㅊ,ㅜ,ㅂ"",""P0_Q1"":2}","survey","136","1328065","0.0-12.0-1.52","[]","","",""
"1018","TestRecordings/cut.wav","0","audio-button-response","137","1329104","0.0-12.0-0.53","","","",""
"4418","","{""P0_Q0"":""ㅊ,ㅜ,ㅅ"",""P0_Q1"":6}","survey","138","1333529","0.0-12.0-1.53","[]","","",""
"1206","TestRecordings/phmacot.wav","0","audio-button-response","139","1334758","0.0-12.0-0.54","","","",""
"7165","","{""P0_Q0"":""ㅍ,ㅁ,ㅏ,ㅈ,ㅗ,ㄷ"",""P0_Q1"":5}","survey","140","1341930","0.0-12.0-1.54","[]","","",""
"1662","TestRecordings/pmathin.wav","0","audio-button-response","141","1343614","0.0-12.0-0.55","","","",""
"6310","","{""P0_Q0"":""ㅍ,ㅁ,ㅏ,ㅌ,ㅣ,ㄴ"",""P0_Q1"":5}","survey","142","1349931","0.0-12.0-1.55","[]","","",""
"1570","TestRecordings/cwang.wav","0","audio-button-response","143","1351525","0.0-12.0-0.56","","","",""
"4414","","{""P0_Q0"":""ㅈ,ㅗ,ㅏ,ㅇ"",""P0_Q1"":1}","survey","144","1355945","0.0-12.0-1.56","[]","","",""
"1342","TestRecordings/kophak.wav","0","audio-button-response","145","1357310","0.0-12.0-0.57","","","",""
"4939","","{""P0_Q0"":""ㄱ,ㅗ,ㅍ,ㅏ,ㄱ"",""P0_Q1"":7}","survey","146","1362255","0.0-12.0-1.57","[]","","",""
"1838","TestRecordings/phwing.wav","0","audio-button-response","147","1364117","0.0-12.0-0.58","","","",""
"5925","","{""P0_Q0"":""ㅍ,ㅗ,ㅐ,ㅇ"",""P0_Q1"":2}","survey","148","1370050","0.0-12.0-1.58","[]","","",""
"1301","TestRecordings/khonik.wav","0","audio-button-response","149","1371374","0.0-12.0-0.59","","","",""
"5278","","{""P0_Q0"":""ㅋ,ㅗ,ㄴ,ㅣ,ㄱ"",""P0_Q1"":7}","survey","150","1376660","0.0-12.0-1.59","[]","","",""
"2492",""," ","html-keyboard-response","151","1379153","0.0-13.0","","","",""
"120715","","{""P0_Q0"":""22"",""P0_Q1"":""남"",""P0_Q2"":""5세"",""P0_Q3"":""만 7세, 6개월 "",""P0_Q4"":""일본어"",""P0_Q5"":""17세, 2년"",""P0_Q6"":""없습니다.""}","survey","152","1499875","0.0-14.0","[]","","",""
"79856","<p style=""font-size:30px"",lang=""ko"">실험이 끝났습니다</p><p style=""font-size:30px"",lang=""ko"">참가해주셔서 고맙습니다</p>"," ","html-keyboard-response","153","1579731","0.0-15.0","","","",""
