"rt","stimulus","response","trial_type","trial_index","time_elapsed","internal_node_id","accuracy","PracticeTest","ConsonantSequence","Grammaticality"
"805070","<p style=""font-size:30px"",lang=""ko"">실험에 오신 것을 환영합니다</p><p lang=""ko"">스페이스바를 누르면 다음 페이지로 넘어갑니다</p>"," ","html-keyboard-response","0","805072","0.0-0.0","","","",""
"100","<p style=""font-size:30px"",lang=""ko"">해드폰을 본인에게 잘 맞게 착용하세요</p><p lang=""ko"">스페이스바를 누르면 다음 페이지로 넘어갑니다</p>"," ","html-keyboard-response","1","805174","0.0-1.0","","","",""
"133","<p style=""font-size:30px"",lang=""ko"">이 실험에서는 새로 만든 한국 단어를 들으실 겁니다</p><p style=""font-size:30px"",lang=""ko"">단어를 들리는대로 쓰세요. 그런 다음 그 단어가 한국어 단어로 가능한지 평가하세요</p><p lang=""ko"">스페이스바를 누르면 다음 페이지로 넘어갑니다</p>"," ","html-keyboard-response","2","805307","0.0-2.0","","","",""
"12589","<p style=""font-size:30px"",lang=""ko"">원래 있는 단어로 예를 들어 봅시다</p><p lang=""ko"">스페이스바를 누르면 다음 페이지로 넘어갑니다</p>"," ","html-keyboard-response","3","817897","0.0-3.0","","","",""
"8462","PracticeRecordings/kom_bear.wav","0","audio-button-response","4","826395","0.0-4.0","","","",""
"2696","<p style=""font-size:30px"",lang=""ko"">이제 직접 단어를 듣고 쓰는 연습을 해봅시다. </p><p style=""font-size:30px"",lang=""ko"">스페이스바를 누르면 다음 페이지로 넘어갑니다</p>"," ","html-keyboard-response","5","829092","0.0-5.0","","","",""
"8540","PracticeRecordings/kirin_giraffe.wav","0","audio-button-response","6","837654","0.0-6.0-0.0","","","",""
"15873","kirin_giraffe","{""P0_Q0"":""ㄱ,ㅣ,ㄹ,ㅣ,ㄴ""}","survey","7","853570","0.0-6.0-1.0","[]","practice","NA","TRUE"
"2379","<p style=""font-size:30px"",lang=""ko"">방금 들으신 단어는 ""ㄱ,ㅣ,ㄹ,ㅣ,ㄴ"" 이라고 쓰시면 됩니다</p><p lang=""ko"">스페이스바를 누르면 다음 페이지로 넘어갑니다</p>"," ","html-keyboard-response","8","855949","0.0-6.0-2.0","","","",""
"2558","PracticeRecordings/saca_lion.wav","0","audio-button-response","9","858533","0.0-6.0-0.1","","","",""
"4523","saca_lion","{""P0_Q0"":""ㄱ,ㅏ,ㅈ,ㅏ""}","survey","10","863065","0.0-6.0-1.1","[]","practice","NA","FALSE"
"1558","<p style=""font-size:30px"",lang=""ko"">방금 들으신 단어는 ""ㅅ,ㅏ,ㅈ,ㅏ"" 라고 쓰시면 됩니다</p><p lang=""ko"">스페이스바를 누르면 다음 페이지로 넘어갑니다</p>"," ","html-keyboard-response","11","864624","0.0-6.0-2.1","","","",""
"3070","PracticeRecordings/saseum_deer.wav","0","audio-button-response","12","867717","0.0-6.0-0.2","","","",""
"5227","saseum_deer","{""P0_Q0"":""ㅅ,ㅏ,ㅅ,ㅡ,ㅁ""}","survey","13","872953","0.0-6.0-1.2","[]","practice","NA","FALSE"
"1264","<p style=""font-size:30px"",lang=""ko"">방금 들으신 단어는 ""ㅅ,ㅏ,ㅅ,ㅡ,ㅁ""이라고 쓰시면 됩니다</p><p lang=""ko"">스페이스바를 누르면 다음 페이지로 넘어갑니다</p>"," ","html-keyboard-response","14","874218","0.0-6.0-2.2","","","",""
"1653","PracticeRecordings/thokki_rabbit.wav","0","audio-button-response","15","875895","0.0-6.0-0.3","","","",""
"10004","thokki_rabbit","{""P0_Q0"":""ㅌ,ㅗ,ㄲ,ㅣ""}","survey","16","885906","0.0-6.0-1.3","[]","practice","NA","FALSE"
"1078","<p style=""font-size:30px"",lang=""ko"">방금 들으신 단어는 ""ㅌ,ㅗ,ㄲ,ㅣ"" 라고 쓰시면 됩니다</p><p lang=""ko"">스페이스바를 누르면 다음 페이지로 넘어갑니다</p>"," ","html-keyboard-response","17","886985","0.0-6.0-2.3","","","",""
"1843","<p style=""font-size:30px"",lang=""ko"">이제 만든 단어로 연습해봅시다.</p><p lang=""ko"">스페이스바를 누르면 다음 페이지로 넘어갑니다</p>"," ","html-keyboard-response","18","888829","0.0-7.0","","","",""
"3052","PracticeRecordings/snen.wav","0","audio-button-response","19","891903","0.0-8.0-0.0","","","",""
"8993","snen","{""P0_Q0"":""ㅅ,ㅡ,ㄴ,ㅐ,ㄴ""}","survey","20","900904","0.0-8.0-1.0","[]","practice","NA","TRUE"
"4523","<p style=""font-size:30px"",lang=""ko"">들으신 단어는 <br> ""ㅅ,ㅡ,ㄴ,ㅐ,ㄴ""  ""ㅅ,ㅡ,ㄴ,ㅐ"" ""ㅅ,ㄴ,ㅐ,ㄴ (""으"" 소리가 안 들리는 경우)"" 등 <br> 사람에 따라 다양하게 들릴 수 있습니다 <br> 본인에게 들리는대로 쓰시면 됩니다.</p><p lang=""ko"">스페이스바를 누르면 다음 페이지로 넘어갑니다</p>"," ","html-keyboard-response","21","905428","0.0-8.0-2.0","","","",""
"1661","PracticeRecordings/phrak.wav","0","audio-button-response","22","907195","0.0-8.0-0.1","","","",""
"5513","phrak","{""P0_Q0"":""ㅍ,ㅡ,ㄹ,ㅏ,ㄱ""}","survey","23","912715","0.0-8.0-1.1","[]","practice","NA","FALSE"
"1171","<p style=""font-size:30px"",lang=""ko"">들으신 단어는 <br> ""ㅍ,ㅡ,ㄹ,ㅏ,ㄱ"" ""ㅍ,ㅡ,ㄹ,ㅏ,ㅅ"" ""ㅋ,ㅡ,ㄹ,ㅏ,ㄱ"" ""ㅍ,ㄹ,ㅏ,ㄱ (""으"" 소리가 안 들리는 경우)"" 등 <br> 사람에 따라 다양하게 들릴 수 있습니다 <br> 본인에게 들리는대로 쓰시면 됩니다.</p><p lang=""ko"">스페이스바를 누르면 다음 페이지로 넘어갑니다</p>"," ","html-keyboard-response","24","913887","0.0-8.0-2.1","","","",""
"1637","PracticeRecordings/chka.wav","0","audio-button-response","25","915547","0.0-8.0-0.2","","","",""
"5310","chka","{""P0_Q0"":""ㅅ,ㅡ,ㄱ,ㅏ""}","survey","26","920863","0.0-8.0-1.2","[]","practice","NA","FALSE"
"1509","<p style=""font-size:30px"",lang=""ko"">들으신 단어는 ""ㅊ,ㅣ,ㄱ,ㅏ"", ""ㅊ,ㅡ,ㄱ,ㅏ"", ""ㅊ,ㄱ,ㅏ"", ""ㅊ,ㅟ,ㄱ,ㅏ"" 등 <br> 사람에 따라 다양하게 들릴 수 있습니다. <br> 본인에게 들리는대로 쓰시면 됩니다.</p><p lang=""ko"">스페이스바를 누르면 다음 페이지로 넘어갑니다</p>"," ","html-keyboard-response","27","922373","0.0-8.0-2.2","","","",""
"3100",""," ","html-keyboard-response","28","925473","0.0-9.0","","","",""
"4083","<p style=""font-size:30px"",lang=""ko"">이제 실험을 시작하겠습니다.</p><p style=""font-size:30px"",lang=""ko"">실전에서는 각각의 만든 단어를 한 번씩만 들을 수 있습니다.</p>"," ","html-keyboard-response","29","929557","0.0-10.0","","","",""
"6947","<p style=""font-size:30px"",lang=""ko"">단어를 풀어 쓰신 후에 그 단어가 한국어로 가능한 단어인지 평가해주세요</p><p style=""font-size:30px"",lang=""ko"">1점은 한국어로 완전 불가능한 단어, 7점은 한국어로 완전 가능한 단어를 의미합니다</p><p lang=""ko"">스페이스바를 누르면 다음 페이지로 넘어갑니다</p>"," ","html-keyboard-response","30","936504","0.0-11.0","","","",""
"2714","TestRecordings/nucok.wav","0","audio-button-response","31","939242","0.0-12.0-0.0","","","",""
"8874","","{""P0_Q0"":""ㄴ,ㅜ,ㅈ,ㅗ,ㄱ"",""P0_Q1"":1}","survey","32","948131","0.0-12.0-1.0","[]","","",""
"5746","TestRecordings/swakhing.wav","0","audio-button-response","33","953900","0.0-12.0-0.1","","","",""
"26093","","{""P0_Q0"":""ㅅ,ㅡ,ㅇ,ㅗ,ㅏ,ㅋ,ㅣ,ㅇ"",""P0_Q1"":1}","survey","34","980004","0.0-12.0-1.1","[]","","",""
"1515","TestRecordings/khnacin.wav","0","audio-button-response","35","981542","0.0-12.0-0.2","","","",""
"32691","","{""P0_Q0"":""ㅋ,ㅡ,ㄴ,ㅏ,ㅈ,ㅣ,ㄴ"",""P0_Q1"":4}","survey","36","1014243","0.0-12.0-1.2","[]","","",""
"1716","TestRecordings/nchak.wav","0","audio-button-response","37","1015983","0.0-12.0-0.3","","","",""
"13376","","{""P0_Q0"":""ㅇ,ㅡ,ㅇ,ㅊ,ㅏ,ㄱ"",""P0_Q1"":1}","survey","38","1029366","0.0-12.0-1.3","[]","","",""
"1330","TestRecordings/mip.wav","0","audio-button-response","39","1030717","0.0-12.0-0.4","","","",""
"6074","","{""P0_Q0"":""ㅁ,ㅣ,ㅂ"",""P0_Q1"":6}","survey","40","1036799","0.0-12.0-1.4","[]","","",""
"1293","TestRecordings/swicit.wav","0","audio-button-response","41","1038115","0.0-12.0-0.5","","","",""
"9873","","{""P0_Q0"":""ㅅ,ㅜ,ㅣ,ㅈ,ㅣ,ㅅ"",""P0_Q1"":7}","survey","42","1047996","0.0-12.0-1.5","[]","","",""
"1240","TestRecordings/cut.wav","0","audio-button-response","43","1049257","0.0-12.0-0.6","","","",""
"6450","","{""P0_Q0"":""ㅈ,ㅜ,ㅅ"",""P0_Q1"":6}","survey","44","1055714","0.0-12.0-1.6","[]","","",""
"1139","TestRecordings/mtak.wav","0","audio-button-response","45","1056876","0.0-12.0-0.7","","","",""
"12369","","{""P0_Q0"":""ㅇ,ㅡ,ㅇ,ㄷ,ㅏ,ㄱ"",""P0_Q1"":2}","survey","46","1069252","0.0-12.0-1.7","[]","","",""
"1654","TestRecordings/nchitam.wav","0","audio-button-response","47","1070929","0.0-12.0-0.8","","","",""
"14693","","{""P0_Q0"":""ㅇ,ㅡ,ㅇ,ㅊ,ㅣ,ㄷ,ㅏ,ㅁ"",""P0_Q1"":5}","survey","48","1085631","0.0-12.0-1.8","[]","","",""
"1190","TestRecordings/pmisung.wav","0","audio-button-response","49","1086843","0.0-12.0-0.9","","","",""
"20019","","{""P0_Q0"":""ㄸ,ㅡ,ㅁ,ㅣ,ㅅ,ㅜ,ㅇ"",""P0_Q1"":1}","survey","50","1106869","0.0-12.0-1.9","[]","","",""
"1533","TestRecordings/twikhit.wav","0","audio-button-response","51","1108428","0.0-12.0-0.10","","","",""
"7629","","{""P0_Q0"":""ㅌ,ㅜ,ㅣ,ㅋ,ㅣ,ㅅ"",""P0_Q1"":4}","survey","52","1116064","0.0-12.0-1.10","[]","","",""
"983","TestRecordings/pmuk.wav","0","audio-button-response","53","1117069","0.0-12.0-0.11","","","",""
"8196","","{""P0_Q0"":""ㄱ,ㅡ,ㅁ,ㅜ,ㄱ"",""P0_Q1"":1}","survey","54","1125274","0.0-12.0-1.11","[]","","",""
"1107","TestRecordings/knop.wav","0","audio-button-response","55","1126402","0.0-12.0-0.12","","","",""
"6254","","{""P0_Q0"":""ㅋ,ㅡ,ㄴ,ㅗ,ㅂ"",""P0_Q1"":7}","survey","56","1132664","0.0-12.0-1.12","[]","","",""
"1529","TestRecordings/khmoting.wav","0","audio-button-response","57","1134216","0.0-12.0-0.13","","","",""
"7248","","{""P0_Q0"":""ㅋ,ㅡ,ㅁ,ㅗ,ㄷ,ㅣ,ㅇ"",""P0_Q1"":7}","survey","58","1141470","0.0-12.0-1.13","[]","","",""
"1098","TestRecordings/knothing.wav","0","audio-button-response","59","1142592","0.0-12.0-0.14","","","",""
"8497","","{""P0_Q0"":""ㅋ,ㅡ,ㄴ,ㅗ,ㅌ,ㅣ,ㅇ"",""P0_Q1"":7}","survey","60","1151096","0.0-12.0-1.14","[]","","",""
"945","TestRecordings/mphithup.wav","0","audio-button-response","61","1152064","0.0-12.0-0.15","","","",""
"11705","","{""P0_Q0"":""ㅇ,ㅡ,ㅇ,ㅍ,ㅣ,ㅌ,ㅜ,ㅂ"",""P0_Q1"":5}","survey","62","1163778","0.0-12.0-1.15","[]","","",""
"2363","TestRecordings/pmathin.wav","0","audio-button-response","63","1166163","0.0-12.0-0.16","","","",""
"11080","","{""P0_Q0"":""ㅋ,ㅡ,ㅁ,ㅏ,ㅌ,ㅣ,ㄴ"",""P0_Q1"":3}","survey","64","1177250","0.0-12.0-1.16","[]","","",""
"1565","TestRecordings/pwacung.wav","0","audio-button-response","65","1178837","0.0-12.0-0.17","","","",""
"6427","","{""P0_Q0"":""ㅂ,ㅗ,ㅏ,ㅈ,ㅜ,ㅇ"",""P0_Q1"":7}","survey","66","1185270","0.0-12.0-1.17","[]","","",""
"1871","TestRecordings/thnakop.wav","0","audio-button-response","67","1187164","0.0-12.0-0.18","","","",""
"8383","","{""P0_Q0"":""ㅌ,ㅡ,ㄴ,ㅏ,ㄱ,ㅗ,ㅂ"",""P0_Q1"":7}","survey","68","1195557","0.0-12.0-1.18","[]","","",""
"1883","TestRecordings/npokit.wav","0","audio-button-response","69","1197463","0.0-12.0-0.19","","","",""
"20406","","{""P0_Q0"":""ㅇ,ㅡ,ㅁ,ㅂ,ㅗ,ㄱ,ㅣ,ㅅ"",""P0_Q1"":3}","survey","70","1217876","0.0-12.0-1.19","[]","","",""
"2351","TestRecordings/cwiphing.wav","0","audio-button-response","71","1220255","0.0-12.0-0.20","","","",""
"9579","","{""P0_Q0"":""ㅈ,ㅜ,ㅣ,ㅍ,ㅣ,ㅇ"",""P0_Q1"":6}","survey","72","1229842","0.0-12.0-1.20","[]","","",""
"1909","TestRecordings/thum.wav","0","audio-button-response","73","1231775","0.0-12.0-0.21","","","",""
"3970","","{""P0_Q0"":""ㅌ,ㅜ,ㅁ"",""P0_Q1"":7}","survey","74","1235752","0.0-12.0-1.21","[]","","",""
"1899","TestRecordings/thnukip.wav","0","audio-button-response","75","1237672","0.0-12.0-0.22","","","",""
"10593","","{""P0_Q0"":""ㅌ,ㅡ,ㄴ,ㅜ,ㄱ,ㅣ,ㅂ"",""P0_Q1"":7}","survey","76","1248272","0.0-12.0-1.22","[]","","",""
"2593","TestRecordings/khnichat.wav","0","audio-button-response","77","1250887","0.0-12.0-0.23","","","",""
"11671","","{""P0_Q0"":""ㅋ,ㅡ,ㄴ,ㅣ,ㅊ,ㅑ,ㅅ"",""P0_Q1"":7}","survey","78","1262564","0.0-12.0-1.23","[]","","",""
"2253","TestRecordings/mciphom.wav","0","audio-button-response","79","1264839","0.0-12.0-0.24","","","",""
"11483","","{""P0_Q0"":""ㅇ,ㅡ,ㅇ,ㅈ,ㅣ,ㅍ,ㅗ,ㅁ"",""P0_Q1"":2}","survey","80","1276328","0.0-12.0-1.24","[]","","",""
"2037","TestRecordings/mtunak.wav","0","audio-button-response","81","1278387","0.0-12.0-0.25","","","",""
"13315","","{""P0_Q0"":""ㅇ,ㅡ,ㅇ,ㄷ,ㅜ,ㄴ,ㅏ,ㅅ"",""P0_Q1"":3}","survey","82","1291710","0.0-12.0-1.25","[]","","",""
"1702","TestRecordings/khonik.wav","0","audio-button-response","83","1293436","0.0-12.0-0.26","","","",""
"7309","","{""P0_Q0"":""ㅋ,ㅗ,ㄴ,ㅣ,ㄱ"",""P0_Q1"":6}","survey","84","1300751","0.0-12.0-1.26","[]","","",""
"1393","TestRecordings/thwicap.wav","0","audio-button-response","85","1302165","0.0-12.0-0.27","","","",""
"6767","","{""P0_Q0"":""ㅌ,ㅜ,ㅣ,ㅈ,ㅏ,ㅂ"",""P0_Q1"":7}","survey","86","1308939","0.0-12.0-1.27","[]","","",""
"2529","TestRecordings/ncuk.wav","0","audio-button-response","87","1311489","0.0-12.0-0.28","","","",""
"7337","","{""P0_Q0"":""ㅇ,ㅡ,ㅇ,ㅈ,ㅜ,ㄱ"",""P0_Q1"":3}","survey","88","1318834","0.0-12.0-1.28","[]","","",""
"1246","TestRecordings/kwat.wav","0","audio-button-response","89","1320101","0.0-12.0-0.29","","","",""
"6289","","{""P0_Q0"":""ㄱ,ㅗ,ㅏ,ㅅ"",""P0_Q1"":6}","survey","90","1326397","0.0-12.0-1.29","[]","","",""
"1994","TestRecordings/cmot.wav","0","audio-button-response","91","1328413","0.0-12.0-0.30","","","",""
"8171","","{""P0_Q0"":""ㅊ,ㅡ,ㅁ,ㅜ,ㅅ"",""P0_Q1"":3}","survey","92","1336591","0.0-12.0-1.30","[]","","",""
"1959","TestRecordings/khwapan.wav","0","audio-button-response","93","1338573","0.0-12.0-0.31","","","",""
"7134","","{""P0_Q0"":""ㅋ,ㅗ,ㅏ,ㅂ,ㅏ,ㄴ"",""P0_Q1"":7}","survey","94","1345715","0.0-12.0-1.31","[]","","",""
"2592","TestRecordings/pathik.wav","0","audio-button-response","95","1348330","0.0-12.0-0.32","","","",""
"6607","","{""P0_Q0"":""ㅂ,ㅏ,ㅌ,ㅣ,ㄱ"",""P0_Q1"":7}","survey","96","1354944","0.0-12.0-1.32","[]","","",""
"1618","TestRecordings/sutik.wav","0","audio-button-response","97","1356586","0.0-12.0-0.33","","","",""
"5864","","{""P0_Q0"":""ㅅ,ㅜ,ㄷ,ㅣ,ㄱ"",""P0_Q1"":7}","survey","98","1362458","0.0-12.0-1.33","[]","","",""
"1731","TestRecordings/nchat.wav","0","audio-button-response","99","1364211","0.0-12.0-0.34","","","",""
"14574","","{""P0_Q0"":""ㅇ,ㅡ,ㅇ,ㅊ,ㅑ,ㅅ"",""P0_Q1"":2}","survey","100","1378792","0.0-12.0-1.34","[]","","",""
"1940","TestRecordings/cwasop.wav","0","audio-button-response","101","1380788","0.0-12.0-0.35","","","",""
"15398","","{""P0_Q0"":""ㅈ,ㅗ,ㅏ,ㅅ,ㅗ,ㅂ"",""P0_Q1"":7}","survey","102","1396194","0.0-12.0-1.35","[]","","",""
"2098","TestRecordings/masuk.wav","0","audio-button-response","103","1398336","0.0-12.0-0.36","","","",""
"6996","","{""P0_Q0"":""ㅁ,ㅏ,ㅅ,ㅜ,ㄱ"",""P0_Q1"":7}","survey","104","1405339","0.0-12.0-1.36","[]","","",""
"2973","TestRecordings/nchup.wav","0","audio-button-response","105","1408335","0.0-12.0-0.37","","","",""
"10587","","{""P0_Q0"":""ㅇ,ㅡ,ㅇ,ㅊ,ㅜ,ㄱ"",""P0_Q1"":2}","survey","106","1418930","0.0-12.0-1.37","[]","","",""
"1703","TestRecordings/phwim.wav","0","audio-button-response","107","1420656","0.0-12.0-0.38","","","",""
"5433","","{""P0_Q0"":""ㅌ,ㅜ,ㅣ,ㅁ"",""P0_Q1"":7}","survey","108","1426096","0.0-12.0-1.38","[]","","",""
"2334","TestRecordings/ntosin.wav","0","audio-button-response","109","1428454","0.0-12.0-0.39","","","",""
"18941","","{""P0_Q0"":""ㅇ,ㅡ,ㅁ,ㄷ,ㅜ,ㅅ,ㅣ,ㄴ"",""P0_Q1"":2}","survey","110","1447402","0.0-12.0-1.39","[]","","",""
"2527","TestRecordings/swapong.wav","0","audio-button-response","111","1449954","0.0-12.0-0.40","","","",""
"9657","","{""P0_Q0"":""ㅅ,ㅗ,ㅏ,ㅂ,ㅗ,ㅇ"",""P0_Q1"":7}","survey","112","1459617","0.0-12.0-1.40","[]","","",""
"2987","TestRecordings/nthiton.wav","0","audio-button-response","113","1462627","0.0-12.0-0.41","","","",""
"11212","","{""P0_Q0"":""ㅇ,ㅡ,ㅇ,ㅌ,ㅣ,ㄷ,ㅜ,ㄴ"",""P0_Q1"":7}","survey","114","1473846","0.0-12.0-1.41","[]","","",""
"1807","TestRecordings/chut.wav","0","audio-button-response","115","1475675","0.0-12.0-0.42","","","",""
"6475","","{""P0_Q0"":""ㅊ,ㅜ,ㅅ"",""P0_Q1"":7}","survey","116","1482156","0.0-12.0-1.42","[]","","",""
"2911","TestRecordings/phninot.wav","0","audio-button-response","117","1485090","0.0-12.0-0.43","","","",""
"13515","","{""P0_Q0"":""ㅍ,ㅡ,ㄴ,ㅣ,ㄴ,ㅗ,ㅅ"",""P0_Q1"":6}","survey","118","1498611","0.0-12.0-1.43","[]","","",""
"2396","TestRecordings/khmip.wav","0","audio-button-response","119","1501121","0.0-12.0-0.44","","","",""
"5995","","{""P0_Q0"":""ㅋ,ㅡ,ㅁ,ㅣ,ㅂ"",""P0_Q1"":7}","survey","120","1507123","0.0-12.0-1.44","[]","","",""
"2994","TestRecordings/mkithun.wav","0","audio-button-response","121","1510140","0.0-12.0-0.45","","","",""
"10730","","{""P0_Q0"":""ㅇ,ㅡ,ㅁ,ㄱ,ㅣ,ㅌ,ㅜ,ㄴ"",""P0_Q1"":2}","survey","122","1520877","0.0-12.0-1.45","[]","","",""
"1433","TestRecordings/chwap.wav","0","audio-button-response","123","1522331","0.0-12.0-0.46","","","",""
"5496","","{""P0_Q0"":""ㅊ,ㅗ,ㅏ,ㅂ"",""P0_Q1"":7}","survey","124","1527834","0.0-12.0-1.46","[]","","",""
"2687","TestRecordings/chwakap.wav","0","audio-button-response","125","1530544","0.0-12.0-0.47","","","",""
"7633","","{""P0_Q0"":""ㅊ,ㅗ,ㅏ,ㄱ,ㅏ,ㅂ"",""P0_Q1"":7}","survey","126","1538185","0.0-12.0-1.47","[]","","",""
"2320","TestRecordings/siphuk.wav","0","audio-button-response","127","1540528","0.0-12.0-0.48","","","",""
"5352","","{""P0_Q0"":""ㅅ,ㅣ,ㅍ,ㅜ"",""P0_Q1"":7}","survey","128","1545886","0.0-12.0-1.48","[]","","",""
"2165","TestRecordings/phwing.wav","0","audio-button-response","129","1548077","0.0-12.0-0.49","","","",""
"5219","","{""P0_Q0"":""ㅍ,ㅜ,ㅣ,ㅇ"",""P0_Q1"":7}","survey","130","1553302","0.0-12.0-1.49","[]","","",""
"3348","TestRecordings/kophak.wav","0","audio-button-response","131","1556673","0.0-12.0-0.50","","","",""
"5469","","{""P0_Q0"":""ㄱ,ㅗ,ㅍ,ㅏ,ㄱ"",""P0_Q1"":7}","survey","132","1562149","0.0-12.0-1.50","[]","","",""
"2133","TestRecordings/takhut.wav","0","audio-button-response","133","1564305","0.0-12.0-0.51","","","",""
"13251","","{""P0_Q0"":""ㅍ,ㅏ,ㄱ,ㅜ,ㅅ"",""P0_Q1"":6}","survey","134","1577563","0.0-12.0-1.51","[]","","",""
"1557","TestRecordings/phmut.wav","0","audio-button-response","135","1579142","0.0-12.0-0.52","","","",""
"7578","","{""P0_Q0"":""ㅍ,ㅡ,ㅁ,ㅜ,ㅅ"",""P0_Q1"":5}","survey","136","1586728","0.0-12.0-1.52","[]","","",""
"1293","TestRecordings/cwang.wav","0","audio-button-response","137","1588044","0.0-12.0-0.53","","","",""
"5300","","{""P0_Q0"":""ㅈ,ㅗ,ㅏ,ㅇ"",""P0_Q1"":7}","survey","138","1593351","0.0-12.0-1.53","[]","","",""
"1809","TestRecordings/niphak.wav","0","audio-button-response","139","1595182","0.0-12.0-0.54","","","",""
"7119","","{""P0_Q0"":""ㄴ,ㅣ,ㅍ,ㅏ,ㄱ"",""P0_Q1"":7}","survey","140","1602309","0.0-12.0-1.54","[]","","",""
"1907","TestRecordings/phuthik.wav","0","audio-button-response","141","1604237","0.0-12.0-0.55","","","",""
"10070","","{""P0_Q0"":""ㅍ,ㅜ,ㅌ,ㅣ,ㄱ"",""P0_Q1"":7}","survey","142","1614313","0.0-12.0-1.55","[]","","",""
"1828","TestRecordings/nthochap.wav","0","audio-button-response","143","1616163","0.0-12.0-0.56","","","",""
"10586","","{""P0_Q0"":""ㅇ,ㅡ,ㅇ,ㅌ,ㅜ,ㅊ,ㅏ,ㅂ"",""P0_Q1"":2}","survey","144","1626755","0.0-12.0-1.56","[]","","",""
"1468","TestRecordings/khun.wav","0","audio-button-response","145","1628244","0.0-12.0-0.57","","","",""
"3621","","{""P0_Q0"":""ㅋ,ㅜ,ㄴ"",""P0_Q1"":7}","survey","146","1631871","0.0-12.0-1.57","[]","","",""
"1579","TestRecordings/nthunit.wav","0","audio-button-response","147","1633473","0.0-12.0-0.58","","","",""
"12486","","{""P0_Q0"":""ㅇ,ㅡ,ㅇ,ㅌ,ㅜ,ㄴ,ㅣ,ㅅ"",""P0_Q1"":3}","survey","148","1645967","0.0-12.0-1.58","[]","","",""
"1453","TestRecordings/phmacot.wav","0","audio-button-response","149","1647442","0.0-12.0-0.59","","","",""
"10015","","{""P0_Q0"":""ㅍ,ㅡ,ㅁ,ㅏ,ㅈ,ㅗ,ㅅ"",""P0_Q1"":6}","survey","150","1657464","0.0-12.0-1.59","[]","","",""
"4792",""," ","html-keyboard-response","151","1662256","0.0-13.0","","","",""
"167342","","{""P0_Q0"":""23"",""P0_Q1"":""남"",""P0_Q2"":""11"",""P0_Q3"":""없음"",""P0_Q4"":""중국어, 일본어, 스페인어"",""P0_Q5"":""중국어 1년, 일본어 1년, 스페인어 6개월"",""P0_Q6"":""일본어는 일본여행을 자주 가서 배움/ 중국어는 학교에서 배움/스페인어는 인강, 실강으로 배움/""}","survey","152","1829607","0.0-14.0","[]","","",""
"16334","<p style=""font-size:30px"",lang=""ko"">실험이 끝났습니다</p><p style=""font-size:30px"",lang=""ko"">참가해주셔서 고맙습니다</p>"," ","html-keyboard-response","153","1845942","0.0-15.0","","","",""
