"rt","stimulus","response","trial_type","trial_index","time_elapsed","internal_node_id","accuracy","PracticeTest","ConsonantSequence","Grammaticality"
"1150335","<p style=""font-size:30px"",lang=""ko"">실험에 오신 것을 환영합니다</p><p lang=""ko"">스페이스바를 누르면 다음 페이지로 넘어갑니다</p>"," ","html-keyboard-response","0","1150345","0.0-0.0","","","",""
"1060","<p style=""font-size:30px"",lang=""ko"">해드폰을 본인에게 잘 맞게 착용하세요</p><p lang=""ko"">스페이스바를 누르면 다음 페이지로 넘어갑니다</p>"," ","html-keyboard-response","1","1151406","0.0-1.0","","","",""
"4079","<p style=""font-size:30px"",lang=""ko"">이 실험에서는 새로 만든 한국 단어를 들으실 겁니다</p><p style=""font-size:30px"",lang=""ko"">단어를 들리는대로 쓰세요. 그런 다음 그 단어가 한국어 단어로 가능한지 평가하세요</p><p lang=""ko"">스페이스바를 누르면 다음 페이지로 넘어갑니다</p>"," ","html-keyboard-response","2","1155485","0.0-2.0","","","",""
"1146","<p style=""font-size:30px"",lang=""ko"">원래 있는 단어로 예를 들어 봅시다</p><p lang=""ko"">스페이스바를 누르면 다음 페이지로 넘어갑니다</p>"," ","html-keyboard-response","3","1156632","0.0-3.0","","","",""
"7380","PracticeRecordings/kom_bear.wav","0","audio-button-response","4","1164083","0.0-4.0","","","",""
"1875","<p style=""font-size:30px"",lang=""ko"">이제 직접 단어를 듣고 쓰는 연습을 해봅시다. </p><p style=""font-size:30px"",lang=""ko"">스페이스바를 누르면 다음 페이지로 넘어갑니다</p>"," ","html-keyboard-response","5","1165958","0.0-5.0","","","",""
"4129","PracticeRecordings/kirin_giraffe.wav","0","audio-button-response","6","1170109","0.0-6.0-0.0","","","",""
"10524","kirin_giraffe","{""P0_Q0"":""ㄱ,ㅣ,ㄹ,ㅣ,ㄴ ""}","survey","7","1180677","0.0-6.0-1.0","[]","practice","NA","TRUE"
"2325","<p style=""font-size:30px"",lang=""ko"">방금 들으신 단어는 ""ㄱ,ㅣ,ㄹ,ㅣ,ㄴ"" 이라고 쓰시면 됩니다</p><p lang=""ko"">스페이스바를 누르면 다음 페이지로 넘어갑니다</p>"," ","html-keyboard-response","8","1183003","0.0-6.0-2.0","","","",""
"3605","PracticeRecordings/saca_lion.wav","0","audio-button-response","9","1186633","0.0-6.0-0.1","","","",""
"6507","saca_lion","{""P0_Q0"":""ㅅ,ㅏ,ㅈ,ㅏ ""}","survey","10","1193150","0.0-6.0-1.1","[]","practice","NA","FALSE"
"1325","<p style=""font-size:30px"",lang=""ko"">방금 들으신 단어는 ""ㅅ,ㅏ,ㅈ,ㅏ"" 라고 쓰시면 됩니다</p><p lang=""ko"">스페이스바를 누르면 다음 페이지로 넘어갑니다</p>"," ","html-keyboard-response","11","1194476","0.0-6.0-2.1","","","",""
"1594","PracticeRecordings/saseum_deer.wav","0","audio-button-response","12","1196091","0.0-6.0-0.2","","","",""
"6339","saseum_deer","{""P0_Q0"":""ㅅ,ㅏ,ㅅ,ㅡ,ㅁ""}","survey","13","1202438","0.0-6.0-1.2","[]","practice","NA","FALSE"
"1649","<p style=""font-size:30px"",lang=""ko"">방금 들으신 단어는 ""ㅅ,ㅏ,ㅅ,ㅡ,ㅁ""이라고 쓰시면 됩니다</p><p lang=""ko"">스페이스바를 누르면 다음 페이지로 넘어갑니다</p>"," ","html-keyboard-response","14","1204088","0.0-6.0-2.2","","","",""
"1412","PracticeRecordings/thokki_rabbit.wav","0","audio-button-response","15","1205522","0.0-6.0-0.3","","","",""
"6766","thokki_rabbit","{""P0_Q0"":""ㅌ,ㅗ,ㄲ,ㅣ""}","survey","16","1212295","0.0-6.0-1.3","[]","practice","NA","FALSE"
"976","<p style=""font-size:30px"",lang=""ko"">방금 들으신 단어는 ""ㅌ,ㅗ,ㄲ,ㅣ"" 라고 쓰시면 됩니다</p><p lang=""ko"">스페이스바를 누르면 다음 페이지로 넘어갑니다</p>"," ","html-keyboard-response","17","1213271","0.0-6.0-2.3","","","",""
"677","<p style=""font-size:30px"",lang=""ko"">이제 만든 단어로 연습해봅시다.</p><p lang=""ko"">스페이스바를 누르면 다음 페이지로 넘어갑니다</p>"," ","html-keyboard-response","18","1213949","0.0-7.0","","","",""
"3246","PracticeRecordings/snen.wav","0","audio-button-response","19","1217218","0.0-8.0-0.0","","","",""
"9845","snen","{""P0_Q0"":""ㅅ,ㅡ,ㄴ,ㅐ,ㄴ""}","survey","20","1227070","0.0-8.0-1.0","[]","practice","NA","TRUE"
"6118","<p style=""font-size:30px"",lang=""ko"">들으신 단어는 <br> ""ㅅ,ㅡ,ㄴ,ㅐ,ㄴ""  ""ㅅ,ㅡ,ㄴ,ㅐ"" ""ㅅ,ㄴ,ㅐ,ㄴ (""으"" 소리가 안 들리는 경우)"" 등 <br> 사람에 따라 다양하게 들릴 수 있습니다 <br> 본인에게 들리는대로 쓰시면 됩니다.</p><p lang=""ko"">스페이스바를 누르면 다음 페이지로 넘어갑니다</p>"," ","html-keyboard-response","21","1233189","0.0-8.0-2.0","","","",""
"3369","PracticeRecordings/phrak.wav","0","audio-button-response","22","1236578","0.0-8.0-0.1","","","",""
"9466","phrak","{""P0_Q0"":""ㅍ,ㅡ,ㄹ,ㅏ,ㄱ""}","survey","23","1246051","0.0-8.0-1.1","[]","practice","NA","FALSE"
"3045","<p style=""font-size:30px"",lang=""ko"">들으신 단어는 <br> ""ㅍ,ㅡ,ㄹ,ㅏ,ㄱ"" ""ㅍ,ㅡ,ㄹ,ㅏ,ㅅ"" ""ㅋ,ㅡ,ㄹ,ㅏ,ㄱ"" ""ㅍ,ㄹ,ㅏ,ㄱ (""으"" 소리가 안 들리는 경우)"" 등 <br> 사람에 따라 다양하게 들릴 수 있습니다 <br> 본인에게 들리는대로 쓰시면 됩니다.</p><p lang=""ko"">스페이스바를 누르면 다음 페이지로 넘어갑니다</p>"," ","html-keyboard-response","24","1249096","0.0-8.0-2.1","","","",""
"2363","PracticeRecordings/chka.wav","0","audio-button-response","25","1251481","0.0-8.0-0.2","","","",""
"6843","chka","{""P0_Q0"":""ㅅ,ㅡ,ㄲ,ㅏ""}","survey","26","1258330","0.0-8.0-1.2","[]","practice","NA","FALSE"
"4308","<p style=""font-size:30px"",lang=""ko"">들으신 단어는 ""ㅊ,ㅣ,ㄱ,ㅏ"", ""ㅊ,ㅡ,ㄱ,ㅏ"", ""ㅊ,ㄱ,ㅏ"", ""ㅊ,ㅟ,ㄱ,ㅏ"" 등 <br> 사람에 따라 다양하게 들릴 수 있습니다. <br> 본인에게 들리는대로 쓰시면 됩니다.</p><p lang=""ko"">스페이스바를 누르면 다음 페이지로 넘어갑니다</p>"," ","html-keyboard-response","27","1262634","0.0-8.0-2.2","","","",""
"2050",""," ","html-keyboard-response","28","1264684","0.0-9.0","","","",""
"2587","<p style=""font-size:30px"",lang=""ko"">이제 실험을 시작하겠습니다.</p><p style=""font-size:30px"",lang=""ko"">실전에서는 각각의 만든 단어를 한 번씩만 들을 수 있습니다.</p>"," ","html-keyboard-response","29","1267272","0.0-10.0","","","",""
"7938","<p style=""font-size:30px"",lang=""ko"">단어를 풀어 쓰신 후에 그 단어가 한국어로 가능한 단어인지 평가해주세요</p><p style=""font-size:30px"",lang=""ko"">1점은 한국어로 완전 불가능한 단어, 7점은 한국어로 완전 가능한 단어를 의미합니다</p><p lang=""ko"">스페이스바를 누르면 다음 페이지로 넘어갑니다</p>"," ","html-keyboard-response","30","1275210","0.0-11.0","","","",""
"4167","TestRecordings/nchup.wav","0","audio-button-response","31","1279400","0.0-12.0-0.0","","","",""
"28651","","{""P0_Q0"":""ㄴ,ㅡ,ㅊ,ㅜ,ㄲ"",""P0_Q1"":2}","survey","32","1308068","0.0-12.0-1.0","[]","","",""
"4072","TestRecordings/nchat.wav","0","audio-button-response","33","1312164","0.0-12.0-0.1","","","",""
"24093","","{""P0_Q0"":""ㅇ,ㅡ,ㅇ,ㅊ,ㅐ,ㅅ"",""P0_Q1"":4}","survey","34","1336271","0.0-12.0-1.1","[]","","",""
"4186","TestRecordings/nthunit.wav","0","audio-button-response","35","1340481","0.0-12.0-0.2","","","",""
"27295","","{""P0_Q0"":""ㅇ,ㅡ,ㅇ,ㄴ,ㅡ,ㅌ,ㅜ,ㄴ,ㅣ,ㅅ"",""P0_Q1"":5}","survey","36","1367784","0.0-12.0-1.2","[]","","",""
"3843","TestRecordings/mtunak.wav","0","audio-button-response","37","1371650","0.0-12.0-0.3","","","",""
"17444","","{""P0_Q0"":""ㅇ,ㅡ,ㅇ,ㄴ,ㅡ,ㄸ,ㅜ,ㄴ,ㅏ"",""P0_Q1"":5}","survey","38","1389103","0.0-12.0-1.3","[]","","",""
"2122","TestRecordings/thwicap.wav","0","audio-button-response","39","1391250","0.0-12.0-0.4","","","",""
"16416","","{""P0_Q0"":""ㅌ,ㅟ,ㅈ,ㅏ,ㅂ"",""P0_Q1"":7}","survey","40","1407675","0.0-12.0-1.4","[]","","",""
"2362","TestRecordings/cwang.wav","0","audio-button-response","41","1410058","0.0-12.0-0.5","","","",""
"17277","","{""P0_Q0"":""ㅈ,ㅜ,ㅇ,ㅏㅇ"",""P0_Q1"":5}","survey","42","1427342","0.0-12.0-1.5","[]","","",""
"2581","TestRecordings/mphithup.wav","0","audio-button-response","43","1429943","0.0-12.0-0.6","","","",""
"21856","","{""P0_Q0"":""ㅇ,ㅡ,ㅇ,ㄴ,ㅡ,ㅍ,ㅣ,ㄸ,ㅜ,ㅂ"",""P0_Q1"":4}","survey","44","1451807","0.0-12.0-1.6","[]","","",""
"1529","TestRecordings/phmut.wav","0","audio-button-response","45","1453358","0.0-12.0-0.7","","","",""
"11282","","{""P0_Q0"":""ㅍ,ㅡ,ㅁ,ㅜ,ㅅ"",""P0_Q1"":6}","survey","46","1464648","0.0-12.0-1.7","[]","","",""
"1290","TestRecordings/chwap.wav","0","audio-button-response","47","1465958","0.0-12.0-0.8","","","",""
"13797","","{""P0_Q0"":""ㅊ,ㅗ,ㅏ,ㅂ"",""P0_Q1"":6}","survey","48","1479762","0.0-12.0-1.8","[]","","",""
"1891","TestRecordings/cwasop.wav","0","audio-button-response","49","1481672","0.0-12.0-0.9","","","",""
"21068","","{""P0_Q0"":""ㅈ,ㅗ,ㅏ,ㅅ,ㅗ,ㅂ"",""P0_Q1"":6}","survey","50","1502749","0.0-12.0-1.9","[]","","",""
"785","TestRecordings/knop.wav","0","audio-button-response","51","1503561","0.0-12.0-0.10","","","",""
"13308","","{""P0_Q0"":""ㄱ,ㅡ,ㄴ,ㅗ,ㅅ"",""P0_Q1"":5}","survey","52","1516877","0.0-12.0-1.10","[]","","",""
"1782","TestRecordings/mtak.wav","0","audio-button-response","53","1518678","0.0-12.0-0.11","","","",""
"18278","","{""P0_Q0"":""ㅇ,ㅡ,ㅇ,ㄷ,ㅏ,ㅅ"",""P0_Q1"":4}","survey","54","1536963","0.0-12.0-1.11","[]","","",""
"2062","TestRecordings/khmoting.wav","0","audio-button-response","55","1539046","0.0-12.0-0.12","","","",""
"9435","","{""P0_Q0"":""ㅋ,ㅡ,ㄴ,ㅗ,ㄷ,ㅣ,ㅇ"",""P0_Q1"":6}","survey","56","1548490","0.0-12.0-1.12","[]","","",""
"2112","TestRecordings/mciphom.wav","0","audio-button-response","57","1550624","0.0-12.0-0.13","","","",""
"15334","","{""P0_Q0"":""ㅇ,ㅡ,ㅇ,ㅈ,ㅣ,ㅍ,ㅗ,ㄴ"",""P0_Q1"":5}","survey","58","1565964","0.0-12.0-1.13","[]","","",""
"1753","TestRecordings/takhut.wav","0","audio-button-response","59","1567739","0.0-12.0-0.14","","","",""
"8265","","{""P0_Q0"":""ㄷ,ㅏ,ㅋ,ㅜ,ㅅ"",""P0_Q1"":6}","survey","60","1576012","0.0-12.0-1.14","[]","","",""
"1494","TestRecordings/khmip.wav","0","audio-button-response","61","1577526","0.0-12.0-0.15","","","",""
"7795","","{""P0_Q0"":""ㅋ,ㅡ,ㅁ,ㅣ,ㅂ"",""P0_Q1"":7}","survey","62","1585328","0.0-12.0-1.15","[]","","",""
"1269","TestRecordings/mip.wav","0","audio-button-response","63","1586617","0.0-12.0-0.16","","","",""
"4364","","{""P0_Q0"":""ㅁ,ㅣ,ㅂ"",""P0_Q1"":7}","survey","64","1590989","0.0-12.0-1.16","[]","","",""
"1863","TestRecordings/nchitam.wav","0","audio-button-response","65","1592873","0.0-12.0-0.17","","","",""
"20849","","{""P0_Q0"":""ㅇ,ㅡ,ㅇ,ㄴ,ㅡ,ㅊ,ㅣ,ㄷ,ㅏ,ㅂ"",""P0_Q1"":3}","survey","66","1613729","0.0-12.0-1.17","[]","","",""
"1258","TestRecordings/twikhit.wav","0","audio-button-response","67","1615010","0.0-12.0-0.18","","","",""
"12743","","{""P0_Q0"":""ㄷ,ㅣ,ㅅ"",""P0_Q1"":4}","survey","68","1627761","0.0-12.0-1.18","[]","","",""
"1493","TestRecordings/cut.wav","0","audio-button-response","69","1629274","0.0-12.0-0.19","","","",""
"9157","","{""P0_Q0"":""ㅊ,ㅠ,ㅅ"",""P0_Q1"":6}","survey","70","1638438","0.0-12.0-1.19","[]","","",""
"1917","TestRecordings/phmacot.wav","0","audio-button-response","71","1640376","0.0-12.0-0.20","","","",""
"13853","","{""P0_Q0"":""ㅋ,ㅡ,ㅁ,ㅏ,ㅈ,ㅗ,ㅅ"",""P0_Q1"":7}","survey","72","1654238","0.0-12.0-1.20","[]","","",""
"1701","TestRecordings/cmot.wav","0","audio-button-response","73","1655959","0.0-12.0-0.21","","","",""
"17856","","{""P0_Q0"":""ㅊ,ㅣ,ㅁ,ㅗ,ㅅ"",""P0_Q1"":2}","survey","74","1673823","0.0-12.0-1.21","[]","","",""
"1507","TestRecordings/thum.wav","0","audio-button-response","75","1675353","0.0-12.0-0.22","","","",""
"4735","","{""P0_Q0"":""ㅌ,ㅜ,ㅁ"",""P0_Q1"":7}","survey","76","1680095","0.0-12.0-1.22","[]","","",""
"1412","TestRecordings/thnukip.wav","0","audio-button-response","77","1681529","0.0-12.0-0.23","","","",""
"15928","","{""P0_Q0"":""ㅌ,ㅡ,ㄴ,ㅜ,ㄱ,ㅣ,ㅅ"",""P0_Q1"":6}","survey","78","1697463","0.0-12.0-1.23","[]","","",""
"1527","TestRecordings/phuthik.wav","0","audio-button-response","79","1699010","0.0-12.0-0.24","","","",""
"8242","","{""P0_Q0"":""ㅍ,ㅜ,ㅌ,ㅣ,ㄱ"",""P0_Q1"":7}","survey","80","1707259","0.0-12.0-1.24","[]","","",""
"1705","TestRecordings/mkithun.wav","0","audio-button-response","81","1708986","0.0-12.0-0.25","","","",""
"16585","","{""P0_Q0"":""ㅇ,ㅡ,ㅇ,ㄱ,ㅣ,ㅅ,ㅌ,ㅜ,ㄴ"",""P0_Q1"":3}","survey","82","1725578","0.0-12.0-1.25","[]","","",""
"2024","TestRecordings/kophak.wav","0","audio-button-response","83","1727624","0.0-12.0-0.26","","","",""
"8867","","{""P0_Q0"":""ㄱ,ㅗ,ㅍ,ㅏ,ㄱ"",""P0_Q1"":6}","survey","84","1736497","0.0-12.0-1.26","[]","","",""
"1711","TestRecordings/ntosin.wav","0","audio-button-response","85","1738229","0.0-12.0-0.27","","","",""
"10645","","{""P0_Q0"":""ㅇ,ㅡ,ㅇ,ㄷ,ㅜ,ㅅ,ㅣ,ㄴ"",""P0_Q1"":3}","survey","86","1748881","0.0-12.0-1.27","[]","","",""
"1587","TestRecordings/khonik.wav","0","audio-button-response","87","1750489","0.0-12.0-0.28","","","",""
"6673","","{""P0_Q0"":""ㅋ,ㅗ,ㄴ,ㅣ,ㄱ"",""P0_Q1"":7}","survey","88","1757169","0.0-12.0-1.28","[]","","",""
"2090","TestRecordings/phwing.wav","0","audio-button-response","89","1759281","0.0-12.0-0.29","","","",""
"20903","","{""P0_Q0"":""ㅌ,ㅡ,ㅋ,ㅟ,ㅇ"",""P0_Q1"":1}","survey","90","1780191","0.0-12.0-1.29","[]","","",""
"1984","TestRecordings/masuk.wav","0","audio-button-response","91","1782200","0.0-12.0-0.30","","","",""
"6303","","{""P0_Q0"":""ㅁ,ㅏ,ㅅ,ㅜ,ㄱ"",""P0_Q1"":7}","survey","92","1788511","0.0-12.0-1.30","[]","","",""
"1366","TestRecordings/siphuk.wav","0","audio-button-response","93","1789898","0.0-12.0-0.31","","","",""
"10033","","{""P0_Q0"":""ㅆ,ㅣ,ㅍ,ㅜ,ㅋ"",""P0_Q1"":6}","survey","94","1799938","0.0-12.0-1.31","[]","","",""
"1487","TestRecordings/thnakop.wav","0","audio-button-response","95","1801445","0.0-12.0-0.32","","","",""
"12452","","{""P0_Q0"":""ㅌ,ㅡ,ㄴ,ㅏ,ㄱ,ㅗ,ㅍ"",""P0_Q1"":6}","survey","96","1813903","0.0-12.0-1.32","[]","","",""
"1338","TestRecordings/phwim.wav","0","audio-button-response","97","1815262","0.0-12.0-0.33","","","",""
"9148","","{""P0_Q0"":""ㅍ,ㅟ,ㅁ"",""P0_Q1"":5}","survey","98","1824416","0.0-12.0-1.33","[]","","",""
"1499","TestRecordings/nucok.wav","0","audio-button-response","99","1825934","0.0-12.0-0.34","","","",""
"5714","","{""P0_Q0"":""ㄴ,ㅜ,ㅈ,ㅗ,ㄱ"",""P0_Q1"":7}","survey","100","1831656","0.0-12.0-1.34","[]","","",""
"1791","TestRecordings/swakhing.wav","0","audio-button-response","101","1833469","0.0-12.0-0.35","","","",""
"11348","","{""P0_Q0"":""ㅅ,ㅗ,ㅏ,ㅋ,ㅟ,ㅇ"",""P0_Q1"":7}","survey","102","1844824","0.0-12.0-1.35","[]","","",""
"1553","TestRecordings/pathik.wav","0","audio-button-response","103","1846398","0.0-12.0-0.36","","","",""
"6083","","{""P0_Q0"":""ㅂ,ㅏ,ㅌ,ㅣ,ㄱ"",""P0_Q1"":7}","survey","104","1852490","0.0-12.0-1.36","[]","","",""
"1714","TestRecordings/khnichat.wav","0","audio-button-response","105","1854225","0.0-12.0-0.37","","","",""
"8057","","{""P0_Q0"":""ㅋ,ㅡ,ㄴ,ㅣ,ㅊ,ㅑ,ㅅ"",""P0_Q1"":7}","survey","106","1862289","0.0-12.0-1.37","[]","","",""
"1183","TestRecordings/chut.wav","0","audio-button-response","107","1863493","0.0-12.0-0.38","","","",""
"6783","","{""P0_Q0"":""ㅊ,ㅠ,ㅅ"",""P0_Q1"":6}","survey","108","1870283","0.0-12.0-1.38","[]","","",""
"1578","TestRecordings/swicit.wav","0","audio-button-response","109","1871882","0.0-12.0-0.39","","","",""
"14039","","{""P0_Q0"":""ㅅ,ㅟ, ㅈ, ㅣ, ㅌ"",""P0_Q1"":6}","survey","110","1885927","0.0-12.0-1.39","[]","","",""
"1549","TestRecordings/pwacung.wav","0","audio-button-response","111","1887516","0.0-12.0-0.40","","","",""
"9743","","{""P0_Q0"":""ㅂ,ㅗ,ㅏ,ㅈ,ㅜ,ㅇ"",""P0_Q1"":7}","survey","112","1897266","0.0-12.0-1.40","[]","","",""
"1483","TestRecordings/swapong.wav","0","audio-button-response","113","1898773","0.0-12.0-0.41","","","",""
"10431","","{""P0_Q0"":""ㅅ,ㅗ,ㅏ,ㅂ,ㅗ,ㅇ"",""P0_Q1"":6}","survey","114","1909210","0.0-12.0-1.41","[]","","",""
"1231","TestRecordings/nchak.wav","0","audio-button-response","115","1910461","0.0-12.0-0.42","","","",""
"14583","","{""P0_Q0"":""ㅇ,ㅡ,ㅇ,ㅊ,ㅏ,ㅅ"",""P0_Q1"":3}","survey","116","1925051","0.0-12.0-1.42","[]","","",""
"1591","TestRecordings/sutik.wav","0","audio-button-response","117","1926663","0.0-12.0-0.43","","","",""
"8853","","{""P0_Q0"":""ㅅ,ㅜ,ㄷ,ㅣ,ㄱ"",""P0_Q1"":7}","survey","118","1935523","0.0-12.0-1.43","[]","","",""
"1439","TestRecordings/knothing.wav","0","audio-button-response","119","1936984","0.0-12.0-0.44","","","",""
"9036","","{""P0_Q0"":""ㅋ,ㅡ,ㄴ,ㅗ,ㅅ,ㅌ,ㅣ,ㅇ"",""P0_Q1"":6}","survey","120","1946027","0.0-12.0-1.44","[]","","",""
"1109","TestRecordings/niphak.wav","0","audio-button-response","121","1947156","0.0-12.0-0.45","","","",""
"9032","","{""P0_Q0"":""ㄴ,ㅣ,ㅍ,ㅏ,ㄱ"",""P0_Q1"":7}","survey","122","1956196","0.0-12.0-1.45","[]","","",""
"1170","TestRecordings/chwakap.wav","0","audio-button-response","123","1957386","0.0-12.0-0.46","","","",""
"9682","","{""P0_Q0"":""ㅊ,ㅗ,ㅏ,ㄱ,ㅏ,ㅂ"",""P0_Q1"":7}","survey","124","1967076","0.0-12.0-1.46","[]","","",""
"1241","TestRecordings/pmuk.wav","0","audio-button-response","125","1968336","0.0-12.0-0.47","","","",""
"20175","","{""P0_Q0"":""ㅇ,ㅡ,ㅇ,ㄲ,ㅡ,ㅁ,ㅜ,ㅂ"",""P0_Q1"":1}","survey","126","1988519","0.0-12.0-1.47","[]","","",""
"1300","TestRecordings/ncuk.wav","0","audio-button-response","127","1989839","0.0-12.0-0.48","","","",""
"15069","","{""P0_Q0"":""ㅇ,ㅡ,ㅇ,ㄴ,ㅡ,ㅈ,ㅜ,ㄱ"",""P0_Q1"":1}","survey","128","2004915","0.0-12.0-1.48","[]","","",""
"1113","TestRecordings/kwat.wav","0","audio-button-response","129","2006047","0.0-12.0-0.49","","","",""
"7748","","{""P0_Q0"":""ㄱ,ㅗ,ㅏ,ㅅ"",""P0_Q1"":6}","survey","130","2013802","0.0-12.0-1.49","[]","","",""
"1341","TestRecordings/pmathin.wav","0","audio-button-response","131","2015165","0.0-12.0-0.50","","","",""
"12047","","{""P0_Q0"":""ㄲ,ㅡ,ㅁ,ㅏ,ㅌ,ㅣ,ㄴ"",""P0_Q1"":6}","survey","132","2027219","0.0-12.0-1.50","[]","","",""
"1184","TestRecordings/phninot.wav","0","audio-button-response","133","2028424","0.0-12.0-0.51","","","",""
"9913","","{""P0_Q0"":""ㅍ,ㅡ,ㄴ,ㅣ,ㄴ,ㅗ,ㅅ"",""P0_Q1"":7}","survey","134","2038343","0.0-12.0-1.51","[]","","",""
"1573","TestRecordings/khwapan.wav","0","audio-button-response","135","2039938","0.0-12.0-0.52","","","",""
"7637","","{""P0_Q0"":""ㅋ,ㅗ,ㅏ,ㅂ,ㅏ,ㄴ"",""P0_Q1"":7}","survey","136","2047582","0.0-12.0-1.52","[]","","",""
"1543","TestRecordings/khnacin.wav","0","audio-button-response","137","2049146","0.0-12.0-0.53","","","",""
"8499","","{""P0_Q0"":""ㅋ,ㅡ,ㄴ,ㅏ,ㅈ,ㅣ,ㄴ"",""P0_Q1"":7}","survey","138","2057652","0.0-12.0-1.53","[]","","",""
"1329","TestRecordings/khun.wav","0","audio-button-response","139","2059002","0.0-12.0-0.54","","","",""
"4806","","{""P0_Q0"":""ㅋ,ㅜ,ㄴ"",""P0_Q1"":7}","survey","140","2063816","0.0-12.0-1.54","[]","","",""
"1254","TestRecordings/pmisung.wav","0","audio-button-response","141","2065090","0.0-12.0-0.55","","","",""
"13150","","{""P0_Q0"":""ㄲ,ㅡ,ㅁ,ㅣ,ㅅ,ㅜ,ㅇ"",""P0_Q1"":2}","survey","142","2078247","0.0-12.0-1.55","[]","","",""
"1350","TestRecordings/npokit.wav","0","audio-button-response","143","2079617","0.0-12.0-0.56","","","",""
"13287","","{""P0_Q0"":""ㅇ,ㅡ,ㅇ,ㅂ,ㅜ,ㄱ,ㅣ,ㅅ"",""P0_Q1"":3}","survey","144","2092910","0.0-12.0-1.56","[]","","",""
"1712","TestRecordings/nthiton.wav","0","audio-button-response","145","2094643","0.0-12.0-0.57","","","",""
"11395","","{""P0_Q0"":""ㅇ,ㅡ,ㅇ,ㅌ,ㅣ,ㄷ,ㅗ,ㄴ"",""P0_Q1"":3}","survey","146","2106047","0.0-12.0-1.57","[]","","",""
"1257","TestRecordings/nthochap.wav","0","audio-button-response","147","2107325","0.0-12.0-0.58","","","",""
"11322","","{""P0_Q0"":""ㅇ,ㅡ,ㅇ,ㅌ,ㅗ,ㅊ,ㅑ,ㅂ"",""P0_Q1"":2}","survey","148","2118654","0.0-12.0-1.58","[]","","",""
"2208","TestRecordings/cwiphing.wav","0","audio-button-response","149","2120884","0.0-12.0-0.59","","","",""
"22956","","{""P0_Q0"":""ㅌ,ㅡ,ㄹ,ㅟ,ㅍ,ㅣ,ㅇ"",""P0_Q1"":2}","survey","150","2143846","0.0-12.0-1.59","[]","","",""
"2042",""," ","html-keyboard-response","151","2145888","0.0-13.0","","","",""
"76595","","{""P0_Q0"":""23"",""P0_Q1"":""여"",""P0_Q2"":""만6살"",""P0_Q3"":""없음"",""P0_Q4"":""일본어"",""P0_Q5"":""만16살, 1년"",""P0_Q6"":""없음""}","survey","152","2222492","0.0-14.0","[]","","",""
"30519","<p style=""font-size:30px"",lang=""ko"">실험이 끝났습니다</p><p style=""font-size:30px"",lang=""ko"">참가해주셔서 고맙습니다</p>"," ","html-keyboard-response","153","2253012","0.0-15.0","","","",""
