"rt","stimulus","response","trial_type","trial_index","time_elapsed","internal_node_id","accuracy","PracticeTest","ConsonantSequence","Grammaticality"
"910550","<p style=""font-size:30px"",lang=""ko"">실험에 오신 것을 환영합니다</p><p lang=""ko"">스페이스바를 누르면 다음 페이지로 넘어갑니다</p>"," ","html-keyboard-response","0","910553","0.0-0.0","","","",""
"1395","<p style=""font-size:30px"",lang=""ko"">해드폰을 본인에게 잘 맞게 착용하세요</p><p lang=""ko"">스페이스바를 누르면 다음 페이지로 넘어갑니다</p>"," ","html-keyboard-response","1","911949","0.0-1.0","","","",""
"2754","<p style=""font-size:30px"",lang=""ko"">이 실험에서는 새로 만든 한국 단어를 들으실 겁니다</p><p style=""font-size:30px"",lang=""ko"">단어를 들리는대로 쓰세요. 그런 다음 그 단어가 한국어 단어로 가능한지 평가하세요</p><p lang=""ko"">스페이스바를 누르면 다음 페이지로 넘어갑니다</p>"," ","html-keyboard-response","2","914704","0.0-2.0","","","",""
"1635","<p style=""font-size:30px"",lang=""ko"">원래 있는 단어로 예를 들어 봅시다</p><p lang=""ko"">스페이스바를 누르면 다음 페이지로 넘어갑니다</p>"," ","html-keyboard-response","3","916339","0.0-3.0","","","",""
"12012","PracticeRecordings/kom_bear.wav","0","audio-button-response","4","928462","0.0-4.0","","","",""
"3137","<p style=""font-size:30px"",lang=""ko"">이제 직접 단어를 듣고 쓰는 연습을 해봅시다. </p><p style=""font-size:30px"",lang=""ko"">스페이스바를 누르면 다음 페이지로 넘어갑니다</p>"," ","html-keyboard-response","5","931599","0.0-5.0","","","",""
"5066","PracticeRecordings/kirin_giraffe.wav","0","audio-button-response","6","936752","0.0-6.0-0.0","","","",""
"16833","kirin_giraffe","{""P0_Q0"":""ㄱ, ㅣ,ㄹ,ㅣ,ㄴ""}","survey","7","953631","0.0-6.0-1.0","[]","practice","NA","TRUE"
"3010","<p style=""font-size:30px"",lang=""ko"">방금 들으신 단어는 ""ㄱ,ㅣ,ㄹ,ㅣ,ㄴ"" 이라고 쓰시면 됩니다</p><p lang=""ko"">스페이스바를 누르면 다음 페이지로 넘어갑니다</p>"," ","html-keyboard-response","8","956642","0.0-6.0-2.0","","","",""
"3344","PracticeRecordings/saca_lion.wav","0","audio-button-response","9","960078","0.0-6.0-0.1","","","",""
"5077","saca_lion","{""P0_Q0"":""ㅅ,ㅏ,ㅈ,ㅏ""}","survey","10","965166","0.0-6.0-1.1","[]","practice","NA","FALSE"
"8717","<p style=""font-size:30px"",lang=""ko"">방금 들으신 단어는 ""ㅅ,ㅏ,ㅈ,ㅏ"" 라고 쓰시면 됩니다</p><p lang=""ko"">스페이스바를 누르면 다음 페이지로 넘어갑니다</p>"," ","html-keyboard-response","11","973884","0.0-6.0-2.1","","","",""
"1727","PracticeRecordings/saseum_deer.wav","0","audio-button-response","12","975697","0.0-6.0-0.2","","","",""
"5965","saseum_deer","{""P0_Q0"":""ㅅ,ㅏ,ㅅ,ㅡ,ㅁ""}","survey","13","981670","0.0-6.0-1.2","[]","practice","NA","FALSE"
"876","<p style=""font-size:30px"",lang=""ko"">방금 들으신 단어는 ""ㅅ,ㅏ,ㅅ,ㅡ,ㅁ""이라고 쓰시면 됩니다</p><p lang=""ko"">스페이스바를 누르면 다음 페이지로 넘어갑니다</p>"," ","html-keyboard-response","14","982547","0.0-6.0-2.2","","","",""
"1428","PracticeRecordings/thokki_rabbit.wav","0","audio-button-response","15","984061","0.0-6.0-0.3","","","",""
"9099","thokki_rabbit","{""P0_Q0"":""ㅌ, ㅗ, ㄲ,ㅣ""}","survey","16","993168","0.0-6.0-1.3","[]","practice","NA","FALSE"
"1958","<p style=""font-size:30px"",lang=""ko"">방금 들으신 단어는 ""ㅌ,ㅗ,ㄲ,ㅣ"" 라고 쓰시면 됩니다</p><p lang=""ko"">스페이스바를 누르면 다음 페이지로 넘어갑니다</p>"," ","html-keyboard-response","17","995126","0.0-6.0-2.3","","","",""
"909","<p style=""font-size:30px"",lang=""ko"">이제 만든 단어로 연습해봅시다.</p><p lang=""ko"">스페이스바를 누르면 다음 페이지로 넘어갑니다</p>"," ","html-keyboard-response","18","996036","0.0-7.0","","","",""
"2609","PracticeRecordings/snen.wav","0","audio-button-response","19","998729","0.0-8.0-0.0","","","",""
"9683","snen","{""P0_Q0"":""ㅅ,ㅡ,ㄴ,ㅐ,ㄴ""}","survey","20","1008420","0.0-8.0-1.0","[]","practice","NA","TRUE"
"3742","<p style=""font-size:30px"",lang=""ko"">들으신 단어는 <br> ""ㅅ,ㅡ,ㄴ,ㅐ,ㄴ""  ""ㅅ,ㅡ,ㄴ,ㅐ"" ""ㅅ,ㄴ,ㅐ,ㄴ (""으"" 소리가 안 들리는 경우)"" 등 <br> 사람에 따라 다양하게 들릴 수 있습니다 <br> 본인에게 들리는대로 쓰시면 됩니다.</p><p lang=""ko"">스페이스바를 누르면 다음 페이지로 넘어갑니다</p>"," ","html-keyboard-response","21","1012163","0.0-8.0-2.0","","","",""
"1694","PracticeRecordings/phrak.wav","0","audio-button-response","22","1013939","0.0-8.0-0.1","","","",""
"13252","phrak","{""P0_Q0"":""ㅍ,ㅡ,ㄹ,ㅏ,ㄹ,ㄱ""}","survey","23","1027198","0.0-8.0-1.1","[]","practice","NA","FALSE"
"7026","<p style=""font-size:30px"",lang=""ko"">들으신 단어는 <br> ""ㅍ,ㅡ,ㄹ,ㅏ,ㄱ"" ""ㅍ,ㅡ,ㄹ,ㅏ,ㅅ"" ""ㅋ,ㅡ,ㄹ,ㅏ,ㄱ"" ""ㅍ,ㄹ,ㅏ,ㄱ (""으"" 소리가 안 들리는 경우)"" 등 <br> 사람에 따라 다양하게 들릴 수 있습니다 <br> 본인에게 들리는대로 쓰시면 됩니다.</p><p lang=""ko"">스페이스바를 누르면 다음 페이지로 넘어갑니다</p>"," ","html-keyboard-response","24","1034225","0.0-8.0-2.1","","","",""
"2024","PracticeRecordings/chka.wav","0","audio-button-response","25","1036336","0.0-8.0-0.2","","","",""
"7677","chka","{""P0_Q0"":""ㅊ,ㅡ,ㄱ,ㅏ""}","survey","26","1044019","0.0-8.0-1.2","[]","practice","NA","FALSE"
"1620","<p style=""font-size:30px"",lang=""ko"">들으신 단어는 ""ㅊ,ㅣ,ㄱ,ㅏ"", ""ㅊ,ㅡ,ㄱ,ㅏ"", ""ㅊ,ㄱ,ㅏ"", ""ㅊ,ㅟ,ㄱ,ㅏ"" 등 <br> 사람에 따라 다양하게 들릴 수 있습니다. <br> 본인에게 들리는대로 쓰시면 됩니다.</p><p lang=""ko"">스페이스바를 누르면 다음 페이지로 넘어갑니다</p>"," ","html-keyboard-response","27","1045640","0.0-8.0-2.2","","","",""
"546",""," ","html-keyboard-response","28","1046186","0.0-9.0","","","",""
"1999","<p style=""font-size:30px"",lang=""ko"">이제 실험을 시작하겠습니다.</p><p style=""font-size:30px"",lang=""ko"">실전에서는 각각의 만든 단어를 한 번씩만 들을 수 있습니다.</p>"," ","html-keyboard-response","29","1048185","0.0-10.0","","","",""
"3702","<p style=""font-size:30px"",lang=""ko"">단어를 풀어 쓰신 후에 그 단어가 한국어로 가능한 단어인지 평가해주세요</p><p style=""font-size:30px"",lang=""ko"">1점은 한국어로 완전 불가능한 단어, 7점은 한국어로 완전 가능한 단어를 의미합니다</p><p lang=""ko"">스페이스바를 누르면 다음 페이지로 넘어갑니다</p>"," ","html-keyboard-response","30","1051888","0.0-11.0","","","",""
"5071","TestRecordings/chut.wav","0","audio-button-response","31","1057046","0.0-12.0-0.0","","","",""
"15698","","{""P0_Q0"":""ㅅ,ㅜ,ㅌ"",""P0_Q1"":6}","survey","32","1072759","0.0-12.0-1.0","[]","","",""
"3955","TestRecordings/nchak.wav","0","audio-button-response","33","1076737","0.0-12.0-0.1","","","",""
"11178","","{""P0_Q0"":""ㅇ,ㅊ,ㅏ,ㅋ"",""P0_Q1"":2}","survey","34","1087925","0.0-12.0-1.1","[]","","",""
"6035","TestRecordings/thum.wav","0","audio-button-response","35","1094045","0.0-12.0-0.2","","","",""
"14432","","{""P0_Q0"":""ㅌ,ㅜ,ㅇ,ㅜ,ㅁ"",""P0_Q1"":5}","survey","36","1108485","0.0-12.0-1.2","[]","","",""
"3221","TestRecordings/phmacot.wav","0","audio-button-response","37","1111792","0.0-12.0-0.3","","","",""
"13639","","{""P0_Q0"":""ㅍ,ㅡ,ㅁ,ㅏ,ㅈ,ㅗ,ㅅ"",""P0_Q1"":2}","survey","38","1125438","0.0-12.0-1.3","[]","","",""
"2231","TestRecordings/khnichat.wav","0","audio-button-response","39","1127754","0.0-12.0-0.4","","","",""
"19121","","{""P0_Q0"":""ㅂ,ㅡ,ㄴ,ㅣ,ㅊ,ㅏ,ㄷ"",""P0_Q1"":1}","survey","40","1146882","0.0-12.0-1.4","[]","","",""
"1594","TestRecordings/thnukip.wav","0","audio-button-response","41","1148499","0.0-12.0-0.5","","","",""
"16659","","{""P0_Q0"":""ㅌ,ㅡ,ㄴ,ㅜ,ㄱ,ㅣ,ㅂ"",""P0_Q1"":3}","survey","42","1165167","0.0-12.0-1.5","[]","","",""
"1572","TestRecordings/khmip.wav","0","audio-button-response","43","1166823","0.0-12.0-0.6","","","",""
"8956","","{""P0_Q0"":""ㅋ,ㅡ,ㅁ,ㅣ,ㅂ"",""P0_Q1"":2}","survey","44","1175787","0.0-12.0-1.6","[]","","",""
"1142","TestRecordings/phwim.wav","0","audio-button-response","45","1177011","0.0-12.0-0.7","","","",""
"9955","","{""P0_Q0"":""ㅍ,ㅣ,ㅎ,ㅣ,ㅁ"",""P0_Q1"":2}","survey","46","1186974","0.0-12.0-1.7","[]","","",""
"994","TestRecordings/cut.wav","0","audio-button-response","47","1188051","0.0-12.0-0.8","","","",""
"10855","","{""P0_Q0"":""ㅈ,ㅜ,ㄷ"",""P0_Q1"":7}","survey","48","1198913","0.0-12.0-1.8","[]","","",""
"1234","TestRecordings/nthochap.wav","0","audio-button-response","49","1200173","0.0-12.0-0.9","","","",""
"10314","","{""P0_Q0"":""ㅇ,ㅡ,ㅇ,ㅌ,ㅗ,ㅊ,ㅏ,ㅂ"",""P0_Q1"":3}","survey","50","1210495","0.0-12.0-1.9","[]","","",""
"996","TestRecordings/mtak.wav","0","audio-button-response","51","1211514","0.0-12.0-0.10","","","",""
"20116","","{""P0_Q0"":""ㅇ,ㅡ,ㅇ,ㄷ,ㅏ,ㄹ,ㅂ"",""P0_Q1"":5}","survey","52","1231637","0.0-12.0-1.10","[]","","",""
"1947","TestRecordings/nthiton.wav","0","audio-button-response","53","1233668","0.0-12.0-0.11","","","",""
"18099","","{""P0_Q0"":""ㅇ,ㅡ,ㅇ,ㅌ,ㅣ,ㄷ,ㅗ,ㄴ"",""P0_Q1"":2}","survey","54","1251774","0.0-12.0-1.11","[]","","",""
"1400","TestRecordings/twikhit.wav","0","audio-button-response","55","1253259","0.0-12.0-0.12","","","",""
"13697","","{""P0_Q0"":""ㄷ,ㅜ,ㅣ,ㅋ,ㅣ,ㅅ"",""P0_Q1"":3}","survey","56","1266962","0.0-12.0-1.12","[]","","",""
"1040","TestRecordings/niphak.wav","0","audio-button-response","57","1268086","0.0-12.0-0.13","","","",""
"13217","","{""P0_Q0"":""ㄴ,ㅜ,ㅣ,ㅍ,ㅏ,ㄹ,ㄱ"",""P0_Q1"":3}","survey","58","1281311","0.0-12.0-1.13","[]","","",""
"1554","TestRecordings/khonik.wav","0","audio-button-response","59","1282949","0.0-12.0-0.14","","","",""
"10483","","{""P0_Q0"":""ㅋ,ㅗ,ㄴ,ㅣ,ㄱ"",""P0_Q1"":6}","survey","60","1293439","0.0-12.0-1.14","[]","","",""
"1505","TestRecordings/phninot.wav","0","audio-button-response","61","1295030","0.0-12.0-0.15","","","",""
"14821","","{""P0_Q0"":""ㅍ,ㅡ,ㄴ,ㅣ,ㄴ,ㅗ,ㅈ"",""P0_Q1"":3}","survey","62","1309858","0.0-12.0-1.15","[]","","",""
"1955","TestRecordings/cwiphing.wav","0","audio-button-response","63","1311900","0.0-12.0-0.16","","","",""
"15910","","{""P0_Q0"":""ㅈ,ㅜ,ㅣ,ㅍ,ㅣ,ㅇ"",""P0_Q1"":6}","survey","64","1327818","0.0-12.0-1.16","[]","","",""
"2039","TestRecordings/mkithun.wav","0","audio-button-response","65","1329940","0.0-12.0-0.17","","","",""
"11999","","{""P0_Q0"":""ㅇ,ㅡ,ㅇ,ㄱ,ㅣ,ㅌ,ㅜ,ㄴ"",""P0_Q1"":3}","survey","66","1341946","0.0-12.0-1.17","[]","","",""
"985","TestRecordings/nucok.wav","0","audio-button-response","67","1343013","0.0-12.0-0.18","","","",""
"19637","","{""P0_Q0"":""ㄴ,ㅜ,ㅈ,,ㅗ,ㄱ"",""P0_Q1"":6}","survey","68","1362657","0.0-12.0-1.18","[]","","",""
"1397","TestRecordings/masuk.wav","0","audio-button-response","69","1364137","0.0-12.0-0.19","","","",""
"7890","","{""P0_Q0"":""ㅁ,ㅏ,ㅅ,ㅜ,ㄱ"",""P0_Q1"":7}","survey","70","1372035","0.0-12.0-1.19","[]","","",""
"1388","TestRecordings/mip.wav","0","audio-button-response","71","1373506","0.0-12.0-0.20","","","",""
"4756","","{""P0_Q0"":""ㅁ,ㅣ,ㅂ"",""P0_Q1"":7}","survey","72","1378270","0.0-12.0-1.20","[]","","",""
"1634","TestRecordings/pathik.wav","0","audio-button-response","73","1379945","0.0-12.0-0.21","","","",""
"6634","","{""P0_Q0"":""ㅂ,ㅏ,ㅌ,ㅣ,ㄱ"",""P0_Q1"":7}","survey","74","1386585","0.0-12.0-1.21","[]","","",""
"1159","TestRecordings/knop.wav","0","audio-button-response","75","1387828","0.0-12.0-0.22","","","",""
"11386","","{""P0_Q0"":""ㄱ,ㅡ,ㄴ,ㅗ,ㅂ"",""P0_Q1"":6}","survey","76","1399221","0.0-12.0-1.22","[]","","",""
"1638","TestRecordings/sutik.wav","0","audio-button-response","77","1400942","0.0-12.0-0.23","","","",""
"14964","","{""P0_Q0"":""ㅅ,ㅜ,ㄷ,ㅣ,ㄱ"",""P0_Q1"":7}","survey","78","1415913","0.0-12.0-1.23","[]","","",""
"1826","TestRecordings/mciphom.wav","0","audio-button-response","79","1417823","0.0-12.0-0.24","","","",""
"17676","","{""P0_Q0"":""ㅇ,ㅡ,ㅇ,ㅈ,ㅣ,ㅍ,ㅗ,ㅁ"",""P0_Q1"":4}","survey","80","1435507","0.0-12.0-1.24","[]","","",""
"1883","TestRecordings/khwapan.wav","0","audio-button-response","81","1437474","0.0-12.0-0.25","","","",""
"10356","","{""P0_Q0"":""ㅋ,ㅗ,ㅏ,ㅂ,ㅏ,ㄴ"",""P0_Q1"":3}","survey","82","1447838","0.0-12.0-1.25","[]","","",""
"1128","TestRecordings/cwasop.wav","0","audio-button-response","83","1449050","0.0-12.0-0.26","","","",""
"16201","","{""P0_Q0"":""ㅈ,ㅗ,ㅏ,ㅅ,ㅗ,ㅂ"",""P0_Q1"":6}","survey","84","1465257","0.0-12.0-1.26","[]","","",""
"2700","TestRecordings/ncuk.wav","0","audio-button-response","85","1468040","0.0-12.0-0.27","","","",""
"12245","","{""P0_Q0"":""ㅇ,ㅗ,ㅇ,ㅈ,ㅜ,ㅎ"",""P0_Q1"":2}","survey","86","1480292","0.0-12.0-1.27","[]","","",""
"1625","TestRecordings/npokit.wav","0","audio-button-response","87","1481947","0.0-12.0-0.28","","","",""
"18937","","{""P0_Q0"":""ㅇ,ㅡ,ㅇ,ㅂ,ㅜ,ㄱ,ㅣ,ㅅ"",""P0_Q1"":2}","survey","88","1500891","0.0-12.0-1.28","[]","","",""
"1188","TestRecordings/nchat.wav","0","audio-button-response","89","1502161","0.0-12.0-0.29","","","",""
"22501","","{""P0_Q0"":""ㅇ,ㅡ,ㅇ,ㅊ,ㅏ,ㅅ"",""P0_Q1"":3}","survey","90","1524669","0.0-12.0-1.29","[]","","",""
"1773","TestRecordings/pmathin.wav","0","audio-button-response","91","1526530","0.0-12.0-0.30","","","",""
"14581","","{""P0_Q0"":""ㅂ,ㅜ,ㅁ,ㅏ,ㅌ,ㅣ,ㄴ"",""P0_Q1"":2}","survey","92","1541117","0.0-12.0-1.30","[]","","",""
"1142","TestRecordings/cmot.wav","0","audio-button-response","93","1542283","0.0-12.0-0.31","","","",""
"7565","","{""P0_Q0"":""ㅈ,ㅣ,ㅁ,ㅗ,ㅅ"",""P0_Q1"":4}","survey","94","1549856","0.0-12.0-1.31","[]","","",""
"1144","TestRecordings/thwicap.wav","0","audio-button-response","95","1551084","0.0-12.0-0.32","","","",""
"10276","","{""P0_Q0"":""ㅌ,ㅜ,ㅣ,ㅈ,ㅏ,ㅂ"",""P0_Q1"":7}","survey","96","1561367","0.0-12.0-1.32","[]","","",""
"1592","TestRecordings/swakhing.wav","0","audio-button-response","97","1563043","0.0-12.0-0.33","","","",""
"25327","","{""P0_Q0"":""ㅅ,ㅡ,ㅇ,ㅗ,ㅏ,ㅋ,ㅣ,ㅇ"",""P0_Q1"":5}","survey","98","1588377","0.0-12.0-1.33","[]","","",""
"2024","TestRecordings/swicit.wav","0","audio-button-response","99","1590489","0.0-12.0-0.34","","","",""
"10249","","{""P0_Q0"":""ㅅ,ㅜ,ㅣ,ㅈ,ㅣ,ㅅ"",""P0_Q1"":6}","survey","100","1600746","0.0-12.0-1.34","[]","","",""
"1599","TestRecordings/pmuk.wav","0","audio-button-response","101","1602428","0.0-12.0-0.35","","","",""
"10340","","{""P0_Q0"":""ㅂ,ㅁ,ㅜ,ㄱ"",""P0_Q1"":1}","survey","102","1612774","0.0-12.0-1.35","[]","","",""
"1823","TestRecordings/ntosin.wav","0","audio-button-response","103","1614683","0.0-12.0-0.36","","","",""
"15687","","{""P0_Q0"":""ㅇ,ㅡ,ㅇ,ㄷ,ㅜ,ㅅ,ㅣ,ㄴ"",""P0_Q1"":1}","survey","104","1630375","0.0-12.0-1.36","[]","","",""
"1694","TestRecordings/chwap.wav","0","audio-button-response","105","1632154","0.0-12.0-0.37","","","",""
"8007","","{""P0_Q0"":""ㅈ,ㅗ,ㅏ,ㅂ"",""P0_Q1"":7}","survey","106","1640168","0.0-12.0-1.37","[]","","",""
"1298","TestRecordings/khun.wav","0","audio-button-response","107","1641552","0.0-12.0-0.38","","","",""
"3984","","{""P0_Q0"":""ㅋ,ㅜ,ㄴ"",""P0_Q1"":7}","survey","108","1645544","0.0-12.0-1.38","[]","","",""
"2176","TestRecordings/thnakop.wav","0","audio-button-response","109","1647804","0.0-12.0-0.39","","","",""
"15525","","{""P0_Q0"":""ㅌ,ㅡ,ㄴ,ㅏ,ㄱ,ㅗ,ㅂ"",""P0_Q1"":6}","survey","110","1663336","0.0-12.0-1.39","[]","","",""
"1456","TestRecordings/pmisung.wav","0","audio-button-response","111","1664877","0.0-12.0-0.40","","","",""
"10652","","{""P0_Q0"":""ㅂ,ㅡ,ㄴ,ㅣ,ㅅ,ㅜ,ㅇ"",""P0_Q1"":2}","survey","112","1675537","0.0-12.0-1.40","[]","","",""
"1129","TestRecordings/siphuk.wav","0","audio-button-response","113","1676749","0.0-12.0-0.41","","","",""
"7482","","{""P0_Q0"":""ㅅ,ㅣ,ㅍ,ㅜ"",""P0_Q1"":3}","survey","114","1684239","0.0-12.0-1.41","[]","","",""
"1770","TestRecordings/takhut.wav","0","audio-button-response","115","1686086","0.0-12.0-0.42","","","",""
"10846","","{""P0_Q0"":""ㅂ,ㅏ,ㅋ,ㅜ,ㅅ"",""P0_Q1"":2}","survey","116","1696940","0.0-12.0-1.42","[]","","",""
"1899","TestRecordings/khmoting.wav","0","audio-button-response","117","1698924","0.0-12.0-0.43","","","",""
"9784","","{""P0_Q0"":""ㅋ,ㅡ,ㄴ,ㅗ,ㄷ,ㅣ,ㅇ"",""P0_Q1"":3}","survey","118","1708714","0.0-12.0-1.43","[]","","",""
"1218","TestRecordings/pwacung.wav","0","audio-button-response","119","1709967","0.0-12.0-0.44","","","",""
"9225","","{""P0_Q0"":""ㅂ,ㅗ,ㅏ,ㅈ,ㅜ,ㅇ"",""P0_Q1"":3}","survey","120","1719199","0.0-12.0-1.44","[]","","",""
"2103","TestRecordings/phuthik.wav","0","audio-button-response","121","1721383","0.0-12.0-0.45","","","",""
"9023","","{""P0_Q0"":""ㅍ,ㅜ,ㅌ,ㅣ,ㄱ"",""P0_Q1"":7}","survey","122","1730412","0.0-12.0-1.45","[]","","",""
"2468","TestRecordings/knothing.wav","0","audio-button-response","123","1732965","0.0-12.0-0.46","","","",""
"11355","","{""P0_Q0"":""ㅋ,ㅡ,ㄴ,ㅗ,ㅌ,ㅣ,ㅇ"",""P0_Q1"":3}","survey","124","1744327","0.0-12.0-1.46","[]","","",""
"1085","TestRecordings/chwakap.wav","0","audio-button-response","125","1745496","0.0-12.0-0.47","","","",""
"8543","","{""P0_Q0"":""ㅊ,ㅗ,ㅏ,ㄱ,ㅏ,ㅂ"",""P0_Q1"":3}","survey","126","1754045","0.0-12.0-1.47","[]","","",""
"1403","TestRecordings/nchup.wav","0","audio-button-response","127","1755472","0.0-12.0-0.48","","","",""
"8317","","{""P0_Q0"":""ㅇ,ㅡ,ㅇ,ㅊ,ㅜ,ㅂ"",""P0_Q1"":2}","survey","128","1763796","0.0-12.0-1.48","[]","","",""
"1751","TestRecordings/phwing.wav","0","audio-button-response","129","1765608","0.0-12.0-0.49","","","",""
"14140","","{""P0_Q0"":""ㅍ,ㅗ,ㅐ,ㅇ,ㅐ,ㅇ"",""P0_Q1"":1}","survey","130","1779754","0.0-12.0-1.49","[]","","",""
"1321","TestRecordings/mtunak.wav","0","audio-button-response","131","1781161","0.0-12.0-0.50","","","",""
"13548","","{""P0_Q0"":""ㅇ,ㄷ,ㅜ,ㄴ,ㅏ,ㅎ"",""P0_Q1"":1}","survey","132","1794716","0.0-12.0-1.50","[]","","",""
"1264","TestRecordings/swapong.wav","0","audio-button-response","133","1796065","0.0-12.0-0.51","","","",""
"10684","","{""P0_Q0"":""ㅅ,ㅗ,ㅏ,ㅂ,ㅗ,ㅇ"",""P0_Q1"":2}","survey","134","1806756","0.0-12.0-1.51","[]","","",""
"1146","TestRecordings/kophak.wav","0","audio-button-response","135","1807986","0.0-12.0-0.52","","","",""
"7339","","{""P0_Q0"":""ㄱ,ㅗ,ㅍ,ㅏ,ㄱ"",""P0_Q1"":7}","survey","136","1815332","0.0-12.0-1.52","[]","","",""
"1390","TestRecordings/khnacin.wav","0","audio-button-response","137","1816808","0.0-12.0-0.53","","","",""
"10083","","{""P0_Q0"":""ㅋ,ㅡ,ㄴ,ㅏ,ㅈ,ㅣ,ㄴ"",""P0_Q1"":7}","survey","138","1826898","0.0-12.0-1.53","[]","","",""
"1496","TestRecordings/mphithup.wav","0","audio-button-response","139","1828478","0.0-12.0-0.54","","","",""
"20064","","{""P0_Q0"":""ㅇ,ㅡ,ㅇ,ㅍ,ㅣ,ㄷ,ㅌ,ㅜ,ㅂ"",""P0_Q1"":1}","survey","140","1848548","0.0-12.0-1.54","[]","","",""
"1206","TestRecordings/nthunit.wav","0","audio-button-response","141","1849777","0.0-12.0-0.55","","","",""
"9728","","{""P0_Q0"":""ㅇ,ㅡ,ㅇ,ㅌ,ㅜ,ㄴ,ㅣ,ㅅ"",""P0_Q1"":1}","survey","142","1859514","0.0-12.0-1.55","[]","","",""
"1012","TestRecordings/kwat.wav","0","audio-button-response","143","1860608","0.0-12.0-0.56","","","",""
"6768","","{""P0_Q0"":""ㄱ,ㅗ,ㅏ,ㅅ"",""P0_Q1"":1}","survey","144","1867382","0.0-12.0-1.56","[]","","",""
"924","TestRecordings/phmut.wav","0","audio-button-response","145","1868391","0.0-12.0-0.57","","","",""
"7071","","{""P0_Q0"":""ㅍ,ㅡ,ㅁ,ㅜ,ㅅ"",""P0_Q1"":1}","survey","146","1875468","0.0-12.0-1.57","[]","","",""
"1415","TestRecordings/nchitam.wav","0","audio-button-response","147","1876969","0.0-12.0-0.58","","","",""
"8396","","{""P0_Q0"":""ㅇ,ㅜ,ㅇ,ㅊ,ㅣ,ㄷ,ㅏ,ㅁ"",""P0_Q1"":1}","survey","148","1885372","0.0-12.0-1.58","[]","","",""
"2757","TestRecordings/cwang.wav","0","audio-button-response","149","1888180","0.0-12.0-0.59","","","",""
"5268","","{""P0_Q0"":""ㅈ,ㅗ,ㅏ,ㅇ"",""P0_Q1"":3}","survey","150","1893455","0.0-12.0-1.59","[]","","",""
"2634",""," ","html-keyboard-response","151","1896090","0.0-13.0","","","",""
"52055","","{""P0_Q0"":""23"",""P0_Q1"":""여"",""P0_Q2"":""4"",""P0_Q3"":""없음"",""P0_Q4"":""일본어"",""P0_Q5"":""17살 1년"",""P0_Q6"":""없음""}","survey","152","1948155","0.0-14.0","[]","","",""
"12596","<p style=""font-size:30px"",lang=""ko"">실험이 끝났습니다</p><p style=""font-size:30px"",lang=""ko"">참가해주셔서 고맙습니다</p>"," ","html-keyboard-response","153","1960752","0.0-15.0","","","",""
