"rt","stimulus","response","trial_type","trial_index","time_elapsed","internal_node_id","accuracy","PracticeTest","ConsonantSequence","Grammaticality"
"2691598","<p style=""font-size:30px"",lang=""ko"">실험에 오신 것을 환영합니다</p><p lang=""ko"">스페이스바를 누르면 다음 페이지로 넘어갑니다</p>"," ","html-keyboard-response","0","2691507","0.0-0.0","","","",""
"1696","<p style=""font-size:30px"",lang=""ko"">해드폰을 본인에게 잘 맞게 착용하세요</p><p lang=""ko"">스페이스바를 누르면 다음 페이지로 넘어갑니다</p>"," ","html-keyboard-response","1","2693204","0.0-1.0","","","",""
"3054","<p style=""font-size:30px"",lang=""ko"">이 실험에서는 새로 만든 한국 단어를 들으실 겁니다</p><p style=""font-size:30px"",lang=""ko"">단어를 들리는대로 쓰세요. 그런 다음 그 단어가 한국어 단어로 가능한지 평가하세요</p><p lang=""ko"">스페이스바를 누르면 다음 페이지로 넘어갑니다</p>"," ","html-keyboard-response","2","2696259","0.0-2.0","","","",""
"1603","<p style=""font-size:30px"",lang=""ko"">원래 있는 단어로 예를 들어 봅시다</p><p lang=""ko"">스페이스바를 누르면 다음 페이지로 넘어갑니다</p>"," ","html-keyboard-response","3","2697863","0.0-3.0","","","",""
"3930","PracticeRecordings/kom_bear.wav","0","audio-button-response","4","2701885","0.0-4.0","","","",""
"2491","<p style=""font-size:30px"",lang=""ko"">이제 직접 단어를 듣고 쓰는 연습을 해봅시다. </p><p style=""font-size:30px"",lang=""ko"">스페이스바를 누르면 다음 페이지로 넘어갑니다</p>"," ","html-keyboard-response","5","2704376","0.0-5.0","","","",""
"6079","PracticeRecordings/kirin_giraffe.wav","0","audio-button-response","6","2710540","0.0-6.0-0.0","","","",""
"8456","kirin_giraffe","{""P0_Q0"":""ㄱ.ㅣ.ㄹ.ㅣ.ㄴ""}","survey","7","2719031","0.0-6.0-1.0","[]","practice","NA","TRUE"
"1836","<p style=""font-size:30px"",lang=""ko"">방금 들으신 단어는 ""ㄱ,ㅣ,ㄹ,ㅣ,ㄴ"" 이라고 쓰시면 됩니다</p><p lang=""ko"">스페이스바를 누르면 다음 페이지로 넘어갑니다</p>"," ","html-keyboard-response","8","2720868","0.0-6.0-2.0","","","",""
"2074","PracticeRecordings/saca_lion.wav","0","audio-button-response","9","2722964","0.0-6.0-0.1","","","",""
"14812","saca_lion","{""P0_Q0"":""ㅅ,ㅏ,ㅈ,ㅏ""}","survey","10","2737784","0.0-6.0-1.1","[]","practice","NA","FALSE"
"1503","<p style=""font-size:30px"",lang=""ko"">방금 들으신 단어는 ""ㅅ,ㅏ,ㅈ,ㅏ"" 라고 쓰시면 됩니다</p><p lang=""ko"">스페이스바를 누르면 다음 페이지로 넘어갑니다</p>"," ","html-keyboard-response","11","2739282","0.0-6.0-2.1","","","",""
"2189","PracticeRecordings/saseum_deer.wav","0","audio-button-response","12","2741495","0.0-6.0-0.2","","","",""
"5571","saseum_deer","{""P0_Q0"":""ㅅ,ㅏ,ㅅ,ㅡ,ㅁ""}","survey","13","2747073","0.0-6.0-1.2","[]","practice","NA","FALSE"
"1119","<p style=""font-size:30px"",lang=""ko"">방금 들으신 단어는 ""ㅅ,ㅏ,ㅅ,ㅡ,ㅁ""이라고 쓰시면 됩니다</p><p lang=""ko"">스페이스바를 누르면 다음 페이지로 넘어갑니다</p>"," ","html-keyboard-response","14","2748193","0.0-6.0-2.2","","","",""
"1119","PracticeRecordings/thokki_rabbit.wav","0","audio-button-response","15","2749396","0.0-6.0-0.3","","","",""
"4941","thokki_rabbit","{""P0_Q0"":""ㅌ,ㅗ,ㄲ,ㅣ""}","survey","16","2754343","0.0-6.0-1.3","[]","practice","NA","FALSE"
"1445","<p style=""font-size:30px"",lang=""ko"">방금 들으신 단어는 ""ㅌ,ㅗ,ㄲ,ㅣ"" 라고 쓰시면 됩니다</p><p lang=""ko"">스페이스바를 누르면 다음 페이지로 넘어갑니다</p>"," ","html-keyboard-response","17","2755788","0.0-6.0-2.3","","","",""
"1926","<p style=""font-size:30px"",lang=""ko"">이제 만든 단어로 연습해봅시다.</p><p lang=""ko"">스페이스바를 누르면 다음 페이지로 넘어갑니다</p>"," ","html-keyboard-response","18","2757715","0.0-7.0","","","",""
"3556","PracticeRecordings/snen.wav","0","audio-button-response","19","2761352","0.0-8.0-0.0","","","",""
"9333","snen","{""P0_Q0"":""ㅅ,ㅡ,ㅁ,ㅔ,ㄴ""}","survey","20","2770691","0.0-8.0-1.0","[]","practice","NA","TRUE"
"4698","<p style=""font-size:30px"",lang=""ko"">들으신 단어는 <br> ""ㅅ,ㅡ,ㄴ,ㅐ,ㄴ""  ""ㅅ,ㅡ,ㄴ,ㅐ"" ""ㅅ,ㄴ,ㅐ,ㄴ (""으"" 소리가 안 들리는 경우)"" 등 <br> 사람에 따라 다양하게 들릴 수 있습니다 <br> 본인에게 들리는대로 쓰시면 됩니다.</p><p lang=""ko"">스페이스바를 누르면 다음 페이지로 넘어갑니다</p>"," ","html-keyboard-response","21","2775389","0.0-8.0-2.0","","","",""
"2141","PracticeRecordings/phrak.wav","0","audio-button-response","22","2777577","0.0-8.0-0.1","","","",""
"5116","phrak","{""P0_Q0"":""ㅍ,ㅡ,ㄹ,ㅏ,ㄱ""}","survey","23","2782700","0.0-8.0-1.1","[]","practice","NA","FALSE"
"3018","<p style=""font-size:30px"",lang=""ko"">들으신 단어는 <br> ""ㅍ,ㅡ,ㄹ,ㅏ,ㄱ"" ""ㅍ,ㅡ,ㄹ,ㅏ,ㅅ"" ""ㅋ,ㅡ,ㄹ,ㅏ,ㄱ"" ""ㅍ,ㄹ,ㅏ,ㄱ (""으"" 소리가 안 들리는 경우)"" 등 <br> 사람에 따라 다양하게 들릴 수 있습니다 <br> 본인에게 들리는대로 쓰시면 됩니다.</p><p lang=""ko"">스페이스바를 누르면 다음 페이지로 넘어갑니다</p>"," ","html-keyboard-response","24","2785719","0.0-8.0-2.1","","","",""
"2765","PracticeRecordings/chka.wav","0","audio-button-response","25","2788511","0.0-8.0-0.2","","","",""
"5452","chka","{""P0_Q0"":""ㅊ,ㅡ,ㄱ,ㅏ""}","survey","26","2793969","0.0-8.0-1.2","[]","practice","NA","FALSE"
"1261","<p style=""font-size:30px"",lang=""ko"">들으신 단어는 ""ㅊ,ㅣ,ㄱ,ㅏ"", ""ㅊ,ㅡ,ㄱ,ㅏ"", ""ㅊ,ㄱ,ㅏ"", ""ㅊ,ㅟ,ㄱ,ㅏ"" 등 <br> 사람에 따라 다양하게 들릴 수 있습니다. <br> 본인에게 들리는대로 쓰시면 됩니다.</p><p lang=""ko"">스페이스바를 누르면 다음 페이지로 넘어갑니다</p>"," ","html-keyboard-response","27","2795231","0.0-8.0-2.2","","","",""
"1577",""," ","html-keyboard-response","28","2796808","0.0-9.0","","","",""
"1558","<p style=""font-size:30px"",lang=""ko"">이제 실험을 시작하겠습니다.</p><p style=""font-size:30px"",lang=""ko"">실전에서는 각각의 만든 단어를 한 번씩만 들을 수 있습니다.</p>"," ","html-keyboard-response","29","2798367","0.0-10.0","","","",""
"2526","<p style=""font-size:30px"",lang=""ko"">단어를 풀어 쓰신 후에 그 단어가 한국어로 가능한 단어인지 평가해주세요</p><p style=""font-size:30px"",lang=""ko"">1점은 한국어로 완전 불가능한 단어, 7점은 한국어로 완전 가능한 단어를 의미합니다</p><p lang=""ko"">스페이스바를 누르면 다음 페이지로 넘어갑니다</p>"," ","html-keyboard-response","30","2800898","0.0-11.0","","","",""
"2388","TestRecordings/cwiphing.wav","0","audio-button-response","31","2803312","0.0-12.0-0.0","","","",""
"16703","","{""P0_Q0"":""ㅈ,ㅜ,ㅣ,ㅍ,ㅣ,ㅇ"",""P0_Q1"":7}","survey","32","2820033","0.0-12.0-1.0","[]","","",""
"2861","TestRecordings/swakhing.wav","0","audio-button-response","33","2822933","0.0-12.0-0.1","","","",""
"11591","","{""P0_Q0"":""ㅅ,ㅡ,ㅇ,ㅗ,ㅏ,ㅋ,ㅣ,ㅇ"",""P0_Q1"":7}","survey","34","2834537","0.0-12.0-1.1","[]","","",""
"4061","TestRecordings/thum.wav","0","audio-button-response","35","2838624","0.0-12.0-0.2","","","",""
"5820","","{""P0_Q0"":""ㅌ,ㅜ,ㅁ"",""P0_Q1"":7}","survey","36","2844453","0.0-12.0-1.2","[]","","",""
"1770","TestRecordings/knop.wav","0","audio-button-response","37","2846310","0.0-12.0-0.3","","","",""
"8661","","{""P0_Q0"":""ㄱ,ㅡ,ㄴ,ㅗ,ㅂ"",""P0_Q1"":7}","survey","38","2854979","0.0-12.0-1.3","[]","","",""
"1637","TestRecordings/khnacin.wav","0","audio-button-response","39","2856685","0.0-12.0-0.4","","","",""
"18764","","{""P0_Q0"":""ㅋ,ㅡ,ㄴ,ㅏ,ㅈ,ㅣ,ㄴ"",""P0_Q1"":7}","survey","40","2875458","0.0-12.0-1.4","[]","","",""
"3803","TestRecordings/swapong.wav","0","audio-button-response","41","2879350","0.0-12.0-0.5","","","",""
"9972","","{""P0_Q0"":""ㅅ,ㅗ,ㅏ,ㅂ,ㅗ,ㅇ"",""P0_Q1"":6}","survey","42","2889330","0.0-12.0-1.5","[]","","",""
"2560","TestRecordings/ntosin.wav","0","audio-button-response","43","2891977","0.0-12.0-0.6","","","",""
"10477","","{""P0_Q0"":""ㅇ,ㅡ,ㅁ,ㄷ,ㅜ,ㅅ,ㅣ,ㄴ"",""P0_Q1"":7}","survey","44","2902461","0.0-12.0-1.6","[]","","",""
"1842","TestRecordings/pathik.wav","0","audio-button-response","45","2904389","0.0-12.0-0.7","","","",""
"8645","","{""P0_Q0"":""ㅂ,ㅏ,ㅌ,ㅣ,ㄱ"",""P0_Q1"":6}","survey","46","2913043","0.0-12.0-1.7","[]","","",""
"967","TestRecordings/mip.wav","0","audio-button-response","47","2914095","0.0-12.0-0.8","","","",""
"6740","","{""P0_Q0"":""ㅁ,ㅣ,ㅂ"",""P0_Q1"":7}","survey","48","2920843","0.0-12.0-1.8","[]","","",""
"2362","TestRecordings/khmip.wav","0","audio-button-response","49","2923291","0.0-12.0-0.9","","","",""
"7384","","{""P0_Q0"":""ㅋ,ㅡ,ㅁ,ㅣ,ㅂ"",""P0_Q1"":6}","survey","50","2930683","0.0-12.0-1.9","[]","","",""
"1375","TestRecordings/nthunit.wav","0","audio-button-response","51","2932146","0.0-12.0-0.10","","","",""
"12678","","{""P0_Q0"":""ㅇ,ㅡ,ㅇ,ㅌ,ㅜ,ㄴ,ㅣ,ㅍ"",""P0_Q1"":5}","survey","52","2944831","0.0-12.0-1.10","[]","","",""
"2022","TestRecordings/phwing.wav","0","audio-button-response","53","2946877","0.0-12.0-0.11","","","",""
"21455","","{""P0_Q0"":""ㅍ,ㅜ,ㅇ,ㅣ,ㅇ"",""P0_Q1"":3}","survey","54","2968340","0.0-12.0-1.11","[]","","",""
"1666","TestRecordings/ncuk.wav","0","audio-button-response","55","2970093","0.0-12.0-0.12","","","",""
"11626","","{""P0_Q0"":""ㅇ,ㅡ,ㅇ,ㅈ,ㅜ,ㄱ"",""P0_Q1"":4}","survey","56","2981727","0.0-12.0-1.12","[]","","",""
"1192","TestRecordings/mtak.wav","0","audio-button-response","57","2983003","0.0-12.0-0.13","","","",""
"20976","","{""P0_Q0"":""ㅇ,ㅡ,ㅇ,ㄷ,ㅏ,ㅂ"",""P0_Q1"":7}","survey","58","3003987","0.0-12.0-1.13","[]","","",""
"2596","TestRecordings/pmuk.wav","0","audio-button-response","59","3006671","0.0-12.0-0.14","","","",""
"13591","","{""P0_Q0"":""ㅇ,ㅡ,ㅁ,ㅜ,ㅂ"",""P0_Q1"":4}","survey","60","3020269","0.0-12.0-1.14","[]","","",""
"1499","TestRecordings/nchup.wav","0","audio-button-response","61","3021853","0.0-12.0-0.15","","","",""
"14900","","{""P0_Q0"":""ㅇ,ㅡ,ㅁ,ㅊ,ㅜ,ㅂ"",""P0_Q1"":5}","survey","62","3036764","0.0-12.0-1.15","[]","","",""
"2283","TestRecordings/mkithun.wav","0","audio-button-response","63","3039180","0.0-12.0-0.16","","","",""
"12834","","{""P0_Q0"":""ㅇ,ㅡ,ㅇ,ㄱ,ㅣ,ㅌ,ㅜ,ㄴ"",""P0_Q1"":5}","survey","64","3052021","0.0-12.0-1.16","[]","","",""
"1902","TestRecordings/knothing.wav","0","audio-button-response","65","3054008","0.0-12.0-0.17","","","",""
"9612","","{""P0_Q0"":""ㅋ,ㅡ,ㄴ,ㅗ,ㅌ,ㅣ,ㅇ"",""P0_Q1"":4}","survey","66","3063627","0.0-12.0-1.17","[]","","",""
"1160","TestRecordings/khnichat.wav","0","audio-button-response","67","3064873","0.0-12.0-0.18","","","",""
"10204","","{""P0_Q0"":""ㅋ,ㅡ,ㄴ,ㅣ,ㅊ,ㅏ,ㅌ"",""P0_Q1"":3}","survey","68","3075085","0.0-12.0-1.18","[]","","",""
"941","TestRecordings/cmot.wav","0","audio-button-response","69","3076050","0.0-12.0-0.19","","","",""
"10224","","{""P0_Q0"":""ㅅ,ㅡ,ㅁ,ㅗ,ㅅ"",""P0_Q1"":4}","survey","70","3086282","0.0-12.0-1.19","[]","","",""
"1878","TestRecordings/pmisung.wav","0","audio-button-response","71","3088186","0.0-12.0-0.20","","","",""
"8698","","{""P0_Q0"":""ㅋ,ㅡ,ㅁ,ㅜ,ㅣ,ㅅ,ㅜ,ㅇ"",""P0_Q1"":3}","survey","72","3096894","0.0-12.0-1.20","[]","","",""
"1054","TestRecordings/phuthik.wav","0","audio-button-response","73","3097976","0.0-12.0-0.21","","","",""
"6606","","{""P0_Q0"":""ㅍ,ㅜ,ㅌ,ㅣ,ㄱ"",""P0_Q1"":7}","survey","74","3104589","0.0-12.0-1.21","[]","","",""
"1078","TestRecordings/cut.wav","0","audio-button-response","75","3105752","0.0-12.0-0.22","","","",""
"7193","","{""P0_Q0"":""ㅈ,ㅜ,ㅌ"",""P0_Q1"":6}","survey","76","3112953","0.0-12.0-1.22","[]","","",""
"960","TestRecordings/niphak.wav","0","audio-button-response","77","3113937","0.0-12.0-0.23","","","",""
"7758","","{""P0_Q0"":""ㄴ,ㅣ,ㅍ,ㅏ,ㄱ"",""P0_Q1"":7}","survey","78","3121702","0.0-12.0-1.23","[]","","",""
"1210","TestRecordings/phninot.wav","0","audio-button-response","79","3122937","0.0-12.0-0.24","","","",""
"6127","","{""P0_Q0"":""ㅍ,ㅡ,ㄴ,ㅣ,ㄴ,ㅗ,ㅌ"",""P0_Q1"":5}","survey","80","3129072","0.0-12.0-1.24","[]","","",""
"1859","TestRecordings/cwasop.wav","0","audio-button-response","81","3130958","0.0-12.0-0.25","","","",""
"7088","","{""P0_Q0"":""ㅈ,ㅗ,ㅏ,ㅅ,ㅗ,ㅂ"",""P0_Q1"":7}","survey","82","3138055","0.0-12.0-1.25","[]","","",""
"1600","TestRecordings/takhut.wav","0","audio-button-response","83","3139743","0.0-12.0-0.26","","","",""
"14375","","{""P0_Q0"":""ㅂ,ㅏ,ㅋ,ㅜ,ㅌ"",""P0_Q1"":5}","survey","84","3154126","0.0-12.0-1.26","[]","","",""
"1244","TestRecordings/chut.wav","0","audio-button-response","85","3155468","0.0-12.0-0.27","","","",""
"4403","","{""P0_Q0"":""ㅊ,ㅜ,ㅌ"",""P0_Q1"":5}","survey","86","3159879","0.0-12.0-1.27","[]","","",""
"1330","TestRecordings/phwim.wav","0","audio-button-response","87","3161298","0.0-12.0-0.28","","","",""
"7911","","{""P0_Q0"":""ㅍ,ㅣ,ㅁ"",""P0_Q1"":6}","survey","88","3169217","0.0-12.0-1.28","[]","","",""
"1160","TestRecordings/kophak.wav","0","audio-button-response","89","3170402","0.0-12.0-0.29","","","",""
"8758","","{""P0_Q0"":""ㄱ,ㅗ,ㅍ,ㅏ,ㄱ"",""P0_Q1"":5}","survey","90","3179168","0.0-12.0-1.29","[]","","",""
"1214","TestRecordings/pmathin.wav","0","audio-button-response","91","3180473","0.0-12.0-0.30","","","",""
"7249","","{""P0_Q0"":""ㅋ,ㅡ,ㅁ,ㅏ,ㅌ,ㅣ,ㄴ"",""P0_Q1"":6}","survey","92","3187730","0.0-12.0-1.30","[]","","",""
"988","TestRecordings/phmut.wav","0","audio-button-response","93","3188802","0.0-12.0-0.31","","","",""
"18194","","{""P0_Q0"":""ㅋ,ㅡ,ㅁ,ㅜ,ㅌ"",""P0_Q1"":5}","survey","94","3207002","0.0-12.0-1.31","[]","","",""
"1495","TestRecordings/phmacot.wav","0","audio-button-response","95","3208586","0.0-12.0-0.32","","","",""
"7832","","{""P0_Q0"":""ㅋ,ㅡ,ㅁ,ㅏ,ㅈ,ㅗ,ㅌ"",""P0_Q1"":5}","survey","96","3216426","0.0-12.0-1.32","[]","","",""
"1263","TestRecordings/khmoting.wav","0","audio-button-response","97","3217776","0.0-12.0-0.33","","","",""
"6435","","{""P0_Q0"":""ㅋ,ㅡ,ㅁ,ㅗ,ㄷ,ㅣ,ㅇ"",""P0_Q1"":6}","survey","98","3224216","0.0-12.0-1.33","[]","","",""
"1302","TestRecordings/thnakop.wav","0","audio-button-response","99","3225603","0.0-12.0-0.34","","","",""
"10406","","{""P0_Q0"":""ㅋ,ㅡ,ㄴ,ㅏ,ㄱ,ㅗ,ㅈ"",""P0_Q1"":5}","survey","100","3236017","0.0-12.0-1.34","[]","","",""
"972","TestRecordings/kwat.wav","0","audio-button-response","101","3237076","0.0-12.0-0.35","","","",""
"3878","","{""P0_Q0"":""ㄱ,ㅗ,ㅏ,ㅌ"",""P0_Q1"":5}","survey","102","3240961","0.0-12.0-1.35","[]","","",""
"1234","TestRecordings/khonik.wav","0","audio-button-response","103","3242284","0.0-12.0-0.36","","","",""
"4438","","{""P0_Q0"":""ㅋ,ㅗ,ㄴ,ㅣ,ㄱ"",""P0_Q1"":6}","survey","104","3246730","0.0-12.0-1.36","[]","","",""
"1475","TestRecordings/nchitam.wav","0","audio-button-response","105","3248293","0.0-12.0-0.37","","","",""
"12061","","{""P0_Q0"":""ㅇ,ㅡ,ㅇ,ㅊ,ㅣ,ㄷ,ㅏ,ㅁ"",""P0_Q1"":6}","survey","106","3260362","0.0-12.0-1.37","[]","","",""
"1081","TestRecordings/twikhit.wav","0","audio-button-response","107","3261470","0.0-12.0-0.38","","","",""
"9139","","{""P0_Q0"":""ㅌ,ㅜ,ㅣ,ㅋ,ㅣ,ㅌ"",""P0_Q1"":5}","survey","108","3270616","0.0-12.0-1.38","[]","","",""
"1446","TestRecordings/chwap.wav","0","audio-button-response","109","3272150","0.0-12.0-0.39","","","",""
"4930","","{""P0_Q0"":""ㅊ,ㅗ,ㅏ,ㅂ"",""P0_Q1"":7}","survey","110","3277086","0.0-12.0-1.39","[]","","",""
"1295","TestRecordings/chwakap.wav","0","audio-button-response","111","3278469","0.0-12.0-0.40","","","",""
"8576","","{""P0_Q0"":""ㅊ,ㅗ,ㅏ,ㄱ,ㅏ,ㅂ"",""P0_Q1"":5}","survey","112","3287051","0.0-12.0-1.40","[]","","",""
"1048","TestRecordings/npokit.wav","0","audio-button-response","113","3288186","0.0-12.0-0.41","","","",""
"6298","","{""P0_Q0"":""ㅇ,ㅡ,ㅇ,ㅂ,ㅜ,ㄱ,ㅣ,ㅌ"",""P0_Q1"":5}","survey","114","3294491","0.0-12.0-1.41","[]","","",""
"830","TestRecordings/nchak.wav","0","audio-button-response","115","3295406","0.0-12.0-0.42","","","",""
"11861","","{""P0_Q0"":""ㅇ,ㅡ,ㅇ,ㅊ,ㅏ,ㅌ"",""P0_Q1"":4}","survey","116","3307274","0.0-12.0-1.42","[]","","",""
"837","TestRecordings/khwapan.wav","0","audio-button-response","117","3308198","0.0-12.0-0.43","","","",""
"6639","","{""P0_Q0"":""ㅋ,ㅗ,ㅏ,ㅂ,ㅏ,ㄴ"",""P0_Q1"":5}","survey","118","3314844","0.0-12.0-1.43","[]","","",""
"885","TestRecordings/mtunak.wav","0","audio-button-response","119","3315816","0.0-12.0-0.44","","","",""
"8300","","{""P0_Q0"":""ㅇ,ㅡ,ㅇ,ㄷ,ㅜ,ㄴ,ㅏ,ㄱ"",""P0_Q1"":3}","survey","120","3324124","0.0-12.0-1.44","[]","","",""
"1191","TestRecordings/nthiton.wav","0","audio-button-response","121","3325340","0.0-12.0-0.45","","","",""
"9115","","{""P0_Q0"":""ㅇ,ㅡ,ㅇ,ㅌ,ㅜ,ㅣ,ㄷ,ㅗ,ㄴ"",""P0_Q1"":4}","survey","122","3334465","0.0-12.0-1.45","[]","","",""
"991","TestRecordings/thwicap.wav","0","audio-button-response","123","3335478","0.0-12.0-0.46","","","",""
"6264","","{""P0_Q0"":""ㅌ,ㅜ,ㅣ,ㅈ,ㅏ,ㅂ"",""P0_Q1"":6}","survey","124","3341748","0.0-12.0-1.46","[]","","",""
"1068","TestRecordings/masuk.wav","0","audio-button-response","125","3342903","0.0-12.0-0.47","","","",""
"4582","","{""P0_Q0"":""ㅁ,ㅏ,ㅅ,ㅜ,ㄱ"",""P0_Q1"":7}","survey","126","3347493","0.0-12.0-1.47","[]","","",""
"1642","TestRecordings/mphithup.wav","0","audio-button-response","127","3349223","0.0-12.0-0.48","","","",""
"7084","","{""P0_Q0"":""ㅇ,ㅡ,ㅇ,ㅍ,ㅣ,ㅌ,ㅜ,ㅂ"",""P0_Q1"":6}","survey","128","3356314","0.0-12.0-1.48","[]","","",""
"1454","TestRecordings/nucok.wav","0","audio-button-response","129","3357792","0.0-12.0-0.49","","","",""
"4501","","{""P0_Q0"":""ㄴ,ㅜ,ㅈ,ㅗ,ㄱ"",""P0_Q1"":6}","survey","130","3362300","0.0-12.0-1.49","[]","","",""
"1339","TestRecordings/khun.wav","0","audio-button-response","131","3363664","0.0-12.0-0.50","","","",""
"7747","","{""P0_Q0"":""ㅋ,ㅜ,ㅇ,ㅜ,ㄴ"",""P0_Q1"":5}","survey","132","3371420","0.0-12.0-1.50","[]","","",""
"1222","TestRecordings/thnukip.wav","0","audio-button-response","133","3372666","0.0-12.0-0.51","","","",""
"11556","","{""P0_Q0"":""ㅌ,ㅡ,ㄴ,ㅜ,ㄱ,ㅣ,ㅂ"",""P0_Q1"":5}","survey","134","3384229","0.0-12.0-1.51","[]","","",""
"994","TestRecordings/nchat.wav","0","audio-button-response","135","3385308","0.0-12.0-0.52","","","",""
"4850","","{""P0_Q0"":""ㅇ,ㅡ,ㅇ,ㅊ,ㅏ,ㅌ"",""P0_Q1"":5}","survey","136","3390166","0.0-12.0-1.52","[]","","",""
"1156","TestRecordings/siphuk.wav","0","audio-button-response","137","3391348","0.0-12.0-0.53","","","",""
"12020","","{""P0_Q0"":""ㅅ,ㅣ,ㅂ,ㅎ,ㅜ,ㄱ"",""P0_Q1"":2}","survey","138","3403374","0.0-12.0-1.53","[]","","",""
"1231","TestRecordings/pwacung.wav","0","audio-button-response","139","3404631","0.0-12.0-0.54","","","",""
"10909","","{""P0_Q0"":""ㅂ,ㅡ,ㅇ,ㅏ,ㅈ,ㅜ,ㅇ"",""P0_Q1"":5}","survey","140","3415549","0.0-12.0-1.54","[]","","",""
"1216","TestRecordings/mciphom.wav","0","audio-button-response","141","3416856","0.0-12.0-0.55","","","",""
"10989","","{""P0_Q0"":""ㅇ,ㅡ,ㅇ,ㅈ,ㅣ,ㅍ,ㅗ,ㅁ"",""P0_Q1"":5}","survey","142","3427851","0.0-12.0-1.55","[]","","",""
"1381","TestRecordings/cwang.wav","0","audio-button-response","143","3429320","0.0-12.0-0.56","","","",""
"11069","","{""P0_Q0"":""ㅈ,ㅗ,ㅏ,ㅇ,ㅏ,ㅇ"",""P0_Q1"":3}","survey","144","3440395","0.0-12.0-1.56","[]","","",""
"1338","TestRecordings/nthochap.wav","0","audio-button-response","145","3441821","0.0-12.0-0.57","","","",""
"18442","","{""P0_Q0"":""ㅇ,ㅡ,ㅣ,ㅇ,ㅌ,ㅜ,ㅊ,ㅏ,ㅂ"",""P0_Q1"":3}","survey","146","3460270","0.0-12.0-1.57","[]","","",""
"1702","TestRecordings/swicit.wav","0","audio-button-response","147","3462001","0.0-12.0-0.58","","","",""
"12769","","{""P0_Q0"":""ㅅ,ㅜ,ㅣ,ㅈ,ㅣ,ㅌ"",""P0_Q1"":5}","survey","148","3474777","0.0-12.0-1.58","[]","","",""
"1014","TestRecordings/sutik.wav","0","audio-button-response","149","3475877","0.0-12.0-0.59","","","",""
"4078","","{""P0_Q0"":""ㅅ,ㅜ,ㄷ,ㅣ,ㄱ"",""P0_Q1"":6}","survey","150","3479962","0.0-12.0-1.59","[]","","",""
"3850",""," ","html-keyboard-response","151","3483813","0.0-13.0","","","",""
"37268","","{""P0_Q0"":""27"",""P0_Q1"":""남자"",""P0_Q2"":""9"",""P0_Q3"":""없음"",""P0_Q4"":""없음"",""P0_Q5"":""없음"",""P0_Q6"":""없음""}","survey","152","3521089","0.0-14.0","[]","","",""
"19423","<p style=""font-size:30px"",lang=""ko"">실험이 끝났습니다</p><p style=""font-size:30px"",lang=""ko"">참가해주셔서 고맙습니다</p>"," ","html-keyboard-response","153","3540511","0.0-15.0","","","",""
