"rt","stimulus","response","trial_type","trial_index","time_elapsed","internal_node_id","accuracy","PracticeTest","ConsonantSequence","Grammaticality"
"5677600","<p style=""font-size:30px"",lang=""ko"">실험에 오신 것을 환영합니다</p><p lang=""ko"">스페이스바를 누르면 다음 페이지로 넘어갑니다</p>"," ","html-keyboard-response","0","5677294","0.0-0.0","","","",""
"1543","<p style=""font-size:30px"",lang=""ko"">해드폰을 본인에게 잘 맞게 착용하세요</p><p lang=""ko"">스페이스바를 누르면 다음 페이지로 넘어갑니다</p>"," ","html-keyboard-response","1","5678838","0.0-1.0","","","",""
"2589","<p style=""font-size:30px"",lang=""ko"">이 실험에서는 새로 만든 한국 단어를 들으실 겁니다</p><p style=""font-size:30px"",lang=""ko"">단어를 들리는대로 쓰세요. 그런 다음 그 단어가 한국어 단어로 가능한지 평가하세요</p><p lang=""ko"">스페이스바를 누르면 다음 페이지로 넘어갑니다</p>"," ","html-keyboard-response","2","5681428","0.0-2.0","","","",""
"1604","<p style=""font-size:30px"",lang=""ko"">원래 있는 단어로 예를 들어 봅시다</p><p lang=""ko"">스페이스바를 누르면 다음 페이지로 넘어갑니다</p>"," ","html-keyboard-response","3","5683032","0.0-3.0","","","",""
"20389","PracticeRecordings/kom_bear.wav","0","audio-button-response","4","5703523","0.0-4.0","","","",""
"2813","<p style=""font-size:30px"",lang=""ko"">이제 직접 단어를 듣고 쓰는 연습을 해봅시다. </p><p style=""font-size:30px"",lang=""ko"">스페이스바를 누르면 다음 페이지로 넘어갑니다</p>"," ","html-keyboard-response","5","5706337","0.0-5.0","","","",""
"3150","PracticeRecordings/kirin_giraffe.wav","0","audio-button-response","6","5709581","0.0-6.0-0.0","","","",""
"11405","kirin_giraffe","{""P0_Q0"":""ㄱ,ㅣ,ㄹ,ㅣ,ㄴ ""}","survey","7","5721027","0.0-6.0-1.0","[]","practice","NA","TRUE"
"2486","<p style=""font-size:30px"",lang=""ko"">방금 들으신 단어는 ""ㄱ,ㅣ,ㄹ,ㅣ,ㄴ"" 이라고 쓰시면 됩니다</p><p lang=""ko"">스페이스바를 누르면 다음 페이지로 넘어갑니다</p>"," ","html-keyboard-response","8","5723513","0.0-6.0-2.0","","","",""
"1852","PracticeRecordings/saca_lion.wav","0","audio-button-response","9","5725467","0.0-6.0-0.1","","","",""
"6031","saca_lion","{""P0_Q0"":""ㅅ,ㅏ,ㅈ,ㅏ""}","survey","10","5731508","0.0-6.0-1.1","[]","practice","NA","FALSE"
"2053","<p style=""font-size:30px"",lang=""ko"">방금 들으신 단어는 ""ㅅ,ㅏ,ㅈ,ㅏ"" 라고 쓰시면 됩니다</p><p lang=""ko"">스페이스바를 누르면 다음 페이지로 넘어갑니다</p>"," ","html-keyboard-response","11","5733562","0.0-6.0-2.1","","","",""
"1370","PracticeRecordings/saseum_deer.wav","0","audio-button-response","12","5735017","0.0-6.0-0.2","","","",""
"8670","saseum_deer","{""P0_Q0"":""ㅅ,ㅏ,ㅅ,ㅡ,ㅁ""}","survey","13","5743696","0.0-6.0-1.2","[]","practice","NA","FALSE"
"2442","<p style=""font-size:30px"",lang=""ko"">방금 들으신 단어는 ""ㅅ,ㅏ,ㅅ,ㅡ,ㅁ""이라고 쓰시면 됩니다</p><p lang=""ko"">스페이스바를 누르면 다음 페이지로 넘어갑니다</p>"," ","html-keyboard-response","14","5746139","0.0-6.0-2.2","","","",""
"1205","PracticeRecordings/thokki_rabbit.wav","0","audio-button-response","15","5747430","0.0-6.0-0.3","","","",""
"6480","thokki_rabbit","{""P0_Q0"":""ㅌ,ㅣ,ㄲ,ㅣ""}","survey","16","5753917","0.0-6.0-1.3","[]","practice","NA","FALSE"
"1983","<p style=""font-size:30px"",lang=""ko"">방금 들으신 단어는 ""ㅌ,ㅗ,ㄲ,ㅣ"" 라고 쓰시면 됩니다</p><p lang=""ko"">스페이스바를 누르면 다음 페이지로 넘어갑니다</p>"," ","html-keyboard-response","17","5755901","0.0-6.0-2.3","","","",""
"868","<p style=""font-size:30px"",lang=""ko"">이제 만든 단어로 연습해봅시다.</p><p lang=""ko"">스페이스바를 누르면 다음 페이지로 넘어갑니다</p>"," ","html-keyboard-response","18","5756770","0.0-7.0","","","",""
"1820","PracticeRecordings/snen.wav","0","audio-button-response","19","5758614","0.0-8.0-0.0","","","",""
"7150","snen","{""P0_Q0"":""ㅅ,ㅡ,ㄴ,ㅐ,ㄴ""}","survey","20","5765773","0.0-8.0-1.0","[]","practice","NA","TRUE"
"4960","<p style=""font-size:30px"",lang=""ko"">들으신 단어는 <br> ""ㅅ,ㅡ,ㄴ,ㅐ,ㄴ""  ""ㅅ,ㅡ,ㄴ,ㅐ"" ""ㅅ,ㄴ,ㅐ,ㄴ (""으"" 소리가 안 들리는 경우)"" 등 <br> 사람에 따라 다양하게 들릴 수 있습니다 <br> 본인에게 들리는대로 쓰시면 됩니다.</p><p lang=""ko"">스페이스바를 누르면 다음 페이지로 넘어갑니다</p>"," ","html-keyboard-response","21","5770734","0.0-8.0-2.0","","","",""
"2486","PracticeRecordings/phrak.wav","0","audio-button-response","22","5773306","0.0-8.0-0.1","","","",""
"6092","phrak","{""P0_Q0"":""ㅍ,ㅡ,ㄹ,ㅏ,ㄱ""}","survey","23","5779405","0.0-8.0-1.1","[]","practice","NA","FALSE"
"984","<p style=""font-size:30px"",lang=""ko"">들으신 단어는 <br> ""ㅍ,ㅡ,ㄹ,ㅏ,ㄱ"" ""ㅍ,ㅡ,ㄹ,ㅏ,ㅅ"" ""ㅋ,ㅡ,ㄹ,ㅏ,ㄱ"" ""ㅍ,ㄹ,ㅏ,ㄱ (""으"" 소리가 안 들리는 경우)"" 등 <br> 사람에 따라 다양하게 들릴 수 있습니다 <br> 본인에게 들리는대로 쓰시면 됩니다.</p><p lang=""ko"">스페이스바를 누르면 다음 페이지로 넘어갑니다</p>"," ","html-keyboard-response","24","5780390","0.0-8.0-2.1","","","",""
"1559","PracticeRecordings/chka.wav","0","audio-button-response","25","5781972","0.0-8.0-0.2","","","",""
"7585","chka","{""P0_Q0"":""ㅅ,ㅡ,ㅋ,ㅏ""}","survey","26","5789565","0.0-8.0-1.2","[]","practice","NA","FALSE"
"866","<p style=""font-size:30px"",lang=""ko"">들으신 단어는 ""ㅊ,ㅣ,ㄱ,ㅏ"", ""ㅊ,ㅡ,ㄱ,ㅏ"", ""ㅊ,ㄱ,ㅏ"", ""ㅊ,ㅟ,ㄱ,ㅏ"" 등 <br> 사람에 따라 다양하게 들릴 수 있습니다. <br> 본인에게 들리는대로 쓰시면 됩니다.</p><p lang=""ko"">스페이스바를 누르면 다음 페이지로 넘어갑니다</p>"," ","html-keyboard-response","27","5790433","0.0-8.0-2.2","","","",""
"1925",""," ","html-keyboard-response","28","5792358","0.0-9.0","","","",""
"2055","<p style=""font-size:30px"",lang=""ko"">이제 실험을 시작하겠습니다.</p><p style=""font-size:30px"",lang=""ko"">실전에서는 각각의 만든 단어를 한 번씩만 들을 수 있습니다.</p>"," ","html-keyboard-response","29","5794413","0.0-10.0","","","",""
"3121","<p style=""font-size:30px"",lang=""ko"">단어를 풀어 쓰신 후에 그 단어가 한국어로 가능한 단어인지 평가해주세요</p><p style=""font-size:30px"",lang=""ko"">1점은 한국어로 완전 불가능한 단어, 7점은 한국어로 완전 가능한 단어를 의미합니다</p><p lang=""ko"">스페이스바를 누르면 다음 페이지로 넘어갑니다</p>"," ","html-keyboard-response","30","5797535","0.0-11.0","","","",""
"2002","TestRecordings/khmip.wav","0","audio-button-response","31","5799563","0.0-12.0-0.0","","","",""
"11820","","{""P0_Q0"":""ㅋ,ㅡ,ㅁ,ㅣ,ㅂ"",""P0_Q1"":3}","survey","32","5811397","0.0-12.0-1.0","[]","","",""
"3078","TestRecordings/kwat.wav","0","audio-button-response","33","5814559","0.0-12.0-0.1","","","",""
"9982","","{""P0_Q0"":""ㄱ,ㅗ,ㅏ,ㅌ"",""P0_Q1"":2}","survey","34","5824552","0.0-12.0-1.1","[]","","",""
"3132","TestRecordings/chut.wav","0","audio-button-response","35","5827768","0.0-12.0-0.2","","","",""
"5543","","{""P0_Q0"":""ㅊ,ㅜ,ㅌ"",""P0_Q1"":4}","survey","36","5833320","0.0-12.0-1.2","[]","","",""
"2751","TestRecordings/nchitam.wav","0","audio-button-response","37","5836156","0.0-12.0-0.3","","","",""
"13828","","{""P0_Q0"":""ㅇ,ㅡ,ㅁ,ㅊ,ㅣ,ㄷ,ㅏ,ㅁ"",""P0_Q1"":3}","survey","38","5849992","0.0-12.0-1.3","[]","","",""
"1768","TestRecordings/khmoting.wav","0","audio-button-response","39","5851845","0.0-12.0-0.4","","","",""
"9396","","{""P0_Q0"":""ㅋ,ㅡ,ㅁ,ㅗ,ㄷ,ㅣ,ㅇ"",""P0_Q1"":5}","survey","40","5861248","0.0-12.0-1.4","[]","","",""
"1700","TestRecordings/pmisung.wav","0","audio-button-response","41","5863035","0.0-12.0-0.5","","","",""
"7294","","{""P0_Q0"":""ㅁ,ㅣ,ㅅ,ㅜ,ㅇ"",""P0_Q1"":6}","survey","42","5870336","0.0-12.0-1.5","[]","","",""
"1569","TestRecordings/chwakap.wav","0","audio-button-response","43","5871989","0.0-12.0-0.6","","","",""
"6228","","{""P0_Q0"":""ㅊ,ㅏ,ㄱ,ㅏ,ㅂ"",""P0_Q1"":6}","survey","44","5878225","0.0-12.0-1.6","[]","","",""
"1778","TestRecordings/cwiphing.wav","0","audio-button-response","45","5880087","0.0-12.0-0.7","","","",""
"12850","","{""P0_Q0"":""ㅈ,ㅜ,ㅣ,ㅍ,ㅣ,ㅇ"",""P0_Q1"":5}","survey","46","5892945","0.0-12.0-1.7","[]","","",""
"1419","TestRecordings/niphak.wav","0","audio-button-response","47","5894448","0.0-12.0-0.8","","","",""
"11042","","{""P0_Q0"":""ㄴ,ㅣ,ㅍ,ㅏ,ㄱ"",""P0_Q1"":5}","survey","48","5905497","0.0-12.0-1.8","[]","","",""
"1636","TestRecordings/pathik.wav","0","audio-button-response","49","5907221","0.0-12.0-0.9","","","",""
"9915","","{""P0_Q0"":""ㅍ,ㅏ,ㅌ,ㅣ,ㄱ"",""P0_Q1"":5}","survey","50","5917143","0.0-12.0-1.9","[]","","",""
"1747","TestRecordings/swakhing.wav","0","audio-button-response","51","5918975","0.0-12.0-0.10","","","",""
"17554","","{""P0_Q0"":""ㅅ,ㅗ,ㅏ,ㅋ,ㅜ,ㅣ,ㄱ"",""P0_Q1"":6}","survey","52","5936537","0.0-12.0-1.10","[]","","",""
"810","TestRecordings/knop.wav","0","audio-button-response","53","5937420","0.0-12.0-0.11","","","",""
"12076","","{""P0_Q0"":""ㅋ,ㅡ,ㄴ,ㅗ,ㅍ"",""P0_Q1"":5}","survey","54","5949503","0.0-12.0-1.11","[]","","",""
"1534","TestRecordings/mkithun.wav","0","audio-button-response","55","5951120","0.0-12.0-0.12","","","",""
"14942","","{""P0_Q0"":""ㅇ,ㅡ,ㄴ,ㄱ,ㅣ,ㅌ,ㅜ,ㄴ"",""P0_Q1"":2}","survey","56","5966070","0.0-12.0-1.12","[]","","",""
"1458","TestRecordings/khnacin.wav","0","audio-button-response","57","5967550","0.0-12.0-0.13","","","",""
"16741","","{""P0_Q0"":""ㅋ,ㅡ,ㄴ,ㅏ,ㅈ,ㅣ,ㄴ"",""P0_Q1"":4}","survey","58","5984299","0.0-12.0-1.13","[]","","",""
"1992","TestRecordings/khonik.wav","0","audio-button-response","59","5986319","0.0-12.0-0.14","","","",""
"10664","","{""P0_Q0"":""ㅋ,ㅜ,ㅓ,ㄴ,ㅣ,ㄱ"",""P0_Q1"":3}","survey","60","5996991","0.0-12.0-1.14","[]","","",""
"1628","TestRecordings/mtunak.wav","0","audio-button-response","61","5998703","0.0-12.0-0.15","","","",""
"14104","","{""P0_Q0"":""ㅇ,ㅡ,ㅁ,ㄷ,ㅜ,ㄴ,ㅏ,ㄱ"",""P0_Q1"":2}","survey","62","6012816","0.0-12.0-1.15","[]","","",""
"1266","TestRecordings/nucok.wav","0","audio-button-response","63","6014104","0.0-12.0-0.16","","","",""
"14277","","{""P0_Q0"":""ㄴ,ㅜ,ㅈ,ㅗ,ㄱ"",""P0_Q1"":6}","survey","64","6028389","0.0-12.0-1.16","[]","","",""
"1398","TestRecordings/phmacot.wav","0","audio-button-response","65","6029808","0.0-12.0-0.17","","","",""
"13827","","{""P0_Q0"":""ㅋ,ㅡ,ㅁ,ㅏ,ㅈ,ㅗ,ㅊ"",""P0_Q1"":5}","survey","66","6043642","0.0-12.0-1.17","[]","","",""
"1650","TestRecordings/nchat.wav","0","audio-button-response","67","6045376","0.0-12.0-0.18","","","",""
"10070","","{""P0_Q0"":""ㅇ,ㅡ,ㄴ,ㅊ,ㅏ,ㅈ"",""P0_Q1"":1}","survey","68","6055453","0.0-12.0-1.18","[]","","",""
"1159","TestRecordings/sutik.wav","0","audio-button-response","69","6056633","0.0-12.0-0.19","","","",""
"13124","","{""P0_Q0"":""ㅅ,ㅜ,ㄷ,ㅣ,ㄱ"",""P0_Q1"":6}","survey","70","6069764","0.0-12.0-1.19","[]","","",""
"1450","TestRecordings/kophak.wav","0","audio-button-response","71","6071299","0.0-12.0-0.20","","","",""
"9416","","{""P0_Q0"":""ㄱ,ㅗ,ㅍ,ㅏ,ㄱ"",""P0_Q1"":6}","survey","72","6080723","0.0-12.0-1.20","[]","","",""
"1207","TestRecordings/thnakop.wav","0","audio-button-response","73","6081954","0.0-12.0-0.21","","","",""
"11611","","{""P0_Q0"":""ㅋ,ㅡ,ㄴ,ㅏ,ㄱ,ㅗ,ㄱ"",""P0_Q1"":5}","survey","74","6093572","0.0-12.0-1.21","[]","","",""
"1268","TestRecordings/mip.wav","0","audio-button-response","75","6094864","0.0-12.0-0.22","","","",""
"7147","","{""P0_Q0"":""ㅁ,ㅣ,ㅍ"",""P0_Q1"":5}","survey","76","6102018","0.0-12.0-1.22","[]","","",""
"1251","TestRecordings/cut.wav","0","audio-button-response","77","6103353","0.0-12.0-0.23","","","",""
"6907","","{""P0_Q0"":""ㅈ,ㅜ,ㅌ"",""P0_Q1"":4}","survey","78","6110268","0.0-12.0-1.23","[]","","",""
"1152","TestRecordings/thwicap.wav","0","audio-button-response","79","6111441","0.0-12.0-0.24","","","",""
"8045","","{""P0_Q0"":""ㅌ,ㅣ,ㅈ,ㅏ,ㅂ"",""P0_Q1"":6}","survey","80","6119492","0.0-12.0-1.24","[]","","",""
"1119","TestRecordings/ntosin.wav","0","audio-button-response","81","6120636","0.0-12.0-0.25","","","",""
"11628","","{""P0_Q0"":""ㅇ,ㅡ,ㄴ,ㄷ,ㅜ,ㅅ,ㅣ,ㄴ"",""P0_Q1"":2}","survey","82","6132271","0.0-12.0-1.25","[]","","",""
"1483","TestRecordings/thum.wav","0","audio-button-response","83","6133841","0.0-12.0-0.26","","","",""
"5085","","{""P0_Q0"":""ㅌ,ㅜ,ㅁ"",""P0_Q1"":2}","survey","84","6138933","0.0-12.0-1.26","[]","","",""
"1458","TestRecordings/khun.wav","0","audio-button-response","85","6140426","0.0-12.0-0.27","","","",""
"6254","","{""P0_Q0"":""ㅋ,ㅜ,ㄴ"",""P0_Q1"":7}","survey","86","6146687","0.0-12.0-1.27","[]","","",""
"1330","TestRecordings/pwacung.wav","0","audio-button-response","87","6148084","0.0-12.0-0.28","","","",""
"9316","","{""P0_Q0"":""ㄱ,ㅗ,ㅏ,ㅈ,ㅜ,ㅇ"",""P0_Q1"":7}","survey","88","6157407","0.0-12.0-1.28","[]","","",""
"1292","TestRecordings/nthiton.wav","0","audio-button-response","89","6158724","0.0-12.0-0.29","","","",""
"13405","","{""P0_Q0"":""ㅇ,ㅡ,ㄴ,ㅌ,ㅣ,ㄷ,ㅜ,ㄴ"",""P0_Q1"":1}","survey","90","6172136","0.0-12.0-1.29","[]","","",""
"1751","TestRecordings/nthunit.wav","0","audio-button-response","91","6173970","0.0-12.0-0.30","","","",""
"18349","","{""P0_Q0"":""ㅇ,ㅡ,ㄴ,ㅌ,ㅜ,ㄷ,ㅣ,ㅌ"",""P0_Q1"":2}","survey","92","6192326","0.0-12.0-1.30","[]","","",""
"1805","TestRecordings/mphithup.wav","0","audio-button-response","93","6194220","0.0-12.0-0.31","","","",""
"14262","","{""P0_Q0"":""ㅇ,ㅡ,ㅁ,ㅌ,ㅣ,ㅌ,ㅜ,ㅌ"",""P0_Q1"":1}","survey","94","6208489","0.0-12.0-1.31","[]","","",""
"1390","TestRecordings/nchak.wav","0","audio-button-response","95","6209964","0.0-12.0-0.32","","","",""
"14675","","{""P0_Q0"":""ㅇ,ㅡ,ㅇ,ㅊ,ㅏ,ㅈ"",""P0_Q1"":1}","survey","96","6224646","0.0-12.0-1.32","[]","","",""
"1392","TestRecordings/siphuk.wav","0","audio-button-response","97","6226060","0.0-12.0-0.33","","","",""
"10011","","{""P0_Q0"":""ㅅ,ㅜ,ㅣ,ㅍ,ㅜ"",""P0_Q1"":5}","survey","98","6236078","0.0-12.0-1.33","[]","","",""
"1037","TestRecordings/phuthik.wav","0","audio-button-response","99","6237138","0.0-12.0-0.34","","","",""
"6965","","{""P0_Q0"":""ㅍ,ㅜ,ㅌ,ㅣ,ㄱ"",""P0_Q1"":5}","survey","100","6244111","0.0-12.0-1.34","[]","","",""
"1179","TestRecordings/nthochap.wav","0","audio-button-response","101","6245315","0.0-12.0-0.35","","","",""
"16206","","{""P0_Q0"":""ㅇ,ㅡ,ㄴ,ㅌ,ㅜ,ㅊ,ㅏ,ㅂ"",""P0_Q1"":1}","survey","102","6261527","0.0-12.0-1.35","[]","","",""
"1682","TestRecordings/phwim.wav","0","audio-button-response","103","6263297","0.0-12.0-0.36","","","",""
"11601","","{""P0_Q0"":""ㅌ,ㅜ,ㅣ,ㅁ"",""P0_Q1"":2}","survey","104","6274906","0.0-12.0-1.36","[]","","",""
"1364","TestRecordings/khwapan.wav","0","audio-button-response","105","6276293","0.0-12.0-0.37","","","",""
"9124","","{""P0_Q0"":""ㅋ,ㅜ,ㅓ,ㅂ,ㅏ,ㄴ"",""P0_Q1"":5}","survey","106","6285424","0.0-12.0-1.37","[]","","",""
"1720","TestRecordings/phwing.wav","0","audio-button-response","107","6287170","0.0-12.0-0.38","","","",""
"13821","","{""P0_Q0"":""ㅋ,ㅜ,ㅣ,ㅇ"",""P0_Q1"":3}","survey","108","6300998","0.0-12.0-1.38","[]","","",""
"1498","TestRecordings/nchup.wav","0","audio-button-response","109","6302581","0.0-12.0-0.39","","","",""
"8684","","{""P0_Q0"":""ㅇ,ㅡ,ㄴ,ㅊ,ㅜ,ㅂ"",""P0_Q1"":2}","survey","110","6311272","0.0-12.0-1.39","[]","","",""
"1232","TestRecordings/phninot.wav","0","audio-button-response","111","6312527","0.0-12.0-0.40","","","",""
"9967","","{""P0_Q0"":""ㅍ,ㅡ,ㄴ,ㅣ,ㄴ,ㅗ,ㅊ"",""P0_Q1"":2}","survey","112","6322501","0.0-12.0-1.40","[]","","",""
"1257","TestRecordings/khnichat.wav","0","audio-button-response","113","6323781","0.0-12.0-0.41","","","",""
"20891","","{""P0_Q0"":""ㅋ,ㅡ,ㄴ,ㅣ,ㅊ,ㅏ,ㅈ"",""P0_Q1"":3}","survey","114","6344678","0.0-12.0-1.41","[]","","",""
"1430","TestRecordings/takhut.wav","0","audio-button-response","115","6346195","0.0-12.0-0.42","","","",""
"15038","","{""P0_Q0"":""ㄷ,ㅏ,ㄱ,ㅋ,ㅜ,ㅊ"",""P0_Q1"":2}","survey","116","6361241","0.0-12.0-1.42","[]","","",""
"4007","TestRecordings/mtak.wav","0","audio-button-response","117","6365286","0.0-12.0-0.43","","","",""
"11021","","{""P0_Q0"":""ㅇ,ㅡ,ㅇ,ㄷ,ㅏ,ㅊ"",""P0_Q1"":3}","survey","118","6376314","0.0-12.0-1.43","[]","","",""
"1287","TestRecordings/pmuk.wav","0","audio-button-response","119","6377622","0.0-12.0-0.44","","","",""
"5100","","{""P0_Q0"":""ㅁ,ㅜ,ㄱ"",""P0_Q1"":3}","survey","120","6382730","0.0-12.0-1.44","[]","","",""
"999","TestRecordings/swicit.wav","0","audio-button-response","121","6383814","0.0-12.0-0.45","","","",""
"9742","","{""P0_Q0"":""ㅅ,ㅣ,ㅈ,ㅣㅅ"",""P0_Q1"":4}","survey","122","6393561","0.0-12.0-1.45","[]","","",""
"1042","TestRecordings/cwasop.wav","0","audio-button-response","123","6394688","0.0-12.0-0.46","","","",""
"13931","","{""P0_Q0"":""ㅈ,ㅗ,ㅏ,ㅅ,ㅓ,ㅅ"",""P0_Q1"":6}","survey","124","6408626","0.0-12.0-1.46","[]","","",""
"1233","TestRecordings/chwap.wav","0","audio-button-response","125","6409881","0.0-12.0-0.47","","","",""
"6307","","{""P0_Q0"":""ㅊ,ㅗ,ㅏ,ㅂ"",""P0_Q1"":5}","survey","126","6416194","0.0-12.0-1.47","[]","","",""
"1080","TestRecordings/knothing.wav","0","audio-button-response","127","6417299","0.0-12.0-0.48","","","",""
"10713","","{""P0_Q0"":""ㅋ,ㅡ,ㄴ,ㅗ,ㅌ,ㅣ,ㅇ"",""P0_Q1"":4}","survey","128","6428019","0.0-12.0-1.48","[]","","",""
"1256","TestRecordings/mciphom.wav","0","audio-button-response","129","6429358","0.0-12.0-0.49","","","",""
"13032","","{""P0_Q0"":""ㅇ,ㅡ,ㅇ,ㅈ,ㅣ,ㅍ,ㅗ,ㅁ"",""P0_Q1"":2}","survey","130","6442397","0.0-12.0-1.49","[]","","",""
"1131","TestRecordings/thnukip.wav","0","audio-button-response","131","6443551","0.0-12.0-0.50","","","",""
"13157","","{""P0_Q0"":""ㅋ,ㅡ,ㄴ,ㅜ,ㄱ,ㅣ,ㅇ"",""P0_Q1"":4}","survey","132","6456716","0.0-12.0-1.50","[]","","",""
"1260","TestRecordings/cwang.wav","0","audio-button-response","133","6458064","0.0-12.0-0.51","","","",""
"7428","","{""P0_Q0"":""ㅈ,ㅗ,ㅏ,ㅇ"",""P0_Q1"":6}","survey","134","6465500","0.0-12.0-1.51","[]","","",""
"993","TestRecordings/cmot.wav","0","audio-button-response","135","6466577","0.0-12.0-0.52","","","",""
"11925","","{""P0_Q0"":""ㅅ,ㅡ,ㅁ,ㅗ,ㅅ"",""P0_Q1"":4}","survey","136","6478508","0.0-12.0-1.52","[]","","",""
"1136","TestRecordings/swapong.wav","0","audio-button-response","137","6479729","0.0-12.0-0.53","","","",""
"10077","","{""P0_Q0"":""ㅅ,ㅏ,ㅂ,ㅗ,ㅇ"",""P0_Q1"":6}","survey","138","6489816","0.0-12.0-1.53","[]","","",""
"1226","TestRecordings/masuk.wav","0","audio-button-response","139","6491065","0.0-12.0-0.54","","","",""
"8045","","{""P0_Q0"":""ㅁ,ㅏ,ㅅ,ㅜ,ㄱ"",""P0_Q1"":7}","survey","140","6499116","0.0-12.0-1.54","[]","","",""
"1163","TestRecordings/twikhit.wav","0","audio-button-response","141","6500303","0.0-12.0-0.55","","","",""
"16063","","{""P0_Q0"":""ㅌ,ㅜ,ㅣ,ㅋ,ㅣ,ㅅ"",""P0_Q1"":3}","survey","142","6516374","0.0-12.0-1.55","[]","","",""
"626","TestRecordings/npokit.wav","0","audio-button-response","143","6517025","0.0-12.0-0.56","","","",""
"26980","","{""P0_Q0"":""못들었다."",""P0_Q1"":4}","survey","144","6544012","0.0-12.0-1.56","[]","","",""
"1766","TestRecordings/pmathin.wav","0","audio-button-response","145","6545800","0.0-12.0-0.57","","","",""
"10839","","{""P0_Q0"":""ㅌ,ㅜ,ㄴ,ㅏ,ㅌ,ㅣ,ㄴ"",""P0_Q1"":4}","survey","146","6556645","0.0-12.0-1.57","[]","","",""
"1728","TestRecordings/phmut.wav","0","audio-button-response","147","6558458","0.0-12.0-0.58","","","",""
"8843","","{""P0_Q0"":""ㅋ,ㅡ,ㅁ,ㅜ,ㅌ"",""P0_Q1"":5}","survey","148","6567308","0.0-12.0-1.58","[]","","",""
"2073","TestRecordings/ncuk.wav","0","audio-button-response","149","6569402","0.0-12.0-0.59","","","",""
"10132","","{""P0_Q0"":""ㅇ,ㅡ,ㅁ,ㅈ,ㅜ,ㄱ"",""P0_Q1"":5}","survey","150","6579541","0.0-12.0-1.59","[]","","",""
"2776",""," ","html-keyboard-response","151","6582317","0.0-13.0","","","",""
"38212","","{""P0_Q0"":""23"",""P0_Q1"":""여"",""P0_Q2"":""6"",""P0_Q3"":""아니요"",""P0_Q4"":""제대로 배운 경험은 없는 것 같습니다."",""P0_Q5"":""없다."",""P0_Q6"":""없다.""}","survey","152","6620538","0.0-14.0","[]","","",""
"3305","<p style=""font-size:30px"",lang=""ko"">실험이 끝났습니다</p><p style=""font-size:30px"",lang=""ko"">참가해주셔서 고맙습니다</p>"," ","html-keyboard-response","153","6623844","0.0-15.0","","","",""
