"rt","stimulus","response","trial_type","trial_index","time_elapsed","internal_node_id","accuracy","PracticeTest","ConsonantSequence","Grammaticality"
"2253597","<p style=""font-size:30px"",lang=""ko"">실험에 오신 것을 환영합니다</p><p lang=""ko"">스페이스바를 누르면 다음 페이지로 넘어갑니다</p>"," ","html-keyboard-response","0","2253504","0.0-0.0","","","",""
"1907","<p style=""font-size:30px"",lang=""ko"">해드폰을 본인에게 잘 맞게 착용하세요</p><p lang=""ko"">스페이스바를 누르면 다음 페이지로 넘어갑니다</p>"," ","html-keyboard-response","1","2255415","0.0-1.0","","","",""
"2959","<p style=""font-size:30px"",lang=""ko"">이 실험에서는 새로 만든 한국 단어를 들으실 겁니다</p><p style=""font-size:30px"",lang=""ko"">단어를 들리는대로 쓰세요. 그런 다음 그 단어가 한국어 단어로 가능한지 평가하세요</p><p lang=""ko"">스페이스바를 누르면 다음 페이지로 넘어갑니다</p>"," ","html-keyboard-response","2","2258374","0.0-2.0","","","",""
"2036","<p style=""font-size:30px"",lang=""ko"">원래 있는 단어로 예를 들어 봅시다</p><p lang=""ko"">스페이스바를 누르면 다음 페이지로 넘어갑니다</p>"," ","html-keyboard-response","3","2260411","0.0-3.0","","","",""
"6014","PracticeRecordings/kom_bear.wav","0","audio-button-response","4","2266622","0.0-4.0","","","",""
"2615","<p style=""font-size:30px"",lang=""ko"">이제 직접 단어를 듣고 쓰는 연습을 해봅시다. </p><p style=""font-size:30px"",lang=""ko"">스페이스바를 누르면 다음 페이지로 넘어갑니다</p>"," ","html-keyboard-response","5","2269238","0.0-5.0","","","",""
"9027","PracticeRecordings/kirin_giraffe.wav","0","audio-button-response","6","2278281","0.0-6.0-0.0","","","",""
"9186","kirin_giraffe","{""P0_Q0"":""ㄱ,ㅣ,ㄹ,ㅣ,ㄴ""}","survey","7","2287527","0.0-6.0-1.0","[]","practice","NA","TRUE"
"2023","<p style=""font-size:30px"",lang=""ko"">방금 들으신 단어는 ""ㄱ,ㅣ,ㄹ,ㅣ,ㄴ"" 이라고 쓰시면 됩니다</p><p lang=""ko"">스페이스바를 누르면 다음 페이지로 넘어갑니다</p>"," ","html-keyboard-response","8","2289551","0.0-6.0-2.0","","","",""
"1753","PracticeRecordings/saca_lion.wav","0","audio-button-response","9","2291321","0.0-6.0-0.1","","","",""
"5080","saca_lion","{""P0_Q0"":""ㅅ,ㅏ,ㅈ,ㅏ""}","survey","10","2296408","0.0-6.0-1.1","[]","practice","NA","FALSE"
"1270","<p style=""font-size:30px"",lang=""ko"">방금 들으신 단어는 ""ㅅ,ㅏ,ㅈ,ㅏ"" 라고 쓰시면 됩니다</p><p lang=""ko"">스페이스바를 누르면 다음 페이지로 넘어갑니다</p>"," ","html-keyboard-response","11","2297679","0.0-6.0-2.1","","","",""
"1557","PracticeRecordings/saseum_deer.wav","0","audio-button-response","12","2299251","0.0-6.0-0.2","","","",""
"9795","saseum_deer","{""P0_Q0"":""ㅅ,ㅏ,ㅅ,ㅡ,ㅁ""}","survey","13","2309052","0.0-6.0-1.2","[]","practice","NA","FALSE"
"1866","<p style=""font-size:30px"",lang=""ko"">방금 들으신 단어는 ""ㅅ,ㅏ,ㅅ,ㅡ,ㅁ""이라고 쓰시면 됩니다</p><p lang=""ko"">스페이스바를 누르면 다음 페이지로 넘어갑니다</p>"," ","html-keyboard-response","14","2310919","0.0-6.0-2.2","","","",""
"1633","PracticeRecordings/thokki_rabbit.wav","0","audio-button-response","15","2312567","0.0-6.0-0.3","","","",""
"6817","thokki_rabbit","{""P0_Q0"":""ㅌ, ㅗ, ㄲ, ㅣ""}","survey","16","2319389","0.0-6.0-1.3","[]","practice","NA","FALSE"
"831","<p style=""font-size:30px"",lang=""ko"">방금 들으신 단어는 ""ㅌ,ㅗ,ㄲ,ㅣ"" 라고 쓰시면 됩니다</p><p lang=""ko"">스페이스바를 누르면 다음 페이지로 넘어갑니다</p>"," ","html-keyboard-response","17","2320220","0.0-6.0-2.3","","","",""
"1275","<p style=""font-size:30px"",lang=""ko"">이제 만든 단어로 연습해봅시다.</p><p lang=""ko"">스페이스바를 누르면 다음 페이지로 넘어갑니다</p>"," ","html-keyboard-response","18","2321496","0.0-7.0","","","",""
"2697","PracticeRecordings/snen.wav","0","audio-button-response","19","2324208","0.0-8.0-0.0","","","",""
"11417","snen","{""P0_Q0"":""ㅅ,ㅡ, ㄴ, ㅔ, ㄴ""}","survey","20","2335630","0.0-8.0-1.0","[]","practice","NA","TRUE"
"8030","<p style=""font-size:30px"",lang=""ko"">들으신 단어는 <br> ""ㅅ,ㅡ,ㄴ,ㅐ,ㄴ""  ""ㅅ,ㅡ,ㄴ,ㅐ"" ""ㅅ,ㄴ,ㅐ,ㄴ (""으"" 소리가 안 들리는 경우)"" 등 <br> 사람에 따라 다양하게 들릴 수 있습니다 <br> 본인에게 들리는대로 쓰시면 됩니다.</p><p lang=""ko"">스페이스바를 누르면 다음 페이지로 넘어갑니다</p>"," ","html-keyboard-response","21","2343661","0.0-8.0-2.0","","","",""
"2375","PracticeRecordings/phrak.wav","0","audio-button-response","22","2346202","0.0-8.0-0.1","","","",""
"10036","phrak","{""P0_Q0"":""ㅍ,ㄹ,ㅏ,ㅋ""}","survey","23","2356242","0.0-8.0-1.1","[]","practice","NA","FALSE"
"3897","<p style=""font-size:30px"",lang=""ko"">들으신 단어는 <br> ""ㅍ,ㅡ,ㄹ,ㅏ,ㄱ"" ""ㅍ,ㅡ,ㄹ,ㅏ,ㅅ"" ""ㅋ,ㅡ,ㄹ,ㅏ,ㄱ"" ""ㅍ,ㄹ,ㅏ,ㄱ (""으"" 소리가 안 들리는 경우)"" 등 <br> 사람에 따라 다양하게 들릴 수 있습니다 <br> 본인에게 들리는대로 쓰시면 됩니다.</p><p lang=""ko"">스페이스바를 누르면 다음 페이지로 넘어갑니다</p>"," ","html-keyboard-response","24","2360139","0.0-8.0-2.1","","","",""
"3039","PracticeRecordings/chka.wav","0","audio-button-response","25","2363193","0.0-8.0-0.2","","","",""
"8525","chka","{""P0_Q0"":""ㅅ, ㅡ, ㅋ, ㅏ""}","survey","26","2371722","0.0-8.0-1.2","[]","practice","NA","FALSE"
"3377","<p style=""font-size:30px"",lang=""ko"">들으신 단어는 ""ㅊ,ㅣ,ㄱ,ㅏ"", ""ㅊ,ㅡ,ㄱ,ㅏ"", ""ㅊ,ㄱ,ㅏ"", ""ㅊ,ㅟ,ㄱ,ㅏ"" 등 <br> 사람에 따라 다양하게 들릴 수 있습니다. <br> 본인에게 들리는대로 쓰시면 됩니다.</p><p lang=""ko"">스페이스바를 누르면 다음 페이지로 넘어갑니다</p>"," ","html-keyboard-response","27","2375100","0.0-8.0-2.2","","","",""
"2860",""," ","html-keyboard-response","28","2377960","0.0-9.0","","","",""
"3361","<p style=""font-size:30px"",lang=""ko"">이제 실험을 시작하겠습니다.</p><p style=""font-size:30px"",lang=""ko"">실전에서는 각각의 만든 단어를 한 번씩만 들을 수 있습니다.</p>"," ","html-keyboard-response","29","2381321","0.0-10.0","","","",""
"5154","<p style=""font-size:30px"",lang=""ko"">단어를 풀어 쓰신 후에 그 단어가 한국어로 가능한 단어인지 평가해주세요</p><p style=""font-size:30px"",lang=""ko"">1점은 한국어로 완전 불가능한 단어, 7점은 한국어로 완전 가능한 단어를 의미합니다</p><p lang=""ko"">스페이스바를 누르면 다음 페이지로 넘어갑니다</p>"," ","html-keyboard-response","30","2386475","0.0-11.0","","","",""
"3392","TestRecordings/nthiton.wav","0","audio-button-response","31","2389945","0.0-12.0-0.0","","","",""
"25207","","{""P0_Q0"":""ㅇ,ㅡ,ㅁ,ㅍ,ㅣ,ㄷ,ㅗ,ㄴ"",""P0_Q1"":3}","survey","32","2415162","0.0-12.0-1.0","[]","","",""
"3392","TestRecordings/mkithun.wav","0","audio-button-response","33","2418620","0.0-12.0-0.1","","","",""
"15316","","{""P0_Q0"":""ㅇ,ㅡ,ㅇ,ㄱ,ㅣ,ㅌ,ㅜ,ㄴ"",""P0_Q1"":2}","survey","34","2433941","0.0-12.0-1.1","[]","","",""
"2400","TestRecordings/khwapan.wav","0","audio-button-response","35","2436355","0.0-12.0-0.2","","","",""
"8114","","{""P0_Q0"":""ㅋ,ㅗ,ㅏ,ㅂ,ㅏ,ㄴ"",""P0_Q1"":6}","survey","36","2444476","0.0-12.0-1.2","[]","","",""
"2926","TestRecordings/swapong.wav","0","audio-button-response","37","2447417","0.0-12.0-0.3","","","",""
"25053","","{""P0_Q0"":""ㅅ,ㅡ,ㅇ,ㅗ,ㅏ,ㅂ,ㅗ,ㅇ"",""P0_Q1"":3}","survey","38","2472476","0.0-12.0-1.3","[]","","",""
"2062","TestRecordings/knop.wav","0","audio-button-response","39","2474554","0.0-12.0-0.4","","","",""
"5573","","{""P0_Q0"":""ㅋ,ㅡ,ㄴ,ㅗ,ㅂ"",""P0_Q1"":6}","survey","40","2480132","0.0-12.0-1.4","[]","","",""
"2124","TestRecordings/takhut.wav","0","audio-button-response","41","2482273","0.0-12.0-0.5","","","",""
"12938","","{""P0_Q0"":""ㄷ,ㅏ,ㅋ,ㅜ,ㅅ"",""P0_Q1"":5}","survey","42","2495216","0.0-12.0-1.5","[]","","",""
"2083","TestRecordings/ncuk.wav","0","audio-button-response","43","2497314","0.0-12.0-0.6","","","",""
"10366","","{""P0_Q0"":""ㅇ,ㅡ,ㅇ,ㅈ,ㅜ"",""P0_Q1"":2}","survey","44","2507686","0.0-12.0-1.6","[]","","",""
"1940","TestRecordings/khnichat.wav","0","audio-button-response","45","2509641","0.0-12.0-0.7","","","",""
"7737","","{""P0_Q0"":""ㅋ,ㅡ,ㄴ,ㅣ,ㅊ,ㅏ,ㅅ"",""P0_Q1"":7}","survey","46","2517383","0.0-12.0-1.7","[]","","",""
"2238","TestRecordings/phwing.wav","0","audio-button-response","47","2519638","0.0-12.0-0.8","","","",""
"9113","","{""P0_Q0"":""ㅋ,ㅜ,ㅣ,ㅇ"",""P0_Q1"":1}","survey","48","2528756","0.0-12.0-1.8","[]","","",""
"2359","TestRecordings/chwakap.wav","0","audio-button-response","49","2531129","0.0-12.0-0.9","","","",""
"6809","","{""P0_Q0"":""ㅊ,ㅏ,ㄱ,ㅏ,ㅂ"",""P0_Q1"":7}","survey","50","2537942","0.0-12.0-1.9","[]","","",""
"1749","TestRecordings/nthunit.wav","0","audio-button-response","51","2539706","0.0-12.0-0.10","","","",""
"11373","","{""P0_Q0"":""ㅇ,ㅡ,ㅇ,ㅌ,ㅜ,ㄴ,ㅣ,ㅅ"",""P0_Q1"":3}","survey","52","2551084","0.0-12.0-1.10","[]","","",""
"1880","TestRecordings/nchitam.wav","0","audio-button-response","53","2552979","0.0-12.0-0.11","","","",""
"10103","","{""P0_Q0"":""ㅇ,ㅡ,ㅇ,ㅊ,ㄷ,ㅏ,ㅁ"",""P0_Q1"":3}","survey","54","2563087","0.0-12.0-1.11","[]","","",""
"1812","TestRecordings/phninot.wav","0","audio-button-response","55","2564913","0.0-12.0-0.12","","","",""
"8681","","{""P0_Q0"":""ㅍ,ㅣ,ㄴ,ㅣ,ㄴ,ㅗ,ㅅ"",""P0_Q1"":6}","survey","56","2573599","0.0-12.0-1.12","[]","","",""
"1810","TestRecordings/twikhit.wav","0","audio-button-response","57","2575424","0.0-12.0-0.13","","","",""
"8179","","{""P0_Q0"":""ㅌ,ㅜ,ㅣ,ㅋ,ㅣ,ㅅ"",""P0_Q1"":2}","survey","58","2583607","0.0-12.0-1.13","[]","","",""
"1429","TestRecordings/thnukip.wav","0","audio-button-response","59","2585052","0.0-12.0-0.14","","","",""
"13527","","{""P0_Q0"":""ㅌ,ㅜ,ㄴ,ㅜ,ㄱ,ㅣ,ㅅ"",""P0_Q1"":6}","survey","60","2598583","0.0-12.0-1.14","[]","","",""
"1824","TestRecordings/phmut.wav","0","audio-button-response","61","2600422","0.0-12.0-0.15","","","",""
"10255","","{""P0_Q0"":""ㅍ,ㅁ,ㅜ,ㅅ"",""P0_Q1"":2}","survey","62","2610682","0.0-12.0-1.15","[]","","",""
"1331","TestRecordings/nchat.wav","0","audio-button-response","63","2612027","0.0-12.0-0.16","","","",""
"6288","","{""P0_Q0"":""ㅇ,ㅊ,ㅏ,ㅅ"",""P0_Q1"":2}","survey","64","2618321","0.0-12.0-1.16","[]","","",""
"1271","TestRecordings/nucok.wav","0","audio-button-response","65","2619608","0.0-12.0-0.17","","","",""
"12997","","{""P0_Q0"":""ㄴ,ㅜ,ㅈ,ㅗ"",""P0_Q1"":6}","survey","66","2632609","0.0-12.0-1.17","[]","","",""
"2033","TestRecordings/pmuk.wav","0","audio-button-response","67","2634657","0.0-12.0-0.18","","","",""
"12910","","{""P0_Q0"":""ㅍ,ㅡ,ㅁ,ㅜ,ㄱ"",""P0_Q1"":1}","survey","68","2647571","0.0-12.0-1.18","[]","","",""
"1238","TestRecordings/niphak.wav","0","audio-button-response","69","2648823","0.0-12.0-0.19","","","",""
"5093","","{""P0_Q0"":""ㄴ,ㅣ,ㅍ,ㅏ,ㄱ"",""P0_Q1"":6}","survey","70","2653921","0.0-12.0-1.19","[]","","",""
"1396","TestRecordings/masuk.wav","0","audio-button-response","71","2655334","0.0-12.0-0.20","","","",""
"5268","","{""P0_Q0"":""ㅁ,ㅏ,ㅅ,ㅜ,ㄱ"",""P0_Q1"":7}","survey","72","2660607","0.0-12.0-1.20","[]","","",""
"1493","TestRecordings/khmoting.wav","0","audio-button-response","73","2662116","0.0-12.0-0.21","","","",""
"8312","","{""P0_Q0"":""ㅋ,ㅡ,ㅁ,ㅗ,ㄷ,ㅣ,ㅇ"",""P0_Q1"":4}","survey","74","2670432","0.0-12.0-1.21","[]","","",""
"1702","TestRecordings/pmisung.wav","0","audio-button-response","75","2672150","0.0-12.0-0.22","","","",""
"11344","","{""P0_Q0"":""ㄷ,ㅡ,ㅁ,ㅣ,ㅅ,ㅜ,ㅇ"",""P0_Q1"":2}","survey","76","2683499","0.0-12.0-1.22","[]","","",""
"1386","TestRecordings/phmacot.wav","0","audio-button-response","77","2684900","0.0-12.0-0.23","","","",""
"17992","","{""P0_Q0"":""ㅍ,ㅡ,ㅁ,ㅏ,ㅈ,ㅗ,ㅅ"",""P0_Q1"":6}","survey","78","2702896","0.0-12.0-1.23","[]","","",""
"1589","TestRecordings/chwap.wav","0","audio-button-response","79","2704560","0.0-12.0-0.24","","","",""
"6222","","{""P0_Q0"":""ㅊ,ㅑ,ㅂ"",""P0_Q1"":5}","survey","80","2710786","0.0-12.0-1.24","[]","","",""
"1310","TestRecordings/cmot.wav","0","audio-button-response","81","2712110","0.0-12.0-0.25","","","",""
"8751","","{""P0_Q0"":""ㅊ,ㅡ,ㅁ,ㅗ,ㅅ"",""P0_Q1"":3}","survey","82","2720866","0.0-12.0-1.25","[]","","",""
"1259","TestRecordings/mtak.wav","0","audio-button-response","83","2722140","0.0-12.0-0.26","","","",""
"8432","","{""P0_Q0"":""ㅇ,ㅡ,ㅇ,ㄷ,ㅏ,ㄱ"",""P0_Q1"":2}","survey","84","2730576","0.0-12.0-1.26","[]","","",""
"1176","TestRecordings/khmip.wav","0","audio-button-response","85","2731768","0.0-12.0-0.27","","","",""
"7293","","{""P0_Q0"":""ㅋ,ㅡ,ㅁ,ㅣ,ㅂ"",""P0_Q1"":2}","survey","86","2739067","0.0-12.0-1.27","[]","","",""
"1558","TestRecordings/cwiphing.wav","0","audio-button-response","87","2740641","0.0-12.0-0.28","","","",""
"8299","","{""P0_Q0"":""ㅊ,ㅜ,ㅣ,ㅍ,ㅣ,ㅇ"",""P0_Q1"":3}","survey","88","2748944","0.0-12.0-1.28","[]","","",""
"1172","TestRecordings/npokit.wav","0","audio-button-response","89","2750133","0.0-12.0-0.29","","","",""
"17072","","{""P0_Q0"":""ㅇ,ㅡ,ㅇ,ㅂ,ㅜ,ㄱ,ㅜ,ㅣ,ㅅ"",""P0_Q1"":1}","survey","90","2767210","0.0-12.0-1.29","[]","","",""
"1416","TestRecordings/swicit.wav","0","audio-button-response","91","2768641","0.0-12.0-0.30","","","",""
"15932","","{""P0_Q0"":""ㅅ,ㅜ,ㅣ,ㅈ,ㅣ,ㅅ"",""P0_Q1"":7}","survey","92","2784578","0.0-12.0-1.30","[]","","",""
"2422","TestRecordings/mphithup.wav","0","audio-button-response","93","2787016","0.0-12.0-0.31","","","",""
"11886","","{""P0_Q0"":""ㅇ,ㅡ,ㅇ,ㅍ,ㅣ,ㅌ,ㅜ,ㅅ"",""P0_Q1"":1}","survey","94","2798906","0.0-12.0-1.31","[]","","",""
"915","TestRecordings/kwat.wav","0","audio-button-response","95","2799895","0.0-12.0-0.32","","","",""
"5299","","{""P0_Q0"":""ㄱ,ㅗ,ㅏ,ㅅ"",""P0_Q1"":7}","survey","96","2805198","0.0-12.0-1.32","[]","","",""
"1085","TestRecordings/thum.wav","0","audio-button-response","97","2806299","0.0-12.0-0.33","","","",""
"5370","","{""P0_Q0"":""ㅌ,ㅜ,ㅁ"",""P0_Q1"":6}","survey","98","2811674","0.0-12.0-1.33","[]","","",""
"960","TestRecordings/phwim.wav","0","audio-button-response","99","2812649","0.0-12.0-0.34","","","",""
"5149","","{""P0_Q0"":""ㅍ,ㅣ,ㅁ"",""P0_Q1"":5}","survey","100","2817802","0.0-12.0-1.34","[]","","",""
"1200","TestRecordings/knothing.wav","0","audio-button-response","101","2819018","0.0-12.0-0.35","","","",""
"9638","","{""P0_Q0"":""ㅋ,ㅡ,ㄴ,ㅗ,ㅌ,ㅣ,ㅇ"",""P0_Q1"":6}","survey","102","2828660","0.0-12.0-1.35","[]","","",""
"837","TestRecordings/mip.wav","0","audio-button-response","103","2829511","0.0-12.0-0.36","","","",""
"3786","","{""P0_Q0"":""ㅁ,ㅣ,ㅂ"",""P0_Q1"":7}","survey","104","2833301","0.0-12.0-1.36","[]","","",""
"919","TestRecordings/nchak.wav","0","audio-button-response","105","2834234","0.0-12.0-0.37","","","",""
"10936","","{""P0_Q0"":""ㅇ,ㅡ,ㅇ,ㅊ,ㅏ"",""P0_Q1"":2}","survey","106","2845174","0.0-12.0-1.37","[]","","",""
"1025","TestRecordings/nthochap.wav","0","audio-button-response","107","2846214","0.0-12.0-0.38","","","",""
"9458","","{""P0_Q0"":""ㅇ,ㅡ,ㅇ,ㅌ,ㅗ,ㅊ,ㅏ,ㅂ"",""P0_Q1"":1}","survey","108","2855677","0.0-12.0-1.38","[]","","",""
"1086","TestRecordings/pmathin.wav","0","audio-button-response","109","2856777","0.0-12.0-0.39","","","",""
"8536","","{""P0_Q0"":""ㅋ,ㅡ,ㅁ,ㅏ,ㅌ,ㅣ,ㄴ"",""P0_Q1"":3}","survey","110","2865317","0.0-12.0-1.39","[]","","",""
"983","TestRecordings/thnakop.wav","0","audio-button-response","111","2866315","0.0-12.0-0.40","","","",""
"9357","","{""P0_Q0"":""ㅌ,ㅡ,ㄴ,ㅏ,ㄱ,ㅗ,ㅂ"",""P0_Q1"":6}","survey","112","2875677","0.0-12.0-1.40","[]","","",""
"1061","TestRecordings/kophak.wav","0","audio-button-response","113","2876773","0.0-12.0-0.41","","","",""
"5681","","{""P0_Q0"":""ㄱ,ㅗ,ㅍ,ㅏ,ㄱ"",""P0_Q1"":6}","survey","114","2882459","0.0-12.0-1.41","[]","","",""
"850","TestRecordings/nchup.wav","0","audio-button-response","115","2883323","0.0-12.0-0.42","","","",""
"9914","","{""P0_Q0"":""ㅇ,ㅡ,ㅇ,ㅊ,ㅜ"",""P0_Q1"":2}","survey","116","2893242","0.0-12.0-1.42","[]","","",""
"967","TestRecordings/thwicap.wav","0","audio-button-response","117","2894223","0.0-12.0-0.43","","","",""
"6937","","{""P0_Q0"":""ㅌ,ㅜ,ㅣ,ㅈ,ㅏ,ㅂ"",""P0_Q1"":7}","survey","118","2901165","0.0-12.0-1.43","[]","","",""
"1068","TestRecordings/khonik.wav","0","audio-button-response","119","2902247","0.0-12.0-0.44","","","",""
"8670","","{""P0_Q0"":""ㅋ,ㅗ,ㄴ,ㅣ,ㄹ"",""P0_Q1"":5}","survey","120","2910922","0.0-12.0-1.44","[]","","",""
"977","TestRecordings/cut.wav","0","audio-button-response","121","2911914","0.0-12.0-0.45","","","",""
"3360","","{""P0_Q0"":""ㅈ,ㅜ,ㅅ"",""P0_Q1"":7}","survey","122","2915279","0.0-12.0-1.45","[]","","",""
"1212","TestRecordings/khun.wav","0","audio-button-response","123","2916506","0.0-12.0-0.46","","","",""
"3392","","{""P0_Q0"":""ㅋ,ㅜ,ㄴ"",""P0_Q1"":7}","survey","124","2919903","0.0-12.0-1.46","[]","","",""
"1041","TestRecordings/siphuk.wav","0","audio-button-response","125","2920960","0.0-12.0-0.47","","","",""
"10355","","{""P0_Q0"":""ㅅ,ㅣ,ㅍ,ㅜ"",""P0_Q1"":6}","survey","126","2931319","0.0-12.0-1.47","[]","","",""
"1142","TestRecordings/pwacung.wav","0","audio-button-response","127","2932475","0.0-12.0-0.48","","","",""
"11646","","{""P0_Q0"":""ㅂ,ㅜ,ㅇ,ㅏ,ㅈ,ㅜ,ㅇ"",""P0_Q1"":3}","survey","128","2944125","0.0-12.0-1.48","[]","","",""
"1239","TestRecordings/pathik.wav","0","audio-button-response","129","2945379","0.0-12.0-0.49","","","",""
"8313","","{""P0_Q0"":""ㅂ,ㅏ,ㅌ,ㅣ,ㄱ"",""P0_Q1"":5}","survey","130","2953698","0.0-12.0-1.49","[]","","",""
"1373","TestRecordings/mciphom.wav","0","audio-button-response","131","2955086","0.0-12.0-0.50","","","",""
"13417","","{""P0_Q0"":""ㅇ,ㅡ,ㅇ,ㄷ,ㅣ,ㅍ,ㅜ,ㅇ,ㅓ,ㅇ"",""P0_Q1"":1}","survey","132","2968508","0.0-12.0-1.50","[]","","",""
"1480","TestRecordings/khnacin.wav","0","audio-button-response","133","2970003","0.0-12.0-0.51","","","",""
"10293","","{""P0_Q0"":""ㅋ,ㅡ,ㄴ,ㅏ,ㅈ,ㅣ,ㄴ"",""P0_Q1"":6}","survey","134","2980300","0.0-12.0-1.51","[]","","",""
"1023","TestRecordings/ntosin.wav","0","audio-button-response","135","2981365","0.0-12.0-0.52","","","",""
"10894","","{""P0_Q0"":""ㅇ,ㅡ,ㅇ,ㄷ,ㅜ,ㅅ,ㅣ,ㄴ"",""P0_Q1"":2}","survey","136","2992263","0.0-12.0-1.52","[]","","",""
"1004","TestRecordings/sutik.wav","0","audio-button-response","137","2993280","0.0-12.0-0.53","","","",""
"6497","","{""P0_Q0"":""ㅅ,ㅜ,ㄷ,ㅣ,ㄱ"",""P0_Q1"":5}","survey","138","2999782","0.0-12.0-1.53","[]","","",""
"1334","TestRecordings/swakhing.wav","0","audio-button-response","139","3001134","0.0-12.0-0.54","","","",""
"11188","","{""P0_Q0"":""ㅅ,ㅜ,ㅇ,ㅏ,ㅋ,ㅣ,ㅇ"",""P0_Q1"":2}","survey","140","3012327","0.0-12.0-1.54","[]","","",""
"1058","TestRecordings/cwang.wav","0","audio-button-response","141","3013399","0.0-12.0-0.55","","","",""
"5972","","{""P0_Q0"":""ㅈ,ㅑ,ㅇ"",""P0_Q1"":5}","survey","142","3019376","0.0-12.0-1.55","[]","","",""
"983","TestRecordings/phuthik.wav","0","audio-button-response","143","3020373","0.0-12.0-0.56","","","",""
"8391","","{""P0_Q0"":""ㅍ,ㅜ,ㅌ,ㅣ,ㄱ"",""P0_Q1"":7}","survey","144","3028769","0.0-12.0-1.56","[]","","",""
"967","TestRecordings/chut.wav","0","audio-button-response","145","3029751","0.0-12.0-0.57","","","",""
"8580","","{""P0_Q0"":""ㅊ,ㅜ,ㅅ"",""P0_Q1"":6}","survey","146","3038335","0.0-12.0-1.57","[]","","",""
"1328","TestRecordings/cwasop.wav","0","audio-button-response","147","3039677","0.0-12.0-0.58","","","",""
"7750","","{""P0_Q0"":""ㅈ,ㅗ,ㅏ,ㅅ,ㅗ,ㅂ"",""P0_Q1"":3}","survey","148","3047431","0.0-12.0-1.58","[]","","",""
"1184","TestRecordings/mtunak.wav","0","audio-button-response","149","3048629","0.0-12.0-0.59","","","",""
"19780","","{""P0_Q0"":""ㅇ,ㅡ,ㅇ,ㄷ,ㅜ,ㄴ,ㅏ,ㄱ"",""P0_Q1"":2}","survey","150","3068414","0.0-12.0-1.59","[]","","",""
"2589",""," ","html-keyboard-response","151","3071003","0.0-13.0","","","",""
"66641","","{""P0_Q0"":""22"",""P0_Q1"":""남"",""P0_Q2"":""7"",""P0_Q3"":""없음"",""P0_Q4"":""프랑스어"",""P0_Q5"":""18살, 1년"",""P0_Q6"":""얼마 전 일본어 공부 시작함""}","survey","152","3137652","0.0-14.0","[]","","",""
"1483","<p style=""font-size:30px"",lang=""ko"">실험이 끝났습니다</p><p style=""font-size:30px"",lang=""ko"">참가해주셔서 고맙습니다</p>"," ","html-keyboard-response","153","3139135","0.0-15.0","","","",""
