"rt","stimulus","response","trial_type","trial_index","time_elapsed","internal_node_id","accuracy","PracticeTest","ConsonantSequence","Grammaticality"
"510394","<p style=""font-size:30px"",lang=""ko"">실험에 오신 것을 환영합니다</p><p lang=""ko"">스페이스바를 누르면 다음 페이지로 넘어갑니다</p>"," ","html-keyboard-response","0","510396","0.0-0.0","","","",""
"1458","<p style=""font-size:30px"",lang=""ko"">해드폰을 본인에게 잘 맞게 착용하세요</p><p lang=""ko"">스페이스바를 누르면 다음 페이지로 넘어갑니다</p>"," ","html-keyboard-response","1","511856","0.0-1.0","","","",""
"3592","<p style=""font-size:30px"",lang=""ko"">이 실험에서는 새로 만든 한국 단어를 들으실 겁니다</p><p style=""font-size:30px"",lang=""ko"">단어를 들리는대로 쓰세요. 그런 다음 그 단어가 한국어 단어로 가능한지 평가하세요</p><p lang=""ko"">스페이스바를 누르면 다음 페이지로 넘어갑니다</p>"," ","html-keyboard-response","2","515448","0.0-2.0","","","",""
"1305","<p style=""font-size:30px"",lang=""ko"">원래 있는 단어로 예를 들어 봅시다</p><p lang=""ko"">스페이스바를 누르면 다음 페이지로 넘어갑니다</p>"," ","html-keyboard-response","3","516753","0.0-3.0","","","",""
"3805","PracticeRecordings/kom_bear.wav","0","audio-button-response","4","520666","0.0-4.0","","","",""
"1567","<p style=""font-size:30px"",lang=""ko"">이제 직접 단어를 듣고 쓰는 연습을 해봅시다. </p><p style=""font-size:30px"",lang=""ko"">스페이스바를 누르면 다음 페이지로 넘어갑니다</p>"," ","html-keyboard-response","5","522234","0.0-5.0","","","",""
"3788","PracticeRecordings/kirin_giraffe.wav","0","audio-button-response","6","526108","0.0-6.0-0.0","","","",""
"7863","kirin_giraffe","{""P0_Q0"":""ㄱ,ㅣ,ㄹ,ㅣ,ㄴ""}","survey","7","534014","0.0-6.0-1.0","[]","practice","NA","TRUE"
"1961","<p style=""font-size:30px"",lang=""ko"">방금 들으신 단어는 ""ㄱ,ㅣ,ㄹ,ㅣ,ㄴ"" 이라고 쓰시면 됩니다</p><p lang=""ko"">스페이스바를 누르면 다음 페이지로 넘어갑니다</p>"," ","html-keyboard-response","8","535976","0.0-6.0-2.0","","","",""
"5884","PracticeRecordings/saca_lion.wav","0","audio-button-response","9","541934","0.0-6.0-0.1","","","",""
"4923","saca_lion","{""P0_Q0"":""ㅅ,ㅏ,ㅈ,ㅏ""}","survey","10","546867","0.0-6.0-1.1","[]","practice","NA","FALSE"
"1680","<p style=""font-size:30px"",lang=""ko"">방금 들으신 단어는 ""ㅅ,ㅏ,ㅈ,ㅏ"" 라고 쓰시면 됩니다</p><p lang=""ko"">스페이스바를 누르면 다음 페이지로 넘어갑니다</p>"," ","html-keyboard-response","11","548547","0.0-6.0-2.1","","","",""
"2501","PracticeRecordings/saseum_deer.wav","0","audio-button-response","12","551137","0.0-6.0-0.2","","","",""
"5583","saseum_deer","{""P0_Q0"":""ㅅ,ㅏ,ㅅ,ㅡ,ㅁ""}","survey","13","556727","0.0-6.0-1.2","[]","practice","NA","FALSE"
"1153","<p style=""font-size:30px"",lang=""ko"">방금 들으신 단어는 ""ㅅ,ㅏ,ㅅ,ㅡ,ㅁ""이라고 쓰시면 됩니다</p><p lang=""ko"">스페이스바를 누르면 다음 페이지로 넘어갑니다</p>"," ","html-keyboard-response","14","557881","0.0-6.0-2.2","","","",""
"1799","PracticeRecordings/thokki_rabbit.wav","0","audio-button-response","15","559766","0.0-6.0-0.3","","","",""
"5820","thokki_rabbit","{""P0_Q0"":""ㅌ,ㅗ,ㄲ,ㅣ""}","survey","16","565594","0.0-6.0-1.3","[]","practice","NA","FALSE"
"1105","<p style=""font-size:30px"",lang=""ko"">방금 들으신 단어는 ""ㅌ,ㅗ,ㄲ,ㅣ"" 라고 쓰시면 됩니다</p><p lang=""ko"">스페이스바를 누르면 다음 페이지로 넘어갑니다</p>"," ","html-keyboard-response","17","566700","0.0-6.0-2.3","","","",""
"744","<p style=""font-size:30px"",lang=""ko"">이제 만든 단어로 연습해봅시다.</p><p lang=""ko"">스페이스바를 누르면 다음 페이지로 넘어갑니다</p>"," ","html-keyboard-response","18","567444","0.0-7.0","","","",""
"3590","PracticeRecordings/snen.wav","0","audio-button-response","19","571114","0.0-8.0-0.0","","","",""
"6000","snen","{""P0_Q0"":""ㅅ,ㅡ,ㄴ,ㅔ,ㄴ""}","survey","20","577120","0.0-8.0-1.0","[]","practice","NA","TRUE"
"6017","<p style=""font-size:30px"",lang=""ko"">들으신 단어는 <br> ""ㅅ,ㅡ,ㄴ,ㅐ,ㄴ""  ""ㅅ,ㅡ,ㄴ,ㅐ"" ""ㅅ,ㄴ,ㅐ,ㄴ (""으"" 소리가 안 들리는 경우)"" 등 <br> 사람에 따라 다양하게 들릴 수 있습니다 <br> 본인에게 들리는대로 쓰시면 됩니다.</p><p lang=""ko"">스페이스바를 누르면 다음 페이지로 넘어갑니다</p>"," ","html-keyboard-response","21","583139","0.0-8.0-2.0","","","",""
"2085","PracticeRecordings/phrak.wav","0","audio-button-response","22","585308","0.0-8.0-0.1","","","",""
"5227","phrak","{""P0_Q0"":""ㅍ,ㅡ,ㄹ,ㅏ,ㄱ""}","survey","23","590542","0.0-8.0-1.1","[]","practice","NA","FALSE"
"2676","<p style=""font-size:30px"",lang=""ko"">들으신 단어는 <br> ""ㅍ,ㅡ,ㄹ,ㅏ,ㄱ"" ""ㅍ,ㅡ,ㄹ,ㅏ,ㅅ"" ""ㅋ,ㅡ,ㄹ,ㅏ,ㄱ"" ""ㅍ,ㄹ,ㅏ,ㄱ (""으"" 소리가 안 들리는 경우)"" 등 <br> 사람에 따라 다양하게 들릴 수 있습니다 <br> 본인에게 들리는대로 쓰시면 됩니다.</p><p lang=""ko"">스페이스바를 누르면 다음 페이지로 넘어갑니다</p>"," ","html-keyboard-response","24","593219","0.0-8.0-2.1","","","",""
"4171","PracticeRecordings/chka.wav","0","audio-button-response","25","597474","0.0-8.0-0.2","","","",""
"4341","chka","{""P0_Q0"":""ㅊ,ㅡ,ㄱ,ㅏ""}","survey","26","601823","0.0-8.0-1.2","[]","practice","NA","FALSE"
"3561","<p style=""font-size:30px"",lang=""ko"">들으신 단어는 ""ㅊ,ㅣ,ㄱ,ㅏ"", ""ㅊ,ㅡ,ㄱ,ㅏ"", ""ㅊ,ㄱ,ㅏ"", ""ㅊ,ㅟ,ㄱ,ㅏ"" 등 <br> 사람에 따라 다양하게 들릴 수 있습니다. <br> 본인에게 들리는대로 쓰시면 됩니다.</p><p lang=""ko"">스페이스바를 누르면 다음 페이지로 넘어갑니다</p>"," ","html-keyboard-response","27","605385","0.0-8.0-2.2","","","",""
"2501",""," ","html-keyboard-response","28","607887","0.0-9.0","","","",""
"3617","<p style=""font-size:30px"",lang=""ko"">이제 실험을 시작하겠습니다.</p><p style=""font-size:30px"",lang=""ko"">실전에서는 각각의 만든 단어를 한 번씩만 들을 수 있습니다.</p>"," ","html-keyboard-response","29","611504","0.0-10.0","","","",""
"6024","<p style=""font-size:30px"",lang=""ko"">단어를 풀어 쓰신 후에 그 단어가 한국어로 가능한 단어인지 평가해주세요</p><p style=""font-size:30px"",lang=""ko"">1점은 한국어로 완전 불가능한 단어, 7점은 한국어로 완전 가능한 단어를 의미합니다</p><p lang=""ko"">스페이스바를 누르면 다음 페이지로 넘어갑니다</p>"," ","html-keyboard-response","30","617529","0.0-11.0","","","",""
"2311","TestRecordings/takhut.wav","0","audio-button-response","31","619928","0.0-12.0-0.0","","","",""
"10431","","{""P0_Q0"":""ㄷ,ㅏ,ㅋ,ㅜ,ㅅ"",""P0_Q1"":6}","survey","32","630375","0.0-12.0-1.0","[]","","",""
"1902","TestRecordings/kwat.wav","0","audio-button-response","33","632356","0.0-12.0-0.1","","","",""
"13843","","{""P0_Q0"":""ㄱ,ㅘ,ㅅ"",""P0_Q1"":6}","survey","34","646208","0.0-12.0-1.1","[]","","",""
"3445","TestRecordings/cwiphing.wav","0","audio-button-response","35","649739","0.0-12.0-0.2","","","",""
"7869","","{""P0_Q0"":""ㅈ,ㅟ,ㅍ,ㅣ,ㅇ"",""P0_Q1"":6}","survey","36","657617","0.0-12.0-1.2","[]","","",""
"1891","TestRecordings/phmut.wav","0","audio-button-response","37","659594","0.0-12.0-0.3","","","",""
"9743","","{""P0_Q0"":""ㅍ,ㅡ,ㅁ,ㅜ,ㅅ"",""P0_Q1"":5}","survey","38","669345","0.0-12.0-1.3","[]","","",""
"2115","TestRecordings/siphuk.wav","0","audio-button-response","39","671484","0.0-12.0-0.4","","","",""
"9382","","{""P0_Q0"":""ㅅ,ㅣ,ㅍ,ㅜ,ㄱ"",""P0_Q1"":6}","survey","40","680874","0.0-12.0-1.4","[]","","",""
"1861","TestRecordings/pathik.wav","0","audio-button-response","41","682820","0.0-12.0-0.5","","","",""
"5857","","{""P0_Q0"":""ㅂ,ㅏ,ㅌ,ㅣ,ㄱ"",""P0_Q1"":7}","survey","42","688684","0.0-12.0-1.5","[]","","",""
"2651","TestRecordings/pmathin.wav","0","audio-button-response","43","691421","0.0-12.0-0.6","","","",""
"9769","","{""P0_Q0"":""ㅍ,ㅡ,ㅁ,ㅏ,ㅌ,ㅣ,ㄱ"",""P0_Q1"":5}","survey","44","701198","0.0-12.0-1.6","[]","","",""
"1444","TestRecordings/nucok.wav","0","audio-button-response","45","702726","0.0-12.0-0.7","","","",""
"6940","","{""P0_Q0"":""ㄴ,ㅜ,ㅈ,ㅗ,ㄱ"",""P0_Q1"":7}","survey","46","709674","0.0-12.0-1.7","[]","","",""
"3482","TestRecordings/mphithup.wav","0","audio-button-response","47","713180","0.0-12.0-0.8","","","",""
"11902","","{""P0_Q0"":""ㅇ,ㅡ,ㅁ,ㅍ,ㅣ,ㅌ,ㅜ"",""P0_Q1"":4}","survey","48","725090","0.0-12.0-1.8","[]","","",""
"1983","TestRecordings/khun.wav","0","audio-button-response","49","727154","0.0-12.0-0.9","","","",""
"4570","","{""P0_Q0"":""ㅋ,ㅜ,ㄴ"",""P0_Q1"":7}","survey","50","731730","0.0-12.0-1.9","[]","","",""
"1906","TestRecordings/pwacung.wav","0","audio-button-response","51","733721","0.0-12.0-0.10","","","",""
"8012","","{""P0_Q0"":""ㅂ,ㅗ,ㅏ,ㅈ,ㅜ,ㅇ"",""P0_Q1"":6}","survey","52","741741","0.0-12.0-1.10","[]","","",""
"2107","TestRecordings/nchitam.wav","0","audio-button-response","53","743935","0.0-12.0-0.11","","","",""
"10448","","{""P0_Q0"":""ㅇ,ㅡ,ㅁ,ㅊ,ㅣ,ㄷ,ㅏ,ㅁ"",""P0_Q1"":4}","survey","54","754390","0.0-12.0-1.11","[]","","",""
"1637","TestRecordings/swicit.wav","0","audio-button-response","55","756110","0.0-12.0-0.12","","","",""
"10628","","{""P0_Q0"":""ㅅ,ㅟ,ㅈ,ㅣ,ㅅ"",""P0_Q1"":7}","survey","56","766746","0.0-12.0-1.12","[]","","",""
"1298","TestRecordings/niphak.wav","0","audio-button-response","57","768128","0.0-12.0-0.13","","","",""
"8845","","{""P0_Q0"":""ㄴ,ㅣ,ㅍ,ㅏ,ㄱ"",""P0_Q1"":7}","survey","58","776981","0.0-12.0-1.13","[]","","",""
"1621","TestRecordings/phmacot.wav","0","audio-button-response","59","778641","0.0-12.0-0.14","","","",""
"24280","","{""P0_Q0"":""ㅍ,ㅡ,ㅁ,ㅏ,ㅈ,ㅗ,ㄴ"",""P0_Q1"":6}","survey","60","802929","0.0-12.0-1.14","[]","","",""
"1763","TestRecordings/khmoting.wav","0","audio-button-response","61","804778","0.0-12.0-0.15","","","",""
"8827","","{""P0_Q0"":""ㅋ,ㅡ,ㅁ,ㅗ,ㄷ,ㅣ,ㅇ"",""P0_Q1"":7}","survey","62","813611","0.0-12.0-1.15","[]","","",""
"1038","TestRecordings/khmip.wav","0","audio-button-response","63","814735","0.0-12.0-0.16","","","",""
"7789","","{""P0_Q0"":""ㅋ,ㅡ,ㅁ,ㅣ,ㅂ"",""P0_Q1"":6}","survey","64","822530","0.0-12.0-1.16","[]","","",""
"1439","TestRecordings/knothing.wav","0","audio-button-response","65","824055","0.0-12.0-0.17","","","",""
"9373","","{""P0_Q0"":""ㅋ,ㅡ,ㄴ,ㅗ,ㅌ,ㅣ,ㅇ"",""P0_Q1"":7}","survey","66","833435","0.0-12.0-1.17","[]","","",""
"1177","TestRecordings/mip.wav","0","audio-button-response","67","834696","0.0-12.0-0.18","","","",""
"5013","","{""P0_Q0"":""ㅁ,ㅣ,ㅂ"",""P0_Q1"":7}","survey","68","839715","0.0-12.0-1.18","[]","","",""
"2331","TestRecordings/nthochap.wav","0","audio-button-response","69","842133","0.0-12.0-0.19","","","",""
"11738","","{""P0_Q0"":""ㅇ,ㅡ,ㅁ,ㅌ,ㅗ,ㅊ,ㅏ,ㅂ"",""P0_Q1"":3}","survey","70","853878","0.0-12.0-1.19","[]","","",""
"1816","TestRecordings/sutik.wav","0","audio-button-response","71","855776","0.0-12.0-0.20","","","",""
"8205","","{""P0_Q0"":""ㅅ,ㅜ,ㄷ,ㅣ,ㄱ"",""P0_Q1"":6}","survey","72","863988","0.0-12.0-1.20","[]","","",""
"1372","TestRecordings/nchat.wav","0","audio-button-response","73","865384","0.0-12.0-0.21","","","",""
"8604","","{""P0_Q0"":""ㅇ,ㅡ,ㅁ,ㅊ,ㅏ,ㅅ"",""P0_Q1"":4}","survey","74","873996","0.0-12.0-1.21","[]","","",""
"1319","TestRecordings/masuk.wav","0","audio-button-response","75","875400","0.0-12.0-0.22","","","",""
"6333","","{""P0_Q0"":""ㅁ,ㅏ,ㅅ,ㅜ,ㄱ"",""P0_Q1"":6}","survey","76","881740","0.0-12.0-1.22","[]","","",""
"1045","TestRecordings/chut.wav","0","audio-button-response","77","882870","0.0-12.0-0.23","","","",""
"7025","","{""P0_Q0"":""ㅊ,ㅜ,ㅅ"",""P0_Q1"":7}","survey","78","889902","0.0-12.0-1.23","[]","","",""
"1254","TestRecordings/thnakop.wav","0","audio-button-response","79","891241","0.0-12.0-0.24","","","",""
"13733","","{""P0_Q0"":""ㅋ,ㅡ,ㄴ,ㅏ,ㄱ,ㅗ,ㄱ"",""P0_Q1"":6}","survey","80","904981","0.0-12.0-1.24","[]","","",""
"1313","TestRecordings/nthunit.wav","0","audio-button-response","81","906379","0.0-12.0-0.25","","","",""
"10970","","{""P0_Q0"":""ㅇ,ㅡ,ㅁ,ㅌ,ㅜ,ㄴ,ㅣ,ㅅ"",""P0_Q1"":3}","survey","82","917357","0.0-12.0-1.25","[]","","",""
"1543","TestRecordings/mciphom.wav","0","audio-button-response","83","918985","0.0-12.0-0.26","","","",""
"13430","","{""P0_Q0"":""ㅇ,ㅡ,ㅁ,ㅈ,ㅣ,ㅍ,ㅗ,ㅁ"",""P0_Q1"":3}","survey","84","932423","0.0-12.0-1.26","[]","","",""
"1562","TestRecordings/nthiton.wav","0","audio-button-response","85","934071","0.0-12.0-0.27","","","",""
"9065","","{""P0_Q0"":""ㅇ,ㅡ,ㅁ,ㅌ,ㅣ,ㄷ,ㅗ,ㄴ"",""P0_Q1"":4}","survey","86","943142","0.0-12.0-1.27","[]","","",""
"1242","TestRecordings/mkithun.wav","0","audio-button-response","87","944469","0.0-12.0-0.28","","","",""
"13603","","{""P0_Q0"":""ㅇ,ㅡ,ㅁ,ㄱ,ㅣ,ㅌ,ㅜ,ㄴ"",""P0_Q1"":4}","survey","88","958079","0.0-12.0-1.28","[]","","",""
"1415","TestRecordings/swapong.wav","0","audio-button-response","89","959580","0.0-12.0-0.29","","","",""
"7837","","{""P0_Q0"":""ㅅ,ㅘ,ㅂ,ㅗ,ㅇ"",""P0_Q1"":7}","survey","90","967423","0.0-12.0-1.29","[]","","",""
"2037","TestRecordings/phwim.wav","0","audio-button-response","91","969545","0.0-12.0-0.30","","","",""
"5362","","{""P0_Q0"":""ㅍ,ㅟ,ㅁ"",""P0_Q1"":6}","survey","92","974916","0.0-12.0-1.30","[]","","",""
"1144","TestRecordings/phuthik.wav","0","audio-button-response","93","976147","0.0-12.0-0.31","","","",""
"5869","","{""P0_Q0"":""ㅍ,ㅜ,ㅌ,ㅣ,ㄱ"",""P0_Q1"":7}","survey","94","982024","0.0-12.0-1.31","[]","","",""
"1170","TestRecordings/nchup.wav","0","audio-button-response","95","983278","0.0-12.0-0.32","","","",""
"6475","","{""P0_Q0"":""ㅇ,ㅡ,ㅁ,ㅊ,ㅜ,ㅅ"",""P0_Q1"":3}","survey","96","989759","0.0-12.0-1.32","[]","","",""
"1325","TestRecordings/khnacin.wav","0","audio-button-response","97","991170","0.0-12.0-0.33","","","",""
"7261","","{""P0_Q0"":""ㅋ,ㅡ,ㄴ,ㅏ,ㅈ,ㅣ,ㄴ"",""P0_Q1"":7}","survey","98","998438","0.0-12.0-1.33","[]","","",""
"1046","TestRecordings/thum.wav","0","audio-button-response","99","999570","0.0-12.0-0.34","","","",""
"5223","","{""P0_Q0"":""ㅌ,ㅜ,ㅁ"",""P0_Q1"":7}","survey","100","1004800","0.0-12.0-1.34","[]","","",""
"1269","TestRecordings/npokit.wav","0","audio-button-response","101","1006155","0.0-12.0-0.35","","","",""
"7327","","{""P0_Q0"":""ㅇ,ㅡ,ㅁ,ㅂ,ㅗ,ㄱ,ㅣ,ㅅ"",""P0_Q1"":3}","survey","102","1013489","0.0-12.0-1.35","[]","","",""
"1155","TestRecordings/ntosin.wav","0","audio-button-response","103","1014730","0.0-12.0-0.36","","","",""
"12053","","{""P0_Q0"":""ㅇ,ㅡ,ㅁ,ㄷ,ㅗ,ㅅ,ㅣ,ㄴ"",""P0_Q1"":4}","survey","104","1026791","0.0-12.0-1.36","[]","","",""
"1249","TestRecordings/twikhit.wav","0","audio-button-response","105","1028123","0.0-12.0-0.37","","","",""
"8549","","{""P0_Q0"":""ㄷ,ㅟ,ㅋ,ㅣ,ㅅ"",""P0_Q1"":6}","survey","106","1036678","0.0-12.0-1.37","[]","","",""
"1634","TestRecordings/pmuk.wav","0","audio-button-response","107","1038397","0.0-12.0-0.38","","","",""
"5478","","{""P0_Q0"":""ㅁ,ㅜ,ㄱ"",""P0_Q1"":5}","survey","108","1043882","0.0-12.0-1.38","[]","","",""
"1298","TestRecordings/khonik.wav","0","audio-button-response","109","1045264","0.0-12.0-0.39","","","",""
"11391","","{""P0_Q0"":""ㅋ,ㅗ,ㄴ,ㅣ,ㄱ"",""P0_Q1"":5}","survey","110","1056661","0.0-12.0-1.39","[]","","",""
"1085","TestRecordings/ncuk.wav","0","audio-button-response","111","1057830","0.0-12.0-0.40","","","",""
"6861","","{""P0_Q0"":""ㅇ,ㅡ,ㅁ,ㅈ,ㅜ,ㄱ"",""P0_Q1"":4}","survey","112","1064699","0.0-12.0-1.40","[]","","",""
"1329","TestRecordings/chwakap.wav","0","audio-button-response","113","1066112","0.0-12.0-0.41","","","",""
"8762","","{""P0_Q0"":""ㅊ,ㅘ,ㄱ,ㅏ,ㅂ"",""P0_Q1"":6}","survey","114","1074881","0.0-12.0-1.41","[]","","",""
"1127","TestRecordings/mtak.wav","0","audio-button-response","115","1076094","0.0-12.0-0.42","","","",""
"7988","","{""P0_Q0"":""ㅇ,ㅡ,ㅁ,ㄷ,ㅏ,ㄱ"",""P0_Q1"":4}","survey","116","1084088","0.0-12.0-1.42","[]","","",""
"1283","TestRecordings/kophak.wav","0","audio-button-response","117","1085394","0.0-12.0-0.43","","","",""
"7342","","{""P0_Q0"":""ㄱ,ㅗ,ㅍ,ㅏ,ㄱ"",""P0_Q1"":7}","survey","118","1092743","0.0-12.0-1.43","[]","","",""
"1347","TestRecordings/chwap.wav","0","audio-button-response","119","1094174","0.0-12.0-0.44","","","",""
"4858","","{""P0_Q0"":""ㅊ,ㅘ,ㅂ"",""P0_Q1"":7}","survey","120","1099040","0.0-12.0-1.44","[]","","",""
"1283","TestRecordings/cwang.wav","0","audio-button-response","121","1100410","0.0-12.0-0.45","","","",""
"4220","","{""P0_Q0"":""ㅈ,ㅘ,ㅇ"",""P0_Q1"":7}","survey","122","1104637","0.0-12.0-1.45","[]","","",""
"1244","TestRecordings/mtunak.wav","0","audio-button-response","123","1105967","0.0-12.0-0.46","","","",""
"7943","","{""P0_Q0"":""ㅇ,ㅡ,ㅁ,ㄷ,ㅜ,ㄴ,ㅏ,ㄱ"",""P0_Q1"":4}","survey","124","1113917","0.0-12.0-1.46","[]","","",""
"1070","TestRecordings/knop.wav","0","audio-button-response","125","1115071","0.0-12.0-0.47","","","",""
"5252","","{""P0_Q0"":""ㅋ,ㅡ,ㄴ,ㅗ,ㅂ"",""P0_Q1"":6}","survey","126","1120330","0.0-12.0-1.47","[]","","",""
"1216","TestRecordings/pmisung.wav","0","audio-button-response","127","1121621","0.0-12.0-0.48","","","",""
"6318","","{""P0_Q0"":""ㅁ,ㅣ,ㅅ,ㅜ,ㅇ"",""P0_Q1"":7}","survey","128","1127947","0.0-12.0-1.48","[]","","",""
"1584","TestRecordings/phwing.wav","0","audio-button-response","129","1129617","0.0-12.0-0.49","","","",""
"5781","","{""P0_Q0"":""ㅍ,ㅟ,ㅇ"",""P0_Q1"":7}","survey","130","1135404","0.0-12.0-1.49","[]","","",""
"1222","TestRecordings/khwapan.wav","0","audio-button-response","131","1136653","0.0-12.0-0.50","","","",""
"5642","","{""P0_Q0"":""ㅋ,ㅘ,ㅂ,ㅏ,ㄴ"",""P0_Q1"":7}","survey","132","1142302","0.0-12.0-1.50","[]","","",""
"3636","TestRecordings/khnichat.wav","0","audio-button-response","133","1146024","0.0-12.0-0.51","","","",""
"9885","","{""P0_Q0"":""ㅋ,ㅡ,ㄴ,ㅣ,ㅊ,ㅏ,ㅅ"",""P0_Q1"":7}","survey","134","1155916","0.0-12.0-1.51","[]","","",""
"1471","TestRecordings/swakhing.wav","0","audio-button-response","135","1157472","0.0-12.0-0.52","","","",""
"6171","","{""P0_Q0"":""ㅅ,ㅘ,ㅋ,ㅣ,ㅇ"",""P0_Q1"":7}","survey","136","1163650","0.0-12.0-1.52","[]","","",""
"1445","TestRecordings/phninot.wav","0","audio-button-response","137","1165180","0.0-12.0-0.53","","","",""
"10265","","{""P0_Q0"":""ㅍ,ㅡ,ㄴ,ㅣ,ㄴ,ㅗ,ㅅ"",""P0_Q1"":7}","survey","138","1175451","0.0-12.0-1.53","[]","","",""
"1375","TestRecordings/thnukip.wav","0","audio-button-response","139","1176913","0.0-12.0-0.54","","","",""
"7435","","{""P0_Q0"":""ㅌ,ㅡ,ㄴ,ㅜ,ㄱ,ㅣ,ㅂ"",""P0_Q1"":6}","survey","140","1184354","0.0-12.0-1.54","[]","","",""
"1251","TestRecordings/cmot.wav","0","audio-button-response","141","1185691","0.0-12.0-0.55","","","",""
"5241","","{""P0_Q0"":""ㅅ,ㅡ,ㅁ,ㅗ,ㅅ"",""P0_Q1"":7}","survey","142","1190938","0.0-12.0-1.55","[]","","",""
"1121","TestRecordings/cut.wav","0","audio-button-response","143","1192143","0.0-12.0-0.56","","","",""
"9644","","{""P0_Q0"":""ㅈ,ㅜ,ㅅ"",""P0_Q1"":6}","survey","144","1201794","0.0-12.0-1.56","[]","","",""
"1279","TestRecordings/thwicap.wav","0","audio-button-response","145","1203131","0.0-12.0-0.57","","","",""
"8545","","{""P0_Q0"":""ㅌ,ㅟ,ㅈ,ㅏ,ㅂ"",""P0_Q1"":7}","survey","146","1211683","0.0-12.0-1.57","[]","","",""
"1207","TestRecordings/cwasop.wav","0","audio-button-response","147","1212975","0.0-12.0-0.58","","","",""
"6791","","{""P0_Q0"":""ㅈ,ㅘ,ㅅ,ㅗ,ㅂ"",""P0_Q1"":7}","survey","148","1219773","0.0-12.0-1.58","[]","","",""
"986","TestRecordings/nchak.wav","0","audio-button-response","149","1220843","0.0-12.0-0.59","","","",""
"6851","","{""P0_Q0"":""ㅇ,ㅡ,ㅁ,ㅊ,ㅏ,ㄱ"",""P0_Q1"":4}","survey","150","1227701","0.0-12.0-1.59","[]","","",""
"2556",""," ","html-keyboard-response","151","1230258","0.0-13.0","","","",""
"100611","","{""P0_Q0"":""21"",""P0_Q1"":""여자"",""P0_Q2"":""8살"",""P0_Q3"":""없습니다"",""P0_Q4"":""일본어"",""P0_Q5"":""18살, 1년"",""P0_Q6"":""올해 인도네시아에서 현지인들과 한 달 동안 함께 프로젝트 진행한 경험 존재""}","survey","152","1330878","0.0-14.0","[]","","",""
"17447","<p style=""font-size:30px"",lang=""ko"">실험이 끝났습니다</p><p style=""font-size:30px"",lang=""ko"">참가해주셔서 고맙습니다</p>"," ","html-keyboard-response","153","1348326","0.0-15.0","","","",""
