"rt","stimulus","response","trial_type","trial_index","time_elapsed","internal_node_id","accuracy","PracticeTest","ConsonantSequence","Grammaticality"
"656915","<p style=""font-size:30px"",lang=""ko"">실험에 오신 것을 환영합니다</p><p lang=""ko"">스페이스바를 누르면 다음 페이지로 넘어갑니다</p>"," ","html-keyboard-response","0","656917","0.0-0.0","","","",""
"3357","<p style=""font-size:30px"",lang=""ko"">해드폰을 본인에게 잘 맞게 착용하세요</p><p lang=""ko"">스페이스바를 누르면 다음 페이지로 넘어갑니다</p>"," ","html-keyboard-response","1","660274","0.0-1.0","","","",""
"5362","<p style=""font-size:30px"",lang=""ko"">이 실험에서는 새로 만든 한국 단어를 들으실 겁니다</p><p style=""font-size:30px"",lang=""ko"">단어를 들리는대로 쓰세요. 그런 다음 그 단어가 한국어 단어로 가능한지 평가하세요</p><p lang=""ko"">스페이스바를 누르면 다음 페이지로 넘어갑니다</p>"," ","html-keyboard-response","2","665637","0.0-2.0","","","",""
"2018","<p style=""font-size:30px"",lang=""ko"">원래 있는 단어로 예를 들어 봅시다</p><p lang=""ko"">스페이스바를 누르면 다음 페이지로 넘어갑니다</p>"," ","html-keyboard-response","3","667656","0.0-3.0","","","",""
"4677","PracticeRecordings/kom_bear.wav","0","audio-button-response","4","672366","0.0-4.0","","","",""
"4127","<p style=""font-size:30px"",lang=""ko"">이제 직접 단어를 듣고 쓰는 연습을 해봅시다. </p><p style=""font-size:30px"",lang=""ko"">스페이스바를 누르면 다음 페이지로 넘어갑니다</p>"," ","html-keyboard-response","5","676494","0.0-5.0","","","",""
"4562","PracticeRecordings/kirin_giraffe.wav","0","audio-button-response","6","681077","0.0-6.0-0.0","","","",""
"7956","kirin_giraffe","{""P0_Q0"":""ㄱ,ㅣ,ㄹ,ㅣ,ㄴ""}","survey","7","689078","0.0-6.0-1.0","[]","practice","NA","TRUE"
"3000","<p style=""font-size:30px"",lang=""ko"">방금 들으신 단어는 ""ㄱ,ㅣ,ㄹ,ㅣ,ㄴ"" 이라고 쓰시면 됩니다</p><p lang=""ko"">스페이스바를 누르면 다음 페이지로 넘어갑니다</p>"," ","html-keyboard-response","8","692079","0.0-6.0-2.0","","","",""
"3081","PracticeRecordings/saca_lion.wav","0","audio-button-response","9","695182","0.0-6.0-0.1","","","",""
"5481","saca_lion","{""P0_Q0"":""ㅅ,ㅏ,ㅈ,ㅏ""}","survey","10","700673","0.0-6.0-1.1","[]","practice","NA","FALSE"
"2160","<p style=""font-size:30px"",lang=""ko"">방금 들으신 단어는 ""ㅅ,ㅏ,ㅈ,ㅏ"" 라고 쓰시면 됩니다</p><p lang=""ko"">스페이스바를 누르면 다음 페이지로 넘어갑니다</p>"," ","html-keyboard-response","11","702834","0.0-6.0-2.1","","","",""
"2584","PracticeRecordings/saseum_deer.wav","0","audio-button-response","12","705440","0.0-6.0-0.2","","","",""
"5831","saseum_deer","{""P0_Q0"":""ㅅ,ㅏ,ㅅ,ㅡ,ㅁ""}","survey","13","711281","0.0-6.0-1.2","[]","practice","NA","FALSE"
"1835","<p style=""font-size:30px"",lang=""ko"">방금 들으신 단어는 ""ㅅ,ㅏ,ㅅ,ㅡ,ㅁ""이라고 쓰시면 됩니다</p><p lang=""ko"">스페이스바를 누르면 다음 페이지로 넘어갑니다</p>"," ","html-keyboard-response","14","713117","0.0-6.0-2.2","","","",""
"2048","PracticeRecordings/thokki_rabbit.wav","0","audio-button-response","15","715188","0.0-6.0-0.3","","","",""
"5991","thokki_rabbit","{""P0_Q0"":""ㅌ,ㅗ,ㄲ,ㅣ""}","survey","16","721187","0.0-6.0-1.3","[]","practice","NA","FALSE"
"1732","<p style=""font-size:30px"",lang=""ko"">방금 들으신 단어는 ""ㅌ,ㅗ,ㄲ,ㅣ"" 라고 쓰시면 됩니다</p><p lang=""ko"">스페이스바를 누르면 다음 페이지로 넘어갑니다</p>"," ","html-keyboard-response","17","722919","0.0-6.0-2.3","","","",""
"2248","<p style=""font-size:30px"",lang=""ko"">이제 만든 단어로 연습해봅시다.</p><p lang=""ko"">스페이스바를 누르면 다음 페이지로 넘어갑니다</p>"," ","html-keyboard-response","18","725168","0.0-7.0","","","",""
"4009","PracticeRecordings/snen.wav","0","audio-button-response","19","729198","0.0-8.0-0.0","","","",""
"8835","snen","{""P0_Q0"":""ㅅ,ㅡ,ㄴ,ㅐ,ㄴ""}","survey","20","738042","0.0-8.0-1.0","[]","practice","NA","TRUE"
"7532","<p style=""font-size:30px"",lang=""ko"">들으신 단어는 <br> ""ㅅ,ㅡ,ㄴ,ㅐ,ㄴ""  ""ㅅ,ㅡ,ㄴ,ㅐ"" ""ㅅ,ㄴ,ㅐ,ㄴ (""으"" 소리가 안 들리는 경우)"" 등 <br> 사람에 따라 다양하게 들릴 수 있습니다 <br> 본인에게 들리는대로 쓰시면 됩니다.</p><p lang=""ko"">스페이스바를 누르면 다음 페이지로 넘어갑니다</p>"," ","html-keyboard-response","21","745575","0.0-8.0-2.0","","","",""
"2416","PracticeRecordings/phrak.wav","0","audio-button-response","22","748013","0.0-8.0-0.1","","","",""
"6438","phrak","{""P0_Q0"":""ㅍ,ㅡ,ㄹ,ㅏ,ㄱ""}","survey","23","754458","0.0-8.0-1.1","[]","practice","NA","FALSE"
"3754","<p style=""font-size:30px"",lang=""ko"">들으신 단어는 <br> ""ㅍ,ㅡ,ㄹ,ㅏ,ㄱ"" ""ㅍ,ㅡ,ㄹ,ㅏ,ㅅ"" ""ㅋ,ㅡ,ㄹ,ㅏ,ㄱ"" ""ㅍ,ㄹ,ㅏ,ㄱ (""으"" 소리가 안 들리는 경우)"" 등 <br> 사람에 따라 다양하게 들릴 수 있습니다 <br> 본인에게 들리는대로 쓰시면 됩니다.</p><p lang=""ko"">스페이스바를 누르면 다음 페이지로 넘어갑니다</p>"," ","html-keyboard-response","24","758212","0.0-8.0-2.1","","","",""
"3817","PracticeRecordings/chka.wav","0","audio-button-response","25","762049","0.0-8.0-0.2","","","",""
"6170","chka","{""P0_Q0"":""ㅅ,ㅊ,ㅡ,ㄱ,ㅏ""}","survey","26","768226","0.0-8.0-1.2","[]","practice","NA","FALSE"
"2948","<p style=""font-size:30px"",lang=""ko"">들으신 단어는 ""ㅊ,ㅣ,ㄱ,ㅏ"", ""ㅊ,ㅡ,ㄱ,ㅏ"", ""ㅊ,ㄱ,ㅏ"", ""ㅊ,ㅟ,ㄱ,ㅏ"" 등 <br> 사람에 따라 다양하게 들릴 수 있습니다. <br> 본인에게 들리는대로 쓰시면 됩니다.</p><p lang=""ko"">스페이스바를 누르면 다음 페이지로 넘어갑니다</p>"," ","html-keyboard-response","27","771174","0.0-8.0-2.2","","","",""
"2929",""," ","html-keyboard-response","28","774104","0.0-9.0","","","",""
"4232","<p style=""font-size:30px"",lang=""ko"">이제 실험을 시작하겠습니다.</p><p style=""font-size:30px"",lang=""ko"">실전에서는 각각의 만든 단어를 한 번씩만 들을 수 있습니다.</p>"," ","html-keyboard-response","29","778336","0.0-10.0","","","",""
"9941","<p style=""font-size:30px"",lang=""ko"">단어를 풀어 쓰신 후에 그 단어가 한국어로 가능한 단어인지 평가해주세요</p><p style=""font-size:30px"",lang=""ko"">1점은 한국어로 완전 불가능한 단어, 7점은 한국어로 완전 가능한 단어를 의미합니다</p><p lang=""ko"">스페이스바를 누르면 다음 페이지로 넘어갑니다</p>"," ","html-keyboard-response","30","788278","0.0-11.0","","","",""
"3837","TestRecordings/mphithup.wav","0","audio-button-response","31","792136","0.0-12.0-0.0","","","",""
"18728","","{""P0_Q0"":""ㅇ,ㅡ,ㅁ,ㅍ,ㅣ,ㅌ,ㅜㅂ"",""P0_Q1"":3}","survey","32","810879","0.0-12.0-1.0","[]","","",""
"3896","TestRecordings/phwim.wav","0","audio-button-response","33","814798","0.0-12.0-0.1","","","",""
"6460","","{""P0_Q0"":""ㅍ,ㅣ,ㅁ"",""P0_Q1"":7}","survey","34","821269","0.0-12.0-1.1","[]","","",""
"3329","TestRecordings/cmot.wav","0","audio-button-response","35","824619","0.0-12.0-0.2","","","",""
"12927","","{""P0_Q0"":""ㅈ,ㅣ,ㅁ,ㅗ,ㅅ"",""P0_Q1"":3}","survey","36","837555","0.0-12.0-1.2","[]","","",""
"3830","TestRecordings/khmoting.wav","0","audio-button-response","37","841409","0.0-12.0-0.3","","","",""
"12460","","{""P0_Q0"":""ㅋ,ㅡ,ㄴ,ㅗ,ㄷ,ㅣ,ㅇ"",""P0_Q1"":4}","survey","38","853876","0.0-12.0-1.3","[]","","",""
"5308","TestRecordings/nchitam.wav","0","audio-button-response","39","859207","0.0-12.0-0.4","","","",""
"15237","","{""P0_Q0"":""ㅇ,ㅣ,ㅊ,ㅡ,ㄷ,ㅏ,ㅁ"",""P0_Q1"":3}","survey","40","874451","0.0-12.0-1.4","[]","","",""
"5808","TestRecordings/nchak.wav","0","audio-button-response","41","880282","0.0-12.0-0.5","","","",""
"10396","","{""P0_Q0"":""ㅇ,ㅡ,ㅁ,ㅊ,ㅏ,ㄱ"",""P0_Q1"":4}","survey","42","890685","0.0-12.0-1.5","[]","","",""
"4159","TestRecordings/ntosin.wav","0","audio-button-response","43","894866","0.0-12.0-0.6","","","",""
"16125","","{""P0_Q0"":""ㅇ,ㅡ,ㄴ,ㄷ,ㅜ,ㅅ,ㅣㄴ"",""P0_Q1"":4}","survey","44","910998","0.0-12.0-1.6","[]","","",""
"2638","TestRecordings/niphak.wav","0","audio-button-response","45","913659","0.0-12.0-0.7","","","",""
"15655","","{""P0_Q0"":""ㄴ,ㅣ,ㅍ,ㅏ,ㄱ"",""P0_Q1"":4}","survey","46","929321","0.0-12.0-1.7","[]","","",""
"3080","TestRecordings/siphuk.wav","0","audio-button-response","47","932425","0.0-12.0-0.8","","","",""
"8494","","{""P0_Q0"":""ㅅ,ㅣ,ㅍ,ㅜ,ㄱ"",""P0_Q1"":3}","survey","48","940926","0.0-12.0-1.8","[]","","",""
"2687","TestRecordings/khonik.wav","0","audio-button-response","49","943635","0.0-12.0-0.9","","","",""
"9846","","{""P0_Q0"":""ㅋ,ㅗ,ㄴ,ㅣ,ㄱ"",""P0_Q1"":4}","survey","50","953490","0.0-12.0-1.9","[]","","",""
"2857","TestRecordings/khun.wav","0","audio-button-response","51","956367","0.0-12.0-0.10","","","",""
"4806","","{""P0_Q0"":""ㅋ,ㅜ,ㄴ"",""P0_Q1"":5}","survey","52","961180","0.0-12.0-1.10","[]","","",""
"3327","TestRecordings/mtunak.wav","0","audio-button-response","53","964529","0.0-12.0-0.11","","","",""
"12753","","{""P0_Q0"":""ㅇ,ㅡ,ㅁ,ㄷ,ㅜ,ㄴ,ㅏ,ㄱ"",""P0_Q1"":3}","survey","54","977289","0.0-12.0-1.11","[]","","",""
"2692","TestRecordings/khnacin.wav","0","audio-button-response","55","980001","0.0-12.0-0.12","","","",""
"11421","","{""P0_Q0"":""ㅋ,ㅡ,ㄴ,ㅏ,ㅈ,ㅣ,ㄴ"",""P0_Q1"":4}","survey","56","991429","0.0-12.0-1.12","[]","","",""
"3108","TestRecordings/mciphom.wav","0","audio-button-response","57","994563","0.0-12.0-0.13","","","",""
"11036","","{""P0_Q0"":""ㅇ,ㅡ,ㅁ,ㅈ,ㅣ,ㅍ,ㅗ,ㅁ"",""P0_Q1"":3}","survey","58","1005608","0.0-12.0-1.13","[]","","",""
"2113","TestRecordings/sutik.wav","0","audio-button-response","59","1007740","0.0-12.0-0.14","","","",""
"8176","","{""P0_Q0"":""ㅅ,ㅜ,ㄷ,ㅣ,ㄱ"",""P0_Q1"":4}","survey","60","1015924","0.0-12.0-1.14","[]","","",""
"2707","TestRecordings/knothing.wav","0","audio-button-response","61","1018652","0.0-12.0-0.15","","","",""
"12607","","{""P0_Q0"":""ㅋ,ㅡ,ㄴ,ㅗ,ㅌ,ㅣ,ㅇ"",""P0_Q1"":3}","survey","62","1031269","0.0-12.0-1.15","[]","","",""
"3302","TestRecordings/ncuk.wav","0","audio-button-response","63","1034591","0.0-12.0-0.16","","","",""
"7855","","{""P0_Q0"":""ㅇ,ㅡ,ㅁ,ㅈ,ㅜ,ㄱ"",""P0_Q1"":5}","survey","64","1042453","0.0-12.0-1.16","[]","","",""
"4577","TestRecordings/pmuk.wav","0","audio-button-response","65","1047050","0.0-12.0-0.17","","","",""
"9603","","{""P0_Q0"":""ㅂ,ㅁ,ㅜ"",""P0_Q1"":3}","survey","66","1056660","0.0-12.0-1.17","[]","","",""
"2532","TestRecordings/chwakap.wav","0","audio-button-response","67","1059212","0.0-12.0-0.18","","","",""
"8359","","{""P0_Q0"":""ㅊ,ㅏ,ㄱ,ㅏ,ㅂ"",""P0_Q1"":6}","survey","68","1067578","0.0-12.0-1.18","[]","","",""
"2450","TestRecordings/nucok.wav","0","audio-button-response","69","1070049","0.0-12.0-0.19","","","",""
"14159","","{""P0_Q0"":""ㄴ,ㅜ,ㅈ,ㅗ,ㄱ"",""P0_Q1"":5}","survey","70","1084216","0.0-12.0-1.19","[]","","",""
"2438","TestRecordings/kwat.wav","0","audio-button-response","71","1086677","0.0-12.0-0.20","","","",""
"7981","","{""P0_Q0"":""ㄱ,ㅗ,ㅏ,ㅅ"",""P0_Q1"":5}","survey","72","1094665","0.0-12.0-1.20","[]","","",""
"2557","TestRecordings/kophak.wav","0","audio-button-response","73","1097243","0.0-12.0-0.21","","","",""
"8996","","{""P0_Q0"":""ㄱ,ㅗ,ㅍ,ㅏ,ㄱ"",""P0_Q1"":3}","survey","74","1106247","0.0-12.0-1.21","[]","","",""
"3779","TestRecordings/swakhing.wav","0","audio-button-response","75","1110048","0.0-12.0-0.22","","","",""
"26079","","{""P0_Q0"":""ㅅ,ㅡ,ㅇ,ㅘ,ㄱ,ㅋ,ㅣ,ㅇ"",""P0_Q1"":3}","survey","76","1136134","0.0-12.0-1.22","[]","","",""
"2374","TestRecordings/thnakop.wav","0","audio-button-response","77","1138528","0.0-12.0-0.23","","","",""
"9572","","{""P0_Q0"":""ㅋ,ㅡ,ㄴ,ㅏ,ㄱ,ㅗ,ㅂ"",""P0_Q1"":3}","survey","78","1148107","0.0-12.0-1.23","[]","","",""
"3545","TestRecordings/pmisung.wav","0","audio-button-response","79","1151681","0.0-12.0-0.24","","","",""
"11125","","{""P0_Q0"":""ㄴ,ㅣ,ㅅ,ㅜ,ㅇ"",""P0_Q1"":3}","survey","80","1162813","0.0-12.0-1.24","[]","","",""
"2545","TestRecordings/khwapan.wav","0","audio-button-response","81","1165379","0.0-12.0-0.25","","","",""
"9870","","{""P0_Q0"":""ㅋ,ㅘ,ㅂ,ㅏ,ㄴ"",""P0_Q1"":5}","survey","82","1175256","0.0-12.0-1.25","[]","","",""
"3508","TestRecordings/mtak.wav","0","audio-button-response","83","1178784","0.0-12.0-0.26","","","",""
"17364","","{""P0_Q0"":""ㅇ,ㅡ,ㅇ,ㄷ,ㅏ,ㅅ"",""P0_Q1"":5}","survey","84","1196156","0.0-12.0-1.26","[]","","",""
"2539","TestRecordings/khnichat.wav","0","audio-button-response","85","1198719","0.0-12.0-0.27","","","",""
"9679","","{""P0_Q0"":""ㅋ,ㅡ,ㄴ,ㅣ,ㅊ,ㅏ,ㄱ"",""P0_Q1"":3}","survey","86","1208405","0.0-12.0-1.27","[]","","",""
"1654","TestRecordings/cut.wav","0","audio-button-response","87","1210082","0.0-12.0-0.28","","","",""
"4788","","{""P0_Q0"":""ㅈ,ㅜ,ㅅ"",""P0_Q1"":5}","survey","88","1214877","0.0-12.0-1.28","[]","","",""
"2175","TestRecordings/thnukip.wav","0","audio-button-response","89","1217071","0.0-12.0-0.29","","","",""
"10909","","{""P0_Q0"":""ㅋ,ㅡ,ㄴ,ㅜ,ㄱ,ㅣ,ㅅ"",""P0_Q1"":3}","survey","90","1227987","0.0-12.0-1.29","[]","","",""
"1444","TestRecordings/mip.wav","0","audio-button-response","91","1229450","0.0-12.0-0.30","","","",""
"5205","","{""P0_Q0"":""ㅁ,ㅣ,ㅂ"",""P0_Q1"":6}","survey","92","1234661","0.0-12.0-1.30","[]","","",""
"3449","TestRecordings/nchat.wav","0","audio-button-response","93","1238130","0.0-12.0-0.31","","","",""
"8353","","{""P0_Q0"":""ㅇ,ㅡ,ㄴ,ㅊ,ㅏ,ㄱ"",""P0_Q1"":4}","survey","94","1246490","0.0-12.0-1.31","[]","","",""
"2609","TestRecordings/nthunit.wav","0","audio-button-response","95","1249126","0.0-12.0-0.32","","","",""
"14968","","{""P0_Q0"":""ㅇ,ㅡ,ㄴ,ㅌ,ㅜ,ㄴ,ㅣ,ㅅ"",""P0_Q1"":3}","survey","96","1264102","0.0-12.0-1.32","[]","","",""
"2663","TestRecordings/swapong.wav","0","audio-button-response","97","1266790","0.0-12.0-0.33","","","",""
"7445","","{""P0_Q0"":""ㅅ,ㅘ,ㅂ,ㅗ,ㅇ"",""P0_Q1"":3}","survey","98","1274242","0.0-12.0-1.33","[]","","",""
"3057","TestRecordings/nthochap.wav","0","audio-button-response","99","1277321","0.0-12.0-0.34","","","",""
"11025","","{""P0_Q0"":""ㅇ,ㅡㅇ,ㅌ,ㅗ,ㅊ,ㅏ,ㅂ"",""P0_Q1"":3}","survey","100","1288352","0.0-12.0-1.34","[]","","",""
"1836","TestRecordings/phmacot.wav","0","audio-button-response","101","1290209","0.0-12.0-0.35","","","",""
"13338","","{""P0_Q0"":""ㅍ,ㅡ,ㅁ,ㅏ,ㅈ,ㅗ,ㅅ"",""P0_Q1"":2}","survey","102","1303555","0.0-12.0-1.35","[]","","",""
"1802","TestRecordings/thum.wav","0","audio-button-response","103","1305377","0.0-12.0-0.36","","","",""
"4778","","{""P0_Q0"":""ㅌ,ㅜ,ㅁ"",""P0_Q1"":5}","survey","104","1310162","0.0-12.0-1.36","[]","","",""
"2087","TestRecordings/khmip.wav","0","audio-button-response","105","1312271","0.0-12.0-0.37","","","",""
"10342","","{""P0_Q0"":""ㅋ,ㅡ,ㅁ,ㅣ,ㅂ"",""P0_Q1"":3}","survey","106","1322620","0.0-12.0-1.37","[]","","",""
"2155","TestRecordings/cwang.wav","0","audio-button-response","107","1324797","0.0-12.0-0.38","","","",""
"13517","","{""P0_Q0"":""ㅈ,ㅜ,ㅇ,ㅏ,ㅇ"",""P0_Q1"":5}","survey","108","1338320","0.0-12.0-1.38","[]","","",""
"2125","TestRecordings/masuk.wav","0","audio-button-response","109","1340466","0.0-12.0-0.39","","","",""
"6235","","{""P0_Q0"":""ㅁ,ㅏ,ㅅ,ㅜ,ㄱ"",""P0_Q1"":5}","survey","110","1346708","0.0-12.0-1.39","[]","","",""
"2696","TestRecordings/thwicap.wav","0","audio-button-response","111","1349425","0.0-12.0-0.40","","","",""
"7486","","{""P0_Q0"":""ㅌ,ㅟ,ㅈ,ㅏ,ㅂ"",""P0_Q1"":4}","survey","112","1356918","0.0-12.0-1.40","[]","","",""
"2340","TestRecordings/nthiton.wav","0","audio-button-response","113","1359281","0.0-12.0-0.41","","","",""
"11525","","{""P0_Q0"":""ㅇ,ㅡ,ㅁ,ㅍ,ㅟ,ㄷ,ㅜ,ㄴ"",""P0_Q1"":1}","survey","114","1370812","0.0-12.0-1.41","[]","","",""
"2603","TestRecordings/takhut.wav","0","audio-button-response","115","1373437","0.0-12.0-0.42","","","",""
"9993","","{""P0_Q0"":""ㅂ,ㅡ,ㅇ,ㅏ,ㅋ,ㅜ,ㅅ"",""P0_Q1"":2}","survey","116","1383437","0.0-12.0-1.42","[]","","",""
"1994","TestRecordings/pwacung.wav","0","audio-button-response","117","1385451","0.0-12.0-0.43","","","",""
"22320","","{""P0_Q0"":""ㅂ,ㅡ,ㅇ,ㅏ,ㅈ,ㅜ,ㅇ"",""P0_Q1"":6}","survey","118","1407777","0.0-12.0-1.43","[]","","",""
"2575","TestRecordings/nchup.wav","0","audio-button-response","119","1410376","0.0-12.0-0.44","","","",""
"14535","","{""P0_Q0"":""ㅇ,ㅡ,ㅁ,ㅊ,ㅜ,ㄱ"",""P0_Q1"":6}","survey","120","1424918","0.0-12.0-1.44","[]","","",""
"4297","TestRecordings/phwing.wav","0","audio-button-response","121","1429241","0.0-12.0-0.45","","","",""
"8342","","{""P0_Q0"":""ㅋ,ㅟ,ㅇ"",""P0_Q1"":6}","survey","122","1437590","0.0-12.0-1.45","[]","","",""
"2169","TestRecordings/cwasop.wav","0","audio-button-response","123","1439781","0.0-12.0-0.46","","","",""
"10009","","{""P0_Q0"":""ㅈ,ㅘ,ㅅ,ㅗ,ㅂ"",""P0_Q1"":5}","survey","124","1449795","0.0-12.0-1.46","[]","","",""
"1743","TestRecordings/mkithun.wav","0","audio-button-response","125","1451560","0.0-12.0-0.47","","","",""
"10647","","{""P0_Q0"":""ㅇ,ㅡ,ㅁ,ㄱ,ㅟ,ㅌ,ㅜ,ㄴ"",""P0_Q1"":3}","survey","126","1462214","0.0-12.0-1.47","[]","","",""
"2045","TestRecordings/phmut.wav","0","audio-button-response","127","1464278","0.0-12.0-0.48","","","",""
"8591","","{""P0_Q0"":""ㅍ,ㅡ,ㄴ,ㅜ,ㅅ"",""P0_Q1"":3}","survey","128","1472876","0.0-12.0-1.48","[]","","",""
"1290","TestRecordings/phuthik.wav","0","audio-button-response","129","1474186","0.0-12.0-0.49","","","",""
"7623","","{""P0_Q0"":""ㅍ,ㅜ,ㅌ,ㅣ,ㄱ"",""P0_Q1"":2}","survey","130","1481816","0.0-12.0-1.49","[]","","",""
"2272","TestRecordings/npokit.wav","0","audio-button-response","131","1484109","0.0-12.0-0.50","","","",""
"10729","","{""P0_Q0"":""ㅇ,ㅡ,ㅁ,ㅂ,ㅗ,ㄱ,ㅣ,ㅅ"",""P0_Q1"":2}","survey","132","1494844","0.0-12.0-1.50","[]","","",""
"1867","TestRecordings/twikhit.wav","0","audio-button-response","133","1496731","0.0-12.0-0.51","","","",""
"8614","","{""P0_Q0"":""ㄷ,ㅟ,ㅋ,ㅣ,ㅅ"",""P0_Q1"":2}","survey","134","1505354","0.0-12.0-1.51","[]","","",""
"2094","TestRecordings/pathik.wav","0","audio-button-response","135","1507470","0.0-12.0-0.52","","","",""
"6264","","{""P0_Q0"":""ㅂ,ㅏ,ㅌ,ㅣ,ㄱ"",""P0_Q1"":2}","survey","136","1513740","0.0-12.0-1.52","[]","","",""
"1569","TestRecordings/knop.wav","0","audio-button-response","137","1515330","0.0-12.0-0.53","","","",""
"9712","","{""P0_Q0"":""ㅋ,ㅡ,ㄴ,ㅗ,ㅂ"",""P0_Q1"":2}","survey","138","1525048","0.0-12.0-1.53","[]","","",""
"3048","TestRecordings/swicit.wav","0","audio-button-response","139","1528117","0.0-12.0-0.54","","","",""
"8963","","{""P0_Q0"":""ㅅ,ㅟ,ㅈ,ㅣ,ㅂ"",""P0_Q1"":6}","survey","140","1537087","0.0-12.0-1.54","[]","","",""
"2996","TestRecordings/pmathin.wav","0","audio-button-response","141","1540103","0.0-12.0-0.55","","","",""
"14478","","{""P0_Q0"":""ㅋ,ㅡ,ㅁ,ㅏ,ㅌ,ㅣ,ㄴ"",""P0_Q1"":2}","survey","142","1554589","0.0-12.0-1.55","[]","","",""
"1987","TestRecordings/chwap.wav","0","audio-button-response","143","1556600","0.0-12.0-0.56","","","",""
"6259","","{""P0_Q0"":""ㅊ,ㅘ,ㅂ"",""P0_Q1"":6}","survey","144","1562864","0.0-12.0-1.56","[]","","",""
"2615","TestRecordings/cwiphing.wav","0","audio-button-response","145","1565501","0.0-12.0-0.57","","","",""
"7236","","{""P0_Q0"":""ㅈ,ㅟ,ㅍ,ㅣ,ㅇ"",""P0_Q1"":2}","survey","146","1572743","0.0-12.0-1.57","[]","","",""
"1719","TestRecordings/chut.wav","0","audio-button-response","147","1574483","0.0-12.0-0.58","","","",""
"6166","","{""P0_Q0"":""ㅊ,ㅜ,ㅅ"",""P0_Q1"":4}","survey","148","1580655","0.0-12.0-1.58","[]","","",""
"2047","TestRecordings/phninot.wav","0","audio-button-response","149","1582723","0.0-12.0-0.59","","","",""
"9304","","{""P0_Q0"":""ㅍ,ㅡ,ㄴ,ㅣ,ㄴ,ㅗ,ㅅ"",""P0_Q1"":2}","survey","150","1592035","0.0-12.0-1.59","[]","","",""
"3141",""," ","html-keyboard-response","151","1595176","0.0-13.0","","","",""
"100051","","{""P0_Q0"":""20"",""P0_Q1"":""여"",""P0_Q2"":""8"",""P0_Q3"":""없음."",""P0_Q4"":""중국어"",""P0_Q5"":""16살, 18살 각 1년"",""P0_Q6"":""학교 교육과정에 따라 제 2외국어를 선택해서 학교 수업시간에 학습함.""}","survey","152","1695239","0.0-14.0","[]","","",""
"3745","<p style=""font-size:30px"",lang=""ko"">실험이 끝났습니다</p><p style=""font-size:30px"",lang=""ko"">참가해주셔서 고맙습니다</p>"," ","html-keyboard-response","153","1698984","0.0-15.0","","","",""
