"rt","stimulus","response","trial_type","trial_index","time_elapsed","internal_node_id","accuracy","PracticeTest","ConsonantSequence","Grammaticality"
"740178","<p style=""font-size:30px"",lang=""ko"">실험에 오신 것을 환영합니다</p><p lang=""ko"">스페이스바를 누르면 다음 페이지로 넘어갑니다</p>"," ","html-keyboard-response","0","740076","0.0-0.0","","","",""
"1993","<p style=""font-size:30px"",lang=""ko"">해드폰을 본인에게 잘 맞게 착용하세요</p><p lang=""ko"">스페이스바를 누르면 다음 페이지로 넘어갑니다</p>"," ","html-keyboard-response","1","742069","0.0-1.0","","","",""
"7055","<p style=""font-size:30px"",lang=""ko"">이 실험에서는 새로 만든 한국 단어를 들으실 겁니다</p><p style=""font-size:30px"",lang=""ko"">단어를 들리는대로 쓰세요. 그런 다음 그 단어가 한국어 단어로 가능한지 평가하세요</p><p lang=""ko"">스페이스바를 누르면 다음 페이지로 넘어갑니다</p>"," ","html-keyboard-response","2","749125","0.0-2.0","","","",""
"1513","<p style=""font-size:30px"",lang=""ko"">원래 있는 단어로 예를 들어 봅시다</p><p lang=""ko"">스페이스바를 누르면 다음 페이지로 넘어갑니다</p>"," ","html-keyboard-response","3","750639","0.0-3.0","","","",""
"9086","PracticeRecordings/kom_bear.wav","0","audio-button-response","4","759887","0.0-4.0","","","",""
"2046","<p style=""font-size:30px"",lang=""ko"">이제 직접 단어를 듣고 쓰는 연습을 해봅시다. </p><p style=""font-size:30px"",lang=""ko"">스페이스바를 누르면 다음 페이지로 넘어갑니다</p>"," ","html-keyboard-response","5","761934","0.0-5.0","","","",""
"6521","PracticeRecordings/kirin_giraffe.wav","0","audio-button-response","6","768552","0.0-6.0-0.0","","","",""
"3836","kirin_giraffe","{""P0_Q0"":""기린""}","survey","7","772432","0.0-6.0-1.0","[]","practice","NA","TRUE"
"3568","<p style=""font-size:30px"",lang=""ko"">방금 들으신 단어는 ""ㄱ,ㅣ,ㄹ,ㅣ,ㄴ"" 이라고 쓰시면 됩니다</p><p lang=""ko"">스페이스바를 누르면 다음 페이지로 넘어갑니다</p>"," ","html-keyboard-response","8","776001","0.0-6.0-2.0","","","",""
"2138","PracticeRecordings/saca_lion.wav","0","audio-button-response","9","778225","0.0-6.0-0.1","","","",""
"6620","saca_lion","{""P0_Q0"":""ㅅ,ㅏ,ㅈ,ㅏ""}","survey","10","784855","0.0-6.0-1.1","[]","practice","NA","FALSE"
"2445","<p style=""font-size:30px"",lang=""ko"">방금 들으신 단어는 ""ㅅ,ㅏ,ㅈ,ㅏ"" 라고 쓰시면 됩니다</p><p lang=""ko"">스페이스바를 누르면 다음 페이지로 넘어갑니다</p>"," ","html-keyboard-response","11","787300","0.0-6.0-2.1","","","",""
"1825","PracticeRecordings/saseum_deer.wav","0","audio-button-response","12","789212","0.0-6.0-0.2","","","",""
"7345","saseum_deer","{""P0_Q0"":""ㅅ,ㅏ,ㅅ,ㅡ,ㅁ""}","survey","13","796566","0.0-6.0-1.2","[]","practice","NA","FALSE"
"1263","<p style=""font-size:30px"",lang=""ko"">방금 들으신 단어는 ""ㅅ,ㅏ,ㅅ,ㅡ,ㅁ""이라고 쓰시면 됩니다</p><p lang=""ko"">스페이스바를 누르면 다음 페이지로 넘어갑니다</p>"," ","html-keyboard-response","14","797830","0.0-6.0-2.2","","","",""
"1746","PracticeRecordings/thokki_rabbit.wav","0","audio-button-response","15","799601","0.0-6.0-0.3","","","",""
"6914","thokki_rabbit","{""P0_Q0"":""ㅌ,ㅗ,ㄲ,ㅣ""}","survey","16","806523","0.0-6.0-1.3","[]","practice","NA","FALSE"
"1155","<p style=""font-size:30px"",lang=""ko"">방금 들으신 단어는 ""ㅌ,ㅗ,ㄲ,ㅣ"" 라고 쓰시면 됩니다</p><p lang=""ko"">스페이스바를 누르면 다음 페이지로 넘어갑니다</p>"," ","html-keyboard-response","17","807679","0.0-6.0-2.3","","","",""
"1246","<p style=""font-size:30px"",lang=""ko"">이제 만든 단어로 연습해봅시다.</p><p lang=""ko"">스페이스바를 누르면 다음 페이지로 넘어갑니다</p>"," ","html-keyboard-response","18","808925","0.0-7.0","","","",""
"2480","PracticeRecordings/snen.wav","0","audio-button-response","19","811492","0.0-8.0-0.0","","","",""
"6948","snen","{""P0_Q0"":""ㅅ,ㅡ,ㄴ,ㅐ,ㄴ""}","survey","20","818447","0.0-8.0-1.0","[]","practice","NA","TRUE"
"8190","<p style=""font-size:30px"",lang=""ko"">들으신 단어는 <br> ""ㅅ,ㅡ,ㄴ,ㅐ,ㄴ""  ""ㅅ,ㅡ,ㄴ,ㅐ"" ""ㅅ,ㄴ,ㅐ,ㄴ (""으"" 소리가 안 들리는 경우)"" 등 <br> 사람에 따라 다양하게 들릴 수 있습니다 <br> 본인에게 들리는대로 쓰시면 됩니다.</p><p lang=""ko"">스페이스바를 누르면 다음 페이지로 넘어갑니다</p>"," ","html-keyboard-response","21","826638","0.0-8.0-2.0","","","",""
"2708","PracticeRecordings/phrak.wav","0","audio-button-response","22","829430","0.0-8.0-0.1","","","",""
"5805","phrak","{""P0_Q0"":""ㅍ,ㅡ,ㄹ,ㅏ,ㄱ""}","survey","23","835241","0.0-8.0-1.1","[]","practice","NA","FALSE"
"4315","<p style=""font-size:30px"",lang=""ko"">들으신 단어는 <br> ""ㅍ,ㅡ,ㄹ,ㅏ,ㄱ"" ""ㅍ,ㅡ,ㄹ,ㅏ,ㅅ"" ""ㅋ,ㅡ,ㄹ,ㅏ,ㄱ"" ""ㅍ,ㄹ,ㅏ,ㄱ (""으"" 소리가 안 들리는 경우)"" 등 <br> 사람에 따라 다양하게 들릴 수 있습니다 <br> 본인에게 들리는대로 쓰시면 됩니다.</p><p lang=""ko"">스페이스바를 누르면 다음 페이지로 넘어갑니다</p>"," ","html-keyboard-response","24","839556","0.0-8.0-2.1","","","",""
"3539","PracticeRecordings/chka.wav","0","audio-button-response","25","843178","0.0-8.0-0.2","","","",""
"7502","chka","{""P0_Q0"":""ㅅ,ㅡ,ㄱ,ㅏ""}","survey","26","850687","0.0-8.0-1.2","[]","practice","NA","FALSE"
"4433","<p style=""font-size:30px"",lang=""ko"">들으신 단어는 ""ㅊ,ㅣ,ㄱ,ㅏ"", ""ㅊ,ㅡ,ㄱ,ㅏ"", ""ㅊ,ㄱ,ㅏ"", ""ㅊ,ㅟ,ㄱ,ㅏ"" 등 <br> 사람에 따라 다양하게 들릴 수 있습니다. <br> 본인에게 들리는대로 쓰시면 됩니다.</p><p lang=""ko"">스페이스바를 누르면 다음 페이지로 넘어갑니다</p>"," ","html-keyboard-response","27","855121","0.0-8.0-2.2","","","",""
"3752",""," ","html-keyboard-response","28","858874","0.0-9.0","","","",""
"3737","<p style=""font-size:30px"",lang=""ko"">이제 실험을 시작하겠습니다.</p><p style=""font-size:30px"",lang=""ko"">실전에서는 각각의 만든 단어를 한 번씩만 들을 수 있습니다.</p>"," ","html-keyboard-response","29","862611","0.0-10.0","","","",""
"4031","<p style=""font-size:30px"",lang=""ko"">단어를 풀어 쓰신 후에 그 단어가 한국어로 가능한 단어인지 평가해주세요</p><p style=""font-size:30px"",lang=""ko"">1점은 한국어로 완전 불가능한 단어, 7점은 한국어로 완전 가능한 단어를 의미합니다</p><p lang=""ko"">스페이스바를 누르면 다음 페이지로 넘어갑니다</p>"," ","html-keyboard-response","30","866642","0.0-11.0","","","",""
"3873","TestRecordings/sutik.wav","0","audio-button-response","31","870604","0.0-12.0-0.0","","","",""
"9060","","{""P0_Q0"":""ㅅ,ㅜ,ㄷ,ㅣ,ㄱ"",""P0_Q1"":5}","survey","32","879680","0.0-12.0-1.0","[]","","",""
"3388","TestRecordings/nthunit.wav","0","audio-button-response","33","883153","0.0-12.0-0.1","","","",""
"10111","","{""P0_Q0"":""ㅇ,ㅣ,ㄴ,ㅌ,ㅜ,ㄴ,ㅣ,ㅅ"",""P0_Q1"":2}","survey","34","893273","0.0-12.0-1.1","[]","","",""
"2717","TestRecordings/pmisung.wav","0","audio-button-response","35","896076","0.0-12.0-0.2","","","",""
"11750","","{""P0_Q0"":""ㅁ,ㅣ,ㅅ,ㅜ,ㅇ"",""P0_Q1"":6}","survey","36","907834","0.0-12.0-1.2","[]","","",""
"3232","TestRecordings/siphuk.wav","0","audio-button-response","37","911150","0.0-12.0-0.3","","","",""
"10909","","{""P0_Q0"":""ㅅ,ㅣ,ㅅ,ㅍ,ㅜ,ㄱ"",""P0_Q1"":3}","survey","38","922066","0.0-12.0-1.3","[]","","",""
"2343","TestRecordings/phmacot.wav","0","audio-button-response","39","924492","0.0-12.0-0.4","","","",""
"15273","","{""P0_Q0"":""ㅍ,ㅡ,ㅁ,ㅏ,ㅈ,ㅗ,ㅅ"",""P0_Q1"":2}","survey","40","939774","0.0-12.0-1.4","[]","","",""
"3562","TestRecordings/knop.wav","0","audio-button-response","41","943420","0.0-12.0-0.5","","","",""
"9662","","{""P0_Q0"":""ㅋ,ㅡ,ㄴ,ㅗ,ㅂ"",""P0_Q1"":6}","survey","42","953091","0.0-12.0-1.5","[]","","",""
"2021","TestRecordings/phninot.wav","0","audio-button-response","43","955197","0.0-12.0-0.6","","","",""
"9020","","{""P0_Q0"":""ㅍ,ㅡ,ㄴ,ㅣ,ㄴ,ㅗ,ㅅ"",""P0_Q1"":2}","survey","44","964224","0.0-12.0-1.6","[]","","",""
"2793","TestRecordings/chwap.wav","0","audio-button-response","45","967101","0.0-12.0-0.7","","","",""
"7788","","{""P0_Q0"":""ㅊ,ㅘ,ㅂ"",""P0_Q1"":2}","survey","46","974897","0.0-12.0-1.7","[]","","",""
"3514","TestRecordings/mtak.wav","0","audio-button-response","47","978496","0.0-12.0-0.8","","","",""
"7569","","{""P0_Q0"":""ㅇ,ㄷ,ㅏ,ㅅ"",""P0_Q1"":1}","survey","48","986073","0.0-12.0-1.8","[]","","",""
"3335","TestRecordings/swakhing.wav","0","audio-button-response","49","989494","0.0-12.0-0.9","","","",""
"6532","","{""P0_Q0"":""ㅅ,ㅏ,ㅋ,ㅣ,ㅇ"",""P0_Q1"":3}","survey","50","996033","0.0-12.0-1.9","[]","","",""
"1538","TestRecordings/mip.wav","0","audio-button-response","51","997654","0.0-12.0-0.10","","","",""
"4307","","{""P0_Q0"":""ㅁ,ㅣ,ㅂ"",""P0_Q1"":7}","survey","52","1001970","0.0-12.0-1.10","[]","","",""
"1544","TestRecordings/khmip.wav","0","audio-button-response","53","1003599","0.0-12.0-0.11","","","",""
"6436","","{""P0_Q0"":""ㅋ,ㅡ,ㅁ,ㅣ,ㅂ"",""P0_Q1"":5}","survey","54","1010042","0.0-12.0-1.11","[]","","",""
"2406","TestRecordings/mciphom.wav","0","audio-button-response","55","1012532","0.0-12.0-0.12","","","",""
"8574","","{""P0_Q0"":""ㅇ,ㅈ,ㅣ,ㅍ,ㅗ,ㅁ"",""P0_Q1"":4}","survey","56","1021108","0.0-12.0-1.12","[]","","",""
"1976","TestRecordings/swapong.wav","0","audio-button-response","57","1023169","0.0-12.0-0.13","","","",""
"12429","","{""P0_Q0"":""ㅅ,ㅘ,ㅂ,ㅗ,ㅇ"",""P0_Q1"":5}","survey","58","1035604","0.0-12.0-1.13","[]","","",""
"1636","TestRecordings/chut.wav","0","audio-button-response","59","1037313","0.0-12.0-0.14","","","",""
"4291","","{""P0_Q0"":""ㅊ,ㅜ,ㅅ"",""P0_Q1"":7}","survey","60","1041612","0.0-12.0-1.14","[]","","",""
"1535","TestRecordings/kophak.wav","0","audio-button-response","61","1043233","0.0-12.0-0.15","","","",""
"9237","","{""P0_Q0"":""ㄱ,ㅗ,ㅍ,ㅏ,ㄱ"",""P0_Q1"":7}","survey","62","1052477","0.0-12.0-1.15","[]","","",""
"2432","TestRecordings/thnakop.wav","0","audio-button-response","63","1054994","0.0-12.0-0.16","","","",""
"24109","","{""P0_Q0"":""ㅋ,ㅡ,ㄴ,ㅏ,ㄱ,ㅗ,ㅂ"",""P0_Q1"":4}","survey","64","1079116","0.0-12.0-1.16","[]","","",""
"3675","TestRecordings/ntosin.wav","0","audio-button-response","65","1082881","0.0-12.0-0.17","","","",""
"10972","","{""P0_Q0"":""ㅇ,ㄷ,ㅜ,ㅅ,ㅣ,ㄴ"",""P0_Q1"":3}","survey","66","1093860","0.0-12.0-1.17","[]","","",""
"1601","TestRecordings/takhut.wav","0","audio-button-response","67","1095546","0.0-12.0-0.18","","","",""
"9924","","{""P0_Q0"":""ㅂ,ㅏ,ㅋ,ㅜ,ㅅ"",""P0_Q1"":5}","survey","68","1105477","0.0-12.0-1.18","[]","","",""
"2160","TestRecordings/npokit.wav","0","audio-button-response","69","1107721","0.0-12.0-0.19","","","",""
"11605","","{""P0_Q0"":""ㅇ,ㅂ,ㅜ,ㄱ,ㅣ,ㅅ"",""P0_Q1"":2}","survey","70","1119335","0.0-12.0-1.19","[]","","",""
"2115","TestRecordings/pmuk.wav","0","audio-button-response","71","1121534","0.0-12.0-0.20","","","",""
"12811","","{""P0_Q0"":""ㅂ,ㅁ,ㅜ,ㄱ"",""P0_Q1"":2}","survey","72","1134351","0.0-12.0-1.20","[]","","",""
"2128","TestRecordings/cmot.wav","0","audio-button-response","73","1136563","0.0-12.0-0.21","","","",""
"7699","","{""P0_Q0"":""ㅊ,ㅡ,ㅁ,ㅗ,ㅅ"",""P0_Q1"":5}","survey","74","1144270","0.0-12.0-1.21","[]","","",""
"1913","TestRecordings/nchat.wav","0","audio-button-response","75","1146267","0.0-12.0-0.22","","","",""
"5634","","{""P0_Q0"":""ㅇ,ㅊ,ㅏ,ㅅ"",""P0_Q1"":1}","survey","76","1151907","0.0-12.0-1.22","[]","","",""
"1406","TestRecordings/kwat.wav","0","audio-button-response","77","1153399","0.0-12.0-0.23","","","",""
"5793","","{""P0_Q0"":""ㄱ,ㅘ,ㅅ"",""P0_Q1"":6}","survey","78","1159198","0.0-12.0-1.23","[]","","",""
"2845","TestRecordings/pathik.wav","0","audio-button-response","79","1162130","0.0-12.0-0.24","","","",""
"8141","","{""P0_Q0"":""ㅂ,ㅏ,ㅌ,ㅣ,ㄱ"",""P0_Q1"":6}","survey","80","1170279","0.0-12.0-1.24","[]","","",""
"1800","TestRecordings/mtunak.wav","0","audio-button-response","81","1172163","0.0-12.0-0.25","","","",""
"9765","","{""P0_Q0"":""ㅇ,ㄷ,ㅜ,ㄴ,ㅏ,ㄱ"",""P0_Q1"":4}","survey","82","1181934","0.0-12.0-1.25","[]","","",""
"1329","TestRecordings/pwacung.wav","0","audio-button-response","83","1183347","0.0-12.0-0.26","","","",""
"7118","","{""P0_Q0"":""ㅂ,ㅏ,ㅈ,ㅜ,ㅇ"",""P0_Q1"":7}","survey","84","1190472","0.0-12.0-1.26","[]","","",""
"1322","TestRecordings/ncuk.wav","0","audio-button-response","85","1191878","0.0-12.0-0.27","","","",""
"9123","","{""P0_Q0"":""ㅇ,ㅈ,ㅜ"",""P0_Q1"":4}","survey","86","1201007","0.0-12.0-1.27","[]","","",""
"1138","TestRecordings/nucok.wav","0","audio-button-response","87","1202228","0.0-12.0-0.28","","","",""
"8826","","{""P0_Q0"":""ㄴ,ㅜ,ㅈ,ㅗ,ㄱ"",""P0_Q1"":7}","survey","88","1211061","0.0-12.0-1.28","[]","","",""
"1440","TestRecordings/khnacin.wav","0","audio-button-response","89","1212524","0.0-12.0-0.29","","","",""
"7031","","{""P0_Q0"":""ㅋ,ㅡ,ㄴ,ㅏ,ㅈ,ㅣ,ㄴ"",""P0_Q1"":5}","survey","90","1219562","0.0-12.0-1.29","[]","","",""
"1382","TestRecordings/phmut.wav","0","audio-button-response","91","1221028","0.0-12.0-0.30","","","",""
"7994","","{""P0_Q0"":""ㅋ,ㅡ,ㅁ,ㅜ,ㅅ"",""P0_Q1"":4}","survey","92","1229033","0.0-12.0-1.30","[]","","",""
"1351","TestRecordings/masuk.wav","0","audio-button-response","93","1230468","0.0-12.0-0.31","","","",""
"4445","","{""P0_Q0"":""ㅁ,ㅏ,ㅅ,ㅜ,ㄱ"",""P0_Q1"":7}","survey","94","1234921","0.0-12.0-1.31","[]","","",""
"1424","TestRecordings/khmoting.wav","0","audio-button-response","95","1236431","0.0-12.0-0.32","","","",""
"14507","","{""P0_Q0"":""ㅋ,ㅡ,ㅁ,ㅗ,ㄷ,ㅣ,ㅇ"",""P0_Q1"":5}","survey","96","1250945","0.0-12.0-1.32","[]","","",""
"1352","TestRecordings/knothing.wav","0","audio-button-response","97","1252381","0.0-12.0-0.33","","","",""
"9844","","{""P0_Q0"":""ㅋ,ㅡ,ㄴ,ㅗ,ㅌ,ㅣ,ㅇ"",""P0_Q1"":5}","survey","98","1262230","0.0-12.0-1.33","[]","","",""
"1655","TestRecordings/phwing.wav","0","audio-button-response","99","1263971","0.0-12.0-0.34","","","",""
"4189","","{""P0_Q0"":""ㅋ,ㅟ,ㅇ"",""P0_Q1"":2}","survey","100","1268167","0.0-12.0-1.34","[]","","",""
"2857","TestRecordings/khun.wav","0","audio-button-response","101","1271108","0.0-12.0-0.35","","","",""
"4469","","{""P0_Q0"":""ㅋ,ㅜ,ㄴ"",""P0_Q1"":3}","survey","102","1275584","0.0-12.0-1.35","[]","","",""
"992","TestRecordings/niphak.wav","0","audio-button-response","103","1276659","0.0-12.0-0.36","","","",""
"5398","","{""P0_Q0"":""ㄴ,ㅣ,ㅍ,ㅏ,ㄱ"",""P0_Q1"":3}","survey","104","1282063","0.0-12.0-1.36","[]","","",""
"1398","TestRecordings/swicit.wav","0","audio-button-response","105","1283546","0.0-12.0-0.37","","","",""
"7118","","{""P0_Q0"":""ㅅ,ㅟ,ㅈ,ㅣ,ㅅ"",""P0_Q1"":1}","survey","106","1290672","0.0-12.0-1.37","[]","","",""
"1214","TestRecordings/nthiton.wav","0","audio-button-response","107","1291972","0.0-12.0-0.38","","","",""
"7788","","{""P0_Q0"":""ㅇ,ㅌ,ㅣ,ㄷ,ㅜ,ㄴ"",""P0_Q1"":1}","survey","108","1299767","0.0-12.0-1.38","[]","","",""
"1390","TestRecordings/nchak.wav","0","audio-button-response","109","1301242","0.0-12.0-0.39","","","",""
"8403","","{""P0_Q0"":""ㅇ,ㅊ,ㅏ,ㄱ"",""P0_Q1"":2}","survey","110","1309652","0.0-12.0-1.39","[]","","",""
"1033","TestRecordings/phwim.wav","0","audio-button-response","111","1310771","0.0-12.0-0.40","","","",""
"4162","","{""P0_Q0"":""ㅍ,ㅣ,ㅁ"",""P0_Q1"":6}","survey","112","1314940","0.0-12.0-1.40","[]","","",""
"3582","TestRecordings/cwiphing.wav","0","audio-button-response","113","1318549","0.0-12.0-0.41","","","",""
"6776","","{""P0_Q0"":""ㅈ,ㅣ,ㅍ,ㅣ,ㅇ"",""P0_Q1"":6}","survey","114","1325331","0.0-12.0-1.41","[]","","",""
"1213","TestRecordings/cut.wav","0","audio-button-response","115","1326627","0.0-12.0-0.42","","","",""
"9373","","{""P0_Q0"":""ㅊ,ㅜ,ㅅ"",""P0_Q1"":6}","survey","116","1336007","0.0-12.0-1.42","[]","","",""
"1172","TestRecordings/khwapan.wav","0","audio-button-response","117","1337264","0.0-12.0-0.43","","","",""
"7568","","{""P0_Q0"":""ㅋ,ㅘ,ㅂ,ㅏ,ㄴ"",""P0_Q1"":3}","survey","118","1344838","0.0-12.0-1.43","[]","","",""
"1446","TestRecordings/chwakap.wav","0","audio-button-response","119","1346368","0.0-12.0-0.44","","","",""
"6402","","{""P0_Q0"":""ㅊ,ㅏ,ㄱ,ㅏ,ㅂ"",""P0_Q1"":7}","survey","120","1352778","0.0-12.0-1.44","[]","","",""
"1715","TestRecordings/thwicap.wav","0","audio-button-response","121","1354576","0.0-12.0-0.45","","","",""
"5037","","{""P0_Q0"":""ㅌ,ㅣ,ㅈ,ㅏ,ㅂ"",""P0_Q1"":4}","survey","122","1359620","0.0-12.0-1.45","[]","","",""
"2278","TestRecordings/phuthik.wav","0","audio-button-response","123","1361982","0.0-12.0-0.46","","","",""
"7503","","{""P0_Q0"":""ㅍ,ㅜ,ㅌ,ㅣ,ㄱ"",""P0_Q1"":3}","survey","124","1369491","0.0-12.0-1.46","[]","","",""
"1622","TestRecordings/pmathin.wav","0","audio-button-response","125","1371199","0.0-12.0-0.47","","","",""
"6382","","{""P0_Q0"":""ㅋ,ㅡ,ㅁ,ㅏ,ㅌ,ㅣ,ㄴ"",""P0_Q1"":3}","survey","126","1377588","0.0-12.0-1.47","[]","","",""
"2477","TestRecordings/khnichat.wav","0","audio-button-response","127","1380151","0.0-12.0-0.48","","","",""
"8373","","{""P0_Q0"":""ㅋ,ㅡ,ㄴ,ㅣ,ㅊ,ㅏ,ㅅ"",""P0_Q1"":1}","survey","128","1388529","0.0-12.0-1.48","[]","","",""
"1116","TestRecordings/nchup.wav","0","audio-button-response","129","1389729","0.0-12.0-0.49","","","",""
"4101","","{""P0_Q0"":""ㅇ,ㅊ,ㅜ,ㅂ"",""P0_Q1"":1}","survey","130","1393837","0.0-12.0-1.49","[]","","",""
"2864","TestRecordings/mphithup.wav","0","audio-button-response","131","1396785","0.0-12.0-0.50","","","",""
"7170","","{""P0_Q0"":""ㅇ,ㅍ,ㅣ,ㅌ,ㅜ,ㅂ"",""P0_Q1"":1}","survey","132","1403963","0.0-12.0-1.50","[]","","",""
"1397","TestRecordings/khonik.wav","0","audio-button-response","133","1405445","0.0-12.0-0.51","","","",""
"7000","","{""P0_Q0"":""ㅋ,ㅗ,ㄴ,ㅣ,ㄱ"",""P0_Q1"":3}","survey","134","1412453","0.0-12.0-1.51","[]","","",""
"1216","TestRecordings/nchitam.wav","0","audio-button-response","135","1413753","0.0-12.0-0.52","","","",""
"8238","","{""P0_Q0"":""ㅇ,ㅊ,ㅣ,ㄷ,ㅏ,ㅁ"",""P0_Q1"":2}","survey","136","1421997","0.0-12.0-1.52","[]","","",""
"1225","TestRecordings/nthochap.wav","0","audio-button-response","137","1423306","0.0-12.0-0.53","","","",""
"5274","","{""P0_Q0"":""ㅇ,ㅌ,ㅗ,ㅊ,ㅏ,ㅂ"",""P0_Q1"":1}","survey","138","1428587","0.0-12.0-1.53","[]","","",""
"1525","TestRecordings/thum.wav","0","audio-button-response","139","1430198","0.0-12.0-0.54","","","",""
"3754","","{""P0_Q0"":""ㅌ,ㅜ,ㅁ"",""P0_Q1"":6}","survey","140","1433958","0.0-12.0-1.54","[]","","",""
"1078","TestRecordings/thnukip.wav","0","audio-button-response","141","1435120","0.0-12.0-0.55","","","",""
"8454","","{""P0_Q0"":""ㅋ,ㅡ,ㄴ,ㅜ,ㄱ,ㅣ,ㅂ"",""P0_Q1"":2}","survey","142","1443580","0.0-12.0-1.55","[]","","",""
"1347","TestRecordings/twikhit.wav","0","audio-button-response","143","1445011","0.0-12.0-0.56","","","",""
"10251","","{""P0_Q0"":""ㅍ,ㅣ,ㅋ,ㅣ,ㅅ"",""P0_Q1"":3}","survey","144","1455268","0.0-12.0-1.56","[]","","",""
"1245","TestRecordings/cwasop.wav","0","audio-button-response","145","1456597","0.0-12.0-0.57","","","",""
"6625","","{""P0_Q0"":""ㅈ,ㅘ,ㅅ,ㅗ,ㅂ"",""P0_Q1"":3}","survey","146","1463229","0.0-12.0-1.57","[]","","",""
"1263","TestRecordings/mkithun.wav","0","audio-button-response","147","1464577","0.0-12.0-0.58","","","",""
"5439","","{""P0_Q0"":""ㅇ,ㄱ,ㅣ,ㅌ,ㅜ,ㄴ"",""P0_Q1"":2}","survey","148","1470023","0.0-12.0-1.58","[]","","",""
"1260","TestRecordings/cwang.wav","0","audio-button-response","149","1471369","0.0-12.0-0.59","","","",""
"4263","","{""P0_Q0"":""ㅈ,ㅘ,ㅇ"",""P0_Q1"":3}","survey","150","1475639","0.0-12.0-1.59","[]","","",""
"3525",""," ","html-keyboard-response","151","1479164","0.0-13.0","","","",""
"41918","","{""P0_Q0"":""21"",""P0_Q1"":""남"",""P0_Q2"":""초등학생"",""P0_Q3"":""없음"",""P0_Q4"":""없음"",""P0_Q5"":""x"",""P0_Q6"":""x""}","survey","152","1521091","0.0-14.0","[]","","",""
"45000","<p style=""font-size:30px"",lang=""ko"">실험이 끝났습니다</p><p style=""font-size:30px"",lang=""ko"">참가해주셔서 고맙습니다</p>"," ","html-keyboard-response","153","1566092","0.0-15.0","","","",""
