"rt","stimulus","response","trial_type","trial_index","time_elapsed","internal_node_id","accuracy","PracticeTest","ConsonantSequence","Grammaticality"
"2486062","<p style=""font-size:30px"",lang=""ko"">실험에 오신 것을 환영합니다</p><p lang=""ko"">스페이스바를 누르면 다음 페이지로 넘어갑니다</p>"," ","html-keyboard-response","0","2485958","0.0-0.0","","","",""
"2364","<p style=""font-size:30px"",lang=""ko"">해드폰을 본인에게 잘 맞게 착용하세요</p><p lang=""ko"">스페이스바를 누르면 다음 페이지로 넘어갑니다</p>"," ","html-keyboard-response","1","2488323","0.0-1.0","","","",""
"3495","<p style=""font-size:30px"",lang=""ko"">이 실험에서는 새로 만든 한국 단어를 들으실 겁니다</p><p style=""font-size:30px"",lang=""ko"">단어를 들리는대로 쓰세요. 그런 다음 그 단어가 한국어 단어로 가능한지 평가하세요</p><p lang=""ko"">스페이스바를 누르면 다음 페이지로 넘어갑니다</p>"," ","html-keyboard-response","2","2491819","0.0-2.0","","","",""
"1173","<p style=""font-size:30px"",lang=""ko"">원래 있는 단어로 예를 들어 봅시다</p><p lang=""ko"">스페이스바를 누르면 다음 페이지로 넘어갑니다</p>"," ","html-keyboard-response","3","2492993","0.0-3.0","","","",""
"13092","PracticeRecordings/kom_bear.wav","0","audio-button-response","4","2506141","0.0-4.0","","","",""
"3533","<p style=""font-size:30px"",lang=""ko"">이제 직접 단어를 듣고 쓰는 연습을 해봅시다. </p><p style=""font-size:30px"",lang=""ko"">스페이스바를 누르면 다음 페이지로 넘어갑니다</p>"," ","html-keyboard-response","5","2509674","0.0-5.0","","","",""
"10290","PracticeRecordings/kirin_giraffe.wav","0","audio-button-response","6","2519985","0.0-6.0-0.0","","","",""
"5296","kirin_giraffe","{""P0_Q0"":""ㄱ,ㅣ,ㄹ,ㅣ,ㄴ""}","survey","7","2525313","0.0-6.0-1.0","[]","practice","NA","TRUE"
"1481","<p style=""font-size:30px"",lang=""ko"">방금 들으신 단어는 ""ㄱ,ㅣ,ㄹ,ㅣ,ㄴ"" 이라고 쓰시면 됩니다</p><p lang=""ko"">스페이스바를 누르면 다음 페이지로 넘어갑니다</p>"," ","html-keyboard-response","8","2526795","0.0-6.0-2.0","","","",""
"1522","PracticeRecordings/saca_lion.wav","0","audio-button-response","9","2528336","0.0-6.0-0.1","","","",""
"4115","saca_lion","{""P0_Q0"":""ㅅ,ㅏ,ㅈ,ㅏ""}","survey","10","2532459","0.0-6.0-1.1","[]","practice","NA","FALSE"
"889","<p style=""font-size:30px"",lang=""ko"">방금 들으신 단어는 ""ㅅ,ㅏ,ㅈ,ㅏ"" 라고 쓰시면 됩니다</p><p lang=""ko"">스페이스바를 누르면 다음 페이지로 넘어갑니다</p>"," ","html-keyboard-response","11","2533348","0.0-6.0-2.1","","","",""
"1150","PracticeRecordings/saseum_deer.wav","0","audio-button-response","12","2534518","0.0-6.0-0.2","","","",""
"4763","saseum_deer","{""P0_Q0"":""ㅅ,ㅏ,ㅅ,ㅡ,ㅁ""}","survey","13","2539287","0.0-6.0-1.2","[]","practice","NA","FALSE"
"868","<p style=""font-size:30px"",lang=""ko"">방금 들으신 단어는 ""ㅅ,ㅏ,ㅅ,ㅡ,ㅁ""이라고 쓰시면 됩니다</p><p lang=""ko"">스페이스바를 누르면 다음 페이지로 넘어갑니다</p>"," ","html-keyboard-response","14","2540156","0.0-6.0-2.2","","","",""
"1135","PracticeRecordings/thokki_rabbit.wav","0","audio-button-response","15","2541312","0.0-6.0-0.3","","","",""
"5728","thokki_rabbit","{""P0_Q0"":""ㅌ,ㅗ,ㄲ,ㅣ""}","survey","16","2547047","0.0-6.0-1.3","[]","practice","NA","FALSE"
"860","<p style=""font-size:30px"",lang=""ko"">방금 들으신 단어는 ""ㅌ,ㅗ,ㄲ,ㅣ"" 라고 쓰시면 됩니다</p><p lang=""ko"">스페이스바를 누르면 다음 페이지로 넘어갑니다</p>"," ","html-keyboard-response","17","2547908","0.0-6.0-2.3","","","",""
"610","<p style=""font-size:30px"",lang=""ko"">이제 만든 단어로 연습해봅시다.</p><p lang=""ko"">스페이스바를 누르면 다음 페이지로 넘어갑니다</p>"," ","html-keyboard-response","18","2548518","0.0-7.0","","","",""
"715","PracticeRecordings/snen.wav","0","audio-button-response","19","2549252","0.0-8.0-0.0","","","",""
"5236","snen","{""P0_Q0"":""ㅅ,ㅡ,ㄴ,ㅔ,ㄴ""}","survey","20","2554494","0.0-8.0-1.0","[]","practice","NA","TRUE"
"4278","<p style=""font-size:30px"",lang=""ko"">들으신 단어는 <br> ""ㅅ,ㅡ,ㄴ,ㅐ,ㄴ""  ""ㅅ,ㅡ,ㄴ,ㅐ"" ""ㅅ,ㄴ,ㅐ,ㄴ (""으"" 소리가 안 들리는 경우)"" 등 <br> 사람에 따라 다양하게 들릴 수 있습니다 <br> 본인에게 들리는대로 쓰시면 됩니다.</p><p lang=""ko"">스페이스바를 누르면 다음 페이지로 넘어갑니다</p>"," ","html-keyboard-response","21","2558773","0.0-8.0-2.0","","","",""
"1295","PracticeRecordings/phrak.wav","0","audio-button-response","22","2560086","0.0-8.0-0.1","","","",""
"5758","phrak","{""P0_Q0"":""ㅍ,ㅡ,ㄹ,ㅏ,ㄱ""}","survey","23","2565851","0.0-8.0-1.1","[]","practice","NA","FALSE"
"1493","<p style=""font-size:30px"",lang=""ko"">들으신 단어는 <br> ""ㅍ,ㅡ,ㄹ,ㅏ,ㄱ"" ""ㅍ,ㅡ,ㄹ,ㅏ,ㅅ"" ""ㅋ,ㅡ,ㄹ,ㅏ,ㄱ"" ""ㅍ,ㄹ,ㅏ,ㄱ (""으"" 소리가 안 들리는 경우)"" 등 <br> 사람에 따라 다양하게 들릴 수 있습니다 <br> 본인에게 들리는대로 쓰시면 됩니다.</p><p lang=""ko"">스페이스바를 누르면 다음 페이지로 넘어갑니다</p>"," ","html-keyboard-response","24","2567344","0.0-8.0-2.1","","","",""
"1050","PracticeRecordings/chka.wav","0","audio-button-response","25","2568418","0.0-8.0-0.2","","","",""
"4326","chka","{""P0_Q0"":""ㅅ,ㅡ,ㅋ,ㅏ""}","survey","26","2572752","0.0-8.0-1.2","[]","practice","NA","FALSE"
"1942","<p style=""font-size:30px"",lang=""ko"">들으신 단어는 ""ㅊ,ㅣ,ㄱ,ㅏ"", ""ㅊ,ㅡ,ㄱ,ㅏ"", ""ㅊ,ㄱ,ㅏ"", ""ㅊ,ㅟ,ㄱ,ㅏ"" 등 <br> 사람에 따라 다양하게 들릴 수 있습니다. <br> 본인에게 들리는대로 쓰시면 됩니다.</p><p lang=""ko"">스페이스바를 누르면 다음 페이지로 넘어갑니다</p>"," ","html-keyboard-response","27","2574694","0.0-8.0-2.2","","","",""
"1811",""," ","html-keyboard-response","28","2576506","0.0-9.0","","","",""
"3145","<p style=""font-size:30px"",lang=""ko"">이제 실험을 시작하겠습니다.</p><p style=""font-size:30px"",lang=""ko"">실전에서는 각각의 만든 단어를 한 번씩만 들을 수 있습니다.</p>"," ","html-keyboard-response","29","2579652","0.0-10.0","","","",""
"5563","<p style=""font-size:30px"",lang=""ko"">단어를 풀어 쓰신 후에 그 단어가 한국어로 가능한 단어인지 평가해주세요</p><p style=""font-size:30px"",lang=""ko"">1점은 한국어로 완전 불가능한 단어, 7점은 한국어로 완전 가능한 단어를 의미합니다</p><p lang=""ko"">스페이스바를 누르면 다음 페이지로 넘어갑니다</p>"," ","html-keyboard-response","30","2585215","0.0-11.0","","","",""
"1795","TestRecordings/nthochap.wav","0","audio-button-response","31","2587033","0.0-12.0-0.0","","","",""
"14133","","{""P0_Q0"":""ㅇ,ㅡ,ㅇ,ㅌ,ㅗ,ㅊ,ㅏ,ㅂ"",""P0_Q1"":2}","survey","32","2601180","0.0-12.0-1.0","[]","","",""
"1196","TestRecordings/khmip.wav","0","audio-button-response","33","2602397","0.0-12.0-0.1","","","",""
"7923","","{""P0_Q0"":""ㅋ,ㅡ,ㅁ,ㅣ,ㅂ"",""P0_Q1"":6}","survey","34","2610329","0.0-12.0-1.1","[]","","",""
"1489","TestRecordings/phwim.wav","0","audio-button-response","35","2611841","0.0-12.0-0.2","","","",""
"3902","","{""P0_Q0"":""ㅍ,ㅣ,ㅁ"",""P0_Q1"":7}","survey","36","2615751","0.0-12.0-1.2","[]","","",""
"1044","TestRecordings/ncuk.wav","0","audio-button-response","37","2616817","0.0-12.0-0.3","","","",""
"6471","","{""P0_Q0"":""ㅇ,ㅡ,ㅁ,ㅈ,ㅜ"",""P0_Q1"":3}","survey","38","2623295","0.0-12.0-1.3","[]","","",""
"928","TestRecordings/kwat.wav","0","audio-button-response","39","2624243","0.0-12.0-0.4","","","",""
"7019","","{""P0_Q0"":""ㄱ,ㅘ,ㅅ"",""P0_Q1"":7}","survey","40","2631271","0.0-12.0-1.4","[]","","",""
"1232","TestRecordings/swicit.wav","0","audio-button-response","41","2632525","0.0-12.0-0.5","","","",""
"8176","","{""P0_Q0"":""ㅅ,ㅣ,ㅈ,ㅣ,ㅅ"",""P0_Q1"":7}","survey","42","2640708","0.0-12.0-1.5","[]","","",""
"819","TestRecordings/mip.wav","0","audio-button-response","43","2641547","0.0-12.0-0.6","","","",""
"3643","","{""P0_Q0"":""ㅁ,ㅣ,ㅂ"",""P0_Q1"":7}","survey","44","2645197","0.0-12.0-1.6","[]","","",""
"1293","TestRecordings/cwang.wav","0","audio-button-response","45","2646512","0.0-12.0-0.7","","","",""
"8494","","{""P0_Q0"":""ㅈ,ㅜ,ㅇ,ㅘ,ㅇ"",""P0_Q1"":4}","survey","46","2655013","0.0-12.0-1.7","[]","","",""
"1409","TestRecordings/kophak.wav","0","audio-button-response","47","2656446","0.0-12.0-0.8","","","",""
"11570","","{""P0_Q0"":""ㄱ,ㅗ,ㅍ,ㅏ,ㄱ"",""P0_Q1"":6}","survey","48","2668024","0.0-12.0-1.8","[]","","",""
"622","TestRecordings/thum.wav","0","audio-button-response","49","2668668","0.0-12.0-0.9","","","",""
"5929","","{""P0_Q0"":""ㅌ,ㅜ,ㅁ"",""P0_Q1"":6}","survey","50","2674604","0.0-12.0-1.9","[]","","",""
"2747","TestRecordings/nchitam.wav","0","audio-button-response","51","2677374","0.0-12.0-0.10","","","",""
"10825","","{""P0_Q0"":""ㅇ,ㅜ,ㅇ,ㅊ,ㅣ,ㄷ,ㅏ,ㅁ"",""P0_Q1"":5}","survey","52","2688206","0.0-12.0-1.10","[]","","",""
"2508","TestRecordings/chwap.wav","0","audio-button-response","53","2690735","0.0-12.0-0.11","","","",""
"6826","","{""P0_Q0"":""ㅌ,ㅡ,ㄹ,ㅘ,ㅂ"",""P0_Q1"":3}","survey","54","2697569","0.0-12.0-1.11","[]","","",""
"2185","TestRecordings/phuthik.wav","0","audio-button-response","55","2699775","0.0-12.0-0.12","","","",""
"6967","","{""P0_Q0"":""ㅍ,ㅜ,ㅌ,ㅣ,ㅋ"",""P0_Q1"":3}","survey","56","2706749","0.0-12.0-1.12","[]","","",""
"2594","TestRecordings/phwing.wav","0","audio-button-response","57","2709367","0.0-12.0-0.13","","","",""
"6635","","{""P0_Q0"":""ㅍ,ㅟ,ㅇ"",""P0_Q1"":1}","survey","58","2716009","0.0-12.0-1.13","[]","","",""
"2661","TestRecordings/mkithun.wav","0","audio-button-response","59","2718694","0.0-12.0-0.14","","","",""
"9110","","{""P0_Q0"":""ㅇ,ㅜ,ㅁ,ㄱ,ㅣ,ㅌ,ㅜ,ㄴ"",""P0_Q1"":2}","survey","60","2727811","0.0-12.0-1.14","[]","","",""
"1509","TestRecordings/sutik.wav","0","audio-button-response","61","2729342","0.0-12.0-0.15","","","",""
"10726","","{""P0_Q0"":""ㅅ,ㅜ,ㄷ,ㅣ,ㄱ"",""P0_Q1"":5}","survey","62","2740076","0.0-12.0-1.15","[]","","",""
"1563","TestRecordings/pmathin.wav","0","audio-button-response","63","2741662","0.0-12.0-0.16","","","",""
"9141","","{""P0_Q0"":""ㅌ,ㅡ,ㅁ,ㅏ,ㅌ,ㅣ,ㄴ"",""P0_Q1"":3}","survey","64","2750810","0.0-12.0-1.16","[]","","",""
"1647","TestRecordings/knothing.wav","0","audio-button-response","65","2752480","0.0-12.0-0.17","","","",""
"10819","","{""P0_Q0"":""ㅋ,ㅡ,ㄴ,ㅗ,ㅌ,ㅣ,ㅇ"",""P0_Q1"":6}","survey","66","2763306","0.0-12.0-1.17","[]","","",""
"1115","TestRecordings/nchak.wav","0","audio-button-response","67","2764441","0.0-12.0-0.18","","","",""
"7987","","{""P0_Q0"":""ㅇ,ㅜ,ㅇ,ㅊ,ㅏ,ㅋ"",""P0_Q1"":3}","survey","68","2772435","0.0-12.0-1.18","[]","","",""
"1584","TestRecordings/nchup.wav","0","audio-button-response","69","2774041","0.0-12.0-0.19","","","",""
"8057","","{""P0_Q0"":""ㅇ,ㅜ,ㅁ,ㅊ,ㅜ,ㅂ"",""P0_Q1"":3}","survey","70","2782106","0.0-12.0-1.19","[]","","",""
"1485","TestRecordings/siphuk.wav","0","audio-button-response","71","2783615","0.0-12.0-0.20","","","",""
"5872","","{""P0_Q0"":""ㅅ,ㅣ,ㅍ,ㅜ"",""P0_Q1"":5}","survey","72","2789495","0.0-12.0-1.20","[]","","",""
"3543","TestRecordings/pmuk.wav","0","audio-button-response","73","2793061","0.0-12.0-0.21","","","",""
"6551","","{""P0_Q0"":""ㅍ,ㅁ,ㅜ"",""P0_Q1"":1}","survey","74","2799619","0.0-12.0-1.21","[]","","",""
"1850","TestRecordings/swapong.wav","0","audio-button-response","75","2801492","0.0-12.0-0.22","","","",""
"10121","","{""P0_Q0"":""ㅅ,ㅘ,ㅂ,ㅗ,ㅇ"",""P0_Q1"":5}","survey","76","2811619","0.0-12.0-1.22","[]","","",""
"1630","TestRecordings/knop.wav","0","audio-button-response","77","2813272","0.0-12.0-0.23","","","",""
"12143","","{""P0_Q0"":""ㅋ,ㅡ,ㄴ,ㅗ,ㅂ"",""P0_Q1"":5}","survey","78","2825422","0.0-12.0-1.23","[]","","",""
"2770","TestRecordings/nthiton.wav","0","audio-button-response","79","2828214","0.0-12.0-0.24","","","",""
"10855","","{""P0_Q0"":""ㄴ,ㅇ,ㅜ,ㅁ,ㅌ,ㅣ,ㄷ,ㅜ,ㄴ"",""P0_Q1"":2}","survey","80","2839076","0.0-12.0-1.24","[]","","",""
"2197","TestRecordings/mciphom.wav","0","audio-button-response","81","2841295","0.0-12.0-0.25","","","",""
"13387","","{""P0_Q0"":""ㄴ,ㅜ,ㅈ,ㅣ,ㅍ,ㅜ,ㅁ"",""P0_Q1"":3}","survey","82","2854688","0.0-12.0-1.25","[]","","",""
"1657","TestRecordings/khmoting.wav","0","audio-button-response","83","2856367","0.0-12.0-0.26","","","",""
"7543","","{""P0_Q0"":""ㅋ,ㅡ,ㄴ,ㅗ,ㄷ,ㅣ,ㅇ"",""P0_Q1"":6}","survey","84","2863916","0.0-12.0-1.26","[]","","",""
"1104","TestRecordings/khwapan.wav","0","audio-button-response","85","2865043","0.0-12.0-0.27","","","",""
"6323","","{""P0_Q0"":""ㅋ,ㅘ,ㅂ,ㅏ,ㄴ"",""P0_Q1"":7}","survey","86","2871373","0.0-12.0-1.27","[]","","",""
"1615","TestRecordings/cmot.wav","0","audio-button-response","87","2873010","0.0-12.0-0.28","","","",""
"8269","","{""P0_Q0"":""ㅊ,ㅡ,ㅁ,ㅜ,ㅅ"",""P0_Q1"":4}","survey","88","2881285","0.0-12.0-1.28","[]","","",""
"1846","TestRecordings/nthunit.wav","0","audio-button-response","89","2883153","0.0-12.0-0.29","","","",""
"9725","","{""P0_Q0"":""ㄴ,ㅜ,ㅇ,ㅌ,ㅜ,ㄴ,ㅣ,ㅅ"",""P0_Q1"":4}","survey","90","2892885","0.0-12.0-1.29","[]","","",""
"1272","TestRecordings/phmut.wav","0","audio-button-response","91","2894178","0.0-12.0-0.30","","","",""
"10350","","{""P0_Q0"":""ㅍ,ㅜ,ㅁ,ㅜ,ㅅ"",""P0_Q1"":5}","survey","92","2904534","0.0-12.0-1.30","[]","","",""
"1531","TestRecordings/phninot.wav","0","audio-button-response","93","2906088","0.0-12.0-0.31","","","",""
"9462","","{""P0_Q0"":""ㅍ,ㅜ,ㄴ,ㅣ,ㄴ,ㅗ,ㅅ"",""P0_Q1"":5}","survey","94","2915558","0.0-12.0-1.31","[]","","",""
"1397","TestRecordings/swakhing.wav","0","audio-button-response","95","2916978","0.0-12.0-0.32","","","",""
"5030","","{""P0_Q0"":""ㅅ,ㅘ,ㅋ,ㅣ,ㅇ"",""P0_Q1"":6}","survey","96","2922014","0.0-12.0-1.32","[]","","",""
"1710","TestRecordings/phmacot.wav","0","audio-button-response","97","2923746","0.0-12.0-0.33","","","",""
"11030","","{""P0_Q0"":""ㅍ,ㅡ,ㅁ,ㅏ,ㅈ,ㅗ,ㄴ"",""P0_Q1"":5}","survey","98","2934782","0.0-12.0-1.33","[]","","",""
"1399","TestRecordings/khnichat.wav","0","audio-button-response","99","2936203","0.0-12.0-0.34","","","",""
"10279","","{""P0_Q0"":""ㅋ,ㅡ,ㄴ,ㅣ,ㅊ,ㅏ"",""P0_Q1"":6}","survey","100","2946489","0.0-12.0-1.34","[]","","",""
"1495","TestRecordings/thnukip.wav","0","audio-button-response","101","2948005","0.0-12.0-0.35","","","",""
"14162","","{""P0_Q0"":""ㅌ,ㅡ,ㄴ,ㅜ,ㄱ,ㅣ,ㅅ"",""P0_Q1"":6}","survey","102","2962175","0.0-12.0-1.35","[]","","",""
"1487","TestRecordings/chwakap.wav","0","audio-button-response","103","2963683","0.0-12.0-0.36","","","",""
"9046","","{""P0_Q0"":""ㅊ,ㅏ,ㄱ,ㅏ,ㅂ"",""P0_Q1"":3}","survey","104","2972737","0.0-12.0-1.36","[]","","",""
"1652","TestRecordings/cwasop.wav","0","audio-button-response","105","2974411","0.0-12.0-0.37","","","",""
"9485","","{""P0_Q0"":""ㅈ,ㅘ,ㅅ,ㅗ,ㅅ"",""P0_Q1"":2}","survey","106","2983903","0.0-12.0-1.37","[]","","",""
"1537","TestRecordings/mtak.wav","0","audio-button-response","107","2985460","0.0-12.0-0.38","","","",""
"11043","","{""P0_Q0"":""ㅇ,ㅜ,ㅇ,ㄱ,ㅏ,ㅅ"",""P0_Q1"":2}","survey","108","2996511","0.0-12.0-1.38","[]","","",""
"1315","TestRecordings/khnacin.wav","0","audio-button-response","109","2997848","0.0-12.0-0.39","","","",""
"5993","","{""P0_Q0"":""ㅋ,ㅡ,ㄴ,ㅏ,ㅈ,ㅣ,ㄴ"",""P0_Q1"":6}","survey","110","3003848","0.0-12.0-1.39","[]","","",""
"1326","TestRecordings/pathik.wav","0","audio-button-response","111","3005196","0.0-12.0-0.40","","","",""
"5619","","{""P0_Q0"":""ㅂ,ㅏ,ㅌ,ㅣ,ㄱ"",""P0_Q1"":7}","survey","112","3010822","0.0-12.0-1.40","[]","","",""
"1393","TestRecordings/cut.wav","0","audio-button-response","113","3012236","0.0-12.0-0.41","","","",""
"4157","","{""P0_Q0"":""ㅊ,ㅜ,ㅅ"",""P0_Q1"":3}","survey","114","3016400","0.0-12.0-1.41","[]","","",""
"1437","TestRecordings/nchat.wav","0","audio-button-response","115","3017859","0.0-12.0-0.42","","","",""
"8279","","{""P0_Q0"":""ㅇ,ㅜ,ㅇ,ㅊ,ㅑ,ㅅ"",""P0_Q1"":2}","survey","116","3026144","0.0-12.0-1.42","[]","","",""
"1799","TestRecordings/mphithup.wav","0","audio-button-response","117","3027964","0.0-12.0-0.43","","","",""
"8669","","{""P0_Q0"":""ㅇ,ㅜ,ㅁ,ㅍ,ㅣ,ㅌ,ㅜ,ㅅ"",""P0_Q1"":2}","survey","118","3036640","0.0-12.0-1.43","[]","","",""
"1285","TestRecordings/twikhit.wav","0","audio-button-response","119","3037947","0.0-12.0-0.44","","","",""
"9278","","{""P0_Q0"":""ㅌ,ㅟ,ㅋ,ㅣ,ㅅ"",""P0_Q1"":4}","survey","120","3047232","0.0-12.0-1.44","[]","","",""
"1547","TestRecordings/ntosin.wav","0","audio-button-response","121","3048802","0.0-12.0-0.45","","","",""
"7881","","{""P0_Q0"":""ㅇ,ㅜ,ㄴ,ㄷ,ㅜ,ㅅ,ㅣ,ㄴ"",""P0_Q1"":4}","survey","122","3056689","0.0-12.0-1.45","[]","","",""
"1383","TestRecordings/chut.wav","0","audio-button-response","123","3058093","0.0-12.0-0.46","","","",""
"3085","","{""P0_Q0"":""ㅊ,ㅜ,ㅅ"",""P0_Q1"":6}","survey","124","3061185","0.0-12.0-1.46","[]","","",""
"1527","TestRecordings/pmisung.wav","0","audio-button-response","125","3062733","0.0-12.0-0.47","","","",""
"7403","","{""P0_Q0"":""ㅌ,ㅜ,ㅁ,ㅣ,ㅅ,ㅜ,ㅇ"",""P0_Q1"":3}","survey","126","3070143","0.0-12.0-1.47","[]","","",""
"1487","TestRecordings/pwacung.wav","0","audio-button-response","127","3071654","0.0-12.0-0.48","","","",""
"7235","","{""P0_Q0"":""ㅂ,ㅘ,ㅈ,ㅜ,ㅇ"",""P0_Q1"":5}","survey","128","3078896","0.0-12.0-1.48","[]","","",""
"911","TestRecordings/nucok.wav","0","audio-button-response","129","3079828","0.0-12.0-0.49","","","",""
"4728","","{""P0_Q0"":""ㄴ,ㅜ,ㅈ,ㅗ,ㄱ"",""P0_Q1"":6}","survey","130","3084562","0.0-12.0-1.49","[]","","",""
"1444","TestRecordings/khun.wav","0","audio-button-response","131","3086029","0.0-12.0-0.50","","","",""
"3439","","{""P0_Q0"":""ㅋ,ㅜ,ㄴ"",""P0_Q1"":7}","survey","132","3089474","0.0-12.0-1.50","[]","","",""
"1678","TestRecordings/masuk.wav","0","audio-button-response","133","3091174","0.0-12.0-0.51","","","",""
"7214","","{""P0_Q0"":""ㅁ,ㅏ,ㅅ,ㅜ,ㄱ"",""P0_Q1"":5}","survey","134","3098394","0.0-12.0-1.51","[]","","",""
"1478","TestRecordings/khonik.wav","0","audio-button-response","135","3099895","0.0-12.0-0.52","","","",""
"11435","","{""P0_Q0"":""ㅋ,ㅜ,ㄴ,ㅣ,ㄱ"",""P0_Q1"":6}","survey","136","3111337","0.0-12.0-1.52","[]","","",""
"1087","TestRecordings/niphak.wav","0","audio-button-response","137","3112446","0.0-12.0-0.53","","","",""
"7310","","{""P0_Q0"":""ㄴ,ㅣ,ㅍ,ㅏ,ㄱ"",""P0_Q1"":3}","survey","138","3119762","0.0-12.0-1.53","[]","","",""
"1474","TestRecordings/npokit.wav","0","audio-button-response","139","3121259","0.0-12.0-0.54","","","",""
"10081","","{""P0_Q0"":""ㅇ,ㅜ,ㅁ,ㅂ,ㅜ,ㄱ,ㅣ,ㅅ"",""P0_Q1"":5}","survey","140","3131347","0.0-12.0-1.54","[]","","",""
"1085","TestRecordings/thwicap.wav","0","audio-button-response","141","3132453","0.0-12.0-0.55","","","",""
"4334","","{""P0_Q0"":""ㅌ,ㅣ,ㅈ,ㅏ,ㅂ"",""P0_Q1"":6}","survey","142","3136794","0.0-12.0-1.55","[]","","",""
"1165","TestRecordings/takhut.wav","0","audio-button-response","143","3137983","0.0-12.0-0.56","","","",""
"4773","","{""P0_Q0"":""ㅂ,ㅏ,ㅋ,ㅜ,ㅅ"",""P0_Q1"":7}","survey","144","3142763","0.0-12.0-1.56","[]","","",""
"1138","TestRecordings/mtunak.wav","0","audio-button-response","145","3143923","0.0-12.0-0.57","","","",""
"5967","","{""P0_Q0"":""ㅇ,ㅜ,ㅁ,ㄷ,ㅜ,ㄴ,ㅏ,ㄱ"",""P0_Q1"":4}","survey","146","3149897","0.0-12.0-1.57","[]","","",""
"1878","TestRecordings/cwiphing.wav","0","audio-button-response","147","3151799","0.0-12.0-0.58","","","",""
"4045","","{""P0_Q0"":""ㅈ,ㅟ,ㅍ,ㅣ,ㅇ"",""P0_Q1"":5}","survey","148","3155850","0.0-12.0-1.58","[]","","",""
"1517","TestRecordings/thnakop.wav","0","audio-button-response","149","3157389","0.0-12.0-0.59","","","",""
"7335","","{""P0_Q0"":""ㅌ,ㅡ,ㄴ,ㅏ,ㄱ,ㅗ,ㅂ"",""P0_Q1"":2}","survey","150","3164731","0.0-12.0-1.59","[]","","",""
"1761",""," ","html-keyboard-response","151","3166493","0.0-13.0","","","",""
"97384","","{""P0_Q0"":""24"",""P0_Q1"":""여"",""P0_Q2"":""3살"",""P0_Q3"":""있음, 5살 후반기 부터 약 1년간 "",""P0_Q4"":""중국어 "",""P0_Q5"":""초등학교 1학년 (약 3-4개월), 고등학생 때 6개월 이상"",""P0_Q6"":""없음""}","survey","152","3263888","0.0-14.0","[]","","",""
"23326","<p style=""font-size:30px"",lang=""ko"">실험이 끝났습니다</p><p style=""font-size:30px"",lang=""ko"">참가해주셔서 고맙습니다</p>"," ","html-keyboard-response","153","3287215","0.0-15.0","","","",""
