"rt","stimulus","response","trial_type","trial_index","time_elapsed","internal_node_id","accuracy","PracticeTest","ConsonantSequence","Grammaticality"
"1479849","<p style=""font-size:30px"",lang=""ko"">실험에 오신 것을 환영합니다</p><p lang=""ko"">스페이스바를 누르면 다음 페이지로 넘어갑니다</p>"," ","html-keyboard-response","0","1479752","0.0-0.0","","","",""
"1757","<p style=""font-size:30px"",lang=""ko"">해드폰을 본인에게 잘 맞게 착용하세요</p><p lang=""ko"">스페이스바를 누르면 다음 페이지로 넘어갑니다</p>"," ","html-keyboard-response","1","1481511","0.0-1.0","","","",""
"3183","<p style=""font-size:30px"",lang=""ko"">이 실험에서는 새로 만든 한국 단어를 들으실 겁니다</p><p style=""font-size:30px"",lang=""ko"">단어를 들리는대로 쓰세요. 그런 다음 그 단어가 한국어 단어로 가능한지 평가하세요</p><p lang=""ko"">스페이스바를 누르면 다음 페이지로 넘어갑니다</p>"," ","html-keyboard-response","2","1484691","0.0-2.0","","","",""
"833","<p style=""font-size:30px"",lang=""ko"">원래 있는 단어로 예를 들어 봅시다</p><p lang=""ko"">스페이스바를 누르면 다음 페이지로 넘어갑니다</p>"," ","html-keyboard-response","3","1485524","0.0-3.0","","","",""
"9643","PracticeRecordings/kom_bear.wav","0","audio-button-response","4","1495260","0.0-4.0","","","",""
"2569","<p style=""font-size:30px"",lang=""ko"">이제 직접 단어를 듣고 쓰는 연습을 해봅시다. </p><p style=""font-size:30px"",lang=""ko"">스페이스바를 누르면 다음 페이지로 넘어갑니다</p>"," ","html-keyboard-response","5","1497830","0.0-5.0","","","",""
"3275","PracticeRecordings/kirin_giraffe.wav","0","audio-button-response","6","1501129","0.0-6.0-0.0","","","",""
"8580","kirin_giraffe","{""P0_Q0"":""기린""}","survey","7","1509752","0.0-6.0-1.0","[]","practice","NA","TRUE"
"4429","<p style=""font-size:30px"",lang=""ko"">방금 들으신 단어는 ""ㄱ,ㅣ,ㄹ,ㅣ,ㄴ"" 이라고 쓰시면 됩니다</p><p lang=""ko"">스페이스바를 누르면 다음 페이지로 넘어갑니다</p>"," ","html-keyboard-response","8","1514182","0.0-6.0-2.0","","","",""
"1993","PracticeRecordings/saca_lion.wav","0","audio-button-response","9","1516260","0.0-6.0-0.1","","","",""
"6472","saca_lion","{""P0_Q0"":""사자""}","survey","10","1522742","0.0-6.0-1.1","[]","practice","NA","FALSE"
"1094","<p style=""font-size:30px"",lang=""ko"">방금 들으신 단어는 ""ㅅ,ㅏ,ㅈ,ㅏ"" 라고 쓰시면 됩니다</p><p lang=""ko"">스페이스바를 누르면 다음 페이지로 넘어갑니다</p>"," ","html-keyboard-response","11","1523836","0.0-6.0-2.1","","","",""
"2016","PracticeRecordings/saseum_deer.wav","0","audio-button-response","12","1525938","0.0-6.0-0.2","","","",""
"6573","saseum_deer","{""P0_Q0"":""사슴 ""}","survey","13","1532519","0.0-6.0-1.2","[]","practice","NA","FALSE"
"20551","<p style=""font-size:30px"",lang=""ko"">방금 들으신 단어는 ""ㅅ,ㅏ,ㅅ,ㅡ,ㅁ""이라고 쓰시면 됩니다</p><p lang=""ko"">스페이스바를 누르면 다음 페이지로 넘어갑니다</p>"," ","html-keyboard-response","14","1553077","0.0-6.0-2.2","","","",""
"2606","PracticeRecordings/thokki_rabbit.wav","0","audio-button-response","15","1555770","0.0-6.0-0.3","","","",""
"13871","thokki_rabbit","{""P0_Q0"":""ㅌ,ㅗ,ㄲ,ㅣ""}","survey","16","1569648","0.0-6.0-1.3","[]","practice","NA","FALSE"
"2838","<p style=""font-size:30px"",lang=""ko"">방금 들으신 단어는 ""ㅌ,ㅗ,ㄲ,ㅣ"" 라고 쓰시면 됩니다</p><p lang=""ko"">스페이스바를 누르면 다음 페이지로 넘어갑니다</p>"," ","html-keyboard-response","17","1572487","0.0-6.0-2.3","","","",""
"577","<p style=""font-size:30px"",lang=""ko"">이제 만든 단어로 연습해봅시다.</p><p lang=""ko"">스페이스바를 누르면 다음 페이지로 넘어갑니다</p>"," ","html-keyboard-response","18","1573064","0.0-7.0","","","",""
"2245","PracticeRecordings/snen.wav","0","audio-button-response","19","1575394","0.0-8.0-0.0","","","",""
"7149","snen","{""P0_Q0"":""ㅅ,ㅡ,ㄴ,ㅐ,ㄴ""}","survey","20","1582551","0.0-8.0-1.0","[]","practice","NA","TRUE"
"10247","<p style=""font-size:30px"",lang=""ko"">들으신 단어는 <br> ""ㅅ,ㅡ,ㄴ,ㅐ,ㄴ""  ""ㅅ,ㅡ,ㄴ,ㅐ"" ""ㅅ,ㄴ,ㅐ,ㄴ (""으"" 소리가 안 들리는 경우)"" 등 <br> 사람에 따라 다양하게 들릴 수 있습니다 <br> 본인에게 들리는대로 쓰시면 됩니다.</p><p lang=""ko"">스페이스바를 누르면 다음 페이지로 넘어갑니다</p>"," ","html-keyboard-response","21","1592799","0.0-8.0-2.0","","","",""
"1967","PracticeRecordings/phrak.wav","0","audio-button-response","22","1594850","0.0-8.0-0.1","","","",""
"5765","phrak","{""P0_Q0"":""ㅍ,ㅡ,ㄹ,ㅏ,ㄱ""}","survey","23","1600621","0.0-8.0-1.1","[]","practice","NA","FALSE"
"1216","<p style=""font-size:30px"",lang=""ko"">들으신 단어는 <br> ""ㅍ,ㅡ,ㄹ,ㅏ,ㄱ"" ""ㅍ,ㅡ,ㄹ,ㅏ,ㅅ"" ""ㅋ,ㅡ,ㄹ,ㅏ,ㄱ"" ""ㅍ,ㄹ,ㅏ,ㄱ (""으"" 소리가 안 들리는 경우)"" 등 <br> 사람에 따라 다양하게 들릴 수 있습니다 <br> 본인에게 들리는대로 쓰시면 됩니다.</p><p lang=""ko"">스페이스바를 누르면 다음 페이지로 넘어갑니다</p>"," ","html-keyboard-response","24","1601838","0.0-8.0-2.1","","","",""
"1663","PracticeRecordings/chka.wav","0","audio-button-response","25","1603524","0.0-8.0-0.2","","","",""
"7588","chka","{""P0_Q0"":""ㅊ,ㅡ,ㄱ,ㅏ""}","survey","26","1611119","0.0-8.0-1.2","[]","practice","NA","FALSE"
"1561","<p style=""font-size:30px"",lang=""ko"">들으신 단어는 ""ㅊ,ㅣ,ㄱ,ㅏ"", ""ㅊ,ㅡ,ㄱ,ㅏ"", ""ㅊ,ㄱ,ㅏ"", ""ㅊ,ㅟ,ㄱ,ㅏ"" 등 <br> 사람에 따라 다양하게 들릴 수 있습니다. <br> 본인에게 들리는대로 쓰시면 됩니다.</p><p lang=""ko"">스페이스바를 누르면 다음 페이지로 넘어갑니다</p>"," ","html-keyboard-response","27","1612680","0.0-8.0-2.2","","","",""
"13736",""," ","html-keyboard-response","28","1626417","0.0-9.0","","","",""
"2927","<p style=""font-size:30px"",lang=""ko"">이제 실험을 시작하겠습니다.</p><p style=""font-size:30px"",lang=""ko"">실전에서는 각각의 만든 단어를 한 번씩만 들을 수 있습니다.</p>"," ","html-keyboard-response","29","1629344","0.0-10.0","","","",""
"3659","<p style=""font-size:30px"",lang=""ko"">단어를 풀어 쓰신 후에 그 단어가 한국어로 가능한 단어인지 평가해주세요</p><p style=""font-size:30px"",lang=""ko"">1점은 한국어로 완전 불가능한 단어, 7점은 한국어로 완전 가능한 단어를 의미합니다</p><p lang=""ko"">스페이스바를 누르면 다음 페이지로 넘어갑니다</p>"," ","html-keyboard-response","30","1633005","0.0-11.0","","","",""
"2565","TestRecordings/chwakap.wav","0","audio-button-response","31","1635658","0.0-12.0-0.0","","","",""
"23143","","{""P0_Q0"":""ㅊ,ㅗ,ㅏ,ㄱ,ㅏ,ㅂ"",""P0_Q1"":6}","survey","32","1658815","0.0-12.0-1.0","[]","","",""
"2045","TestRecordings/knop.wav","0","audio-button-response","33","1660948","0.0-12.0-0.1","","","",""
"8871","","{""P0_Q0"":""ㄱ,ㅡ,ㄴ,ㅗ,ㅂ"",""P0_Q1"":5}","survey","34","1669828","0.0-12.0-1.1","[]","","",""
"1964","TestRecordings/pmathin.wav","0","audio-button-response","35","1671816","0.0-12.0-0.2","","","",""
"18320","","{""P0_Q0"":""ㄱ,ㅡ,ㅁ,ㅏ,ㅌ,ㅣ,ㄴ"",""P0_Q1"":4}","survey","36","1690145","0.0-12.0-1.2","[]","","",""
"1577","TestRecordings/khwapan.wav","0","audio-button-response","37","1691805","0.0-12.0-0.3","","","",""
"8410","","{""P0_Q0"":""ㅋ,ㅗ,ㅏ,ㅂ,ㅏ,ㄴ"",""P0_Q1"":6}","survey","38","1700225","0.0-12.0-1.3","[]","","",""
"1718","TestRecordings/phuthik.wav","0","audio-button-response","39","1701967","0.0-12.0-0.4","","","",""
"7026","","{""P0_Q0"":""ㅍ,ㅜ,ㅌ,ㅣ,ㄱ"",""P0_Q1"":6}","survey","40","1709001","0.0-12.0-1.4","[]","","",""
"1175","TestRecordings/thnukip.wav","0","audio-button-response","41","1710263","0.0-12.0-0.5","","","",""
"15598","","{""P0_Q0"":""ㅌ,ㅡ,ㄴ,ㅜ,ㄱ,ㅣ,ㅂ"",""P0_Q1"":4}","survey","42","1725868","0.0-12.0-1.5","[]","","",""
"2004","TestRecordings/siphuk.wav","0","audio-button-response","43","1727958","0.0-12.0-0.6","","","",""
"14925","","{""P0_Q0"":""ㅅ,ㅣ,ㅍ,ㅜ,ㅋ"",""P0_Q1"":4}","survey","44","1742890","0.0-12.0-1.6","[]","","",""
"1368","TestRecordings/cmot.wav","0","audio-button-response","45","1744344","0.0-12.0-0.7","","","",""
"13340","","{""P0_Q0"":""ㅈ,ㅡ,ㅁ,ㅗ,ㄱ,ㅅ"",""P0_Q1"":3}","survey","46","1757692","0.0-12.0-1.7","[]","","",""
"1422","TestRecordings/nucok.wav","0","audio-button-response","47","1759199","0.0-12.0-0.8","","","",""
"5998","","{""P0_Q0"":""ㄴ,ㅜ,ㅈ,ㅗ,ㄱ"",""P0_Q1"":4}","survey","48","1765204","0.0-12.0-1.8","[]","","",""
"1243","TestRecordings/khmoting.wav","0","audio-button-response","49","1766505","0.0-12.0-0.9","","","",""
"9659","","{""P0_Q0"":""ㅋ,ㅡ,ㅁ,ㅗ,ㄷ,ㅣ,ㅇ"",""P0_Q1"":4}","survey","50","1776172","0.0-12.0-1.9","[]","","",""
"1182","TestRecordings/khnichat.wav","0","audio-button-response","51","1777439","0.0-12.0-0.10","","","",""
"10011","","{""P0_Q0"":""ㅋ,ㅡ,ㄴ,ㅣ,ㅊ,ㅏ,ㄱ"",""P0_Q1"":4}","survey","52","1787459","0.0-12.0-1.10","[]","","",""
"1740","TestRecordings/swakhing.wav","0","audio-button-response","53","1789285","0.0-12.0-0.11","","","",""
"10071","","{""P0_Q0"":""ㅅ,ㅛ,ㅏ,ㅋ,ㅣ,ㅇ"",""P0_Q1"":2}","survey","54","1799363","0.0-12.0-1.11","[]","","",""
"1373","TestRecordings/nthunit.wav","0","audio-button-response","55","1800822","0.0-12.0-0.12","","","",""
"11312","","{""P0_Q0"":""ㅇ,ㅣ,ㅇ,ㅌ,ㅜ,ㄴ,ㅣ,ㅅ"",""P0_Q1"":1}","survey","56","1812141","0.0-12.0-1.12","[]","","",""
"1312","TestRecordings/mphithup.wav","0","audio-button-response","57","1813536","0.0-12.0-0.13","","","",""
"24542","","{""P0_Q0"":""ㅇ,ㅡ,ㅇ,ㅍ,ㅣ,ㅌ,ㅜ,ㅂ"",""P0_Q1"":1}","survey","58","1838086","0.0-12.0-1.13","[]","","",""
"1731","TestRecordings/twikhit.wav","0","audio-button-response","59","1839904","0.0-12.0-0.14","","","",""
"10266","","{""P0_Q0"":""ㄷ,ㅜ,ㅣ,ㅋ,ㅣ,ㅅ"",""P0_Q1"":3}","survey","60","1850178","0.0-12.0-1.14","[]","","",""
"1153","TestRecordings/cwasop.wav","0","audio-button-response","61","1851417","0.0-12.0-0.15","","","",""
"6398","","{""P0_Q0"":""ㅈ,ㅗ,ㅏ,ㅅ,ㅗ,ㅂ"",""P0_Q1"":4}","survey","62","1857823","0.0-12.0-1.15","[]","","",""
"1067","TestRecordings/nthochap.wav","0","audio-button-response","63","1858975","0.0-12.0-0.16","","","",""
"22671","","{""P0_Q0"":""ㅇ,ㅣㅇ,ㅌ,ㅗ,ㅊ,ㅏ,ㅂ"",""P0_Q1"":3}","survey","64","1881654","0.0-12.0-1.16","[]","","",""
"1996","TestRecordings/chut.wav","0","audio-button-response","65","1883738","0.0-12.0-0.17","","","",""
"4108","","{""P0_Q0"":""ㅊ,ㅜ,ㅅ"",""P0_Q1"":5}","survey","66","1887854","0.0-12.0-1.17","[]","","",""
"1121","TestRecordings/npokit.wav","0","audio-button-response","67","1889060","0.0-12.0-0.18","","","",""
"15902","","{""P0_Q0"":""ㅇ,ㅡ,ㅁ,ㅂ,ㅗ,ㄱ,ㅣ,ㅅ"",""P0_Q1"":1}","survey","68","1904968","0.0-12.0-1.18","[]","","",""
"1944","TestRecordings/thnakop.wav","0","audio-button-response","69","1906995","0.0-12.0-0.19","","","",""
"10599","","{""P0_Q0"":""ㅋ,ㅡ,ㄴ,ㅏ,ㄱ,ㅗ,ㅂ"",""P0_Q1"":2}","survey","70","1917603","0.0-12.0-1.19","[]","","",""
"1089","TestRecordings/niphak.wav","0","audio-button-response","71","1918777","0.0-12.0-0.20","","","",""
"9407","","{""P0_Q0"":""ㄴ,ㅣ,ㅍ,ㅏ,ㅋ"",""P0_Q1"":3}","survey","72","1928192","0.0-12.0-1.20","[]","","",""
"1230","TestRecordings/ncuk.wav","0","audio-button-response","73","1929497","0.0-12.0-0.21","","","",""
"9295","","{""P0_Q0"":""ㅇ,ㅡ,ㅇ,ㅈ,ㅜ,ㄱ"",""P0_Q1"":2}","survey","74","1938799","0.0-12.0-1.21","[]","","",""
"1418","TestRecordings/masuk.wav","0","audio-button-response","75","1940302","0.0-12.0-0.22","","","",""
"8585","","{""P0_Q0"":""ㅁ,ㅏ,ㅅ,ㅜ,ㄱ"",""P0_Q1"":4}","survey","76","1948894","0.0-12.0-1.22","[]","","",""
"1232","TestRecordings/mtak.wav","0","audio-button-response","77","1950212","0.0-12.0-0.23","","","",""
"20554","","{""P0_Q0"":""ㅇ,ㅡ,ㅇ,ㄷ,ㅏ,ㄹ,ㄱ"",""P0_Q1"":5}","survey","78","1970774","0.0-12.0-1.23","[]","","",""
"3204","TestRecordings/mciphom.wav","0","audio-button-response","79","1974186","0.0-12.0-0.24","","","",""
"13695","","{""P0_Q0"":""ㅇ,ㅡ,ㅇ,ㅈ,ㅣ,ㅍ,ㅜ,ㅂ"",""P0_Q1"":4}","survey","80","1987889","0.0-12.0-1.24","[]","","",""
"1264","TestRecordings/thum.wav","0","audio-button-response","81","1989237","0.0-12.0-0.25","","","",""
"3732","","{""P0_Q0"":""ㅌ,ㅜ,ㅁ"",""P0_Q1"":6}","survey","82","1992977","0.0-12.0-1.25","[]","","",""
"1222","TestRecordings/pwacung.wav","0","audio-button-response","83","1994285","0.0-12.0-0.26","","","",""
"7196","","{""P0_Q0"":""ㅂ,ㅗ,ㅏ,ㅈ,ㅜ,ㅇ"",""P0_Q1"":5}","survey","84","2001488","0.0-12.0-1.26","[]","","",""
"1050","TestRecordings/cut.wav","0","audio-button-response","85","2002621","0.0-12.0-0.27","","","",""
"5645","","{""P0_Q0"":""ㅈ,ㅜ,ㅅ"",""P0_Q1"":6}","survey","86","2008273","0.0-12.0-1.27","[]","","",""
"1448","TestRecordings/ntosin.wav","0","audio-button-response","87","2009806","0.0-12.0-0.28","","","",""
"13069","","{""P0_Q0"":""ㅇ,ㅡ,ㅇ,ㄷ,ㅜ,ㅅ,ㅣ,ㄴ"",""P0_Q1"":4}","survey","88","2022884","0.0-12.0-1.28","[]","","",""
"910","TestRecordings/nchup.wav","0","audio-button-response","89","2023879","0.0-12.0-0.29","","","",""
"31132","","{""P0_Q0"":""ㅇ,ㅡ,ㅇ,ㅊ, ㅜ, ㅂ"",""P0_Q1"":2}","survey","90","2055018","0.0-12.0-1.29","[]","","",""
"1919","TestRecordings/phmut.wav","0","audio-button-response","91","2057023","0.0-12.0-0.30","","","",""
"9981","","{""P0_Q0"":""ㅎ,ㅡ,ㅁ,ㅜ,ㅅ"",""P0_Q1"":6}","survey","92","2067012","0.0-12.0-1.30","[]","","",""
"1156","TestRecordings/cwang.wav","0","audio-button-response","93","2068253","0.0-12.0-0.31","","","",""
"10216","","{""P0_Q0"":""ㅈ,ㅗ,ㅏ,ㅇ"",""P0_Q1"":5}","survey","94","2078475","0.0-12.0-1.31","[]","","",""
"1005","TestRecordings/swicit.wav","0","audio-button-response","95","2079563","0.0-12.0-0.32","","","",""
"11783","","{""P0_Q0"":""ㅅ,ㅣ,ㅈ,ㅣ,ㅂ"",""P0_Q1"":6}","survey","96","2091353","0.0-12.0-1.32","[]","","",""
"2283","TestRecordings/mkithun.wav","0","audio-button-response","97","2093720","0.0-12.0-0.33","","","",""
"11038","","{""P0_Q0"":""ㅇ,ㅡ,ㅇ,ㄱ,ㅣ,ㅌ,ㅜ,ㄴ"",""P0_Q1"":2}","survey","98","2104766","0.0-12.0-1.33","[]","","",""
"1149","TestRecordings/phmacot.wav","0","audio-button-response","99","2106000","0.0-12.0-0.34","","","",""
"12140","","{""P0_Q0"":""ㅍ,ㅡ,ㅁ,ㅏ,ㅈ,ㅗ,ㄷ"",""P0_Q1"":3}","survey","100","2118148","0.0-12.0-1.34","[]","","",""
"975","TestRecordings/khmip.wav","0","audio-button-response","101","2119209","0.0-12.0-0.35","","","",""
"7970","","{""P0_Q0"":""ㅋ,ㅡ,ㄴ,ㅇ,ㅣ,ㅂ"",""P0_Q1"":6}","survey","102","2127186","0.0-12.0-1.35","[]","","",""
"2208","TestRecordings/nthiton.wav","0","audio-button-response","103","2129480","0.0-12.0-0.36","","","",""
"10316","","{""P0_Q0"":""ㅇ,ㅡ,ㅇ,ㅌ,ㅣ,ㄷ,ㅗ,ㄴ"",""P0_Q1"":2}","survey","104","2139805","0.0-12.0-1.36","[]","","",""
"1224","TestRecordings/kophak.wav","0","audio-button-response","105","2141114","0.0-12.0-0.37","","","",""
"11660","","{""P0_Q0"":""ㄱ,ㅗ,ㅍ,ㅏ,ㅋ"",""P0_Q1"":6}","survey","106","2152781","0.0-12.0-1.37","[]","","",""
"973","TestRecordings/takhut.wav","0","audio-button-response","107","2153839","0.0-12.0-0.38","","","",""
"15656","","{""P0_Q0"":""ㄷ,ㅏ,ㄹ,ㄱ,ㅎ,ㅜ,ㅌ"",""P0_Q1"":5}","survey","108","2169501","0.0-12.0-1.38","[]","","",""
"1488","TestRecordings/phwim.wav","0","audio-button-response","109","2171074","0.0-12.0-0.39","","","",""
"6210","","{""P0_Q0"":""ㅌ,ㅜ,ㅣ,ㅁ"",""P0_Q1"":7}","survey","110","2177293","0.0-12.0-1.39","[]","","",""
"1139","TestRecordings/nchat.wav","0","audio-button-response","111","2178516","0.0-12.0-0.40","","","",""
"15600","","{""P0_Q0"":""ㅇ,ㅡ,ㅇ,ㅊ,ㅐ,ㅅ"",""P0_Q1"":6}","survey","112","2194123","0.0-12.0-1.40","[]","","",""
"1123","TestRecordings/pmisung.wav","0","audio-button-response","113","2195331","0.0-12.0-0.41","","","",""
"10592","","{""P0_Q0"":""ㄷ,ㅡ,ㅁ,ㅣ,ㅅ,ㅜ,ㅇ"",""P0_Q1"":6}","survey","114","2205930","0.0-12.0-1.41","[]","","",""
"853","TestRecordings/mip.wav","0","audio-button-response","115","2206866","0.0-12.0-0.42","","","",""
"6277","","{""P0_Q0"":""ㅁ,ㅣ,ㅂ"",""P0_Q1"":7}","survey","116","2213150","0.0-12.0-1.42","[]","","",""
"1158","TestRecordings/chwap.wav","0","audio-button-response","117","2214331","0.0-12.0-0.43","","","",""
"7539","","{""P0_Q0"":""ㅊ,ㅗ,ㅏ,ㅂ"",""P0_Q1"":7}","survey","118","2221877","0.0-12.0-1.43","[]","","",""
"979","TestRecordings/thwicap.wav","0","audio-button-response","119","2222939","0.0-12.0-0.44","","","",""
"12310","","{""P0_Q0"":""ㅌ,ㅜ,ㅣ,ㅈ,ㅗ,ㅏ,ㅂ"",""P0_Q1"":5}","survey","120","2235256","0.0-12.0-1.44","[]","","",""
"1093","TestRecordings/sutik.wav","0","audio-button-response","121","2236433","0.0-12.0-0.45","","","",""
"5167","","{""P0_Q0"":""ㅅ,ㅜ,ㄷ,ㅣ,ㅋ"",""P0_Q1"":4}","survey","122","2241607","0.0-12.0-1.45","[]","","",""
"1083","TestRecordings/swapong.wav","0","audio-button-response","123","2242776","0.0-12.0-0.46","","","",""
"10081","","{""P0_Q0"":""ㅅ,ㅗ,ㅏ,ㅂ,ㅗ,ㅇ"",""P0_Q1"":6}","survey","124","2252864","0.0-12.0-1.46","[]","","",""
"797","TestRecordings/phwing.wav","0","audio-button-response","125","2253747","0.0-12.0-0.47","","","",""
"9005","","{""P0_Q0"":""ㅋ,ㅗ,ㅐ,ㅇ"",""P0_Q1"":5}","survey","126","2262759","0.0-12.0-1.47","[]","","",""
"1351","TestRecordings/kwat.wav","0","audio-button-response","127","2264140","0.0-12.0-0.48","","","",""
"7096","","{""P0_Q0"":""ㄱ,ㅗ,ㅏ,ㅅ"",""P0_Q1"":6}","survey","128","2271243","0.0-12.0-1.48","[]","","",""
"970","TestRecordings/nchak.wav","0","audio-button-response","129","2272298","0.0-12.0-0.49","","","",""
"8961","","{""P0_Q0"":""ㅇ,ㅡ,ㅇ,ㅊ,ㅏ,ㅋ"",""P0_Q1"":5}","survey","130","2281266","0.0-12.0-1.49","[]","","",""
"1106","TestRecordings/mtunak.wav","0","audio-button-response","131","2282459","0.0-12.0-0.50","","","",""
"9600","","{""P0_Q0"":""ㅇ,ㅡ,ㅁ,ㄷ,ㅜ,ㄴ,ㅏ,ㅅ"",""P0_Q1"":3}","survey","132","2292066","0.0-12.0-1.50","[]","","",""
"1525","TestRecordings/cwiphing.wav","0","audio-button-response","133","2293678","0.0-12.0-0.51","","","",""
"18340","","{""P0_Q0"":""ㄷ,ㅜ,ㅣ,ㅍ,ㅣ,ㅇ"",""P0_Q1"":5}","survey","134","2312025","0.0-12.0-1.51","[]","","",""
"1664","TestRecordings/pathik.wav","0","audio-button-response","135","2313774","0.0-12.0-0.52","","","",""
"12084","","{""P0_Q0"":""ㅂ,ㅏ,ㅌ,ㅣ,ㄱ"",""P0_Q1"":6}","survey","136","2325866","0.0-12.0-1.52","[]","","",""
"1124","TestRecordings/knothing.wav","0","audio-button-response","137","2327077","0.0-12.0-0.53","","","",""
"18155","","{""P0_Q0"":""ㅋ,ㅡ,ㄴ,ㅗ,ㅌ,ㅣ,ㅇ"",""P0_Q1"":5}","survey","138","2345240","0.0-12.0-1.53","[]","","",""
"1316","TestRecordings/khnacin.wav","0","audio-button-response","139","2346581","0.0-12.0-0.54","","","",""
"9988","","{""P0_Q0"":""ㅋ,ㅡ,ㄴ,ㅏ,ㅈ,ㅣ,ㄴ"",""P0_Q1"":6}","survey","140","2356576","0.0-12.0-1.54","[]","","",""
"1010","TestRecordings/khun.wav","0","audio-button-response","141","2357671","0.0-12.0-0.55","","","",""
"4581","","{""P0_Q0"":""ㅋ,ㅜ,ㄴ"",""P0_Q1"":6}","survey","142","2362258","0.0-12.0-1.55","[]","","",""
"1279","TestRecordings/khonik.wav","0","audio-button-response","143","2363623","0.0-12.0-0.56","","","",""
"7669","","{""P0_Q0"":""ㅋ,ㅗ,ㄴ,ㅣ,ㄱ"",""P0_Q1"":6}","survey","144","2371299","0.0-12.0-1.56","[]","","",""
"1113","TestRecordings/phninot.wav","0","audio-button-response","145","2372496","0.0-12.0-0.57","","","",""
"12573","","{""P0_Q0"":""ㅍ,ㅜ,ㄴ,ㅣ,ㄴ,ㅗ,ㄱ"",""P0_Q1"":5}","survey","146","2385075","0.0-12.0-1.57","[]","","",""
"929","TestRecordings/pmuk.wav","0","audio-button-response","147","2386086","0.0-12.0-0.58","","","",""
"6774","","{""P0_Q0"":""ㄷ,ㅡ,ㅁ,ㅜ,ㄱ"",""P0_Q1"":5}","survey","148","2392864","0.0-12.0-1.58","[]","","",""
"1152","TestRecordings/nchitam.wav","0","audio-button-response","149","2394101","0.0-12.0-0.59","","","",""
"9030","","{""P0_Q0"":""ㅇ,ㅡ,ㅇ,ㅊ,ㅣ,ㄷ,ㅏ,ㅁ"",""P0_Q1"":5}","survey","150","2403139","0.0-12.0-1.59","[]","","",""
"4729",""," ","html-keyboard-response","151","2407869","0.0-13.0","","","",""
"36324","","{""P0_Q0"":""20"",""P0_Q1"":""남"",""P0_Q2"":""12살"",""P0_Q3"":""없습니다."",""P0_Q4"":""중국어 아주 기초 정도 배웠습니다."",""P0_Q5"":""6개월 정도 배웠습니다."",""P0_Q6"":""없습니다.""}","survey","152","2444202","0.0-14.0","[]","","",""
"1413","<p style=""font-size:30px"",lang=""ko"">실험이 끝났습니다</p><p style=""font-size:30px"",lang=""ko"">참가해주셔서 고맙습니다</p>"," ","html-keyboard-response","153","2445617","0.0-15.0","","","",""
