"rt","stimulus","response","trial_type","trial_index","time_elapsed","internal_node_id","accuracy","PracticeTest","ConsonantSequence","Grammaticality"
"699469","<p style=""font-size:30px"",lang=""ko"">실험에 오신 것을 환영합니다</p><p lang=""ko"">스페이스바를 누르면 다음 페이지로 넘어갑니다</p>"," ","html-keyboard-response","0","699471","0.0-0.0","","","",""
"1618","<p style=""font-size:30px"",lang=""ko"">해드폰을 본인에게 잘 맞게 착용하세요</p><p lang=""ko"">스페이스바를 누르면 다음 페이지로 넘어갑니다</p>"," ","html-keyboard-response","1","701091","0.0-1.0","","","",""
"2817","<p style=""font-size:30px"",lang=""ko"">이 실험에서는 새로 만든 한국 단어를 들으실 겁니다</p><p style=""font-size:30px"",lang=""ko"">단어를 들리는대로 쓰세요. 그런 다음 그 단어가 한국어 단어로 가능한지 평가하세요</p><p lang=""ko"">스페이스바를 누르면 다음 페이지로 넘어갑니다</p>"," ","html-keyboard-response","2","703908","0.0-2.0","","","",""
"1378","<p style=""font-size:30px"",lang=""ko"">원래 있는 단어로 예를 들어 봅시다</p><p lang=""ko"">스페이스바를 누르면 다음 페이지로 넘어갑니다</p>"," ","html-keyboard-response","3","705287","0.0-3.0","","","",""
"8285","PracticeRecordings/kom_bear.wav","0","audio-button-response","4","713707","0.0-4.0","","","",""
"1671","<p style=""font-size:30px"",lang=""ko"">이제 직접 단어를 듣고 쓰는 연습을 해봅시다. </p><p style=""font-size:30px"",lang=""ko"">스페이스바를 누르면 다음 페이지로 넘어갑니다</p>"," ","html-keyboard-response","5","715379","0.0-5.0","","","",""
"5740","PracticeRecordings/kirin_giraffe.wav","0","audio-button-response","6","721205","0.0-6.0-0.0","","","",""
"17345","kirin_giraffe","{""P0_Q0"":""ㄱ,ㅣ,ㄹ,ㅣ,ㄴ""}","survey","7","738593","0.0-6.0-1.0","[]","practice","NA","TRUE"
"2202","<p style=""font-size:30px"",lang=""ko"">방금 들으신 단어는 ""ㄱ,ㅣ,ㄹ,ㅣ,ㄴ"" 이라고 쓰시면 됩니다</p><p lang=""ko"">스페이스바를 누르면 다음 페이지로 넘어갑니다</p>"," ","html-keyboard-response","8","740796","0.0-6.0-2.0","","","",""
"1969","PracticeRecordings/saca_lion.wav","0","audio-button-response","9","742852","0.0-6.0-0.1","","","",""
"6779","saca_lion","{""P0_Q0"":""ㅅ,ㅏ,ㅈ,ㅏ""}","survey","10","749641","0.0-6.0-1.1","[]","practice","NA","FALSE"
"1173","<p style=""font-size:30px"",lang=""ko"">방금 들으신 단어는 ""ㅅ,ㅏ,ㅈ,ㅏ"" 라고 쓰시면 됩니다</p><p lang=""ko"">스페이스바를 누르면 다음 페이지로 넘어갑니다</p>"," ","html-keyboard-response","11","750815","0.0-6.0-2.1","","","",""
"2112","PracticeRecordings/saseum_deer.wav","0","audio-button-response","12","753012","0.0-6.0-0.2","","","",""
"7798","saseum_deer","{""P0_Q0"":""ㅅ,ㅏ,ㅅ,ㅡ,ㅁ""}","survey","13","760819","0.0-6.0-1.2","[]","practice","NA","FALSE"
"1275","<p style=""font-size:30px"",lang=""ko"">방금 들으신 단어는 ""ㅅ,ㅏ,ㅅ,ㅡ,ㅁ""이라고 쓰시면 됩니다</p><p lang=""ko"">스페이스바를 누르면 다음 페이지로 넘어갑니다</p>"," ","html-keyboard-response","14","762094","0.0-6.0-2.2","","","",""
"2107","PracticeRecordings/thokki_rabbit.wav","0","audio-button-response","15","764288","0.0-6.0-0.3","","","",""
"6920","thokki_rabbit","{""P0_Q0"":""ㅌ""}","survey","16","771216","0.0-6.0-1.3","[]","practice","NA","FALSE"
"1096","<p style=""font-size:30px"",lang=""ko"">방금 들으신 단어는 ""ㅌ,ㅗ,ㄲ,ㅣ"" 라고 쓰시면 됩니다</p><p lang=""ko"">스페이스바를 누르면 다음 페이지로 넘어갑니다</p>"," ","html-keyboard-response","17","772313","0.0-6.0-2.3","","","",""
"1830","<p style=""font-size:30px"",lang=""ko"">이제 만든 단어로 연습해봅시다.</p><p lang=""ko"">스페이스바를 누르면 다음 페이지로 넘어갑니다</p>"," ","html-keyboard-response","18","774144","0.0-7.0","","","",""
"3744","PracticeRecordings/snen.wav","0","audio-button-response","19","777920","0.0-8.0-0.0","","","",""
"10774","snen","{""P0_Q0"":""ㅅ,ㅡ,ㄴ,ㅐ,ㄴ ""}","survey","20","788703","0.0-8.0-1.0","[]","practice","NA","TRUE"
"4082","<p style=""font-size:30px"",lang=""ko"">들으신 단어는 <br> ""ㅅ,ㅡ,ㄴ,ㅐ,ㄴ""  ""ㅅ,ㅡ,ㄴ,ㅐ"" ""ㅅ,ㄴ,ㅐ,ㄴ (""으"" 소리가 안 들리는 경우)"" 등 <br> 사람에 따라 다양하게 들릴 수 있습니다 <br> 본인에게 들리는대로 쓰시면 됩니다.</p><p lang=""ko"">스페이스바를 누르면 다음 페이지로 넘어갑니다</p>"," ","html-keyboard-response","21","792785","0.0-8.0-2.0","","","",""
"2225","PracticeRecordings/phrak.wav","0","audio-button-response","22","795093","0.0-8.0-0.1","","","",""
"8232","phrak","{""P0_Q0"":""ㅍ,ㅡ,ㄹ,ㅏ,ㄱ""}","survey","23","803331","0.0-8.0-1.1","[]","practice","NA","FALSE"
"3857","<p style=""font-size:30px"",lang=""ko"">들으신 단어는 <br> ""ㅍ,ㅡ,ㄹ,ㅏ,ㄱ"" ""ㅍ,ㅡ,ㄹ,ㅏ,ㅅ"" ""ㅋ,ㅡ,ㄹ,ㅏ,ㄱ"" ""ㅍ,ㄹ,ㅏ,ㄱ (""으"" 소리가 안 들리는 경우)"" 등 <br> 사람에 따라 다양하게 들릴 수 있습니다 <br> 본인에게 들리는대로 쓰시면 됩니다.</p><p lang=""ko"">스페이스바를 누르면 다음 페이지로 넘어갑니다</p>"," ","html-keyboard-response","24","807189","0.0-8.0-2.1","","","",""
"6003","PracticeRecordings/chka.wav","0","audio-button-response","25","813213","0.0-8.0-0.2","","","",""
"6371","chka","{""P0_Q0"":""ㅅ,ㅡ,ㄱ,ㅏ""}","survey","26","819589","0.0-8.0-1.2","[]","practice","NA","FALSE"
"3087","<p style=""font-size:30px"",lang=""ko"">들으신 단어는 ""ㅊ,ㅣ,ㄱ,ㅏ"", ""ㅊ,ㅡ,ㄱ,ㅏ"", ""ㅊ,ㄱ,ㅏ"", ""ㅊ,ㅟ,ㄱ,ㅏ"" 등 <br> 사람에 따라 다양하게 들릴 수 있습니다. <br> 본인에게 들리는대로 쓰시면 됩니다.</p><p lang=""ko"">스페이스바를 누르면 다음 페이지로 넘어갑니다</p>"," ","html-keyboard-response","27","822677","0.0-8.0-2.2","","","",""
"1398",""," ","html-keyboard-response","28","824076","0.0-9.0","","","",""
"1393","<p style=""font-size:30px"",lang=""ko"">이제 실험을 시작하겠습니다.</p><p style=""font-size:30px"",lang=""ko"">실전에서는 각각의 만든 단어를 한 번씩만 들을 수 있습니다.</p>"," ","html-keyboard-response","29","825469","0.0-10.0","","","",""
"2581","<p style=""font-size:30px"",lang=""ko"">단어를 풀어 쓰신 후에 그 단어가 한국어로 가능한 단어인지 평가해주세요</p><p style=""font-size:30px"",lang=""ko"">1점은 한국어로 완전 불가능한 단어, 7점은 한국어로 완전 가능한 단어를 의미합니다</p><p lang=""ko"">스페이스바를 누르면 다음 페이지로 넘어갑니다</p>"," ","html-keyboard-response","30","828051","0.0-11.0","","","",""
"3163","TestRecordings/khmoting.wav","0","audio-button-response","31","831301","0.0-12.0-0.0","","","",""
"16331","","{""P0_Q0"":""ㅋ,ㅡ,ㄴ,ㅗ,ㄷ,ㅣ,ㅇ"",""P0_Q1"":1}","survey","32","847649","0.0-12.0-1.0","[]","","",""
"1973","TestRecordings/phmacot.wav","0","audio-button-response","33","849707","0.0-12.0-0.1","","","",""
"20291","","{""P0_Q0"":""ㅍ,ㅡ,ㅁ,ㅏ,ㅈ,ㅗ,ㅎ"",""P0_Q1"":1}","survey","34","870007","0.0-12.0-1.1","[]","","",""
"3419","TestRecordings/nthiton.wav","0","audio-button-response","35","873474","0.0-12.0-0.2","","","",""
"20611","","{""P0_Q0"":""ㄴ,ㅡ,ㄴ,ㅌ,ㅣ,ㄷ,ㅗ,ㄴ"",""P0_Q1"":1}","survey","36","894096","0.0-12.0-1.2","[]","","",""
"3094","TestRecordings/pathik.wav","0","audio-button-response","37","897277","0.0-12.0-0.3","","","",""
"9842","","{""P0_Q0"":""ㅂ,ㅏ,ㅌ,ㅣ,ㄱ"",""P0_Q1"":3}","survey","38","907126","0.0-12.0-1.3","[]","","",""
"2576","TestRecordings/thnakop.wav","0","audio-button-response","39","909785","0.0-12.0-0.4","","","",""
"15160","","{""P0_Q0"":""ㅌ,ㅡ,ㄴ,ㅏ,ㄱ,ㅗ,ㅂ"",""P0_Q1"":3}","survey","40","924955","0.0-12.0-1.4","[]","","",""
"2252","TestRecordings/twikhit.wav","0","audio-button-response","41","927290","0.0-12.0-0.5","","","",""
"13521","","{""P0_Q0"":""ㄷ,ㅣ,ㅋ,ㅣ,ㅅ"",""P0_Q1"":2}","survey","42","940818","0.0-12.0-1.5","[]","","",""
"2557","TestRecordings/mip.wav","0","audio-button-response","43","943465","0.0-12.0-0.6","","","",""
"13902","","{""P0_Q0"":""ㅁ,ㅣ,ㅂ"",""P0_Q1"":5}","survey","44","957375","0.0-12.0-1.6","[]","","",""
"2364","TestRecordings/siphuk.wav","0","audio-button-response","45","959824","0.0-12.0-0.7","","","",""
"7466","","{""P0_Q0"":""ㅅ,ㅣ,ㅍ,ㅜ"",""P0_Q1"":5}","survey","46","967298","0.0-12.0-1.7","[]","","",""
"2784","TestRecordings/npokit.wav","0","audio-button-response","47","970167","0.0-12.0-0.8","","","",""
"17008","","{""P0_Q0"":""ㅇ,ㅡ,ㅁ,ㅂ,ㅜ,ㄱ,ㅣ,ㅅ"",""P0_Q1"":1}","survey","48","987184","0.0-12.0-1.8","[]","","",""
"2762","TestRecordings/ntosin.wav","0","audio-button-response","49","990030","0.0-12.0-0.9","","","",""
"13096","","{""P0_Q0"":""ㅇ,ㅡ,ㄴ,ㄷ,ㅜ,ㅅ,ㅣ,ㄴ"",""P0_Q1"":4}","survey","50","1003134","0.0-12.0-1.9","[]","","",""
"2726","TestRecordings/phwim.wav","0","audio-button-response","51","1005944","0.0-12.0-0.10","","","",""
"15718","","{""P0_Q0"":""ㅍ,ㅣ,ㅇ,ㅣ,ㅁ"",""P0_Q1"":7}","survey","52","1021670","0.0-12.0-1.10","[]","","",""
"2582","TestRecordings/nchak.wav","0","audio-button-response","53","1024336","0.0-12.0-0.11","","","",""
"12595","","{""P0_Q0"":""ㅇ,ㅡ,ㅁ,ㅊ,ㅏ,ㄱ"",""P0_Q1"":6}","survey","54","1036939","0.0-12.0-1.11","[]","","",""
"2423","TestRecordings/cwang.wav","0","audio-button-response","55","1039447","0.0-12.0-0.12","","","",""
"7787","","{""P0_Q0"":""ㅈ,ㅗ,ㅏ,ㅇ"",""P0_Q1"":6}","survey","56","1047242","0.0-12.0-1.12","[]","","",""
"3258","TestRecordings/khmip.wav","0","audio-button-response","57","1050584","0.0-12.0-0.13","","","",""
"12329","","{""P0_Q0"":""ㅋ,ㅡ,ㅁ,ㅣ,ㅂ"",""P0_Q1"":4}","survey","58","1062919","0.0-12.0-1.13","[]","","",""
"2717","TestRecordings/mkithun.wav","0","audio-button-response","59","1065721","0.0-12.0-0.14","","","",""
"17136","","{""P0_Q0"":""ㅇ,ㅡ,ㅁ,ㄱ,ㅣ,ㅌ,ㅜ,ㄴ"",""P0_Q1"":5}","survey","60","1082864","0.0-12.0-1.14","[]","","",""
"2257","TestRecordings/cwasop.wav","0","audio-button-response","61","1085205","0.0-12.0-0.15","","","",""
"14070","","{""P0_Q0"":""ㅈ,ㅗ,ㅏ,ㅅ,ㅗ,ㄱ"",""P0_Q1"":6}","survey","62","1099283","0.0-12.0-1.15","[]","","",""
"2604","TestRecordings/kophak.wav","0","audio-button-response","63","1101972","0.0-12.0-0.16","","","",""
"11098","","{""P0_Q0"":""ㄱ,ㅗ,ㅍ,ㅏ,ㅆ"",""P0_Q1"":7}","survey","64","1113078","0.0-12.0-1.16","[]","","",""
"2053","TestRecordings/thwicap.wav","0","audio-button-response","65","1115215","0.0-12.0-0.17","","","",""
"14292","","{""P0_Q0"":""ㅌ,ㅣ,ㅈ,ㅏ,ㅂ"",""P0_Q1"":6}","survey","66","1129513","0.0-12.0-1.17","[]","","",""
"2368","TestRecordings/nthochap.wav","0","audio-button-response","67","1131904","0.0-12.0-0.18","","","",""
"11886","","{""P0_Q0"":""ㅇ,ㅣ,ㄴ,ㅌ,ㅗ,ㅊ,ㅏ,ㅂ"",""P0_Q1"":1}","survey","68","1143797","0.0-12.0-1.18","[]","","",""
"1943","TestRecordings/pmuk.wav","0","audio-button-response","69","1145823","0.0-12.0-0.19","","","",""
"10252","","{""P0_Q0"":""ㅁ,ㅜ,ㄱ"",""P0_Q1"":7}","survey","70","1156082","0.0-12.0-1.19","[]","","",""
"2437","TestRecordings/khun.wav","0","audio-button-response","71","1158604","0.0-12.0-0.20","","","",""
"8557","","{""P0_Q0"":""ㅋ,ㅜ,ㄴ"",""P0_Q1"":5}","survey","72","1167170","0.0-12.0-1.20","[]","","",""
"2245","TestRecordings/khonik.wav","0","audio-button-response","73","1169439","0.0-12.0-0.21","","","",""
"15416","","{""P0_Q0"":""ㅋ,ㅗ,ㄴ,ㅣ,ㄱ"",""P0_Q1"":3}","survey","74","1184862","0.0-12.0-1.21","[]","","",""
"1699","TestRecordings/khnacin.wav","0","audio-button-response","75","1186647","0.0-12.0-0.22","","","",""
"16087","","{""P0_Q0"":""ㅋ,ㅡ,ㄴ,ㅏ,ㅈ,ㅣ,ㄴ"",""P0_Q1"":2}","survey","76","1202741","0.0-12.0-1.22","[]","","",""
"2485","TestRecordings/phmut.wav","0","audio-button-response","77","1205249","0.0-12.0-0.23","","","",""
"11464","","{""P0_Q0"":""ㅎ,ㅡ,ㅁ,ㅜ,ㅅ"",""P0_Q1"":7}","survey","78","1216720","0.0-12.0-1.23","[]","","",""
"2110","TestRecordings/chwakap.wav","0","audio-button-response","79","1218914","0.0-12.0-0.24","","","",""
"12879","","{""P0_Q0"":""ㅊ,ㅏ,ㄱ,ㅏ,ㅂ"",""P0_Q1"":7}","survey","80","1231801","0.0-12.0-1.24","[]","","",""
"2124","TestRecordings/nchat.wav","0","audio-button-response","81","1234009","0.0-12.0-0.25","","","",""
"13325","","{""P0_Q0"":""ㅇ,ㅡ,ㅁ,ㅊ,ㅏ,ㅈ"",""P0_Q1"":2}","survey","82","1247342","0.0-12.0-1.25","[]","","",""
"2280","TestRecordings/mphithup.wav","0","audio-button-response","83","1249706","0.0-12.0-0.26","","","",""
"17051","","{""P0_Q0"":""ㅇ,ㅡ,ㅁ,ㅍ,ㅣ,ㅌ,ㅜ,ㅅ"",""P0_Q1"":1}","survey","84","1266764","0.0-12.0-1.26","[]","","",""
"2261","TestRecordings/cut.wav","0","audio-button-response","85","1269108","0.0-12.0-0.27","","","",""
"11462","","{""P0_Q0"":""ㅈ,ㅜ,ㅅ"",""P0_Q1"":3}","survey","86","1280578","0.0-12.0-1.27","[]","","",""
"2158","TestRecordings/swapong.wav","0","audio-button-response","87","1282820","0.0-12.0-0.28","","","",""
"16011","","{""P0_Q0"":""ㅅ,ㅗ,ㅏ,ㅂ,ㅗ,ㅇ"",""P0_Q1"":1}","survey","88","1298837","0.0-12.0-1.28","[]","","",""
"2678","TestRecordings/phwing.wav","0","audio-button-response","89","1301600","0.0-12.0-0.29","","","",""
"11543","","{""P0_Q0"":""ㅎ,ㅜ,ㅣ,ㅇ"",""P0_Q1"":7}","survey","90","1313150","0.0-12.0-1.29","[]","","",""
"2157","TestRecordings/khwapan.wav","0","audio-button-response","91","1315392","0.0-12.0-0.30","","","",""
"9401","","{""P0_Q0"":""ㅋ,ㅗ,ㅏ,ㅂ,ㅏ,ㄴ"",""P0_Q1"":1}","survey","92","1324800","0.0-12.0-1.30","[]","","",""
"2143","TestRecordings/cmot.wav","0","audio-button-response","93","1326964","0.0-12.0-0.31","","","",""
"10248","","{""P0_Q0"":""ㅈ,ㅣ,ㅁ,ㅗ,ㅅ"",""P0_Q1"":6}","survey","94","1337221","0.0-12.0-1.31","[]","","",""
"2074","TestRecordings/mciphom.wav","0","audio-button-response","95","1339379","0.0-12.0-0.32","","","",""
"12018","","{""P0_Q0"":""ㅇ,ㅡ,ㅇ,ㅈ,ㅣ,ㅍ,ㅗ,ㅁ"",""P0_Q1"":1}","survey","96","1351404","0.0-12.0-1.32","[]","","",""
"1802","TestRecordings/takhut.wav","0","audio-button-response","97","1353290","0.0-12.0-0.33","","","",""
"10762","","{""P0_Q0"":""ㄷ,ㅏ,ㅋ,ㅜ,ㅅ"",""P0_Q1"":1}","survey","98","1364060","0.0-12.0-1.33","[]","","",""
"1985","TestRecordings/mtunak.wav","0","audio-button-response","99","1366129","0.0-12.0-0.34","","","",""
"16933","","{""P0_Q0"":""ㅇ,ㅡ,ㅁ,ㄷ,ㅜ,ㄴ,ㅏ,ㅅ"",""P0_Q1"":1}","survey","100","1383069","0.0-12.0-1.34","[]","","",""
"2011","TestRecordings/swakhing.wav","0","audio-button-response","101","1385164","0.0-12.0-0.35","","","",""
"9810","","{""P0_Q0"":""ㅅ,ㅗ,ㅏ,ㅋ,ㅣ,ㅇ"",""P0_Q1"":5}","survey","102","1394982","0.0-12.0-1.35","[]","","",""
"2415","TestRecordings/pmisung.wav","0","audio-button-response","103","1397483","0.0-12.0-0.36","","","",""
"8313","","{""P0_Q0"":""ㅁ,ㅣ,ㅅ,ㅜ,ㅇ"",""P0_Q1"":1}","survey","104","1405802","0.0-12.0-1.36","[]","","",""
"1901","TestRecordings/thum.wav","0","audio-button-response","105","1407788","0.0-12.0-0.37","","","",""
"9795","","{""P0_Q0"":""ㅌ,ㅜ,ㅁ"",""P0_Q1"":2}","survey","106","1417590","0.0-12.0-1.37","[]","","",""
"1684","TestRecordings/mtak.wav","0","audio-button-response","107","1419358","0.0-12.0-0.38","","","",""
"11619","","{""P0_Q0"":""ㅇ,ㅡ,ㅇ,ㄷ,ㅏ,ㅂ"",""P0_Q1"":7}","survey","108","1430984","0.0-12.0-1.38","[]","","",""
"1915","TestRecordings/pmathin.wav","0","audio-button-response","109","1432985","0.0-12.0-0.39","","","",""
"9546","","{""P0_Q0"":""ㅁ,ㅏ,ㅌ,ㅣ,ㄴ"",""P0_Q1"":5}","survey","110","1442539","0.0-12.0-1.39","[]","","",""
"1968","TestRecordings/niphak.wav","0","audio-button-response","111","1444548","0.0-12.0-0.40","","","",""
"8071","","{""P0_Q0"":""ㄴ,ㅣ,ㅍ,ㅏ,ㄱ"",""P0_Q1"":2}","survey","112","1452626","0.0-12.0-1.40","[]","","",""
"1771","TestRecordings/swicit.wav","0","audio-button-response","113","1454481","0.0-12.0-0.41","","","",""
"15183","","{""P0_Q0"":""ㅅ,ㅜ,ㅣ,ㅈ,ㅣ,ㅂ"",""P0_Q1"":4}","survey","114","1469671","0.0-12.0-1.41","[]","","",""
"2029","TestRecordings/nchitam.wav","0","audio-button-response","115","1471786","0.0-12.0-0.42","","","",""
"18085","","{""P0_Q0"":""ㅇ,ㅡ,ㅁ,ㅊ,ㅣ,ㄷ,ㅏ,ㅁ"",""P0_Q1"":1}","survey","116","1489877","0.0-12.0-1.42","[]","","",""
"1798","TestRecordings/chut.wav","0","audio-button-response","117","1491756","0.0-12.0-0.43","","","",""
"10164","","{""P0_Q0"":""ㅅ,ㅜ,ㅊ"",""P0_Q1"":7}","survey","118","1501927","0.0-12.0-1.43","[]","","",""
"1971","TestRecordings/phuthik.wav","0","audio-button-response","119","1503982","0.0-12.0-0.44","","","",""
"8599","","{""P0_Q0"":""ㅍ,ㅜ,ㅌ,ㅣ,ㄱ"",""P0_Q1"":2}","survey","120","1512588","0.0-12.0-1.44","[]","","",""
"1698","TestRecordings/pwacung.wav","0","audio-button-response","121","1514370","0.0-12.0-0.45","","","",""
"9463","","{""P0_Q0"":""ㅂ,ㅗ,ㅏ,ㅈ,ㅜ,ㅇ"",""P0_Q1"":2}","survey","122","1523841","0.0-12.0-1.45","[]","","",""
"1500","TestRecordings/nucok.wav","0","audio-button-response","123","1525425","0.0-12.0-0.46","","","",""
"13963","","{""P0_Q0"":""ㄴ,ㅜ,ㅈ,ㅗ,ㄱ"",""P0_Q1"":5}","survey","124","1539394","0.0-12.0-1.46","[]","","",""
"1809","TestRecordings/knop.wav","0","audio-button-response","125","1541287","0.0-12.0-0.47","","","",""
"8618","","{""P0_Q0"":""ㄱ,ㅡ,ㄴ,ㅗ,ㅍ"",""P0_Q1"":2}","survey","126","1549912","0.0-12.0-1.47","[]","","",""
"1625","TestRecordings/kwat.wav","0","audio-button-response","127","1551560","0.0-12.0-0.48","","","",""
"7528","","{""P0_Q0"":""ㄱ,ㅗ,ㅏ,ㅈ"",""P0_Q1"":1}","survey","128","1559096","0.0-12.0-1.48","[]","","",""
"1627","TestRecordings/khnichat.wav","0","audio-button-response","129","1560746","0.0-12.0-0.49","","","",""
"13600","","{""P0_Q0"":""ㄱ,ㅡ,ㄴ,ㅣ,ㅊ,ㅏ,ㅈ"",""P0_Q1"":4}","survey","130","1574353","0.0-12.0-1.49","[]","","",""
"1922","TestRecordings/phninot.wav","0","audio-button-response","131","1576359","0.0-12.0-0.50","","","",""
"15603","","{""P0_Q0"":""ㅍ,ㅡ,ㄴ,ㅣ,ㄴ,ㅗ,ㅈ"",""P0_Q1"":1}","survey","132","1591970","0.0-12.0-1.50","[]","","",""
"1947","TestRecordings/sutik.wav","0","audio-button-response","133","1594001","0.0-12.0-0.51","","","",""
"9620","","{""P0_Q0"":""ㅅ,ㅜ,ㄷ,ㅣ,ㄱ"",""P0_Q1"":1}","survey","134","1603628","0.0-12.0-1.51","[]","","",""
"2204","TestRecordings/cwiphing.wav","0","audio-button-response","135","1605917","0.0-12.0-0.52","","","",""
"8296","","{""P0_Q0"":""ㅈ,ㅜ,ㅣ,ㅍ,ㅣ,ㅇ"",""P0_Q1"":1}","survey","136","1614221","0.0-12.0-1.52","[]","","",""
"2091","TestRecordings/ncuk.wav","0","audio-button-response","137","1616396","0.0-12.0-0.53","","","",""
"12912","","{""P0_Q0"":""ㅇ,ㅡ,ㅁ,ㅈ,ㅜ,ㄱ"",""P0_Q1"":1}","survey","138","1629315","0.0-12.0-1.53","[]","","",""
"2080","TestRecordings/masuk.wav","0","audio-button-response","139","1631479","0.0-12.0-0.54","","","",""
"12531","","{""P0_Q0"":""ㅁ,ㅏ,ㅅ,ㅜ,ㄱ"",""P0_Q1"":7}","survey","140","1644019","0.0-12.0-1.54","[]","","",""
"2046","TestRecordings/nchup.wav","0","audio-button-response","141","1646149","0.0-12.0-0.55","","","",""
"13127","","{""P0_Q0"":""ㅇ,ㅡ,ㅇ,ㅊ,ㅜ,ㄱ"",""P0_Q1"":7}","survey","142","1659283","0.0-12.0-1.55","[]","","",""
"1880","TestRecordings/thnukip.wav","0","audio-button-response","143","1661245","0.0-12.0-0.56","","","",""
"9567","","{""P0_Q0"":""ㅌ,ㅡ,ㄴ,ㅜ,ㄱ,ㅣ,ㅍ"",""P0_Q1"":1}","survey","144","1670817","0.0-12.0-1.56","[]","","",""
"2894","TestRecordings/nthunit.wav","0","audio-button-response","145","1673793","0.0-12.0-0.57","","","",""
"12034","","{""P0_Q0"":""ㅇ,ㅣ,ㄴ,ㅌ,ㅜ,ㄴ,ㅣ,ㅅ"",""P0_Q1"":1}","survey","146","1685835","0.0-12.0-1.57","[]","","",""
"2321","TestRecordings/knothing.wav","0","audio-button-response","147","1688241","0.0-12.0-0.58","","","",""
"17521","","{""P0_Q0"":""ㅋ,ㅡ,ㄴ,ㅗ,ㅌ,ㅣ,ㅇ"",""P0_Q1"":1}","survey","148","1705768","0.0-12.0-1.58","[]","","",""
"2197","TestRecordings/chwap.wav","0","audio-button-response","149","1708051","0.0-12.0-0.59","","","",""
"9326","","{""P0_Q0"":""ㅊ,ㅗ,ㅏ,ㅍ"",""P0_Q1"":5}","survey","150","1717384","0.0-12.0-1.59","[]","","",""
"2169",""," ","html-keyboard-response","151","1719554","0.0-13.0","","","",""
"134263","","{""P0_Q0"":""22"",""P0_Q1"":""여성"",""P0_Q2"":""6"",""P0_Q3"":""없음"",""P0_Q4"":""일본어"",""P0_Q5"":""16살,18살 각 1년씩"",""P0_Q6"":""없음""}","survey","152","1853828","0.0-14.0","[]","","",""
"22088","<p style=""font-size:30px"",lang=""ko"">실험이 끝났습니다</p><p style=""font-size:30px"",lang=""ko"">참가해주셔서 고맙습니다</p>"," ","html-keyboard-response","153","1875917","0.0-15.0","","","",""
