"rt","stimulus","response","trial_type","trial_index","time_elapsed","internal_node_id","accuracy","PracticeTest","ConsonantSequence","Grammaticality"
"726945","<p style=""font-size:30px"",lang=""ko"">실험에 오신 것을 환영합니다</p><p lang=""ko"">스페이스바를 누르면 다음 페이지로 넘어갑니다</p>"," ","html-keyboard-response","0","726833","0.0-0.0","","","",""
"2898","<p style=""font-size:30px"",lang=""ko"">해드폰을 본인에게 잘 맞게 착용하세요</p><p lang=""ko"">스페이스바를 누르면 다음 페이지로 넘어갑니다</p>"," ","html-keyboard-response","1","729732","0.0-1.0","","","",""
"5942","<p style=""font-size:30px"",lang=""ko"">이 실험에서는 새로 만든 한국 단어를 들으실 겁니다</p><p style=""font-size:30px"",lang=""ko"">단어를 들리는대로 쓰세요. 그런 다음 그 단어가 한국어 단어로 가능한지 평가하세요</p><p lang=""ko"">스페이스바를 누르면 다음 페이지로 넘어갑니다</p>"," ","html-keyboard-response","2","735675","0.0-2.0","","","",""
"1753","<p style=""font-size:30px"",lang=""ko"">원래 있는 단어로 예를 들어 봅시다</p><p lang=""ko"">스페이스바를 누르면 다음 페이지로 넘어갑니다</p>"," ","html-keyboard-response","3","737429","0.0-3.0","","","",""
"13455","PracticeRecordings/kom_bear.wav","0","audio-button-response","4","750940","0.0-4.0","","","",""
"2714","<p style=""font-size:30px"",lang=""ko"">이제 직접 단어를 듣고 쓰는 연습을 해봅시다. </p><p style=""font-size:30px"",lang=""ko"">스페이스바를 누르면 다음 페이지로 넘어갑니다</p>"," ","html-keyboard-response","5","753654","0.0-5.0","","","",""
"5128","PracticeRecordings/kirin_giraffe.wav","0","audio-button-response","6","758802","0.0-6.0-0.0","","","",""
"9107","kirin_giraffe","{""P0_Q0"":""ㄱ,ㅣ,ㄹ,ㅣ,ㄴ""}","survey","7","767941","0.0-6.0-1.0","[]","practice","NA","TRUE"
"2791","<p style=""font-size:30px"",lang=""ko"">방금 들으신 단어는 ""ㄱ,ㅣ,ㄹ,ㅣ,ㄴ"" 이라고 쓰시면 됩니다</p><p lang=""ko"">스페이스바를 누르면 다음 페이지로 넘어갑니다</p>"," ","html-keyboard-response","8","770733","0.0-6.0-2.0","","","",""
"2671","PracticeRecordings/saca_lion.wav","0","audio-button-response","9","773423","0.0-6.0-0.1","","","",""
"8267","saca_lion","{""P0_Q0"":""ㅅ,ㅏ,ㅈ,ㅏ""}","survey","10","781705","0.0-6.0-1.1","[]","practice","NA","FALSE"
"1700","<p style=""font-size:30px"",lang=""ko"">방금 들으신 단어는 ""ㅅ,ㅏ,ㅈ,ㅏ"" 라고 쓰시면 됩니다</p><p lang=""ko"">스페이스바를 누르면 다음 페이지로 넘어갑니다</p>"," ","html-keyboard-response","11","783405","0.0-6.0-2.1","","","",""
"3656","PracticeRecordings/saseum_deer.wav","0","audio-button-response","12","787081","0.0-6.0-0.2","","","",""
"6399","saseum_deer","{""P0_Q0"":""ㅅ,ㅏ,ㅅ,ㅡ,ㅁ""}","survey","13","793485","0.0-6.0-1.2","[]","practice","NA","FALSE"
"1305","<p style=""font-size:30px"",lang=""ko"">방금 들으신 단어는 ""ㅅ,ㅏ,ㅅ,ㅡ,ㅁ""이라고 쓰시면 됩니다</p><p lang=""ko"">스페이스바를 누르면 다음 페이지로 넘어갑니다</p>"," ","html-keyboard-response","14","794791","0.0-6.0-2.2","","","",""
"2938","PracticeRecordings/thokki_rabbit.wav","0","audio-button-response","15","797749","0.0-6.0-0.3","","","",""
"9040","thokki_rabbit","{""P0_Q0"":""ㅌ,ㅗ,ㄲ,ㅣ""}","survey","16","806795","0.0-6.0-1.3","[]","practice","NA","FALSE"
"1265","<p style=""font-size:30px"",lang=""ko"">방금 들으신 단어는 ""ㅌ,ㅗ,ㄲ,ㅣ"" 라고 쓰시면 됩니다</p><p lang=""ko"">스페이스바를 누르면 다음 페이지로 넘어갑니다</p>"," ","html-keyboard-response","17","808060","0.0-6.0-2.3","","","",""
"1925","<p style=""font-size:30px"",lang=""ko"">이제 만든 단어로 연습해봅시다.</p><p lang=""ko"">스페이스바를 누르면 다음 페이지로 넘어갑니다</p>"," ","html-keyboard-response","18","809986","0.0-7.0","","","",""
"3017","PracticeRecordings/snen.wav","0","audio-button-response","19","813028","0.0-8.0-0.0","","","",""
"6895","snen","{""P0_Q0"":""ㅅ,ㅡ,ㄴ,ㅐ,ㄴ""}","survey","20","819933","0.0-8.0-1.0","[]","practice","NA","TRUE"
"2947","<p style=""font-size:30px"",lang=""ko"">들으신 단어는 <br> ""ㅅ,ㅡ,ㄴ,ㅐ,ㄴ""  ""ㅅ,ㅡ,ㄴ,ㅐ"" ""ㅅ,ㄴ,ㅐ,ㄴ (""으"" 소리가 안 들리는 경우)"" 등 <br> 사람에 따라 다양하게 들릴 수 있습니다 <br> 본인에게 들리는대로 쓰시면 됩니다.</p><p lang=""ko"">스페이스바를 누르면 다음 페이지로 넘어갑니다</p>"," ","html-keyboard-response","21","822881","0.0-8.0-2.0","","","",""
"2209","PracticeRecordings/phrak.wav","0","audio-button-response","22","825112","0.0-8.0-0.1","","","",""
"5493","phrak","{""P0_Q0"":""ㅂ,ㅡ,ㄹ,ㅏ,ㄱ""}","survey","23","830611","0.0-8.0-1.1","[]","practice","NA","FALSE"
"3681","<p style=""font-size:30px"",lang=""ko"">들으신 단어는 <br> ""ㅍ,ㅡ,ㄹ,ㅏ,ㄱ"" ""ㅍ,ㅡ,ㄹ,ㅏ,ㅅ"" ""ㅋ,ㅡ,ㄹ,ㅏ,ㄱ"" ""ㅍ,ㄹ,ㅏ,ㄱ (""으"" 소리가 안 들리는 경우)"" 등 <br> 사람에 따라 다양하게 들릴 수 있습니다 <br> 본인에게 들리는대로 쓰시면 됩니다.</p><p lang=""ko"">스페이스바를 누르면 다음 페이지로 넘어갑니다</p>"," ","html-keyboard-response","24","834293","0.0-8.0-2.1","","","",""
"2079","PracticeRecordings/chka.wav","0","audio-button-response","25","836394","0.0-8.0-0.2","","","",""
"6333","chka","{""P0_Q0"":""ㅊ,ㅡ,ㄲ,ㅏ""}","survey","26","842733","0.0-8.0-1.2","[]","practice","NA","FALSE"
"2636","<p style=""font-size:30px"",lang=""ko"">들으신 단어는 ""ㅊ,ㅣ,ㄱ,ㅏ"", ""ㅊ,ㅡ,ㄱ,ㅏ"", ""ㅊ,ㄱ,ㅏ"", ""ㅊ,ㅟ,ㄱ,ㅏ"" 등 <br> 사람에 따라 다양하게 들릴 수 있습니다. <br> 본인에게 들리는대로 쓰시면 됩니다.</p><p lang=""ko"">스페이스바를 누르면 다음 페이지로 넘어갑니다</p>"," ","html-keyboard-response","27","845370","0.0-8.0-2.2","","","",""
"2368",""," ","html-keyboard-response","28","847739","0.0-9.0","","","",""
"25956","<p style=""font-size:30px"",lang=""ko"">이제 실험을 시작하겠습니다.</p><p style=""font-size:30px"",lang=""ko"">실전에서는 각각의 만든 단어를 한 번씩만 들을 수 있습니다.</p>"," ","html-keyboard-response","29","873695","0.0-10.0","","","",""
"23071","<p style=""font-size:30px"",lang=""ko"">단어를 풀어 쓰신 후에 그 단어가 한국어로 가능한 단어인지 평가해주세요</p><p lang=""ko"">스페이스바를 누르면 다음 페이지로 넘어갑니다</p>"," ","html-keyboard-response","30","896767","0.0-11.0","","","",""
"3111","TestRecordings/ntosin.wav","0","audio-button-response","31","899912","0.0-12.0-0.0","","","",""
"24300","","{""P0_Q0"":""ㅇ,ㅡ,ㄴ,ㄷ,ㅗ,ㅅ,ㅣ,ㄴ"",""P0_Q1"":""(가능)""}","survey","32","924222","0.0-12.0-1.0","[]","","",""
"2656","TestRecordings/kwat.wav","0","audio-button-response","33","926902","0.0-12.0-0.1","","","",""
"11538","","{""P0_Q0"":""ㄱ,ㅗ,ㅏ,ㄱ"",""P0_Q1"":""(가능)""}","survey","34","938449","0.0-12.0-1.1","[]","","",""
"2713","TestRecordings/pmisung.wav","0","audio-button-response","35","941196","0.0-12.0-0.2","","","",""
"28186","","{""P0_Q0"":""ㅁ,ㄴ,ㅣ,ㅅ,ㅜ,ㅇ"",""P0_Q1"":""(불가능)""}","survey","36","969391","0.0-12.0-1.2","[]","","",""
"3192","TestRecordings/khmip.wav","0","audio-button-response","37","972606","0.0-12.0-0.3","","","",""
"20167","","{""P0_Q0"":""ㅋ,ㅡ,ㅁ,ㅣ,ㅍ"",""P0_Q1"":""(불가능)""}","survey","38","992781","0.0-12.0-1.3","[]","","",""
"1809","TestRecordings/nucok.wav","0","audio-button-response","39","994623","0.0-12.0-0.4","","","",""
"10020","","{""P0_Q0"":""ㄴ,ㅜ,ㅈ,ㅗ,ㄱ"",""P0_Q1"":""(가능)""}","survey","40","1004651","0.0-12.0-1.4","[]","","",""
"2593","TestRecordings/thum.wav","0","audio-button-response","41","1007267","0.0-12.0-0.5","","","",""
"6160","","{""P0_Q0"":""ㅌ,ㅜ,ㅁ"",""P0_Q1"":""(가능)""}","survey","42","1013435","0.0-12.0-1.5","[]","","",""
"3914","TestRecordings/nchup.wav","0","audio-button-response","43","1017372","0.0-12.0-0.6","","","",""
"9722","","{""P0_Q0"":""ㅁ,ㅊ,ㅜ,ㄱ"",""P0_Q1"":""(불가능)""}","survey","44","1027101","0.0-12.0-1.6","[]","","",""
"2553","TestRecordings/mkithun.wav","0","audio-button-response","45","1029675","0.0-12.0-0.7","","","",""
"16372","","{""P0_Q0"":""ㅇ,ㅡ,ㅁ,ㄱ,ㅣ,ㅌ,ㅎ,ㅜ,ㄴ"",""P0_Q1"":""(불가능)""}","survey","46","1046053","0.0-12.0-1.7","[]","","",""
"4268","TestRecordings/mtunak.wav","0","audio-button-response","47","1050343","0.0-12.0-0.8","","","",""
"23858","","{""P0_Q0"":""ㅇ,ㅡ,ㅁ,ㄷ,ㅜ,ㄴ,ㅏ,ㄱ"",""P0_Q1"":""(가능)""}","survey","48","1074210","0.0-12.0-1.8","[]","","",""
"2497","TestRecordings/phninot.wav","0","audio-button-response","49","1076731","0.0-12.0-0.9","","","",""
"11904","","{""P0_Q0"":""ㅍ,ㅡ,ㄴ,ㅣ,ㄴ,ㅗ,ㅎ"",""P0_Q1"":""(불가능)""}","survey","50","1088641","0.0-12.0-1.9","[]","","",""
"2162","TestRecordings/npokit.wav","0","audio-button-response","51","1090825","0.0-12.0-0.10","","","",""
"18763","","{""P0_Q0"":""ㅇ,ㅡ,ㅁ,ㅂ,ㅗ,ㄱ,ㅡ,ㅣ"",""P0_Q1"":""(가능)""}","survey","52","1109596","0.0-12.0-1.10","[]","","",""
"3297","TestRecordings/swakhing.wav","0","audio-button-response","53","1112917","0.0-12.0-0.11","","","",""
"15523","","{""P0_Q0"":""ㅅ,ㅗ,ㅏ,ㅋ,ㅣ,ㅇ"",""P0_Q1"":""(가능)""}","survey","54","1128448","0.0-12.0-1.11","[]","","",""
"2632","TestRecordings/nthochap.wav","0","audio-button-response","55","1131101","0.0-12.0-0.12","","","",""
"17464","","{""P0_Q0"":""ㅇ,ㅡ,ㅁ,ㅌ,ㅗ,ㅊ,ㅑ,ㅂ"",""P0_Q1"":""(가능)""}","survey","56","1148572","0.0-12.0-1.12","[]","","",""
"1981","TestRecordings/siphuk.wav","0","audio-button-response","57","1150574","0.0-12.0-0.13","","","",""
"10193","","{""P0_Q0"":""ㅅ,ㅣ,ㅍ,ㅜ"",""P0_Q1"":""(가능)""}","survey","58","1160775","0.0-12.0-1.13","[]","","",""
"1788","TestRecordings/kophak.wav","0","audio-button-response","59","1162585","0.0-12.0-0.14","","","",""
"6748","","{""P0_Q0"":""ㄱ,ㅗ,ㅍ,ㅏ,ㄱ"",""P0_Q1"":""(가능)""}","survey","60","1169340","0.0-12.0-1.14","[]","","",""
"4332","TestRecordings/thwicap.wav","0","audio-button-response","61","1173693","0.0-12.0-0.15","","","",""
"11131","","{""P0_Q0"":""ㅌ,ㅜ,ㅣ,ㅈ,ㅏ,ㅂ"",""P0_Q1"":""(가능)""}","survey","62","1184830","0.0-12.0-1.15","[]","","",""
"1948","TestRecordings/khonik.wav","0","audio-button-response","63","1186800","0.0-12.0-0.16","","","",""
"13941","","{""P0_Q0"":""ㄴ,ㅎ,ㅗ,ㄴ,ㅡ,ㅣ,ㄱ"",""P0_Q1"":""(불가능)""}","survey","64","1200748","0.0-12.0-1.16","[]","","",""
"2017","TestRecordings/nchak.wav","0","audio-button-response","65","1202786","0.0-12.0-0.17","","","",""
"10814","","{""P0_Q0"":""ㅇ,ㅡ,ㅁ,ㅊ,ㅑ,ㄱ"",""P0_Q1"":""(가능)""}","survey","66","1213607","0.0-12.0-1.17","[]","","",""
"1936","TestRecordings/knothing.wav","0","audio-button-response","67","1215572","0.0-12.0-0.18","","","",""
"15441","","{""P0_Q0"":""ㅋ,ㅡ,ㄴ,ㅗ,ㅌ,ㅣ,ㅇ"",""P0_Q1"":""(가능)""}","survey","68","1231020","0.0-12.0-1.18","[]","","",""
"2023","TestRecordings/pmuk.wav","0","audio-button-response","69","1233064","0.0-12.0-0.19","","","",""
"5211","","{""P0_Q0"":""ㅁ,ㅜ,ㄱ"",""P0_Q1"":""(가능)""}","survey","70","1238283","0.0-12.0-1.19","[]","","",""
"3343","TestRecordings/phuthik.wav","0","audio-button-response","71","1241648","0.0-12.0-0.20","","","",""
"8469","","{""P0_Q0"":""ㅍ,ㅜ,ㅌ,ㅣ,ㄱ"",""P0_Q1"":""(가능)""}","survey","72","1250123","0.0-12.0-1.20","[]","","",""
"1698","TestRecordings/takhut.wav","0","audio-button-response","73","1251842","0.0-12.0-0.21","","","",""
"20104","","{""P0_Q0"":""ㄷ,ㅏ,ㅋ,ㅜ,ㅅ"",""P0_Q1"":""(불가능)""}","survey","74","1271952","0.0-12.0-1.21","[]","","",""
"1853","TestRecordings/chut.wav","0","audio-button-response","75","1273827","0.0-12.0-0.22","","","",""
"12491","","{""P0_Q0"":""ㅊ,ㅜ,ㅌ"",""P0_Q1"":""(불가능)""}","survey","76","1286325","0.0-12.0-1.22","[]","","",""
"4410","TestRecordings/nthiton.wav","0","audio-button-response","77","1290757","0.0-12.0-0.23","","","",""
"10902","","{""P0_Q0"":""ㅇ,ㅡ,ㅁ,ㅌ,ㅣ,ㄷ,ㅗ,ㄴ"",""P0_Q1"":""(가능)""}","survey","78","1301666","0.0-12.0-1.23","[]","","",""
"1707","TestRecordings/chwap.wav","0","audio-button-response","79","1303394","0.0-12.0-0.24","","","",""
"8956","","{""P0_Q0"":""ㅊ,ㅗ,ㅏ,ㅂ"",""P0_Q1"":""(가능)""}","survey","80","1312357","0.0-12.0-1.24","[]","","",""
"2241","TestRecordings/nthunit.wav","0","audio-button-response","81","1314624","0.0-12.0-0.25","","","",""
"10945","","{""P0_Q0"":""ㅇ,ㅡ,ㅁ,ㅌ,ㅜ,ㄴ,ㅣ,ㅅ"",""P0_Q1"":""(가능)""}","survey","82","1325577","0.0-12.0-1.25","[]","","",""
"1730","TestRecordings/thnakop.wav","0","audio-button-response","83","1327329","0.0-12.0-0.26","","","",""
"14365","","{""P0_Q0"":""ㅌ,ㅡ,ㄴ,ㅏ,ㄱ,ㅗ,ㅂ"",""P0_Q1"":""(불가능)""}","survey","84","1341701","0.0-12.0-1.26","[]","","",""
"2302","TestRecordings/khnichat.wav","0","audio-button-response","85","1344025","0.0-12.0-0.27","","","",""
"16544","","{""P0_Q0"":""ㅋ,ㅡ,ㄴ,ㅣ,ㅊ,ㅑ,ㅅ"",""P0_Q1"":""(불가능)""}","survey","86","1360577","0.0-12.0-1.27","[]","","",""
"4705","TestRecordings/khwapan.wav","0","audio-button-response","87","1365303","0.0-12.0-0.28","","","",""
"12629","","{""P0_Q0"":""ㅋ,ㅗ,ㅏ,ㅂ,ㅏ,ㄴ"",""P0_Q1"":""(가능)""}","survey","88","1377938","0.0-12.0-1.28","[]","","",""
"1577","TestRecordings/twikhit.wav","0","audio-button-response","89","1379537","0.0-12.0-0.29","","","",""
"15362","","{""P0_Q0"":""ㄷ,ㅜ,ㅣ,ㅋ,ㅣ,ㅅ"",""P0_Q1"":""(불가능)""}","survey","90","1394905","0.0-12.0-1.29","[]","","",""
"2088","TestRecordings/phwim.wav","0","audio-button-response","91","1397014","0.0-12.0-0.30","","","",""
"12044","","{""P0_Q0"":""ㅌ,ㅜ,ㅡ,ㅣ,ㅁ"",""P0_Q1"":""(불가능)""}","survey","92","1409065","0.0-12.0-1.30","[]","","",""
"1919","TestRecordings/nchat.wav","0","audio-button-response","93","1411007","0.0-12.0-0.31","","","",""
"12869","","{""P0_Q0"":""ㅇ,ㅡ,ㅁ,ㅊ,ㅑ,ㅅ"",""P0_Q1"":""(불가능)""}","survey","94","1423882","0.0-12.0-1.31","[]","","",""
"2026","TestRecordings/sutik.wav","0","audio-button-response","95","1425930","0.0-12.0-0.32","","","",""
"9560","","{""P0_Q0"":""ㅅ,ㅜ,ㄷ,ㅣ,ㄱ"",""P0_Q1"":""(가능)""}","survey","96","1435497","0.0-12.0-1.32","[]","","",""
"1786","TestRecordings/swicit.wav","0","audio-button-response","97","1437304","0.0-12.0-0.33","","","",""
"9225","","{""P0_Q0"":""ㅅ,ㅜ,ㅣ,ㅈ,ㅣ,ㅅ"",""P0_Q1"":""(가능)""}","survey","98","1446537","0.0-12.0-1.33","[]","","",""
"1968","TestRecordings/chwakap.wav","0","audio-button-response","99","1448526","0.0-12.0-0.34","","","",""
"12915","","{""P0_Q0"":""ㅊ,ㅗ,ㅏ,ㄱ,ㅏ,ㅂ"",""P0_Q1"":""(가능)""}","survey","100","1461447","0.0-12.0-1.34","[]","","",""
"1762","TestRecordings/phmut.wav","0","audio-button-response","101","1463230","0.0-12.0-0.35","","","",""
"10305","","{""P0_Q0"":""ㅍ,ㅎ,ㅡ,ㅁ,ㅜ,ㅅ"",""P0_Q1"":""(불가능)""}","survey","102","1473540","0.0-12.0-1.35","[]","","",""
"2523","TestRecordings/phmacot.wav","0","audio-button-response","103","1476085","0.0-12.0-0.36","","","",""
"15753","","{""P0_Q0"":""ㅍ,ㅡ,ㅁ,ㅏ,ㅈ,ㅗ,ㄷ"",""P0_Q1"":""(불가능)""}","survey","104","1491845","0.0-12.0-1.36","[]","","",""
"3047","TestRecordings/knop.wav","0","audio-button-response","105","1494914","0.0-12.0-0.37","","","",""
"28552","","{""P0_Q0"":""ㅋ,ㅡ,ㄴ,ㅗ,ㅎ"",""P0_Q1"":""(가능)""}","survey","106","1523470","0.0-12.0-1.37","[]","","",""
"3619","TestRecordings/mphithup.wav","0","audio-button-response","107","1527114","0.0-12.0-0.38","","","",""
"12632","","{""P0_Q0"":""ㅁ,ㅍ,ㅣ,ㅌ,ㅎ,ㅜ,ㄷ"",""P0_Q1"":""(불가능)""}","survey","108","1539753","0.0-12.0-1.38","[]","","",""
"1735","TestRecordings/mciphom.wav","0","audio-button-response","109","1541510","0.0-12.0-0.39","","","",""
"11550","","{""P0_Q0"":""ㅁ,ㅈ,ㅣ,ㅍ,ㅗ,ㅁ"",""P0_Q1"":""(불가능)""}","survey","110","1553069","0.0-12.0-1.39","[]","","",""
"1663","TestRecordings/mip.wav","0","audio-button-response","111","1554753","0.0-12.0-0.40","","","",""
"6747","","{""P0_Q0"":""ㅁ,ㅣ,ㅍ"",""P0_Q1"":""(가능)""}","survey","112","1561505","0.0-12.0-1.40","[]","","",""
"1538","TestRecordings/masuk.wav","0","audio-button-response","113","1563066","0.0-12.0-0.41","","","",""
"13298","","{""P0_Q0"":""ㅁ,ㅏ,ㅅ,ㅜ,ㄱ"",""P0_Q1"":""(가능)""}","survey","114","1576370","0.0-12.0-1.41","[]","","",""
"3217","TestRecordings/phwing.wav","0","audio-button-response","115","1579610","0.0-12.0-0.42","","","",""
"14441","","{""P0_Q0"":""ㅌ,ㅡ,ㅜ,ㅔ,ㅇ"",""P0_Q1"":""(불가능)""}","survey","116","1594059","0.0-12.0-1.42","[]","","",""
"1868","TestRecordings/cwasop.wav","0","audio-button-response","117","1595950","0.0-12.0-0.43","","","",""
"9753","","{""P0_Q0"":""ㅈ,ㅗ,ㅏ,ㅅ,ㅗ,ㄱ"",""P0_Q1"":""(가능)""}","survey","118","1605709","0.0-12.0-1.43","[]","","",""
"1771","TestRecordings/cwang.wav","0","audio-button-response","119","1607501","0.0-12.0-0.44","","","",""
"10513","","{""P0_Q0"":""ㅈ,ㅗ,ㅑ,ㅇ"",""P0_Q1"":""(불가능)""}","survey","120","1618022","0.0-12.0-1.44","[]","","",""
"4692","TestRecordings/nchitam.wav","0","audio-button-response","121","1622736","0.0-12.0-0.45","","","",""
"18627","","{""P0_Q0"":""ㅇ,ㅡ,ㅁ,ㅊ,ㅣ,ㄷ,ㅏ,ㅁ"",""P0_Q1"":""(가능)""}","survey","122","1641369","0.0-12.0-1.45","[]","","",""
"6882","TestRecordings/cut.wav","0","audio-button-response","123","1648275","0.0-12.0-0.46","","","",""
"6200","","{""P0_Q0"":""ㅈ,ㅜ,ㅅ"",""P0_Q1"":""(가능)""}","survey","124","1654482","0.0-12.0-1.46","[]","","",""
"1531","TestRecordings/khnacin.wav","0","audio-button-response","125","1656036","0.0-12.0-0.47","","","",""
"9747","","{""P0_Q0"":""ㅋ,ㅡ,ㄴ,ㅏ,ㅈ,ㅣ,ㄴ"",""P0_Q1"":""(가능)""}","survey","126","1665791","0.0-12.0-1.47","[]","","",""
"1547","TestRecordings/pathik.wav","0","audio-button-response","127","1667359","0.0-12.0-0.48","","","",""
"9263","","{""P0_Q0"":""ㅂ,ㅏ,ㅌ,ㅣ,ㄱ"",""P0_Q1"":""(가능)""}","survey","128","1676630","0.0-12.0-1.48","[]","","",""
"1795","TestRecordings/khun.wav","0","audio-button-response","129","1678448","0.0-12.0-0.49","","","",""
"5302","","{""P0_Q0"":""ㅋ,ㅜ,ㄴ"",""P0_Q1"":""(가능)""}","survey","130","1683755","0.0-12.0-1.49","[]","","",""
"3058","TestRecordings/khmoting.wav","0","audio-button-response","131","1686835","0.0-12.0-0.50","","","",""
"9557","","{""P0_Q0"":""ㅋ,ㅡ,ㅁ,ㅗ,ㄷ,ㅣ,ㅇ"",""P0_Q1"":""(가능)""}","survey","132","1696399","0.0-12.0-1.50","[]","","",""
"2154","TestRecordings/mtak.wav","0","audio-button-response","133","1698574","0.0-12.0-0.51","","","",""
"18848","","{""P0_Q0"":""ㅇ,ㅡ,ㅁ,ㄷ,ㅏ,ㄱ"",""P0_Q1"":""(불가능)""}","survey","134","1717430","0.0-12.0-1.51","[]","","",""
"1711","TestRecordings/thnukip.wav","0","audio-button-response","135","1719163","0.0-12.0-0.52","","","",""
"11656","","{""P0_Q0"":""ㅌ,ㅡ,ㄴ,ㅜ,ㄱ,ㅣ,ㅍ"",""P0_Q1"":""(불가능)""}","survey","136","1730825","0.0-12.0-1.52","[]","","",""
"2096","TestRecordings/pwacung.wav","0","audio-button-response","137","1732943","0.0-12.0-0.53","","","",""
"11547","","{""P0_Q0"":""ㅂ,ㅗ,ㅏ,ㅈ,ㅜ,ㅇ"",""P0_Q1"":""(가능)""}","survey","138","1744497","0.0-12.0-1.53","[]","","",""
"4289","TestRecordings/cwiphing.wav","0","audio-button-response","139","1748810","0.0-12.0-0.54","","","",""
"15474","","{""P0_Q0"":""ㅈ,ㅜ,ㅣ,ㅍ,ㅣ,ㅇ"",""P0_Q1"":""(가능)""}","survey","140","1764291","0.0-12.0-1.54","[]","","",""
"3806","TestRecordings/swapong.wav","0","audio-button-response","141","1768119","0.0-12.0-0.55","","","",""
"12651","","{""P0_Q0"":""ㅅ,ㅗ,ㅏ,ㅂ,ㅗ,ㅇ"",""P0_Q1"":""(가능)""}","survey","142","1780778","0.0-12.0-1.55","[]","","",""
"10002","TestRecordings/niphak.wav","0","audio-button-response","143","1790802","0.0-12.0-0.56","","","",""
"15830","","{""P0_Q0"":""ㄴ,ㅡ,ㅣ,ㅍ,ㅗ,ㅏ,ㄱ"",""P0_Q1"":""(불가능)""}","survey","144","1806639","0.0-12.0-1.56","[]","","",""
"1832","TestRecordings/cmot.wav","0","audio-button-response","145","1808495","0.0-12.0-0.57","","","",""
"13201","","{""P0_Q0"":""ㅅ,ㅡ,ㅁ,ㅗ,ㅅ"",""P0_Q1"":""(불가능)""}","survey","146","1821702","0.0-12.0-1.57","[]","","",""
"1846","TestRecordings/pmathin.wav","0","audio-button-response","147","1823569","0.0-12.0-0.58","","","",""
"8683","","{""P0_Q0"":""ㅋ,ㅡ,ㅁ,ㅏ,ㅌ,ㅣ,ㄴ"",""P0_Q1"":""(가능)""}","survey","148","1832261","0.0-12.0-1.58","[]","","",""
"1609","TestRecordings/ncuk.wav","0","audio-button-response","149","1833891","0.0-12.0-0.59","","","",""
"9559","","{""P0_Q0"":""ㅇ,ㅡ,ㅁ,ㅈ,ㅜ,ㄱ"",""P0_Q1"":""(가능)""}","survey","150","1843457","0.0-12.0-1.59","[]","","",""
"5752",""," ","html-keyboard-response","151","1849210","0.0-13.0","","","",""
"66647","","{""P0_Q0"":""19세"",""P0_Q1"":""여"",""P0_Q2"":""3살"",""P0_Q3"":""없음"",""P0_Q4"":""없음"",""P0_Q5"":"" 없음"",""P0_Q6"":""고등학교 재학중 제2외국어로 중국어 약 1년 학습""}","survey","152","1915867","0.0-14.0","[]","","",""
"108753","<p style=""font-size:30px"",lang=""ko"">실험이 끝났습니다</p><p style=""font-size:30px"",lang=""ko"">참가해주셔서 고맙습니다</p>"," ","html-keyboard-response","153","2024621","0.0-15.0","","","",""
,