"rt","stimulus","response","trial_type","trial_index","time_elapsed","internal_node_id","accuracy","PracticeTest","ConsonantSequence","Grammaticality"
"2023229","<p style=""font-size:30px"",lang=""ko"">실험에 오신 것을 환영합니다</p><p lang=""ko"">스페이스바를 누르면 다음 페이지로 넘어갑니다</p>"," ","html-keyboard-response","0","2023118","0.0-0.0","","","",""
"4211","<p style=""font-size:30px"",lang=""ko"">해드폰을 본인에게 잘 맞게 착용하세요</p><p lang=""ko"">스페이스바를 누르면 다음 페이지로 넘어갑니다</p>"," ","html-keyboard-response","1","2027329","0.0-1.0","","","",""
"7024","<p style=""font-size:30px"",lang=""ko"">이 실험에서는 새로 만든 한국 단어를 들으실 겁니다</p><p style=""font-size:30px"",lang=""ko"">단어를 들리는대로 쓰세요. 그런 다음 그 단어가 한국어 단어로 가능한지 평가하세요</p><p lang=""ko"">스페이스바를 누르면 다음 페이지로 넘어갑니다</p>"," ","html-keyboard-response","2","2034353","0.0-2.0","","","",""
"1825","<p style=""font-size:30px"",lang=""ko"">원래 있는 단어로 예를 들어 봅시다</p><p lang=""ko"">스페이스바를 누르면 다음 페이지로 넘어갑니다</p>"," ","html-keyboard-response","3","2036178","0.0-3.0","","","",""
"10221","PracticeRecordings/kom_bear.wav","0","audio-button-response","4","2046462","0.0-4.0","","","",""
"1995","<p style=""font-size:30px"",lang=""ko"">이제 직접 단어를 듣고 쓰는 연습을 해봅시다. </p><p style=""font-size:30px"",lang=""ko"">스페이스바를 누르면 다음 페이지로 넘어갑니다</p>"," ","html-keyboard-response","5","2048458","0.0-5.0","","","",""
"3042","PracticeRecordings/kirin_giraffe.wav","0","audio-button-response","6","2051518","0.0-6.0-0.0","","","",""
"5478","kirin_giraffe","{""P0_Q0"":""ㄱ,ㅣ,ㄹ,ㅣ,ㄴ""}","survey","7","2057027","0.0-6.0-1.0","[]","practice","NA","TRUE"
"2932","<p style=""font-size:30px"",lang=""ko"">방금 들으신 단어는 ""ㄱ,ㅣ,ㄹ,ㅣ,ㄴ"" 이라고 쓰시면 됩니다</p><p lang=""ko"">스페이스바를 누르면 다음 페이지로 넘어갑니다</p>"," ","html-keyboard-response","8","2059960","0.0-6.0-2.0","","","",""
"1738","PracticeRecordings/saca_lion.wav","0","audio-button-response","9","2061718","0.0-6.0-0.1","","","",""
"4011","saca_lion","{""P0_Q0"":""ㅅ.ㅏ.ㅈ.ㅏ""}","survey","10","2065735","0.0-6.0-1.1","[]","practice","NA","FALSE"
"1542","<p style=""font-size:30px"",lang=""ko"">방금 들으신 단어는 ""ㅅ,ㅏ,ㅈ,ㅏ"" 라고 쓰시면 됩니다</p><p lang=""ko"">스페이스바를 누르면 다음 페이지로 넘어갑니다</p>"," ","html-keyboard-response","11","2067278","0.0-6.0-2.1","","","",""
"1512","PracticeRecordings/saseum_deer.wav","0","audio-button-response","12","2068809","0.0-6.0-0.2","","","",""
"5269","saseum_deer","{""P0_Q0"":""ㅅ.ㅏ.ㅅ.ㅡ.ㅁ""}","survey","13","2074084","0.0-6.0-1.2","[]","practice","NA","FALSE"
"993","<p style=""font-size:30px"",lang=""ko"">방금 들으신 단어는 ""ㅅ,ㅏ,ㅅ,ㅡ,ㅁ""이라고 쓰시면 됩니다</p><p lang=""ko"">스페이스바를 누르면 다음 페이지로 넘어갑니다</p>"," ","html-keyboard-response","14","2075077","0.0-6.0-2.2","","","",""
"1830","PracticeRecordings/thokki_rabbit.wav","0","audio-button-response","15","2076929","0.0-6.0-0.3","","","",""
"6461","thokki_rabbit","{""P0_Q0"":""ㅌ.ㅗ.ㄲ.ㅣ""}","survey","16","2083398","0.0-6.0-1.3","[]","practice","NA","FALSE"
"1538","<p style=""font-size:30px"",lang=""ko"">방금 들으신 단어는 ""ㅌ,ㅗ,ㄲ,ㅣ"" 라고 쓰시면 됩니다</p><p lang=""ko"">스페이스바를 누르면 다음 페이지로 넘어갑니다</p>"," ","html-keyboard-response","17","2084937","0.0-6.0-2.3","","","",""
"2315","<p style=""font-size:30px"",lang=""ko"">이제 만든 단어로 연습해봅시다.</p><p lang=""ko"">스페이스바를 누르면 다음 페이지로 넘어갑니다</p>"," ","html-keyboard-response","18","2087252","0.0-7.0","","","",""
"1814","PracticeRecordings/snen.wav","0","audio-button-response","19","2089088","0.0-8.0-0.0","","","",""
"7592","snen","{""P0_Q0"":""ㅅ,ㅡ,ㄴ,ㅐ,ㄴ""}","survey","20","2096687","0.0-8.0-1.0","[]","practice","NA","TRUE"
"4781","<p style=""font-size:30px"",lang=""ko"">들으신 단어는 <br> ""ㅅ,ㅡ,ㄴ,ㅐ,ㄴ""  ""ㅅ,ㅡ,ㄴ,ㅐ"" ""ㅅ,ㄴ,ㅐ,ㄴ (""으"" 소리가 안 들리는 경우)"" 등 <br> 사람에 따라 다양하게 들릴 수 있습니다 <br> 본인에게 들리는대로 쓰시면 됩니다.</p><p lang=""ko"">스페이스바를 누르면 다음 페이지로 넘어갑니다</p>"," ","html-keyboard-response","21","2101469","0.0-8.0-2.0","","","",""
"1750","PracticeRecordings/phrak.wav","0","audio-button-response","22","2103240","0.0-8.0-0.1","","","",""
"5189","phrak","{""P0_Q0"":""ㅍ,ㅡ,ㄹ,ㅏ,ㅂ""}","survey","23","2108435","0.0-8.0-1.1","[]","practice","NA","FALSE"
"3683","<p style=""font-size:30px"",lang=""ko"">들으신 단어는 <br> ""ㅍ,ㅡ,ㄹ,ㅏ,ㄱ"" ""ㅍ,ㅡ,ㄹ,ㅏ,ㅅ"" ""ㅋ,ㅡ,ㄹ,ㅏ,ㄱ"" ""ㅍ,ㄹ,ㅏ,ㄱ (""으"" 소리가 안 들리는 경우)"" 등 <br> 사람에 따라 다양하게 들릴 수 있습니다 <br> 본인에게 들리는대로 쓰시면 됩니다.</p><p lang=""ko"">스페이스바를 누르면 다음 페이지로 넘어갑니다</p>"," ","html-keyboard-response","24","2112119","0.0-8.0-2.1","","","",""
"1464","PracticeRecordings/chka.wav","0","audio-button-response","25","2113606","0.0-8.0-0.2","","","",""
"5240","chka","{""P0_Q0"":""ㅊ,ㅡ,ㄲ,ㅏ""}","survey","26","2118852","0.0-8.0-1.2","[]","practice","NA","FALSE"
"1850","<p style=""font-size:30px"",lang=""ko"">들으신 단어는 ""ㅊ,ㅣ,ㄱ,ㅏ"", ""ㅊ,ㅡ,ㄱ,ㅏ"", ""ㅊ,ㄱ,ㅏ"", ""ㅊ,ㅟ,ㄱ,ㅏ"" 등 <br> 사람에 따라 다양하게 들릴 수 있습니다. <br> 본인에게 들리는대로 쓰시면 됩니다.</p><p lang=""ko"">스페이스바를 누르면 다음 페이지로 넘어갑니다</p>"," ","html-keyboard-response","27","2120702","0.0-8.0-2.2","","","",""
"2571",""," ","html-keyboard-response","28","2123274","0.0-9.0","","","",""
"2762","<p style=""font-size:30px"",lang=""ko"">이제 실험을 시작하겠습니다.</p><p style=""font-size:30px"",lang=""ko"">실전에서는 각각의 만든 단어를 한 번씩만 들을 수 있습니다.</p>"," ","html-keyboard-response","29","2126036","0.0-10.0","","","",""
"1311","<p style=""font-size:30px"",lang=""ko"">단어를 풀어 쓰신 후에 그 단어가 한국어로 가능한 단어인지 평가해주세요</p><p lang=""ko"">스페이스바를 누르면 다음 페이지로 넘어갑니다</p>"," ","html-keyboard-response","30","2127347","0.0-11.0","","","",""
"1636","TestRecordings/nchup.wav","0","audio-button-response","31","2129004","0.0-12.0-0.0","","","",""
"24058","","{""P0_Q0"":""ㅇ,ㅜ,ㅇ,ㅊ,ㅜ,ㄱ"",""P0_Q1"":""(가능)""}","survey","32","2153076","0.0-12.0-1.0","[]","","",""
"3058","TestRecordings/pwacung.wav","0","audio-button-response","33","2156158","0.0-12.0-0.1","","","",""
"14982","","{""P0_Q0"":""ㅂ,ㅘ,ㅈ,ㅜ,ㅇ"",""P0_Q1"":""(가능)""}","survey","34","2171150","0.0-12.0-1.1","[]","","",""
"2190","TestRecordings/sutik.wav","0","audio-button-response","35","2173362","0.0-12.0-0.2","","","",""
"8063","","{""P0_Q0"":""ㅅ,ㅜ,ㄹ,ㅣ,ㄱ"",""P0_Q1"":""(불가능)""}","survey","36","2181432","0.0-12.0-1.2","[]","","",""
"1864","TestRecordings/thum.wav","0","audio-button-response","37","2183320","0.0-12.0-0.3","","","",""
"5757","","{""P0_Q0"":""ㅌ,ㅜ,ㅁ"",""P0_Q1"":""(불가능)""}","survey","38","2189086","0.0-12.0-1.3","[]","","",""
"1702","TestRecordings/khun.wav","0","audio-button-response","39","2190809","0.0-12.0-0.4","","","",""
"4994","","{""P0_Q0"":""ㅋ,ㅜ,ㄴ"",""P0_Q1"":""(가능)""}","survey","40","2195811","0.0-12.0-1.4","[]","","",""
"2289","TestRecordings/niphak.wav","0","audio-button-response","41","2198123","0.0-12.0-0.5","","","",""
"6026","","{""P0_Q0"":""ㄴ,ㅍ,ㅏ,ㄱ"",""P0_Q1"":""(가능)""}","survey","42","2204156","0.0-12.0-1.5","[]","","",""
"1785","TestRecordings/thwicap.wav","0","audio-button-response","43","2205962","0.0-12.0-0.6","","","",""
"13197","","{""P0_Q0"":""ㅌ,ㅟ,ㅈ,ㅏ,ㅂ"",""P0_Q1"":""(가능)""}","survey","44","2219167","0.0-12.0-1.6","[]","","",""
"2303","TestRecordings/thnukip.wav","0","audio-button-response","45","2221490","0.0-12.0-0.7","","","",""
"11094","","{""P0_Q0"":""ㅌ,ㅡ,ㄴ,ㅜ,ㄱ,ㅣ,ㅂ"",""P0_Q1"":""(불가능)""}","survey","46","2232591","0.0-12.0-1.7","[]","","",""
"1840","TestRecordings/nthunit.wav","0","audio-button-response","47","2234452","0.0-12.0-0.8","","","",""
"13273","","{""P0_Q0"":""ㅇ,ㅡ,ㅇ,ㅌ,ㅜ,ㄴ,ㅣ,ㄱ"",""P0_Q1"":""(불가능)""}","survey","48","2247732","0.0-12.0-1.8","[]","","",""
"1747","TestRecordings/khnichat.wav","0","audio-button-response","49","2249502","0.0-12.0-0.9","","","",""
"10261","","{""P0_Q0"":""ㅋ,ㅡ,ㄴ,ㅣ,ㅊ,ㅏ,ㅅ"",""P0_Q1"":""(불가능)""}","survey","50","2259770","0.0-12.0-1.9","[]","","",""
"1762","TestRecordings/siphuk.wav","0","audio-button-response","51","2261554","0.0-12.0-0.10","","","",""
"6492","","{""P0_Q0"":""ㅅ,ㅣ,ㅂ,ㅍ,ㅜ"",""P0_Q1"":""(가능)""}","survey","52","2268055","0.0-12.0-1.10","[]","","",""
"2439","TestRecordings/masuk.wav","0","audio-button-response","53","2270515","0.0-12.0-0.11","","","",""
"7177","","{""P0_Q0"":""ㅁ,ㅏ,ㅅ,ㅜ,ㄱ"",""P0_Q1"":""(가능)""}","survey","54","2277699","0.0-12.0-1.11","[]","","",""
"1649","TestRecordings/nchak.wav","0","audio-button-response","55","2279370","0.0-12.0-0.12","","","",""
"6479","","{""P0_Q0"":""ㅇ,ㅡ,ㅇ,ㅊ,ㅑ,ㄱ"",""P0_Q1"":""(불가능)""}","survey","56","2285852","0.0-12.0-1.12","[]","","",""
"1882","TestRecordings/khwapan.wav","0","audio-button-response","57","2287756","0.0-12.0-0.13","","","",""
"6775","","{""P0_Q0"":""ㅋ,ㅘ,ㅂ,ㅏ,ㄴ"",""P0_Q1"":""(가능)""}","survey","58","2294538","0.0-12.0-1.13","[]","","",""
"1893","TestRecordings/phninot.wav","0","audio-button-response","59","2296454","0.0-12.0-0.14","","","",""
"12014","","{""P0_Q0"":""ㅍ,ㅡ,ㄴ,ㅣ,ㄴ,ㅗ,ㅅ"",""P0_Q1"":""(불가능)""}","survey","60","2308474","0.0-12.0-1.14","[]","","",""
"1966","TestRecordings/swicit.wav","0","audio-button-response","61","2310471","0.0-12.0-0.15","","","",""
"5945","","{""P0_Q0"":""ㅅ,ㅟ,ㅈ,ㅣ,ㅅ"",""P0_Q1"":""(가능)""}","survey","62","2316424","0.0-12.0-1.15","[]","","",""
"1738","TestRecordings/nchat.wav","0","audio-button-response","63","2318183","0.0-12.0-0.16","","","",""
"6909","","{""P0_Q0"":""ㅇ,ㅡ,ㅇ,ㅊ,ㅏ,ㅅ"",""P0_Q1"":""(불가능)""}","survey","64","2325100","0.0-12.0-1.16","[]","","",""
"1801","TestRecordings/kophak.wav","0","audio-button-response","65","2326923","0.0-12.0-0.17","","","",""
"7541","","{""P0_Q0"":""ㄱ,ㅗ,ㅍ,ㅏ,ㅅ"",""P0_Q1"":""(가능)""}","survey","66","2334470","0.0-12.0-1.17","[]","","",""
"1710","TestRecordings/nthiton.wav","0","audio-button-response","67","2336203","0.0-12.0-0.18","","","",""
"10411","","{""P0_Q0"":""ㅇ,ㅡ,ㅇ,ㅌ,ㅣ,ㄷ,ㅗ,ㄴ"",""P0_Q1"":""(불가능)""}","survey","68","2346624","0.0-12.0-1.18","[]","","",""
"3229","TestRecordings/pmisung.wav","0","audio-button-response","69","2349874","0.0-12.0-0.19","","","",""
"10918","","{""P0_Q0"":""ㅌ,ㅡㄴ,ㅣ,ㅅ,ㅜ,ㅇ"",""P0_Q1"":""(불가능)""}","survey","70","2360799","0.0-12.0-1.19","[]","","",""
"1708","TestRecordings/takhut.wav","0","audio-button-response","71","2362528","0.0-12.0-0.20","","","",""
"8881","","{""P0_Q0"":""ㄷ,ㅏ,ㄱ,ㅋ,ㅜ,ㅅ"",""P0_Q1"":""(가능)""}","survey","72","2371416","0.0-12.0-1.20","[]","","",""
"2300","TestRecordings/twikhit.wav","0","audio-button-response","73","2373737","0.0-12.0-0.21","","","",""
"9535","","{""P0_Q0"":""ㅌ,ㅟ,ㅋ,ㅣ,ㅅ"",""P0_Q1"":""(가능)""}","survey","74","2383279","0.0-12.0-1.21","[]","","",""
"1886","TestRecordings/npokit.wav","0","audio-button-response","75","2385187","0.0-12.0-0.22","","","",""
"10818","","{""P0_Q0"":""ㅇ,ㅡ,ㅇ,ㅂ,ㅜ,ㄱ,ㅣ,ㅅ"",""P0_Q1"":""(불가능)""}","survey","76","2396011","0.0-12.0-1.22","[]","","",""
"1943","TestRecordings/mphithup.wav","0","audio-button-response","77","2397975","0.0-12.0-0.23","","","",""
"8688","","{""P0_Q0"":""ㅇ,ㅡ,ㅇ,ㅍ,ㅣ,ㅌ,ㅜ,ㅅ"",""P0_Q1"":""(불가능)""}","survey","78","2406670","0.0-12.0-1.23","[]","","",""
"2054","TestRecordings/phwim.wav","0","audio-button-response","79","2408745","0.0-12.0-0.24","","","",""
"16978","","{""P0_Q0"":""ㅌ,ㅟ,ㅇ,ㅣ,ㅁ"",""P0_Q1"":""(가능)""}","survey","80","2425730","0.0-12.0-1.24","[]","","",""
"1869","TestRecordings/cwiphing.wav","0","audio-button-response","81","2427621","0.0-12.0-0.25","","","",""
"8552","","{""P0_Q0"":""ㅈ,ㅟ,ㅂ,ㅍ,ㅣ,ㅇ"",""P0_Q1"":""(가능)""}","survey","82","2436180","0.0-12.0-1.25","[]","","",""
"1864","TestRecordings/chwakap.wav","0","audio-button-response","83","2438066","0.0-12.0-0.26","","","",""
"6420","","{""P0_Q0"":""ㅊ,ㅘ,ㄱ,ㅏ,ㅂ"",""P0_Q1"":""(가능)""}","survey","84","2444493","0.0-12.0-1.26","[]","","",""
"1648","TestRecordings/chwap.wav","0","audio-button-response","85","2446163","0.0-12.0-0.27","","","",""
"10711","","{""P0_Q0"":""ㅊ,ㅘ,ㅇ,ㅏ,ㅂ"",""P0_Q1"":""(가능)""}","survey","86","2456881","0.0-12.0-1.27","[]","","",""
"2457","TestRecordings/thnakop.wav","0","audio-button-response","87","2459359","0.0-12.0-0.28","","","",""
"6970","","{""P0_Q0"":""ㅌ,ㅡ,ㄴ,ㅏ,ㄱ,ㅗ,ㅂ"",""P0_Q1"":""(가능)""}","survey","88","2466338","0.0-12.0-1.28","[]","","",""
"3178","TestRecordings/khnacin.wav","0","audio-button-response","89","2469538","0.0-12.0-0.29","","","",""
"10011","","{""P0_Q0"":""ㅋ,ㅡ,ㄴ,ㅏ,ㅈ,ㅣ,ㄴ"",""P0_Q1"":""(가능)""}","survey","90","2479556","0.0-12.0-1.29","[]","","",""
"4661","TestRecordings/phwing.wav","0","audio-button-response","91","2484241","0.0-12.0-0.30","","","",""
"19712","","{""P0_Q0"":""ㅌ,ㅟ,ㅇ,ㅣ,ㅇ"",""P0_Q1"":""(가능)""}","survey","92","2503960","0.0-12.0-1.30","[]","","",""
"2648","TestRecordings/mkithun.wav","0","audio-button-response","93","2506632","0.0-12.0-0.31","","","",""
"14797","","{""P0_Q0"":""ㅇ,ㅡ,ㅇ,ㄱ,ㅣ,ㅌ,ㅜ,ㄴ"",""P0_Q1"":""(불가능)""}","survey","94","2521436","0.0-12.0-1.31","[]","","",""
"1634","TestRecordings/mciphom.wav","0","audio-button-response","95","2523092","0.0-12.0-0.32","","","",""
"12789","","{""P0_Q0"":""ㅇ,ㅡ,ㅇ,ㅈ,ㅣ,ㅍ,ㅗ,ㅁ"",""P0_Q1"":""(불가능)""}","survey","96","2535887","0.0-12.0-1.32","[]","","",""
"2021","TestRecordings/ncuk.wav","0","audio-button-response","97","2537930","0.0-12.0-0.33","","","",""
"9054","","{""P0_Q0"":""ㅇ,ㅡ,ㅇ,ㅈ,ㅜ,ㄱ"",""P0_Q1"":""(불가능)""}","survey","98","2546991","0.0-12.0-1.33","[]","","",""
"1694","TestRecordings/swapong.wav","0","audio-button-response","99","2548707","0.0-12.0-0.34","","","",""
"6548","","{""P0_Q0"":""ㅅ,ㅘ,ㅂ,ㅗ,ㅇ"",""P0_Q1"":""(가능)""}","survey","100","2555262","0.0-12.0-1.34","[]","","",""
"1652","TestRecordings/phmut.wav","0","audio-button-response","101","2556935","0.0-12.0-0.35","","","",""
"8166","","{""P0_Q0"":""ㅌ,ㅡ,ㅁ,ㅜ,ㅅ"",""P0_Q1"":""(가능)""}","survey","102","2565106","0.0-12.0-1.35","[]","","",""
"1543","TestRecordings/chut.wav","0","audio-button-response","103","2566671","0.0-12.0-0.36","","","",""
"5116","","{""P0_Q0"":""ㅊ,ㅜ,ㅅ"",""P0_Q1"":""(가능)""}","survey","104","2571796","0.0-12.0-1.36","[]","","",""
"1866","TestRecordings/pmuk.wav","0","audio-button-response","105","2573684","0.0-12.0-0.37","","","",""
"8505","","{""P0_Q0"":""ㄷ,ㅡ,ㅁ,ㅜ,ㅅ"",""P0_Q1"":""(불가능)""}","survey","106","2582195","0.0-12.0-1.37","[]","","",""
"1940","TestRecordings/khmoting.wav","0","audio-button-response","107","2584159","0.0-12.0-0.38","","","",""
"7421","","{""P0_Q0"":""ㅋ,ㅡ,ㄴ,ㅗ,ㄷ,ㅣ,ㅇ"",""P0_Q1"":""(가능)""}","survey","108","2591588","0.0-12.0-1.38","[]","","",""
"1736","TestRecordings/knothing.wav","0","audio-button-response","109","2593346","0.0-12.0-0.39","","","",""
"8176","","{""P0_Q0"":""ㅋ,ㅡ,ㄴ,ㅗ,ㅌ,ㅣ,ㅇ"",""P0_Q1"":""(가능)""}","survey","110","2601528","0.0-12.0-1.39","[]","","",""
"1549","TestRecordings/nthochap.wav","0","audio-button-response","111","2603100","0.0-12.0-0.40","","","",""
"8632","","{""P0_Q0"":""ㅇ,ㅡ,ㅇ,ㅌ,ㅗ,ㅊ,ㅑ,ㅂ"",""P0_Q1"":""(가능)""}","survey","112","2611739","0.0-12.0-1.40","[]","","",""
"1614","TestRecordings/pathik.wav","0","audio-button-response","113","2613375","0.0-12.0-0.41","","","",""
"10826","","{""P0_Q0"":""ㅂ,ㅏ,ㅅ,ㅌ,ㅣ,ㄱ"",""P0_Q1"":""(가능)""}","survey","114","2624207","0.0-12.0-1.41","[]","","",""
"1759","TestRecordings/cwasop.wav","0","audio-button-response","115","2625987","0.0-12.0-0.42","","","",""
"10457","","{""P0_Q0"":""ㅈ,ㅘ,ㅅ,ㅗ,ㅂ"",""P0_Q1"":""(가능)""}","survey","116","2636450","0.0-12.0-1.42","[]","","",""
"1575","TestRecordings/mip.wav","0","audio-button-response","117","2638045","0.0-12.0-0.43","","","",""
"4950","","{""P0_Q0"":""ㅁ,ㅣ,ㅂ"",""P0_Q1"":""(가능)""}","survey","118","2643002","0.0-12.0-1.43","[]","","",""
"1475","TestRecordings/cwang.wav","0","audio-button-response","119","2644501","0.0-12.0-0.44","","","",""
"8942","","{""P0_Q0"":""ㅈ,ㅘ,ㅇ,ㅏ,ㅇ"",""P0_Q1"":""(가능)""}","survey","120","2653450","0.0-12.0-1.44","[]","","",""
"1794","TestRecordings/cmot.wav","0","audio-button-response","121","2655265","0.0-12.0-0.45","","","",""
"5579","","{""P0_Q0"":""ㅊ,ㅡ,ㅁ,ㅗ,ㅅ"",""P0_Q1"":""(불가능)""}","survey","122","2660850","0.0-12.0-1.45","[]","","",""
"1652","TestRecordings/phuthik.wav","0","audio-button-response","123","2662523","0.0-12.0-0.46","","","",""
"8168","","{""P0_Q0"":""ㅍ,ㅜ,ㅌ,ㅣ,ㄱ"",""P0_Q1"":""(가능)""}","survey","124","2670697","0.0-12.0-1.46","[]","","",""
"1738","TestRecordings/nchitam.wav","0","audio-button-response","125","2672458","0.0-12.0-0.47","","","",""
"19615","","{""P0_Q0"":""ㅇ,ㅡ,ㅇ,ㅊ,ㅣ,ㄷ,ㅏ,ㅁ"",""P0_Q1"":""(가능)""}","survey","126","2692081","0.0-12.0-1.47","[]","","",""
"1898","TestRecordings/cut.wav","0","audio-button-response","127","2694000","0.0-12.0-0.48","","","",""
"6648","","{""P0_Q0"":""ㅈ,ㅠ,ㅅ"",""P0_Q1"":""(가능)""}","survey","128","2700654","0.0-12.0-1.48","[]","","",""
"2792","TestRecordings/kwat.wav","0","audio-button-response","129","2703466","0.0-12.0-0.49","","","",""
"4951","","{""P0_Q0"":""ㄱ,ㅘ,ㅅ"",""P0_Q1"":""(가능)""}","survey","130","2708421","0.0-12.0-1.49","[]","","",""
"2378","TestRecordings/nucok.wav","0","audio-button-response","131","2710821","0.0-12.0-0.50","","","",""
"6065","","{""P0_Q0"":""ㄴ,ㅜ,ㅈ,ㅛ,ㅅ"",""P0_Q1"":""(불가능)""}","survey","132","2716891","0.0-12.0-1.50","[]","","",""
"1553","TestRecordings/pmathin.wav","0","audio-button-response","133","2718465","0.0-12.0-0.51","","","",""
"7165","","{""P0_Q0"":""ㅍ,ㅡ,ㅁ,ㅏ,ㅌ,ㅣ,ㄴ"",""P0_Q1"":""(가능)""}","survey","134","2725636","0.0-12.0-1.51","[]","","",""
"4438","TestRecordings/khonik.wav","0","audio-button-response","135","2730097","0.0-12.0-0.52","","","",""
"7038","","{""P0_Q0"":""ㅋ,ㅗ,ㅇ,ㅓ,ㄴ,ㅣ,ㄱ"",""P0_Q1"":""(가능)""}","survey","136","2737140","0.0-12.0-1.52","[]","","",""
"1408","TestRecordings/khmip.wav","0","audio-button-response","137","2738569","0.0-12.0-0.53","","","",""
"8150","","{""P0_Q0"":""ㅋ,ㅡ,ㅁ,ㅣ,ㅂ"",""P0_Q1"":""(가능)""}","survey","138","2746725","0.0-12.0-1.53","[]","","",""
"1446","TestRecordings/ntosin.wav","0","audio-button-response","139","2748193","0.0-12.0-0.54","","","",""
"7183","","{""P0_Q0"":""ㅇ,ㅡ,ㅇ,ㄷ,ㅜ,ㅅ,ㅣ,ㄴ"",""P0_Q1"":""(불가능)""}","survey","140","2755383","0.0-12.0-1.54","[]","","",""
"1346","TestRecordings/mtak.wav","0","audio-button-response","141","2756751","0.0-12.0-0.55","","","",""
"6167","","{""P0_Q0"":""ㅇ,ㅡ,ㅇ,ㄷ,ㅏ,ㄱ"",""P0_Q1"":""(가능)""}","survey","142","2762924","0.0-12.0-1.55","[]","","",""
"1460","TestRecordings/phmacot.wav","0","audio-button-response","143","2764406","0.0-12.0-0.56","","","",""
"7665","","{""P0_Q0"":""ㅍ,ㅡ,ㅁ,ㅏ,ㅈ,ㅗ,ㅅ"",""P0_Q1"":""(가능)""}","survey","144","2772081","0.0-12.0-1.56","[]","","",""
"1464","TestRecordings/mtunak.wav","0","audio-button-response","145","2773567","0.0-12.0-0.57","","","",""
"7280","","{""P0_Q0"":""ㅇ,ㅡ,ㅁ,ㄷ,ㅜ,ㄴ,ㅏ,ㅅ"",""P0_Q1"":""(가능)""}","survey","146","2780854","0.0-12.0-1.57","[]","","",""
"1509","TestRecordings/swakhing.wav","0","audio-button-response","147","2782385","0.0-12.0-0.58","","","",""
"5039","","{""P0_Q0"":""ㅅ,ㅘ,ㅋ,ㅣ,ㅇ"",""P0_Q1"":""(가능)""}","survey","148","2787432","0.0-12.0-1.58","[]","","",""
"1167","TestRecordings/knop.wav","0","audio-button-response","149","2788620","0.0-12.0-0.59","","","",""
"7761","","{""P0_Q0"":""ㅋ,ㅡ,ㄴ,ㅗ,ㅂ"",""P0_Q1"":""(가능)""}","survey","150","2796388","0.0-12.0-1.59","[]","","",""
"1862",""," ","html-keyboard-response","151","2798250","0.0-13.0","","","",""
"46205","","{""P0_Q0"":""23"",""P0_Q1"":""남"",""P0_Q2"":""만 8세"",""P0_Q3"":""없음"",""P0_Q4"":""일본어, 스페인어, 프랑스어"",""P0_Q5"":""일본어(약 5년) 스페인어, 프랑스어(각각 약 1개월)"",""P0_Q6"":""없음""}","survey","152","2844465","0.0-14.0","[]","","",""
"39169","<p style=""font-size:30px"",lang=""ko"">실험이 끝났습니다</p><p style=""font-size:30px"",lang=""ko"">참가해주셔서 고맙습니다</p>"," ","html-keyboard-response","153","2883635","0.0-15.0","","","",""
,