"rt","stimulus","response","trial_type","trial_index","time_elapsed","internal_node_id","accuracy","PracticeTest","ConsonantSequence","Grammaticality"
"523966","<p style=""font-size:30px"",lang=""ko"">실험에 오신 것을 환영합니다</p><p lang=""ko"">스페이스바를 누르면 다음 페이지로 넘어갑니다</p>"," ","html-keyboard-response","0","523967","0.0-0.0","","","",""
"1033","<p style=""font-size:30px"",lang=""ko"">해드폰을 본인에게 잘 맞게 착용하세요</p><p lang=""ko"">스페이스바를 누르면 다음 페이지로 넘어갑니다</p>"," ","html-keyboard-response","1","525000","0.0-1.0","","","",""
"2309","<p style=""font-size:30px"",lang=""ko"">이 실험에서는 새로 만든 한국 단어를 들으실 겁니다</p><p style=""font-size:30px"",lang=""ko"">단어를 들리는대로 쓰세요. 그런 다음 그 단어가 한국어 단어로 가능한지 평가하세요</p><p lang=""ko"">스페이스바를 누르면 다음 페이지로 넘어갑니다</p>"," ","html-keyboard-response","2","527309","0.0-2.0","","","",""
"1701","<p style=""font-size:30px"",lang=""ko"">원래 있는 단어로 예를 들어 봅시다</p><p lang=""ko"">스페이스바를 누르면 다음 페이지로 넘어갑니다</p>"," ","html-keyboard-response","3","529010","0.0-3.0","","","",""
"8485","PracticeRecordings/kom_bear.wav","0","audio-button-response","4","537535","0.0-4.0","","","",""
"1471","<p style=""font-size:30px"",lang=""ko"">이제 직접 단어를 듣고 쓰는 연습을 해봅시다. </p><p style=""font-size:30px"",lang=""ko"">스페이스바를 누르면 다음 페이지로 넘어갑니다</p>"," ","html-keyboard-response","5","539007","0.0-5.0","","","",""
"4511","PracticeRecordings/kirin_giraffe.wav","0","audio-button-response","6","543532","0.0-6.0-0.0","","","",""
"9060","kirin_giraffe","{""P0_Q0"":""ㄱ,ㅣ,ㄹ,ㅣ,ㄴ""}","survey","7","552620","0.0-6.0-1.0","[]","practice","NA","TRUE"
"1796","<p style=""font-size:30px"",lang=""ko"">방금 들으신 단어는 ""ㄱ,ㅣ,ㄹ,ㅣ,ㄴ"" 이라고 쓰시면 됩니다</p><p lang=""ko"">스페이스바를 누르면 다음 페이지로 넘어갑니다</p>"," ","html-keyboard-response","8","554417","0.0-6.0-2.0","","","",""
"1901","PracticeRecordings/saca_lion.wav","0","audio-button-response","9","556333","0.0-6.0-0.1","","","",""
"6868","saca_lion","{""P0_Q0"":""ㅅ,ㅏ,ㅈ,ㅏ""}","survey","10","563205","0.0-6.0-1.1","[]","practice","NA","FALSE"
"1070","<p style=""font-size:30px"",lang=""ko"">방금 들으신 단어는 ""ㅅ,ㅏ,ㅈ,ㅏ"" 라고 쓰시면 됩니다</p><p lang=""ko"">스페이스바를 누르면 다음 페이지로 넘어갑니다</p>"," ","html-keyboard-response","11","564276","0.0-6.0-2.1","","","",""
"2478","PracticeRecordings/saseum_deer.wav","0","audio-button-response","12","566768","0.0-6.0-0.2","","","",""
"7238","saseum_deer","{""P0_Q0"":""ㅅ,ㅏ,ㅅ,ㅡ,ㅁ""}","survey","13","574012","0.0-6.0-1.2","[]","practice","NA","FALSE"
"715","<p style=""font-size:30px"",lang=""ko"">방금 들으신 단어는 ""ㅅ,ㅏ,ㅅ,ㅡ,ㅁ""이라고 쓰시면 됩니다</p><p lang=""ko"">스페이스바를 누르면 다음 페이지로 넘어갑니다</p>"," ","html-keyboard-response","14","574727","0.0-6.0-2.2","","","",""
"1534","PracticeRecordings/thokki_rabbit.wav","0","audio-button-response","15","576276","0.0-6.0-0.3","","","",""
"7478","thokki_rabbit","{""P0_Q0"":""ㅌ,ㅗ,ㄲ,ㅣ""}","survey","16","583759","0.0-6.0-1.3","[]","practice","NA","FALSE"
"610","<p style=""font-size:30px"",lang=""ko"">방금 들으신 단어는 ""ㅌ,ㅗ,ㄲ,ㅣ"" 라고 쓰시면 됩니다</p><p lang=""ko"">스페이스바를 누르면 다음 페이지로 넘어갑니다</p>"," ","html-keyboard-response","17","584370","0.0-6.0-2.3","","","",""
"383","<p style=""font-size:30px"",lang=""ko"">이제 만든 단어로 연습해봅시다.</p><p lang=""ko"">스페이스바를 누르면 다음 페이지로 넘어갑니다</p>"," ","html-keyboard-response","18","584754","0.0-7.0","","","",""
"2561","PracticeRecordings/snen.wav","0","audio-button-response","19","587330","0.0-8.0-0.0","","","",""
"7767","snen","{""P0_Q0"":""ㅅ,ㅡ,ㄴ,ㅐ,ㄴ""}","survey","20","595101","0.0-8.0-1.0","[]","practice","NA","TRUE"
"2075","<p style=""font-size:30px"",lang=""ko"">들으신 단어는 <br> ""ㅅ,ㅡ,ㄴ,ㅐ,ㄴ""  ""ㅅ,ㅡ,ㄴ,ㅐ"" ""ㅅ,ㄴ,ㅐ,ㄴ (""으"" 소리가 안 들리는 경우)"" 등 <br> 사람에 따라 다양하게 들릴 수 있습니다 <br> 본인에게 들리는대로 쓰시면 됩니다.</p><p lang=""ko"">스페이스바를 누르면 다음 페이지로 넘어갑니다</p>"," ","html-keyboard-response","21","597177","0.0-8.0-2.0","","","",""
"1852","PracticeRecordings/phrak.wav","0","audio-button-response","22","599043","0.0-8.0-0.1","","","",""
"5610","phrak","{""P0_Q0"":""ㅍ,ㅡ,ㄹ,ㅏ,ㄱ""}","survey","23","604657","0.0-8.0-1.1","[]","practice","NA","FALSE"
"784","<p style=""font-size:30px"",lang=""ko"">들으신 단어는 <br> ""ㅍ,ㅡ,ㄹ,ㅏ,ㄱ"" ""ㅍ,ㅡ,ㄹ,ㅏ,ㅅ"" ""ㅋ,ㅡ,ㄹ,ㅏ,ㄱ"" ""ㅍ,ㄹ,ㅏ,ㄱ (""으"" 소리가 안 들리는 경우)"" 등 <br> 사람에 따라 다양하게 들릴 수 있습니다 <br> 본인에게 들리는대로 쓰시면 됩니다.</p><p lang=""ko"">스페이스바를 누르면 다음 페이지로 넘어갑니다</p>"," ","html-keyboard-response","24","605441","0.0-8.0-2.1","","","",""
"1274","PracticeRecordings/chka.wav","0","audio-button-response","25","606730","0.0-8.0-0.2","","","",""
"7239","chka","{""P0_Q0"":""ㅊ,ㅡ,ㄱ,ㅏ""}","survey","26","613973","0.0-8.0-1.2","[]","practice","NA","FALSE"
"974","<p style=""font-size:30px"",lang=""ko"">들으신 단어는 ""ㅊ,ㅣ,ㄱ,ㅏ"", ""ㅊ,ㅡ,ㄱ,ㅏ"", ""ㅊ,ㄱ,ㅏ"", ""ㅊ,ㅟ,ㄱ,ㅏ"" 등 <br> 사람에 따라 다양하게 들릴 수 있습니다. <br> 본인에게 들리는대로 쓰시면 됩니다.</p><p lang=""ko"">스페이스바를 누르면 다음 페이지로 넘어갑니다</p>"," ","html-keyboard-response","27","614948","0.0-8.0-2.2","","","",""
"2571",""," ","html-keyboard-response","28","617520","0.0-9.0","","","",""
"2402","<p style=""font-size:30px"",lang=""ko"">이제 실험을 시작하겠습니다.</p><p style=""font-size:30px"",lang=""ko"">실전에서는 각각의 만든 단어를 한 번씩만 들을 수 있습니다.</p>"," ","html-keyboard-response","29","619922","0.0-10.0","","","",""
"19090","<p style=""font-size:30px"",lang=""ko"">단어를 풀어 쓰신 후에 그 단어가 한국어로 가능한 단어인지 평가해주세요</p><p lang=""ko"">스페이스바를 누르면 다음 페이지로 넘어갑니다</p>"," ","html-keyboard-response","30","639013","0.0-11.0","","","",""
"3594","TestRecordings/takhut.wav","0","audio-button-response","31","642623","0.0-12.0-0.0","","","",""
"10643","","{""P0_Q0"":""ㄷ,ㅏ,ㅋ,ㅜ,ㅅ"",""P0_Q1"":""(불가능)""}","survey","32","653276","0.0-12.0-1.0","[]","","",""
"2353","TestRecordings/phninot.wav","0","audio-button-response","33","655643","0.0-12.0-0.1","","","",""
"18540","","{""P0_Q0"":""ㅍ,ㅡ,ㄴ,ㅣ,ㄴ,ㅗ,ㄴ"",""P0_Q1"":""(불가능)""}","survey","34","674189","0.0-12.0-1.1","[]","","",""
"1714","TestRecordings/cwang.wav","0","audio-button-response","35","675918","0.0-12.0-0.2","","","",""
"13375","","{""P0_Q0"":""ㅈ,ㅜ,ㅏ,ㅇ"",""P0_Q1"":""(가능)""}","survey","36","689298","0.0-12.0-1.2","[]","","",""
"2142","TestRecordings/chwakap.wav","0","audio-button-response","37","691453","0.0-12.0-0.3","","","",""
"6385","","{""P0_Q0"":""ㅊ,ㅏ,ㄱ,ㅏ,ㅂ"",""P0_Q1"":""(가능)""}","survey","38","697844","0.0-12.0-1.3","[]","","",""
"1551","TestRecordings/thum.wav","0","audio-button-response","39","699409","0.0-12.0-0.4","","","",""
"7259","","{""P0_Q0"":""ㅌ,ㅜ,ㅁ"",""P0_Q1"":""(불가능)""}","survey","40","706673","0.0-12.0-1.4","[]","","",""
"1146","TestRecordings/pmuk.wav","0","audio-button-response","41","707832","0.0-12.0-0.5","","","",""
"5129","","{""P0_Q0"":""ㅁ,ㅜ,ㅂ"",""P0_Q1"":""(불가능)""}","survey","42","712967","0.0-12.0-1.5","[]","","",""
"1413","TestRecordings/swapong.wav","0","audio-button-response","43","714394","0.0-12.0-0.6","","","",""
"10127","","{""P0_Q0"":""ㅅ,ㅡ,ㅇ,ㅗ,ㅏ,ㅂ,ㅗ,ㅇ"",""P0_Q1"":""(불가능)""}","survey","44","724525","0.0-12.0-1.6","[]","","",""
"1234","TestRecordings/siphuk.wav","0","audio-button-response","45","725773","0.0-12.0-0.7","","","",""
"8593","","{""P0_Q0"":""ㅅ,ㅣ,ㅍ,ㅜ,ㅂ"",""P0_Q1"":""(불가능)""}","survey","46","734371","0.0-12.0-1.7","[]","","",""
"1757","TestRecordings/pathik.wav","0","audio-button-response","47","736143","0.0-12.0-0.8","","","",""
"9176","","{""P0_Q0"":""ㅂ,ㅏ,ㅌ,ㅣ,ㄱ"",""P0_Q1"":""(가능)""}","survey","48","745324","0.0-12.0-1.8","[]","","",""
"1123","TestRecordings/khmoting.wav","0","audio-button-response","49","746463","0.0-12.0-0.9","","","",""
"8875","","{""P0_Q0"":""ㅋ,ㅡ,ㅁ,ㅗ,ㄷ,ㅣ,ㅇ"",""P0_Q1"":""(불가능)""}","survey","50","755342","0.0-12.0-1.9","[]","","",""
"1695","TestRecordings/thnakop.wav","0","audio-button-response","51","757051","0.0-12.0-0.10","","","",""
"7054","","{""P0_Q0"":""ㅌ,ㅡ,ㄴ,ㅏ,ㄱ,ㅗ,ㅂ"",""P0_Q1"":""(불가능)""}","survey","52","764110","0.0-12.0-1.10","[]","","",""
"1283","TestRecordings/cut.wav","0","audio-button-response","53","765407","0.0-12.0-0.11","","","",""
"6421","","{""P0_Q0"":""ㅈ,ㅜ,ㅅ"",""P0_Q1"":""(불가능)""}","survey","54","771833","0.0-12.0-1.11","[]","","",""
"1421","TestRecordings/mtunak.wav","0","audio-button-response","55","773268","0.0-12.0-0.12","","","",""
"11869","","{""P0_Q0"":""ㅇ,ㅡ,ㅁ,ㄷ,ㅜ,ㄴ,ㅏ,ㄱ"",""P0_Q1"":""(불가능)""}","survey","56","785141","0.0-12.0-1.12","[]","","",""
"1529","TestRecordings/twikhit.wav","0","audio-button-response","57","786685","0.0-12.0-0.13","","","",""
"8406","","{""P0_Q0"":""ㅌ,ㅜ,ㅣ,ㅋ,ㅣ,ㅅ"",""P0_Q1"":""(불가능)""}","survey","58","795096","0.0-12.0-1.13","[]","","",""
"1036","TestRecordings/kwat.wav","0","audio-button-response","59","796145","0.0-12.0-0.14","","","",""
"8185","","{""P0_Q0"":""ㄱ,ㅗ,ㅏ,ㅅ"",""P0_Q1"":""(가능)""}","survey","60","804336","0.0-12.0-1.14","[]","","",""
"1242","TestRecordings/mip.wav","0","audio-button-response","61","805591","0.0-12.0-0.15","","","",""
"5383","","{""P0_Q0"":""ㅁ,ㅣ,ㅂ"",""P0_Q1"":""(가능)""}","survey","62","810979","0.0-12.0-1.15","[]","","",""
"1510","TestRecordings/nchak.wav","0","audio-button-response","63","812503","0.0-12.0-0.16","","","",""
"11724","","{""P0_Q0"":""ㅇ,ㅜ,ㅇ,ㅊ,ㅏ,ㄱ"",""P0_Q1"":""(불가능)""}","survey","64","824232","0.0-12.0-1.16","[]","","",""
"1205","TestRecordings/phmut.wav","0","audio-button-response","65","825451","0.0-12.0-0.17","","","",""
"7720","","{""P0_Q0"":""ㅌ,ㅁ,ㅜ,ㅅ"",""P0_Q1"":""(불가능)""}","survey","66","833176","0.0-12.0-1.17","[]","","",""
"1129","TestRecordings/pmathin.wav","0","audio-button-response","67","834321","0.0-12.0-0.18","","","",""
"9929","","{""P0_Q0"":""ㅍ,ㅁ,ㅏ,ㅌ,ㅣ,ㄴ"",""P0_Q1"":""(불가능)""}","survey","68","844256","0.0-12.0-1.18","[]","","",""
"1651","TestRecordings/cwiphing.wav","0","audio-button-response","69","845924","0.0-12.0-0.19","","","",""
"8482","","{""P0_Q0"":""ㅊ,ㅜ,ㅣ,ㅍ,ㅣ,ㅇ"",""P0_Q1"":""(가능)""}","survey","70","854410","0.0-12.0-1.19","[]","","",""
"1331","TestRecordings/khmip.wav","0","audio-button-response","71","855754","0.0-12.0-0.20","","","",""
"7437","","{""P0_Q0"":""ㅋ,ㅁ,ㅣ,ㅍ"",""P0_Q1"":""(불가능)""}","survey","72","863196","0.0-12.0-1.20","[]","","",""
"849","TestRecordings/nucok.wav","0","audio-button-response","73","864059","0.0-12.0-0.21","","","",""
"8304","","{""P0_Q0"":""ㄴ,ㅜ,ㅈ,ㅗ,ㄱ"",""P0_Q1"":""(가능)""}","survey","74","872367","0.0-12.0-1.21","[]","","",""
"1214","TestRecordings/cmot.wav","0","audio-button-response","75","873595","0.0-12.0-0.22","","","",""
"8130","","{""P0_Q0"":""ㅊ,ㅁ,ㅗ,ㅅ"",""P0_Q1"":""(불가능)""}","survey","76","881730","0.0-12.0-1.22","[]","","",""
"1290","TestRecordings/chwap.wav","0","audio-button-response","77","883034","0.0-12.0-0.23","","","",""
"4778","","{""P0_Q0"":""ㅊ,ㅗ,ㅏ,ㅂ"",""P0_Q1"":""(가능)""}","survey","78","887815","0.0-12.0-1.23","[]","","",""
"1193","TestRecordings/sutik.wav","0","audio-button-response","79","889022","0.0-12.0-0.24","","","",""
"6921","","{""P0_Q0"":""ㅅ,ㅡ,ㅇ,ㅜ,ㄷ,ㅣ,ㄱ"",""P0_Q1"":""(가능)""}","survey","80","895948","0.0-12.0-1.24","[]","","",""
"1193","TestRecordings/pmisung.wav","0","audio-button-response","81","897156","0.0-12.0-0.25","","","",""
"7107","","{""P0_Q0"":""ㅎ,ㅁ,ㅣ,ㅅ,ㅜ,ㅇ"",""P0_Q1"":""(불가능)""}","survey","82","904267","0.0-12.0-1.25","[]","","",""
"775","TestRecordings/ncuk.wav","0","audio-button-response","83","905055","0.0-12.0-0.26","","","",""
"9455","","{""P0_Q0"":""ㅇ,ㅡ,ㅁ,ㅈ,ㅜ,ㄱ"",""P0_Q1"":""(불가능)""}","survey","84","914515","0.0-12.0-1.26","[]","","",""
"829","TestRecordings/cwasop.wav","0","audio-button-response","85","915358","0.0-12.0-0.27","","","",""
"8770","","{""P0_Q0"":""ㅈ,ㅗ,ㅏ,ㅅ,ㅗ,ㅂ"",""P0_Q1"":""(가능)""}","survey","86","924132","0.0-12.0-1.27","[]","","",""
"1138","TestRecordings/thnukip.wav","0","audio-button-response","87","925284","0.0-12.0-0.28","","","",""
"12788","","{""P0_Q0"":""ㅌ,ㅡ,ㄴ, ㅜ,ㄱ,ㅣ,ㅍ"",""P0_Q1"":""(불가능)""}","survey","88","938077","0.0-12.0-1.28","[]","","",""
"1192","TestRecordings/nchat.wav","0","audio-button-response","89","939283","0.0-12.0-0.29","","","",""
"11300","","{""P0_Q0"":""ㅇ,ㅡ,ㅁ,ㅊ,ㅏ,ㅅ"",""P0_Q1"":""(불가능)""}","survey","90","950588","0.0-12.0-1.29","[]","","",""
"1874","TestRecordings/nchup.wav","0","audio-button-response","91","952476","0.0-12.0-0.30","","","",""
"9340","","{""P0_Q0"":""ㅇ,ㅡ,ㅁ,ㅊ,ㅜ,ㅅ"",""P0_Q1"":""(가능)""}","survey","92","961821","0.0-12.0-1.30","[]","","",""
"1331","TestRecordings/chut.wav","0","audio-button-response","93","963166","0.0-12.0-0.31","","","",""
"6056","","{""P0_Q0"":""ㅊ,ㅜ,ㅅ"",""P0_Q1"":""(가능)""}","survey","94","969227","0.0-12.0-1.31","[]","","",""
"1838","TestRecordings/khun.wav","0","audio-button-response","95","971080","0.0-12.0-0.32","","","",""
"5931","","{""P0_Q0"":""ㅋ,ㅜ,ㄴ"",""P0_Q1"":""(가능)""}","survey","96","977015","0.0-12.0-1.32","[]","","",""
"868","TestRecordings/nthiton.wav","0","audio-button-response","97","977899","0.0-12.0-0.33","","","",""
"10246","","{""P0_Q0"":""ㅇ,ㅡ,ㅇ,ㅌ,ㅣ,ㄷ,ㅗ,ㄴ"",""P0_Q1"":""(가능)""}","survey","98","988150","0.0-12.0-1.33","[]","","",""
"1172","TestRecordings/mphithup.wav","0","audio-button-response","99","989336","0.0-12.0-0.34","","","",""
"9284","","{""P0_Q0"":""ㅇ,ㅡ,ㅍ,ㅣ,ㅌ,ㅜ,ㅂ"",""P0_Q1"":""(불가능)""}","survey","100","998625","0.0-12.0-1.34","[]","","",""
"1012","TestRecordings/swakhing.wav","0","audio-button-response","101","999653","0.0-12.0-0.35","","","",""
"12234","","{""P0_Q0"":""ㅅ,ㅡ,ㅇ,ㅗ,ㅏ,ㅋ,ㅣ,ㅇ"",""P0_Q1"":""(불가능)""}","survey","102","1011889","0.0-12.0-1.35","[]","","",""
"884","TestRecordings/npokit.wav","0","audio-button-response","103","1012787","0.0-12.0-0.36","","","",""
"12352","","{""P0_Q0"":""ㅇ,ㅡ,ㅁ,ㅂ,ㅜ,ㄱ,ㅣㅅ"",""P0_Q1"":""(가능)""}","survey","104","1025143","0.0-12.0-1.36","[]","","",""
"814","TestRecordings/swicit.wav","0","audio-button-response","105","1025973","0.0-12.0-0.37","","","",""
"6333","","{""P0_Q0"":""ㅅ,ㅜ,ㅣ,ㅈ,ㅣ,ㅅ"",""P0_Q1"":""(가능)""}","survey","106","1032310","0.0-12.0-1.37","[]","","",""
"889","TestRecordings/khnacin.wav","0","audio-button-response","107","1033215","0.0-12.0-0.38","","","",""
"9252","","{""P0_Q0"":""ㅋ,ㅡ,ㄴ,ㅏ,ㅈ,ㅣ,ㄴ"",""P0_Q1"":""(가능)""}","survey","108","1042471","0.0-12.0-1.38","[]","","",""
"1240","TestRecordings/knothing.wav","0","audio-button-response","109","1043727","0.0-12.0-0.39","","","",""
"8880","","{""P0_Q0"":""ㅋ,ㅡ,ㄴ,ㅗ,ㅌ,ㅣ,ㅇ"",""P0_Q1"":""(가능)""}","survey","110","1052611","0.0-12.0-1.39","[]","","",""
"1454","TestRecordings/mciphom.wav","0","audio-button-response","111","1054080","0.0-12.0-0.40","","","",""
"11869","","{""P0_Q0"":""ㅇ,ㅡ,ㅈ,ㅣ,ㅅ,ㅍ,ㅗ,ㅁ"",""P0_Q1"":""(불가능)""}","survey","112","1065954","0.0-12.0-1.40","[]","","",""
"3136","TestRecordings/phmacot.wav","0","audio-button-response","113","1069105","0.0-12.0-0.41","","","",""
"8730","","{""P0_Q0"":""ㅍ,ㅡ,ㅁ,ㅏ,ㅈ,ㅗ,ㅅ"",""P0_Q1"":""(불가능)""}","survey","114","1077839","0.0-12.0-1.41","[]","","",""
"1210","TestRecordings/mtak.wav","0","audio-button-response","115","1079066","0.0-12.0-0.42","","","",""
"8140","","{""P0_Q0"":""ㅇ,ㅡ,ㅇ,ㄷ,ㅏ,ㄱ"",""P0_Q1"":""(가능)""}","survey","116","1087210","0.0-12.0-1.42","[]","","",""
"925","TestRecordings/kophak.wav","0","audio-button-response","117","1088150","0.0-12.0-0.43","","","",""
"7561","","{""P0_Q0"":""ㄱ,ㅗ,ㅍ,ㅏ,ㄱ"",""P0_Q1"":""(가능)""}","survey","118","1095716","0.0-12.0-1.43","[]","","",""
"1434","TestRecordings/phwim.wav","0","audio-button-response","119","1097164","0.0-12.0-0.44","","","",""
"4964","","{""P0_Q0"":""ㅍ,ㅜ,ㅣ,ㅁ"",""P0_Q1"":""(가능)""}","survey","120","1102133","0.0-12.0-1.44","[]","","",""
"897","TestRecordings/pwacung.wav","0","audio-button-response","121","1103045","0.0-12.0-0.45","","","",""
"6291","","{""P0_Q0"":""ㅂ,ㅗ,ㅏ,ㅈ,ㅜ,ㅇ"",""P0_Q1"":""(가능)""}","survey","122","1109340","0.0-12.0-1.45","[]","","",""
"1378","TestRecordings/nthunit.wav","0","audio-button-response","123","1110732","0.0-12.0-0.46","","","",""
"11417","","{""P0_Q0"":""ㅇ,ㅡ,ㅇ,ㅌ,ㅜ,ㄴ,ㅣ,ㅅ"",""P0_Q1"":""(불가능)""}","survey","124","1122153","0.0-12.0-1.46","[]","","",""
"959","TestRecordings/thwicap.wav","0","audio-button-response","125","1123126","0.0-12.0-0.47","","","",""
"6188","","{""P0_Q0"":""ㅌ,ㅜ,ㅣ,ㅈ,ㅏ,ㅂ"",""P0_Q1"":""(가능)""}","survey","126","1129319","0.0-12.0-1.47","[]","","",""
"1515","TestRecordings/masuk.wav","0","audio-button-response","127","1130849","0.0-12.0-0.48","","","",""
"6209","","{""P0_Q0"":""ㅁ,ㅏ,ㅅ,ㅜ,ㄱ"",""P0_Q1"":""(가능)""}","survey","128","1137062","0.0-12.0-1.48","[]","","",""
"2058","TestRecordings/khnichat.wav","0","audio-button-response","129","1139135","0.0-12.0-0.49","","","",""
"9261","","{""P0_Q0"":""ㅋ,ㅎ,ㅡ,ㄴ,ㅣ,ㅊ,ㅏ,ㅅ"",""P0_Q1"":""(불가능)""}","survey","130","1148401","0.0-12.0-1.49","[]","","",""
"834","TestRecordings/knop.wav","0","audio-button-response","131","1149248","0.0-12.0-0.50","","","",""
"8683","","{""P0_Q0"":""ㅋ,ㅎ,ㅡ,ㄴ,ㅗ,ㅂ"",""P0_Q1"":""(불가능)""}","survey","132","1157935","0.0-12.0-1.50","[]","","",""
"835","TestRecordings/mkithun.wav","0","audio-button-response","133","1158784","0.0-12.0-0.51","","","",""
"9725","","{""P0_Q0"":""ㅇ,ㅎ,ㅡ,ㅁ,ㄱ,ㅣ,ㅌ,ㅜ,ㄴ"",""P0_Q1"":""(불가능)""}","survey","134","1168514","0.0-12.0-1.51","[]","","",""
"1007","TestRecordings/nthochap.wav","0","audio-button-response","135","1169536","0.0-12.0-0.52","","","",""
"13360","","{""P0_Q0"":""ㅇ,ㅡ,ㅇ,ㅌ,ㅗ,ㅊ,ㅏ,ㅂ"",""P0_Q1"":""(가능)""}","survey","136","1182900","0.0-12.0-1.52","[]","","",""
"1468","TestRecordings/khwapan.wav","0","audio-button-response","137","1184382","0.0-12.0-0.53","","","",""
"9587","","{""P0_Q0"":""ㅋ,ㅎ,ㅗ,ㅏ,ㅂ,ㅏ,ㄴ"",""P0_Q1"":""(불가능)""}","survey","138","1193973","0.0-12.0-1.53","[]","","",""
"1275","TestRecordings/phwing.wav","0","audio-button-response","139","1195264","0.0-12.0-0.54","","","",""
"5815","","{""P0_Q0"":""ㅍ,ㅜ,ㅔ,ㅇ"",""P0_Q1"":""(가능)""}","survey","140","1201083","0.0-12.0-1.54","[]","","",""
"767","TestRecordings/ntosin.wav","0","audio-button-response","141","1201866","0.0-12.0-0.55","","","",""
"12645","","{""P0_Q0"":""ㅇ,ㅡ,ㅁ,ㄷ,ㅜ,ㅅ,ㅣ,ㄴ"",""P0_Q1"":""(가능)""}","survey","142","1214515","0.0-12.0-1.55","[]","","",""
"897","TestRecordings/phuthik.wav","0","audio-button-response","143","1215426","0.0-12.0-0.56","","","",""
"8510","","{""P0_Q0"":""ㅍ,ㅜ,ㅌ,ㅣ,ㄱ"",""P0_Q1"":""(가능)""}","survey","144","1223941","0.0-12.0-1.56","[]","","",""
"1583","TestRecordings/niphak.wav","0","audio-button-response","145","1225539","0.0-12.0-0.57","","","",""
"6057","","{""P0_Q0"":""ㄴ,ㅣ,ㅍ,ㅏ,ㄱ"",""P0_Q1"":""(가능)""}","survey","146","1231601","0.0-12.0-1.57","[]","","",""
"1516","TestRecordings/nchitam.wav","0","audio-button-response","147","1233132","0.0-12.0-0.58","","","",""
"9176","","{""P0_Q0"":""ㅇ,ㅡ,ㅇ,ㅊ,ㅣ,ㄷ,ㅏ,ㅁ"",""P0_Q1"":""(가능)""}","survey","148","1242313","0.0-12.0-1.58","[]","","",""
"869","TestRecordings/khonik.wav","0","audio-button-response","149","1243197","0.0-12.0-0.59","","","",""
"8029","","{""P0_Q0"":""ㅋ,ㅗ,ㄴ,ㅣㄱ"",""P0_Q1"":""(가능)""}","survey","150","1251230","0.0-12.0-1.59","[]","","",""
"1350",""," ","html-keyboard-response","151","1252580","0.0-13.0","","","",""
"36310","","{""P0_Q0"":""18"",""P0_Q1"":""여자"",""P0_Q2"":""5"",""P0_Q3"":""없습니다"",""P0_Q4"":""프랑스어"",""P0_Q5"":""17살 1년"",""P0_Q6"":""중국어, 일본어 학습 경험 있음""}","survey","152","1288896","0.0-14.0","[]","","",""
"44174","<p style=""font-size:30px"",lang=""ko"">실험이 끝났습니다</p><p style=""font-size:30px"",lang=""ko"">참가해주셔서 고맙습니다</p>"," ","html-keyboard-response","153","1333071","0.0-15.0","","","",""
,