"rt","stimulus","response","trial_type","trial_index","time_elapsed","internal_node_id","accuracy","PracticeTest","ConsonantSequence","Grammaticality"
"2672858","<p style=""font-size:30px"",lang=""ko"">실험에 오신 것을 환영합니다</p><p lang=""ko"">스페이스바를 누르면 다음 페이지로 넘어갑니다</p>"," ","html-keyboard-response","0","2672860","0.0-0.0","","","",""
"9327","<p style=""font-size:30px"",lang=""ko"">해드폰을 본인에게 잘 맞게 착용하세요</p><p lang=""ko"">스페이스바를 누르면 다음 페이지로 넘어갑니다</p>"," ","html-keyboard-response","1","2682188","0.0-1.0","","","",""
"11708","<p style=""font-size:30px"",lang=""ko"">이 실험에서는 새로 만든 한국 단어를 들으실 겁니다</p><p style=""font-size:30px"",lang=""ko"">단어를 들리는대로 쓰세요. 그런 다음 그 단어가 한국어 단어로 가능한지 평가하세요</p><p lang=""ko"">스페이스바를 누르면 다음 페이지로 넘어갑니다</p>"," ","html-keyboard-response","2","2693896","0.0-2.0","","","",""
"1827","<p style=""font-size:30px"",lang=""ko"">원래 있는 단어로 예를 들어 봅시다</p><p lang=""ko"">스페이스바를 누르면 다음 페이지로 넘어갑니다</p>"," ","html-keyboard-response","3","2695724","0.0-3.0","","","",""
"6850","PracticeRecordings/kom_bear.wav","0","audio-button-response","4","2702618","0.0-4.0","","","",""
"3229","<p style=""font-size:30px"",lang=""ko"">이제 직접 단어를 듣고 쓰는 연습을 해봅시다. </p><p style=""font-size:30px"",lang=""ko"">스페이스바를 누르면 다음 페이지로 넘어갑니다</p>"," ","html-keyboard-response","5","2705848","0.0-5.0","","","",""
"4700","PracticeRecordings/kirin_giraffe.wav","0","audio-button-response","6","2710563","0.0-6.0-0.0","","","",""
"12171","kirin_giraffe","{""P0_Q0"":""ㄱ,ㅣ,ㄹ,ㅣ,ㄴ""}","survey","7","2722759","0.0-6.0-1.0","[]","practice","NA","TRUE"
"3052","<p style=""font-size:30px"",lang=""ko"">방금 들으신 단어는 ""ㄱ,ㅣ,ㄹ,ㅣ,ㄴ"" 이라고 쓰시면 됩니다</p><p lang=""ko"">스페이스바를 누르면 다음 페이지로 넘어갑니다</p>"," ","html-keyboard-response","8","2725811","0.0-6.0-2.0","","","",""
"2279","PracticeRecordings/saca_lion.wav","0","audio-button-response","9","2728105","0.0-6.0-0.1","","","",""
"5758","saca_lion","{""P0_Q0"":""ㅅ,ㅏ,ㅈ,ㅏ""}","survey","10","2733868","0.0-6.0-1.1","[]","practice","NA","FALSE"
"1284","<p style=""font-size:30px"",lang=""ko"">방금 들으신 단어는 ""ㅅ,ㅏ,ㅈ,ㅏ"" 라고 쓰시면 됩니다</p><p lang=""ko"">스페이스바를 누르면 다음 페이지로 넘어갑니다</p>"," ","html-keyboard-response","11","2735153","0.0-6.0-2.1","","","",""
"1847","PracticeRecordings/saseum_deer.wav","0","audio-button-response","12","2737015","0.0-6.0-0.2","","","",""
"6963","saseum_deer","{""P0_Q0"":""ㅅ,ㅏ,ㅅ,ㅡ,ㅁ""}","survey","13","2743983","0.0-6.0-1.2","[]","practice","NA","FALSE"
"1260","<p style=""font-size:30px"",lang=""ko"">방금 들으신 단어는 ""ㅅ,ㅏ,ㅅ,ㅡ,ㅁ""이라고 쓰시면 됩니다</p><p lang=""ko"">스페이스바를 누르면 다음 페이지로 넘어갑니다</p>"," ","html-keyboard-response","14","2745243","0.0-6.0-2.2","","","",""
"1870","PracticeRecordings/thokki_rabbit.wav","0","audio-button-response","15","2747129","0.0-6.0-0.3","","","",""
"11507","thokki_rabbit","{""P0_Q0"":""ㅌ,ㅗ,ㄲ,ㅣ""}","survey","16","2758641","0.0-6.0-1.3","[]","practice","NA","FALSE"
"840","<p style=""font-size:30px"",lang=""ko"">방금 들으신 단어는 ""ㅌ,ㅗ,ㄲ,ㅣ"" 라고 쓰시면 됩니다</p><p lang=""ko"">스페이스바를 누르면 다음 페이지로 넘어갑니다</p>"," ","html-keyboard-response","17","2759482","0.0-6.0-2.3","","","",""
"1944","<p style=""font-size:30px"",lang=""ko"">이제 만든 단어로 연습해봅시다.</p><p lang=""ko"">스페이스바를 누르면 다음 페이지로 넘어갑니다</p>"," ","html-keyboard-response","18","2761426","0.0-7.0","","","",""
"4552","PracticeRecordings/snen.wav","0","audio-button-response","19","2765993","0.0-8.0-0.0","","","",""
"7671","snen","{""P0_Q0"":""ㅅ,ㅡ,ㄴ,ㅐ,ㄴ""}","survey","20","2773669","0.0-8.0-1.0","[]","practice","NA","TRUE"
"4482","<p style=""font-size:30px"",lang=""ko"">들으신 단어는 <br> ""ㅅ,ㅡ,ㄴ,ㅐ,ㄴ""  ""ㅅ,ㅡ,ㄴ,ㅐ"" ""ㅅ,ㄴ,ㅐ,ㄴ (""으"" 소리가 안 들리는 경우)"" 등 <br> 사람에 따라 다양하게 들릴 수 있습니다 <br> 본인에게 들리는대로 쓰시면 됩니다.</p><p lang=""ko"">스페이스바를 누르면 다음 페이지로 넘어갑니다</p>"," ","html-keyboard-response","21","2778151","0.0-8.0-2.0","","","",""
"3349","PracticeRecordings/phrak.wav","0","audio-button-response","22","2781515","0.0-8.0-0.1","","","",""
"9323","phrak","{""P0_Q0"":""ㅍ,ㅡ,ㄹ,ㅏ,ㄺ""}","survey","23","2790842","0.0-8.0-1.1","[]","practice","NA","FALSE"
"3192","<p style=""font-size:30px"",lang=""ko"">들으신 단어는 <br> ""ㅍ,ㅡ,ㄹ,ㅏ,ㄱ"" ""ㅍ,ㅡ,ㄹ,ㅏ,ㅅ"" ""ㅋ,ㅡ,ㄹ,ㅏ,ㄱ"" ""ㅍ,ㄹ,ㅏ,ㄱ (""으"" 소리가 안 들리는 경우)"" 등 <br> 사람에 따라 다양하게 들릴 수 있습니다 <br> 본인에게 들리는대로 쓰시면 됩니다.</p><p lang=""ko"">스페이스바를 누르면 다음 페이지로 넘어갑니다</p>"," ","html-keyboard-response","24","2794034","0.0-8.0-2.1","","","",""
"2192","PracticeRecordings/chka.wav","0","audio-button-response","25","2796241","0.0-8.0-0.2","","","",""
"18786","chka","{""P0_Q0"":""ㅊ,ㅡ,ㅋ,ㄱ,ㅏ,ㅇ,ㅏ""}","survey","26","2815030","0.0-8.0-1.2","[]","practice","NA","FALSE"
"6468","<p style=""font-size:30px"",lang=""ko"">들으신 단어는 ""ㅊ,ㅣ,ㄱ,ㅏ"", ""ㅊ,ㅡ,ㄱ,ㅏ"", ""ㅊ,ㄱ,ㅏ"", ""ㅊ,ㅟ,ㄱ,ㅏ"" 등 <br> 사람에 따라 다양하게 들릴 수 있습니다. <br> 본인에게 들리는대로 쓰시면 됩니다.</p><p lang=""ko"">스페이스바를 누르면 다음 페이지로 넘어갑니다</p>"," ","html-keyboard-response","27","2821499","0.0-8.0-2.2","","","",""
"6379",""," ","html-keyboard-response","28","2827878","0.0-9.0","","","",""
"4845","<p style=""font-size:30px"",lang=""ko"">이제 실험을 시작하겠습니다.</p><p style=""font-size:30px"",lang=""ko"">실전에서는 각각의 만든 단어를 한 번씩만 들을 수 있습니다.</p>"," ","html-keyboard-response","29","2832724","0.0-10.0","","","",""
"16260","<p style=""font-size:30px"",lang=""ko"">단어를 풀어 쓰신 후에 그 단어가 한국어로 가능한 단어인지 평가해주세요</p><p lang=""ko"">스페이스바를 누르면 다음 페이지로 넘어갑니다</p>"," ","html-keyboard-response","30","2848984","0.0-11.0","","","",""
"2626","TestRecordings/cwang.wav","0","audio-button-response","31","2851627","0.0-12.0-0.0","","","",""
"19619","","{""P0_Q0"":""ㅈ,ㅜ,ㅇ,ㅘ,ㅇ"",""P0_Q1"":""(불가능)""}","survey","32","2871257","0.0-12.0-1.0","[]","","",""
"2097","TestRecordings/nucok.wav","0","audio-button-response","33","2873367","0.0-12.0-0.1","","","",""
"7879","","{""P0_Q0"":""ㄴ,ㅜ,ㅈ,ㅗ,ㄱ"",""P0_Q1"":""(가능)""}","survey","34","2881252","0.0-12.0-1.1","[]","","",""
"2748","TestRecordings/thnakop.wav","0","audio-button-response","35","2884014","0.0-12.0-0.2","","","",""
"11448","","{""P0_Q0"":""ㅋ,ㅡ,ㄴ,ㅏ,ㄱ,ㅗ,ㅂ"",""P0_Q1"":""(가능)""}","survey","36","2895467","0.0-12.0-1.2","[]","","",""
"2441","TestRecordings/pmathin.wav","0","audio-button-response","37","2897922","0.0-12.0-0.3","","","",""
"24538","","{""P0_Q0"":""ㅋ,ㅡ,ㅁ,ㅏ,ㅇ,ㅐ,ㅌ,ㅣ,ㄴ"",""P0_Q1"":""(불가능)""}","survey","38","2922466","0.0-12.0-1.3","[]","","",""
"2190","TestRecordings/mip.wav","0","audio-button-response","39","2924671","0.0-12.0-0.4","","","",""
"5400","","{""P0_Q0"":""ㅁ,ㅣ,ㅍ"",""P0_Q1"":""(가능)""}","survey","40","2930076","0.0-12.0-1.4","[]","","",""
"1834","TestRecordings/khmip.wav","0","audio-button-response","41","2931924","0.0-12.0-0.5","","","",""
"8490","","{""P0_Q0"":""ㅋ,ㅡ,ㅁ,ㅣ,ㅍ"",""P0_Q1"":""(가능)""}","survey","42","2940418","0.0-12.0-1.5","[]","","",""
"1898","TestRecordings/cut.wav","0","audio-button-response","43","2942330","0.0-12.0-0.6","","","",""
"13909","","{""P0_Q0"":""ㅊ,ㅜ,ㅅ"",""P0_Q1"":""(불가능)""}","survey","44","2956243","0.0-12.0-1.6","[]","","",""
"2037","TestRecordings/khun.wav","0","audio-button-response","45","2958294","0.0-12.0-0.7","","","",""
"8626","","{""P0_Q0"":""ㅋ,ㅜ,ㄴ"",""P0_Q1"":""(가능)""}","survey","46","2966925","0.0-12.0-1.7","[]","","",""
"1902","TestRecordings/mciphom.wav","0","audio-button-response","47","2968840","0.0-12.0-0.8","","","",""
"19921","","{""P0_Q0"":""ㅇ,ㅡ,ㅁ,ㅈ,ㅣ,ㅍ,ㅇ,ㅗ,ㅇ,ㅡ,ㅇ"",""P0_Q1"":""(불가능)""}","survey","48","2988765","0.0-12.0-1.8","[]","","",""
"1951","TestRecordings/phmut.wav","0","audio-button-response","49","2990730","0.0-12.0-0.9","","","",""
"10282","","{""P0_Q0"":""ㅍ,ㅡ,ㅁ,ㅜ,ㅅ"",""P0_Q1"":""(가능)""}","survey","50","3001016","0.0-12.0-1.9","[]","","",""
"2112","TestRecordings/pmuk.wav","0","audio-button-response","51","3003141","0.0-12.0-0.10","","","",""
"9233","","{""P0_Q0"":""ㅍ,ㅡ,ㅁ,ㅜ,ㄱ"",""P0_Q1"":""(가능)""}","survey","52","3012379","0.0-12.0-1.10","[]","","",""
"2057","TestRecordings/kophak.wav","0","audio-button-response","53","3014450","0.0-12.0-0.11","","","",""
"10735","","{""P0_Q0"":""ㄱ,ㅗ,ㅍ,ㅏ,ㄱ"",""P0_Q1"":""(불가능)""}","survey","54","3025190","0.0-12.0-1.11","[]","","",""
"2045","TestRecordings/niphak.wav","0","audio-button-response","55","3027249","0.0-12.0-0.12","","","",""
"12572","","{""P0_Q0"":""ㄴ,ㅣ,ㅍ,ㅏ,ㅋ"",""P0_Q1"":""(가능)""}","survey","56","3039826","0.0-12.0-1.12","[]","","",""
"1614","TestRecordings/thum.wav","0","audio-button-response","57","3041454","0.0-12.0-0.13","","","",""
"10431","","{""P0_Q0"":""ㅌ,ㅜ,ㅇ,ㅡ,ㅁ"",""P0_Q1"":""(가능)""}","survey","58","3051890","0.0-12.0-1.13","[]","","",""
"1461","TestRecordings/knothing.wav","0","audio-button-response","59","3053365","0.0-12.0-0.14","","","",""
"14627","","{""P0_Q0"":""ㅋ,ㅡ,ㄴ,ㅗ,ㅌ,ㅣ,ㅇ"",""P0_Q1"":""(가능)""}","survey","60","3067998","0.0-12.0-1.14","[]","","",""
"1671","TestRecordings/phuthik.wav","0","audio-button-response","61","3069682","0.0-12.0-0.15","","","",""
"8138","","{""P0_Q0"":""ㅍ,ㅜ,ㅌ,ㅣ,ㄱ"",""P0_Q1"":""(가능)""}","survey","62","3077825","0.0-12.0-1.15","[]","","",""
"1811","TestRecordings/mtunak.wav","0","audio-button-response","63","3079650","0.0-12.0-0.16","","","",""
"9096","","{""P0_Q0"":""ㅇ,ㅡ,ㅁ,ㄷ,ㅜ,ㄴ,ㅏ,ㄱ"",""P0_Q1"":""(불가능)""}","survey","64","3088751","0.0-12.0-1.16","[]","","",""
"1612","TestRecordings/nchak.wav","0","audio-button-response","65","3090377","0.0-12.0-0.17","","","",""
"7151","","{""P0_Q0"":""ㅇ,ㅡ,ㅁ,ㅊ,ㅏ,ㄱ"",""P0_Q1"":""(불가능)""}","survey","66","3097532","0.0-12.0-1.17","[]","","",""
"1583","TestRecordings/khnacin.wav","0","audio-button-response","67","3099130","0.0-12.0-0.18","","","",""
"8209","","{""P0_Q0"":""ㅋ,ㅡ,ㄴ,ㅏ,ㅈ,ㅣ,ㄴ"",""P0_Q1"":""(가능)""}","survey","68","3107343","0.0-12.0-1.18","[]","","",""
"1578","TestRecordings/ncuk.wav","0","audio-button-response","69","3108935","0.0-12.0-0.19","","","",""
"7879","","{""P0_Q0"":""ㅇ,ㅡ,ㅇ,ㅈ,ㅜ,ㄱ"",""P0_Q1"":""(불가능)""}","survey","70","3116818","0.0-12.0-1.19","[]","","",""
"1986","TestRecordings/phwing.wav","0","audio-button-response","71","3118820","0.0-12.0-0.20","","","",""
"8048","","{""P0_Q0"":""ㅍ,ㅞ,ㅇ,ㅣ,ㅇ"",""P0_Q1"":""(불가능)""}","survey","72","3126873","0.0-12.0-1.20","[]","","",""
"2031","TestRecordings/nchitam.wav","0","audio-button-response","73","3128918","0.0-12.0-0.21","","","",""
"9034","","{""P0_Q0"":""ㅇ,ㅡ,ㅇ,ㅊ,ㅣ,ㄷ,ㅏ,ㅁ"",""P0_Q1"":""(불가능)""}","survey","74","3137956","0.0-12.0-1.21","[]","","",""
"1484","TestRecordings/pwacung.wav","0","audio-button-response","75","3139455","0.0-12.0-0.22","","","",""
"7331","","{""P0_Q0"":""ㅂ,ㅘ,ㅈ,ㅜ,ㅇ"",""P0_Q1"":""(가능)""}","survey","76","3146790","0.0-12.0-1.22","[]","","",""
"1495","TestRecordings/npokit.wav","0","audio-button-response","77","3148300","0.0-12.0-0.23","","","",""
"10561","","{""P0_Q0"":""ㅇ,ㅡ,ㅁ,ㅂ,ㅗ,ㄱ,ㅣ,ㅅ"",""P0_Q1"":""(불가능)""}","survey","78","3158864","0.0-12.0-1.23","[]","","",""
"1705","TestRecordings/sutik.wav","0","audio-button-response","79","3160582","0.0-12.0-0.24","","","",""
"11074","","{""P0_Q0"":""ㅅ,ㅜ,ㅇ,ㅜ,ㄷ,ㅣ,ㄱ"",""P0_Q1"":""(가능)""}","survey","80","3171662","0.0-12.0-1.24","[]","","",""
"1803","TestRecordings/nthiton.wav","0","audio-button-response","81","3173479","0.0-12.0-0.25","","","",""
"13286","","{""P0_Q0"":""ㅇ,ㅡ,ㅁ,ㅌ,ㅣ,ㄷ,ㅗ,ㄴ"",""P0_Q1"":""(불가능)""}","survey","82","3186770","0.0-12.0-1.25","[]","","",""
"1731","TestRecordings/phmacot.wav","0","audio-button-response","83","3188516","0.0-12.0-0.26","","","",""
"12734","","{""P0_Q0"":""ㅍ,ㅡ,ㅁ,ㅏ,ㅈ,ㅗㅊ"",""P0_Q1"":""(가능)""}","survey","84","3201253","0.0-12.0-1.26","[]","","",""
"2144","TestRecordings/nchup.wav","0","audio-button-response","85","3203411","0.0-12.0-0.27","","","",""
"6732","","{""P0_Q0"":""ㅇ,ㅡ,ㅁ,ㅊ,ㅜ,ㄱ"",""P0_Q1"":""(불가능)""}","survey","86","3210148","0.0-12.0-1.27","[]","","",""
"1546","TestRecordings/khonik.wav","0","audio-button-response","87","3211709","0.0-12.0-0.28","","","",""
"11367","","{""P0_Q0"":""ㅋ,ㅗ,ㅇ,ㅓ,ㄴ,ㅣ,ㄱ"",""P0_Q1"":""(가능)""}","survey","88","3223079","0.0-12.0-1.28","[]","","",""
"2173","TestRecordings/mkithun.wav","0","audio-button-response","89","3225266","0.0-12.0-0.29","","","",""
"12875","","{""P0_Q0"":""ㅇ,ㅡ,ㅁ,ㄱ,ㅣ,ㅌ,ㅜ,ㄴ"",""P0_Q1"":""(불가능)""}","survey","90","3238146","0.0-12.0-1.29","[]","","",""
"1914","TestRecordings/phninot.wav","0","audio-button-response","91","3240075","0.0-12.0-0.30","","","",""
"8308","","{""P0_Q0"":""ㅍ,ㅡ,ㄴ,ㅣ,ㄴ,ㅗ,ㅅ"",""P0_Q1"":""(불가능)""}","survey","92","3248387","0.0-12.0-1.30","[]","","",""
"1645","TestRecordings/phwim.wav","0","audio-button-response","93","3250046","0.0-12.0-0.31","","","",""
"8015","","{""P0_Q0"":""ㅍ,ㅟ,ㅇ,ㅔ,ㅁ"",""P0_Q1"":""(불가능)""}","survey","94","3258066","0.0-12.0-1.31","[]","","",""
"1372","TestRecordings/nchat.wav","0","audio-button-response","95","3259452","0.0-12.0-0.32","","","",""
"6641","","{""P0_Q0"":""ㅇ,ㅡ,ㅁ,ㅊ,ㅏ,ㅈ"",""P0_Q1"":""(불가능)""}","survey","96","3266098","0.0-12.0-1.32","[]","","",""
"1309","TestRecordings/cwasop.wav","0","audio-button-response","97","3267421","0.0-12.0-0.33","","","",""
"8807","","{""P0_Q0"":""ㅈ,ㅜ,ㅇ,ㅏ,ㅅ,ㅗㅅ"",""P0_Q1"":""(불가능)""}","survey","98","3276234","0.0-12.0-1.33","[]","","",""
"1546","TestRecordings/thnukip.wav","0","audio-button-response","99","3277794","0.0-12.0-0.34","","","",""
"15451","","{""P0_Q0"":""ㅌ,ㅡ,ㄴ,ㅜ,ㄱ,ㅣ,ㅂ"",""P0_Q1"":""(불가능)""}","survey","100","3293248","0.0-12.0-1.34","[]","","",""
"1734","TestRecordings/swakhing.wav","0","audio-button-response","101","3294998","0.0-12.0-0.35","","","",""
"10197","","{""P0_Q0"":""ㅅ,ㅜ,ㅇ,ㅏ,ㅋ,ㅣ,ㅇ"",""P0_Q1"":""(불가능)""}","survey","102","3305200","0.0-12.0-1.35","[]","","",""
"1449","TestRecordings/takhut.wav","0","audio-button-response","103","3306663","0.0-12.0-0.36","","","",""
"6797","","{""P0_Q0"":""ㄷ,ㅏ,ㅋ,ㅜ,ㅅ"",""P0_Q1"":""(불가능)""}","survey","104","3313464","0.0-12.0-1.36","[]","","",""
"1584","TestRecordings/knop.wav","0","audio-button-response","105","3315061","0.0-12.0-0.37","","","",""
"11353","","{""P0_Q0"":""ㅋ,ㅡ,ㄴ,ㅗ,ㅂ"",""P0_Q1"":""(가능)""}","survey","106","3326418","0.0-12.0-1.37","[]","","",""
"1578","TestRecordings/chut.wav","0","audio-button-response","107","3328010","0.0-12.0-0.38","","","",""
"5147","","{""P0_Q0"":""ㅊ,ㅜ,ㅅ"",""P0_Q1"":""(가능)""}","survey","108","3333161","0.0-12.0-1.38","[]","","",""
"1750","TestRecordings/chwap.wav","0","audio-button-response","109","3334925","0.0-12.0-0.39","","","",""
"7173","","{""P0_Q0"":""ㅊ,ㅜ,ㅇ,ㅏ,ㅂ"",""P0_Q1"":""(가능)""}","survey","110","3342102","0.0-12.0-1.39","[]","","",""
"1331","TestRecordings/cmot.wav","0","audio-button-response","111","3343446","0.0-12.0-0.40","","","",""
"7611","","{""P0_Q0"":""ㅅ,ㅡ,ㅁ,ㅗ,ㅅ"",""P0_Q1"":""(불가능)""}","survey","112","3351061","0.0-12.0-1.40","[]","","",""
"1649","TestRecordings/ntosin.wav","0","audio-button-response","113","3352726","0.0-12.0-0.41","","","",""
"8295","","{""P0_Q0"":""ㅇ,ㅣ,ㄴ,ㄷ,ㅜ,ㅅ,ㅣㄴ"",""P0_Q1"":""(불가능)""}","survey","114","3361025","0.0-12.0-1.41","[]","","",""
"1600","TestRecordings/chwakap.wav","0","audio-button-response","115","3362639","0.0-12.0-0.42","","","",""
"14349","","{""P0_Q0"":""ㅊ,ㅘ,ㄱ,ㅏ,ㅂ"",""P0_Q1"":""(가능)""}","survey","116","3376994","0.0-12.0-1.42","[]","","",""
"1447","TestRecordings/nthochap.wav","0","audio-button-response","117","3378455","0.0-12.0-0.43","","","",""
"9110","","{""P0_Q0"":""ㅇ,ㅡ,ㅁ,ㅌ,ㅗ,ㅊ,ㅏ,ㅂ"",""P0_Q1"":""(불가능)""}","survey","118","3387569","0.0-12.0-1.43","[]","","",""
"1609","TestRecordings/nthunit.wav","0","audio-button-response","119","3389193","0.0-12.0-0.44","","","",""
"11088","","{""P0_Q0"":""ㅇ,ㅣ,ㄴ,ㅌ,ㅜ,ㄴ,ㅣ,ㅅ"",""P0_Q1"":""(불가능)""}","survey","120","3400286","0.0-12.0-1.44","[]","","",""
"1717","TestRecordings/pathik.wav","0","audio-button-response","121","3402017","0.0-12.0-0.45","","","",""
"5715","","{""P0_Q0"":""ㅂ,ㅏ,ㅌ,ㅣ,ㄱ"",""P0_Q1"":""(가능)""}","survey","122","3407736","0.0-12.0-1.45","[]","","",""
"1582","TestRecordings/kwat.wav","0","audio-button-response","123","3409330","0.0-12.0-0.46","","","",""
"6166","","{""P0_Q0"":""ㄱ,ㅘ,ㅅ"",""P0_Q1"":""(가능)""}","survey","124","3415502","0.0-12.0-1.46","[]","","",""
"1446","TestRecordings/siphuk.wav","0","audio-button-response","125","3416961","0.0-12.0-0.47","","","",""
"5794","","{""P0_Q0"":""ㅅ,ㅣ,ㅍ,ㅜ,ㄱ"",""P0_Q1"":""(가능)""}","survey","126","3422760","0.0-12.0-1.47","[]","","",""
"1402","TestRecordings/twikhit.wav","0","audio-button-response","127","3424176","0.0-12.0-0.48","","","",""
"9576","","{""P0_Q0"":""ㅌ,ㅟ,ㅇ,ㅔ,ㅋ,ㅣ,ㅅ"",""P0_Q1"":""(가능)""}","survey","128","3433757","0.0-12.0-1.48","[]","","",""
"1593","TestRecordings/masuk.wav","0","audio-button-response","129","3435365","0.0-12.0-0.49","","","",""
"5708","","{""P0_Q0"":""ㅁ,ㅏ,ㅅ,ㅜ,ㄱ"",""P0_Q1"":""(가능)""}","survey","130","3441077","0.0-12.0-1.49","[]","","",""
"1393","TestRecordings/thwicap.wav","0","audio-button-response","131","3442484","0.0-12.0-0.50","","","",""
"5792","","{""P0_Q0"":""ㅌ,ㅟ,ㅈ,ㅏ,ㅂ"",""P0_Q1"":""(가능)""}","survey","132","3448281","0.0-12.0-1.50","[]","","",""
"1403","TestRecordings/mtak.wav","0","audio-button-response","133","3449698","0.0-12.0-0.51","","","",""
"6152","","{""P0_Q0"":""ㅇ,ㅡ,ㅁ,ㄷ,ㅏ,ㄺ"",""P0_Q1"":""(불가능)""}","survey","134","3455853","0.0-12.0-1.51","[]","","",""
"1526","TestRecordings/swicit.wav","0","audio-button-response","135","3457393","0.0-12.0-0.52","","","",""
"8990","","{""P0_Q0"":""ㅅ,ㅟ,ㅈ,ㅣ,ㅅ"",""P0_Q1"":""(가능)""}","survey","136","3466387","0.0-12.0-1.52","[]","","",""
"1418","TestRecordings/mphithup.wav","0","audio-button-response","137","3467820","0.0-12.0-0.53","","","",""
"10416","","{""P0_Q0"":""ㅇ,ㅡ,ㅁ,ㅍ,ㅣ,ㅌ,ㅜ,ㅅ"",""P0_Q1"":""(불가능)""}","survey","138","3478240","0.0-12.0-1.53","[]","","",""
"1914","TestRecordings/swapong.wav","0","audio-button-response","139","3480168","0.0-12.0-0.54","","","",""
"8532","","{""P0_Q0"":""ㅅ,ㅜ,ㅇ,ㅏ,ㅂ,ㅗ,ㅇ"",""P0_Q1"":""(가능)""}","survey","140","3488705","0.0-12.0-1.54","[]","","",""
"1757","TestRecordings/khwapan.wav","0","audio-button-response","141","3490477","0.0-12.0-0.55","","","",""
"9162","","{""P0_Q0"":""ㅋ,ㅘ,ㅂ,ㅏ,ㄴ"",""P0_Q1"":""(가능)""}","survey","142","3499642","0.0-12.0-1.55","[]","","",""
"2463","TestRecordings/khnichat.wav","0","audio-button-response","143","3502120","0.0-12.0-0.56","","","",""
"14057","","{""P0_Q0"":""ㅋ,ㅡ,ㄴ,ㅣ,ㅊ,ㅑ,ㅅ"",""P0_Q1"":""(가능)""}","survey","144","3516182","0.0-12.0-1.56","[]","","",""
"1762","TestRecordings/cwiphing.wav","0","audio-button-response","145","3517959","0.0-12.0-0.57","","","",""
"9603","","{""P0_Q0"":""ㅈ,ㅟ,ㅍ,ㅣ,ㅇ"",""P0_Q1"":""(불가능)""}","survey","146","3527567","0.0-12.0-1.57","[]","","",""
"1827","TestRecordings/pmisung.wav","0","audio-button-response","147","3529409","0.0-12.0-0.58","","","",""
"7875","","{""P0_Q0"":""ㅋ,ㅡ,ㅁ,ㅣ,ㅅ,ㅜ,ㅇ"",""P0_Q1"":""(불가능)""}","survey","148","3537289","0.0-12.0-1.58","[]","","",""
"1851","TestRecordings/khmoting.wav","0","audio-button-response","149","3539155","0.0-12.0-0.59","","","",""
"12300","","{""P0_Q0"":""ㅋ,ㅡ,ㅁ,ㅗ,ㄷ,ㅣ,ㅇ"",""P0_Q1"":""(가능)""}","survey","150","3551459","0.0-12.0-1.59","[]","","",""
"3142",""," ","html-keyboard-response","151","3554602","0.0-13.0","","","",""
"85260","","{""P0_Q0"":""20"",""P0_Q1"":""여"",""P0_Q2"":""6"",""P0_Q3"":""없습니다."",""P0_Q4"":""일본어, 중국어"",""P0_Q5"":""중2에 두 외국어를 한 학기씩, 고2 때 중국어를 한 학기 동안 배웠습니다."",""P0_Q6"":""없습니다.""}","survey","152","3639866","0.0-14.0","[]","","",""
"1290","<p style=""font-size:30px"",lang=""ko"">실험이 끝났습니다</p><p style=""font-size:30px"",lang=""ko"">참가해주셔서 고맙습니다</p>"," ","html-keyboard-response","153","3641156","0.0-15.0","","","",""
,