"rt","stimulus","response","trial_type","trial_index","time_elapsed","internal_node_id","accuracy","PracticeTest","ConsonantSequence","Grammaticality"
"1676198","<p style=""font-size:30px"",lang=""ko"">실험에 오신 것을 환영합니다</p><p lang=""ko"">스페이스바를 누르면 다음 페이지로 넘어갑니다</p>"," ","html-keyboard-response","0","1676199","0.0-0.0","","","",""
"1202","<p style=""font-size:30px"",lang=""ko"">해드폰을 본인에게 잘 맞게 착용하세요</p><p lang=""ko"">스페이스바를 누르면 다음 페이지로 넘어갑니다</p>"," ","html-keyboard-response","1","1677401","0.0-1.0","","","",""
"7495","<p style=""font-size:30px"",lang=""ko"">이 실험에서는 새로 만든 한국 단어를 들으실 겁니다</p><p style=""font-size:30px"",lang=""ko"">단어를 들리는대로 쓰세요. 그런 다음 그 단어가 한국어 단어로 가능한지 평가하세요</p><p lang=""ko"">스페이스바를 누르면 다음 페이지로 넘어갑니다</p>"," ","html-keyboard-response","2","1684897","0.0-2.0","","","",""
"1368","<p style=""font-size:30px"",lang=""ko"">원래 있는 단어로 예를 들어 봅시다</p><p lang=""ko"">스페이스바를 누르면 다음 페이지로 넘어갑니다</p>"," ","html-keyboard-response","3","1686266","0.0-3.0","","","",""
"7841","PracticeRecordings/kom_bear.wav","0","audio-button-response","4","1694181","0.0-4.0","","","",""
"2128","<p style=""font-size:30px"",lang=""ko"">이제 직접 단어를 듣고 쓰는 연습을 해봅시다. </p><p style=""font-size:30px"",lang=""ko"">스페이스바를 누르면 다음 페이지로 넘어갑니다</p>"," ","html-keyboard-response","5","1696309","0.0-5.0","","","",""
"3010","PracticeRecordings/kirin_giraffe.wav","0","audio-button-response","6","1699336","0.0-6.0-0.0","","","",""
"12367","kirin_giraffe","{""P0_Q0"":""ㄱ,ㅣ,ㄹ,ㅣ,ㄴ""}","survey","7","1711730","0.0-6.0-1.0","[]","practice","NA","TRUE"
"1538","<p style=""font-size:30px"",lang=""ko"">방금 들으신 단어는 ""ㄱ,ㅣ,ㄹ,ㅣ,ㄴ"" 이라고 쓰시면 됩니다</p><p lang=""ko"">스페이스바를 누르면 다음 페이지로 넘어갑니다</p>"," ","html-keyboard-response","8","1713268","0.0-6.0-2.0","","","",""
"2833","PracticeRecordings/saca_lion.wav","0","audio-button-response","9","1716118","0.0-6.0-0.1","","","",""
"5269","saca_lion","{""P0_Q0"":""ㅅ,ㅏ,ㅈ,ㅏ""}","survey","10","1721394","0.0-6.0-1.1","[]","practice","NA","FALSE"
"1030","<p style=""font-size:30px"",lang=""ko"">방금 들으신 단어는 ""ㅅ,ㅏ,ㅈ,ㅏ"" 라고 쓰시면 됩니다</p><p lang=""ko"">스페이스바를 누르면 다음 페이지로 넘어갑니다</p>"," ","html-keyboard-response","11","1722424","0.0-6.0-2.1","","","",""
"1818","PracticeRecordings/saseum_deer.wav","0","audio-button-response","12","1724258","0.0-6.0-0.2","","","",""
"5525","saseum_deer","{""P0_Q0"":""ㅅ,ㅏ,ㅅ,ㅡ,ㅁ""}","survey","13","1729788","0.0-6.0-1.2","[]","practice","NA","FALSE"
"1104","<p style=""font-size:30px"",lang=""ko"">방금 들으신 단어는 ""ㅅ,ㅏ,ㅅ,ㅡ,ㅁ""이라고 쓰시면 됩니다</p><p lang=""ko"">스페이스바를 누르면 다음 페이지로 넘어갑니다</p>"," ","html-keyboard-response","14","1730893","0.0-6.0-2.2","","","",""
"1771","PracticeRecordings/thokki_rabbit.wav","0","audio-button-response","15","1732679","0.0-6.0-0.3","","","",""
"6033","thokki_rabbit","{""P0_Q0"":""ㅌ,ㅗ,ㄲ,ㅣ""}","survey","16","1738717","0.0-6.0-1.3","[]","practice","NA","FALSE"
"622","<p style=""font-size:30px"",lang=""ko"">방금 들으신 단어는 ""ㅌ,ㅗ,ㄲ,ㅣ"" 라고 쓰시면 됩니다</p><p lang=""ko"">스페이스바를 누르면 다음 페이지로 넘어갑니다</p>"," ","html-keyboard-response","17","1739339","0.0-6.0-2.3","","","",""
"892","<p style=""font-size:30px"",lang=""ko"">이제 만든 단어로 연습해봅시다.</p><p lang=""ko"">스페이스바를 누르면 다음 페이지로 넘어갑니다</p>"," ","html-keyboard-response","18","1740232","0.0-7.0","","","",""
"6652","PracticeRecordings/snen.wav","0","audio-button-response","19","1746901","0.0-8.0-0.0","","","",""
"5833","snen","{""P0_Q0"":""ㅅ,ㅡ,ㅁ,ㅐ,ㄴ""}","survey","20","1752740","0.0-8.0-1.0","[]","practice","NA","TRUE"
"1774","<p style=""font-size:30px"",lang=""ko"">들으신 단어는 <br> ""ㅅ,ㅡ,ㄴ,ㅐ,ㄴ""  ""ㅅ,ㅡ,ㄴ,ㅐ"" ""ㅅ,ㄴ,ㅐ,ㄴ (""으"" 소리가 안 들리는 경우)"" 등 <br> 사람에 따라 다양하게 들릴 수 있습니다 <br> 본인에게 들리는대로 쓰시면 됩니다.</p><p lang=""ko"">스페이스바를 누르면 다음 페이지로 넘어갑니다</p>"," ","html-keyboard-response","21","1754515","0.0-8.0-2.0","","","",""
"1878","PracticeRecordings/phrak.wav","0","audio-button-response","22","1756408","0.0-8.0-0.1","","","",""
"3812","phrak","{""P0_Q0"":""ㅍ,ㅡ,ㄹ,ㅏ,ㄱ""}","survey","23","1760225","0.0-8.0-1.1","[]","practice","NA","FALSE"
"824","<p style=""font-size:30px"",lang=""ko"">들으신 단어는 <br> ""ㅍ,ㅡ,ㄹ,ㅏ,ㄱ"" ""ㅍ,ㅡ,ㄹ,ㅏ,ㅅ"" ""ㅋ,ㅡ,ㄹ,ㅏ,ㄱ"" ""ㅍ,ㄹ,ㅏ,ㄱ (""으"" 소리가 안 들리는 경우)"" 등 <br> 사람에 따라 다양하게 들릴 수 있습니다 <br> 본인에게 들리는대로 쓰시면 됩니다.</p><p lang=""ko"">스페이스바를 누르면 다음 페이지로 넘어갑니다</p>"," ","html-keyboard-response","24","1761049","0.0-8.0-2.1","","","",""
"1866","PracticeRecordings/chka.wav","0","audio-button-response","25","1762932","0.0-8.0-0.2","","","",""
"4220","chka","{""P0_Q0"":""ㅊ,ㅡ,ㄱ,ㅏ""}","survey","26","1767155","0.0-8.0-1.2","[]","practice","NA","FALSE"
"451","<p style=""font-size:30px"",lang=""ko"">들으신 단어는 ""ㅊ,ㅣ,ㄱ,ㅏ"", ""ㅊ,ㅡ,ㄱ,ㅏ"", ""ㅊ,ㄱ,ㅏ"", ""ㅊ,ㅟ,ㄱ,ㅏ"" 등 <br> 사람에 따라 다양하게 들릴 수 있습니다. <br> 본인에게 들리는대로 쓰시면 됩니다.</p><p lang=""ko"">스페이스바를 누르면 다음 페이지로 넘어갑니다</p>"," ","html-keyboard-response","27","1767606","0.0-8.0-2.2","","","",""
"2877",""," ","html-keyboard-response","28","1770483","0.0-9.0","","","",""
"1578","<p style=""font-size:30px"",lang=""ko"">이제 실험을 시작하겠습니다.</p><p style=""font-size:30px"",lang=""ko"">실전에서는 각각의 만든 단어를 한 번씩만 들을 수 있습니다.</p>"," ","html-keyboard-response","29","1772062","0.0-10.0","","","",""
"36186","<p style=""font-size:30px"",lang=""ko"">단어를 풀어 쓰신 후에 그 단어가 한국어로 가능한 단어인지 평가해주세요</p><p lang=""ko"">스페이스바를 누르면 다음 페이지로 넘어갑니다</p>"," ","html-keyboard-response","30","1808248","0.0-11.0","","","",""
"2870","TestRecordings/knothing.wav","0","audio-button-response","31","1811197","0.0-12.0-0.0","","","",""
"20531","","{""P0_Q0"":""ㅋ,ㅡ,ㄴ,ㅗ,ㅌ,ㅣ,ㅇ"",""P0_Q1"":""(불가능)""}","survey","32","1831738","0.0-12.0-1.0","[]","","",""
"2592","TestRecordings/takhut.wav","0","audio-button-response","33","1834348","0.0-12.0-0.1","","","",""
"8072","","{""P0_Q0"":""ㄷ,ㅏ,ㅋ,ㅜ,ㅅ"",""P0_Q1"":""(불가능)""}","survey","34","1842426","0.0-12.0-1.1","[]","","",""
"1742","TestRecordings/chwakap.wav","0","audio-button-response","35","1844183","0.0-12.0-0.2","","","",""
"7084","","{""P0_Q0"":""ㅊ,ㅏ,ㄱ,ㅏ,ㅂ"",""P0_Q1"":""(가능)""}","survey","36","1851272","0.0-12.0-1.2","[]","","",""
"1110","TestRecordings/twikhit.wav","0","audio-button-response","37","1852398","0.0-12.0-0.3","","","",""
"9711","","{""P0_Q0"":""ㄷ,ㅜ,ㅣ,ㅋ,ㅣ,ㅅ"",""P0_Q1"":""(불가능)""}","survey","38","1862113","0.0-12.0-1.3","[]","","",""
"1262","TestRecordings/kwat.wav","0","audio-button-response","39","1863391","0.0-12.0-0.4","","","",""
"5816","","{""P0_Q0"":""ㄱ,ㅗ,ㅏ,ㅅ"",""P0_Q1"":""(가능)""}","survey","40","1869215","0.0-12.0-1.4","[]","","",""
"1329","TestRecordings/khonik.wav","0","audio-button-response","41","1870559","0.0-12.0-0.5","","","",""
"5717","","{""P0_Q0"":""ㅋ,ㅗ,ㄴ,ㅣ,ㄱ"",""P0_Q1"":""(불가능)""}","survey","42","1876281","0.0-12.0-1.5","[]","","",""
"2655","TestRecordings/mphithup.wav","0","audio-button-response","43","1878951","0.0-12.0-0.6","","","",""
"9421","","{""P0_Q0"":""ㅇ,ㅡ,ㅁ,ㅍ,ㅣ,ㅌ,ㅜ,ㅂ"",""P0_Q1"":""(불가능)""}","survey","44","1888377","0.0-12.0-1.6","[]","","",""
"4023","TestRecordings/niphak.wav","0","audio-button-response","45","1892415","0.0-12.0-0.7","","","",""
"8246","","{""P0_Q0"":""ㄴ,ㅣ,ㅍ,ㅏ,ㄷ"",""P0_Q1"":""(불가능)""}","survey","46","1900666","0.0-12.0-1.7","[]","","",""
"1281","TestRecordings/chwap.wav","0","audio-button-response","47","1901962","0.0-12.0-0.8","","","",""
"5029","","{""P0_Q0"":""ㅊ,ㅗ,ㅏ,ㅂ"",""P0_Q1"":""(가능)""}","survey","48","1906996","0.0-12.0-1.8","[]","","",""
"1570","TestRecordings/cwiphing.wav","0","audio-button-response","49","1908582","0.0-12.0-0.9","","","",""
"8079","","{""P0_Q0"":""ㅈ,ㅜ,ㅣ,ㅍ,ㅣ,ㅇ"",""P0_Q1"":""(불가능)""}","survey","50","1916665","0.0-12.0-1.9","[]","","",""
"1419","TestRecordings/mkithun.wav","0","audio-button-response","51","1918101","0.0-12.0-0.10","","","",""
"9217","","{""P0_Q0"":""ㅇ,ㅡ,ㅁ,ㄱ,ㅣ,ㅌ,ㅜ,ㄴ"",""P0_Q1"":""(불가능)""}","survey","52","1927321","0.0-12.0-1.10","[]","","",""
"1736","TestRecordings/khmoting.wav","0","audio-button-response","53","1929133","0.0-12.0-0.11","","","",""
"7769","","{""P0_Q0"":""ㅋ,ㅡ,ㄴ,ㅗ,ㄷ,ㅣ,ㅇ"",""P0_Q1"":""(불가능)""}","survey","54","1936910","0.0-12.0-1.11","[]","","",""
"4750","TestRecordings/cut.wav","0","audio-button-response","55","1941684","0.0-12.0-0.12","","","",""
"5879","","{""P0_Q0"":""ㅈ,ㅜ,ㄷ"",""P0_Q1"":""(불가능)""}","survey","56","1947571","0.0-12.0-1.12","[]","","",""
"1060","TestRecordings/khmip.wav","0","audio-button-response","57","1948715","0.0-12.0-0.13","","","",""
"5261","","{""P0_Q0"":""ㅋ,ㅡ,ㅁ,ㅣ,ㅂ"",""P0_Q1"":""(불가능)""}","survey","58","1953982","0.0-12.0-1.13","[]","","",""
"1093","TestRecordings/masuk.wav","0","audio-button-response","59","1955161","0.0-12.0-0.14","","","",""
"9446","","{""P0_Q0"":""ㅁ,ㅏ,ㅅ,ㅜ,ㄱ"",""P0_Q1"":""(가능)""}","survey","60","1964616","0.0-12.0-1.14","[]","","",""
"1032","TestRecordings/thwicap.wav","0","audio-button-response","61","1965671","0.0-12.0-0.15","","","",""
"6676","","{""P0_Q0"":""ㅌ,ㅜ,ㅣ,ㅈ,ㅏ,ㅂ"",""P0_Q1"":""(가능)""}","survey","62","1972354","0.0-12.0-1.15","[]","","",""
"1162","TestRecordings/cwasop.wav","0","audio-button-response","63","1973602","0.0-12.0-0.16","","","",""
"8441","","{""P0_Q0"":""ㅈ,ㅗ,ㅏ,ㅅ,ㅗ,ㅂ"",""P0_Q1"":""(가능)""}","survey","64","1982050","0.0-12.0-1.16","[]","","",""
"1046","TestRecordings/nthunit.wav","0","audio-button-response","65","1983181","0.0-12.0-0.17","","","",""
"12048","","{""P0_Q0"":""ㅇ,ㅡ,ㄴ,ㅌ,ㅜ,ㄴ,ㅣ,ㅅ"",""P0_Q1"":""(불가능)""}","survey","66","1995237","0.0-12.0-1.17","[]","","",""
"3464","TestRecordings/ncuk.wav","0","audio-button-response","67","1998787","0.0-12.0-0.18","","","",""
"7004","","{""P0_Q0"":""ㅇ,ㅜ,ㄴ,ㅈ,ㅜ,ㄱ"",""P0_Q1"":""(가능)""}","survey","68","2005799","0.0-12.0-1.18","[]","","",""
"1047","TestRecordings/nchat.wav","0","audio-button-response","69","2006931","0.0-12.0-0.19","","","",""
"8372","","{""P0_Q0"":""ㅇ,ㅡ,ㄴ,ㅊ,ㅏ,ㅅ"",""P0_Q1"":""(가능)""}","survey","70","2015309","0.0-12.0-1.19","[]","","",""
"1271","TestRecordings/pmathin.wav","0","audio-button-response","71","2016668","0.0-12.0-0.20","","","",""
"9170","","{""P0_Q0"":""ㅋ,ㅡ,ㅁ,ㅏ,ㅌ,ㅣ,ㄴ"",""P0_Q1"":""(불가능)""}","survey","72","2025845","0.0-12.0-1.20","[]","","",""
"1306","TestRecordings/pathik.wav","0","audio-button-response","73","2027237","0.0-12.0-0.21","","","",""
"15478","","{""P0_Q0"":""ㅂ,ㅏ,ㅌ,ㅣ,ㄱ"",""P0_Q1"":""(가능)""}","survey","74","2042723","0.0-12.0-1.21","[]","","",""
"1232","TestRecordings/nchak.wav","0","audio-button-response","75","2044039","0.0-12.0-0.22","","","",""
"8455","","{""P0_Q0"":""ㅇ,ㅡ,ㅁ,ㅊ,ㅏ"",""P0_Q1"":""(가능)""}","survey","76","2052501","0.0-12.0-1.22","[]","","",""
"1361","TestRecordings/siphuk.wav","0","audio-button-response","77","2053948","0.0-12.0-0.23","","","",""
"25887","","{""P0_Q0"":""ㅅ,ㅣ,ㅍ,ㅜ"",""P0_Q1"":""(가능)""}","survey","78","2079842","0.0-12.0-1.23","[]","","",""
"2504","TestRecordings/chut.wav","0","audio-button-response","79","2082423","0.0-12.0-0.24","","","",""
"9054","","{""P0_Q0"":""ㅊ,ㅜ,ㅌ"",""P0_Q1"":""(가능)""}","survey","80","2091484","0.0-12.0-1.24","[]","","",""
"1456","TestRecordings/pmuk.wav","0","audio-button-response","81","2092965","0.0-12.0-0.25","","","",""
"7096","","{""P0_Q0"":""ㄱ,ㅡ,ㅁ,ㅜ,ㄱ"",""P0_Q1"":""(불가능)""}","survey","82","2100068","0.0-12.0-1.25","[]","","",""
"1349","TestRecordings/mtak.wav","0","audio-button-response","83","2101501","0.0-12.0-0.26","","","",""
"24668","","{""P0_Q0"":""ㅇ,ㅜ,ㅇ,ㄷ,ㅏ,ㅅ"",""P0_Q1"":""(가능)""}","survey","84","2126175","0.0-12.0-1.26","[]","","",""
"1991","TestRecordings/nthochap.wav","0","audio-button-response","85","2128255","0.0-12.0-0.27","","","",""
"12697","","{""P0_Q0"":""ㅇ,ㅡ,ㄴ,ㅌ,ㅗ,ㅊ,ㅏ,ㅅ"",""P0_Q1"":""(불가능)""}","survey","86","2140959","0.0-12.0-1.27","[]","","",""
"1298","TestRecordings/khun.wav","0","audio-button-response","87","2142345","0.0-12.0-0.28","","","",""
"7420","","{""P0_Q0"":""ㅋ,ㅜ,ㄴ "",""P0_Q1"":""(가능)""}","survey","88","2149771","0.0-12.0-1.28","[]","","",""
"1391","TestRecordings/pmisung.wav","0","audio-button-response","89","2151247","0.0-12.0-0.29","","","",""
"7886","","{""P0_Q0"":""ㄷ,ㅡ,ㅁ,ㅣ,ㅅ,ㅜ,ㅇ"",""P0_Q1"":""(불가능)""}","survey","90","2159140","0.0-12.0-1.29","[]","","",""
"1198","TestRecordings/thnukip.wav","0","audio-button-response","91","2160423","0.0-12.0-0.30","","","",""
"15556","","{""P0_Q0"":""ㅌ,ㅡ,ㄴ,ㅜ,ㄱ,ㅣ,ㅂ"",""P0_Q1"":""(가능)""}","survey","92","2175986","0.0-12.0-1.30","[]","","",""
"1163","TestRecordings/mip.wav","0","audio-button-response","93","2177233","0.0-12.0-0.31","","","",""
"7612","","{""P0_Q0"":""ㅁ,ㅣ,ㅂ"",""P0_Q1"":""(가능)""}","survey","94","2184852","0.0-12.0-1.31","[]","","",""
"1191","TestRecordings/sutik.wav","0","audio-button-response","95","2186128","0.0-12.0-0.32","","","",""
"5179","","{""P0_Q0"":""ㅅ,ㅜ,ㄷ,ㅣ,ㄱ"",""P0_Q1"":""(가능)""}","survey","96","2191313","0.0-12.0-1.32","[]","","",""
"2016","TestRecordings/mtunak.wav","0","audio-button-response","97","2193413","0.0-12.0-0.33","","","",""
"16786","","{""P0_Q0"":""ㅇ,ㅡ,ㅁ,ㄷ,ㅜ,ㄴ,ㅏ,ㄱ"",""P0_Q1"":""(가능)""}","survey","98","2210206","0.0-12.0-1.33","[]","","",""
"1284","TestRecordings/swicit.wav","0","audio-button-response","99","2211564","0.0-12.0-0.34","","","",""
"8362","","{""P0_Q0"":""ㅅ,ㅜ,ㅣ,ㅈ,ㅣ,ㅂ"",""P0_Q1"":""(가능)""}","survey","100","2219932","0.0-12.0-1.34","[]","","",""
"1346","TestRecordings/mciphom.wav","0","audio-button-response","101","2221365","0.0-12.0-0.35","","","",""
"9445","","{""P0_Q0"":""ㅇ,ㅡ,ㅁ,ㅈ,ㅣ,ㅍ,ㅗ,ㅁ"",""P0_Q1"":""(불가능)""}","survey","102","2230818","0.0-12.0-1.35","[]","","",""
"1916","TestRecordings/cmot.wav","0","audio-button-response","103","2232822","0.0-12.0-0.36","","","",""
"7508","","{""P0_Q0"":""ㅈ,ㅣ,ㅁ,ㅗ,ㅅ"",""P0_Q1"":""(불가능)""}","survey","104","2240336","0.0-12.0-1.36","[]","","",""
"1224","TestRecordings/phninot.wav","0","audio-button-response","105","2241647","0.0-12.0-0.37","","","",""
"38754","","{""P0_Q0"":""ㅍ,ㅡ,ㄴ,ㅣ,ㄴ,ㅗ,ㅅ"",""P0_Q1"":""(불가능)""}","survey","106","2280408","0.0-12.0-1.37","[]","","",""
"1510","TestRecordings/cwang.wav","0","audio-button-response","107","2282007","0.0-12.0-0.38","","","",""
"4669","","{""P0_Q0"":""ㅈ,ㅗ,ㅏ,ㅇ"",""P0_Q1"":""(불가능)""}","survey","108","2286683","0.0-12.0-1.38","[]","","",""
"1200","TestRecordings/pwacung.wav","0","audio-button-response","109","2287971","0.0-12.0-0.39","","","",""
"5585","","{""P0_Q0"":""ㅂ,ㅗ,ㅏ,ㅈ,ㅜ,ㅇ"",""P0_Q1"":""(가능)""}","survey","110","2293562","0.0-12.0-1.39","[]","","",""
"998","TestRecordings/phwim.wav","0","audio-button-response","111","2294644","0.0-12.0-0.40","","","",""
"19932","","{""P0_Q0"":""ㅍ,ㅜ,ㅣ,ㅁ"",""P0_Q1"":""(불가능)""}","survey","112","2314584","0.0-12.0-1.40","[]","","",""
"1491","TestRecordings/khnacin.wav","0","audio-button-response","113","2316099","0.0-12.0-0.41","","","",""
"9376","","{""P0_Q0"":""ㅋ,ㅡ,ㄴ,ㅏ,ㅈ,ㅣ,ㄴ"",""P0_Q1"":""(가능)""}","survey","114","2325483","0.0-12.0-1.41","[]","","",""
"1088","TestRecordings/thum.wav","0","audio-button-response","115","2326654","0.0-12.0-0.42","","","",""
"6828","","{""P0_Q0"":""ㅌ,ㅜ,ㅁ"",""P0_Q1"":""(가능)""}","survey","116","2333489","0.0-12.0-1.42","[]","","",""
"1116","TestRecordings/phmut.wav","0","audio-button-response","117","2334689","0.0-12.0-0.43","","","",""
"8195","","{""P0_Q0"":""ㅍ,ㅡ,ㅁ,ㅜ,ㅅ"",""P0_Q1"":""(불가능)""}","survey","118","2342890","0.0-12.0-1.43","[]","","",""
"1707","TestRecordings/swakhing.wav","0","audio-button-response","119","2344674","0.0-12.0-0.44","","","",""
"5960","","{""P0_Q0"":""ㅅ,ㅗ,ㅏ,ㅋ,ㅣ,ㅇ"",""P0_Q1"":""(불가능)""}","survey","120","2350643","0.0-12.0-1.44","[]","","",""
"1174","TestRecordings/khwapan.wav","0","audio-button-response","121","2351904","0.0-12.0-0.45","","","",""
"8049","","{""P0_Q0"":""ㅋ,ㅜ,ㅓ,ㅂ,ㅏ,ㄴ"",""P0_Q1"":""(가능)""}","survey","122","2359961","0.0-12.0-1.45","[]","","",""
"1335","TestRecordings/swapong.wav","0","audio-button-response","123","2361380","0.0-12.0-0.46","","","",""
"6457","","{""P0_Q0"":""ㅅ,ㅗ,ㅏ,ㅂ,ㅗ,ㅇ"",""P0_Q1"":""(가능)""}","survey","124","2367843","0.0-12.0-1.46","[]","","",""
"1047","TestRecordings/nucok.wav","0","audio-button-response","125","2368974","0.0-12.0-0.47","","","",""
"6023","","{""P0_Q0"":""ㄴ,ㅜ,ㅈ,ㅗ,ㄱ"",""P0_Q1"":""(가능)""}","survey","126","2375003","0.0-12.0-1.47","[]","","",""
"1485","TestRecordings/nchitam.wav","0","audio-button-response","127","2376513","0.0-12.0-0.48","","","",""
"22499","","{""P0_Q0"":""ㅇ,ㅡ,ㅁ,ㅊ,ㅣ,ㄷ,ㅏ,ㅁ"",""P0_Q1"":""(가능)""}","survey","128","2399019","0.0-12.0-1.48","[]","","",""
"1673","TestRecordings/ntosin.wav","0","audio-button-response","129","2400781","0.0-12.0-0.49","","","",""
"8283","","{""P0_Q0"":""ㅇ,ㅡ,ㄴ,ㄷ,ㅗ,ㅅ,ㅣ,ㄴ"",""P0_Q1"":""(가능)""}","survey","130","2409070","0.0-12.0-1.49","[]","","",""
"1221","TestRecordings/thnakop.wav","0","audio-button-response","131","2410331","0.0-12.0-0.50","","","",""
"25013","","{""P0_Q0"":""ㅌ,ㅡ,ㄴ,ㅏ,ㄱ,ㅗ,ㅂ"",""P0_Q1"":""(가능)""}","survey","132","2435351","0.0-12.0-1.50","[]","","",""
"2443","TestRecordings/phwing.wav","0","audio-button-response","133","2437884","0.0-12.0-0.51","","","",""
"7546","","{""P0_Q0"":""ㅍ,ㅜ,ㅔ,ㅇ"",""P0_Q1"":""(불가능)""}","survey","134","2445438","0.0-12.0-1.51","[]","","",""
"1019","TestRecordings/phuthik.wav","0","audio-button-response","135","2446541","0.0-12.0-0.52","","","",""
"4882","","{""P0_Q0"":""ㅍ,ㅜ,ㅌ,ㅣ,ㄱ"",""P0_Q1"":""(불가능)""}","survey","136","2451430","0.0-12.0-1.52","[]","","",""
"1121","TestRecordings/nchup.wav","0","audio-button-response","137","2452574","0.0-12.0-0.53","","","",""
"6072","","{""P0_Q0"":""ㅇ,ㅡ,ㄴ,ㅊ,ㅜ,ㅂ"",""P0_Q1"":""(가능)""}","survey","138","2458652","0.0-12.0-1.53","[]","","",""
"1486","TestRecordings/nthiton.wav","0","audio-button-response","139","2460230","0.0-12.0-0.54","","","",""
"9555","","{""P0_Q0"":""ㅇ,ㅡ,ㄴ,ㅌ,ㅣ,ㄷ,ㅗ,ㄴ"",""P0_Q1"":""(가능)""}","survey","140","2469792","0.0-12.0-1.54","[]","","",""
"1071","TestRecordings/khnichat.wav","0","audio-button-response","141","2470949","0.0-12.0-0.55","","","",""
"7336","","{""P0_Q0"":""ㅋ,ㅡ,ㄴ,ㅣ,ㅊ,ㅏ,ㅅ"",""P0_Q1"":""(불가능)""}","survey","142","2478291","0.0-12.0-1.55","[]","","",""
"995","TestRecordings/knop.wav","0","audio-button-response","143","2479372","0.0-12.0-0.56","","","",""
"6263","","{""P0_Q0"":""ㅋ,ㅡ,ㄴ,ㅗ,ㅂ"",""P0_Q1"":""(불가능)""}","survey","144","2485642","0.0-12.0-1.56","[]","","",""
"1064","TestRecordings/npokit.wav","0","audio-button-response","145","2486793","0.0-12.0-0.57","","","",""
"9607","","{""P0_Q0"":""ㅇ,ㅡ,ㄴ,ㅂ,ㅗ,ㄱ,ㅣ,ㅅ"",""P0_Q1"":""(가능)""}","survey","146","2496407","0.0-12.0-1.57","[]","","",""
"1423","TestRecordings/kophak.wav","0","audio-button-response","147","2497854","0.0-12.0-0.58","","","",""
"5863","","{""P0_Q0"":""ㄱ,ㅗ,ㅍ,ㅏ,ㅅ"",""P0_Q1"":""(불가능)""}","survey","148","2503725","0.0-12.0-1.58","[]","","",""
"1072","TestRecordings/phmacot.wav","0","audio-button-response","149","2504882","0.0-12.0-0.59","","","",""
"5542","","{""P0_Q0"":""ㅍ,ㅡ,ㅁ,ㅏ,ㅈ,ㅗ,ㅅ"",""P0_Q1"":""(불가능)""}","survey","150","2510431","0.0-12.0-1.59","[]","","",""
"2342",""," ","html-keyboard-response","151","2512773","0.0-13.0","","","",""
"86022","","{""P0_Q0"":""26"",""P0_Q1"":""여"",""P0_Q2"":""8"",""P0_Q3"":""없음"",""P0_Q4"":""중국어"",""P0_Q5"":""17살, 1년"",""P0_Q6"":""일본어, 18살 1년 ""}","survey","152","2598803","0.0-14.0","[]","","",""
"217683","<p style=""font-size:30px"",lang=""ko"">실험이 끝났습니다</p><p style=""font-size:30px"",lang=""ko"">참가해주셔서 고맙습니다</p>"," ","html-keyboard-response","153","2816486","0.0-15.0","","","",""
,