"rt","stimulus","response","trial_type","trial_index","time_elapsed","internal_node_id","accuracy","PracticeTest","ConsonantSequence","Grammaticality"
"1407213","<p style=""font-size:30px"",lang=""ko"">실험에 오신 것을 환영합니다</p><p lang=""ko"">스페이스바를 누르면 다음 페이지로 넘어갑니다</p>"," ","html-keyboard-response","0","1407099","0.0-0.0","","","",""
"1483","<p style=""font-size:30px"",lang=""ko"">해드폰을 본인에게 잘 맞게 착용하세요</p><p lang=""ko"">스페이스바를 누르면 다음 페이지로 넘어갑니다</p>"," ","html-keyboard-response","1","1408583","0.0-1.0","","","",""
"6273","<p style=""font-size:30px"",lang=""ko"">이 실험에서는 새로 만든 한국 단어를 들으실 겁니다</p><p style=""font-size:30px"",lang=""ko"">단어를 들리는대로 쓰세요. 그런 다음 그 단어가 한국어 단어로 가능한지 평가하세요</p><p lang=""ko"">스페이스바를 누르면 다음 페이지로 넘어갑니다</p>"," ","html-keyboard-response","2","1414857","0.0-2.0","","","",""
"1967","<p style=""font-size:30px"",lang=""ko"">원래 있는 단어로 예를 들어 봅시다</p><p lang=""ko"">스페이스바를 누르면 다음 페이지로 넘어갑니다</p>"," ","html-keyboard-response","3","1416824","0.0-3.0","","","",""
"12101","PracticeRecordings/kom_bear.wav","0","audio-button-response","4","1429098","0.0-4.0","","","",""
"2712","<p style=""font-size:30px"",lang=""ko"">이제 직접 단어를 듣고 쓰는 연습을 해봅시다. </p><p style=""font-size:30px"",lang=""ko"">스페이스바를 누르면 다음 페이지로 넘어갑니다</p>"," ","html-keyboard-response","5","1431811","0.0-5.0","","","",""
"5311","PracticeRecordings/kirin_giraffe.wav","0","audio-button-response","6","1437185","0.0-6.0-0.0","","","",""
"10767","kirin_giraffe","{""P0_Q0"":""ㄱ,ㅗ,ㅁ""}","survey","7","1447995","0.0-6.0-1.0","[]","practice","NA","TRUE"
"2948","<p style=""font-size:30px"",lang=""ko"">방금 들으신 단어는 ""ㄱ,ㅣ,ㄹ,ㅣ,ㄴ"" 이라고 쓰시면 됩니다</p><p lang=""ko"">스페이스바를 누르면 다음 페이지로 넘어갑니다</p>"," ","html-keyboard-response","8","1450943","0.0-6.0-2.0","","","",""
"2985","PracticeRecordings/saca_lion.wav","0","audio-button-response","9","1454016","0.0-6.0-0.1","","","",""
"6683","saca_lion","{""P0_Q0"":""ㅅ,ㅏ,ㅈ,ㅏ""}","survey","10","1460707","0.0-6.0-1.1","[]","practice","NA","FALSE"
"2405","<p style=""font-size:30px"",lang=""ko"">방금 들으신 단어는 ""ㅅ,ㅏ,ㅈ,ㅏ"" 라고 쓰시면 됩니다</p><p lang=""ko"">스페이스바를 누르면 다음 페이지로 넘어갑니다</p>"," ","html-keyboard-response","11","1463113","0.0-6.0-2.1","","","",""
"1738","PracticeRecordings/saseum_deer.wav","0","audio-button-response","12","1464936","0.0-6.0-0.2","","","",""
"5602","saseum_deer","{""P0_Q0"":""ㅅ,ㅏ,ㅅ,ㅡ,ㅁ""}","survey","13","1470548","0.0-6.0-1.2","[]","practice","NA","FALSE"
"1945","<p style=""font-size:30px"",lang=""ko"">방금 들으신 단어는 ""ㅅ,ㅏ,ㅅ,ㅡ,ㅁ""이라고 쓰시면 됩니다</p><p lang=""ko"">스페이스바를 누르면 다음 페이지로 넘어갑니다</p>"," ","html-keyboard-response","14","1472493","0.0-6.0-2.2","","","",""
"1539","PracticeRecordings/thokki_rabbit.wav","0","audio-button-response","15","1474117","0.0-6.0-0.3","","","",""
"6551","thokki_rabbit","{""P0_Q0"":""ㅌ,ㅗ,ㄲ,ㅣ""}","survey","16","1480677","0.0-6.0-1.3","[]","practice","NA","FALSE"
"1742","<p style=""font-size:30px"",lang=""ko"">방금 들으신 단어는 ""ㅌ,ㅗ,ㄲ,ㅣ"" 라고 쓰시면 됩니다</p><p lang=""ko"">스페이스바를 누르면 다음 페이지로 넘어갑니다</p>"," ","html-keyboard-response","17","1482420","0.0-6.0-2.3","","","",""
"1287","<p style=""font-size:30px"",lang=""ko"">이제 만든 단어로 연습해봅시다.</p><p lang=""ko"">스페이스바를 누르면 다음 페이지로 넘어갑니다</p>"," ","html-keyboard-response","18","1483708","0.0-7.0","","","",""
"2364","PracticeRecordings/snen.wav","0","audio-button-response","19","1486096","0.0-8.0-0.0","","","",""
"8880","snen","{""P0_Q0"":""ㅅ,ㅡ,ㄴ,ㅐ,ㅁ""}","survey","20","1494984","0.0-8.0-1.0","[]","practice","NA","TRUE"
"5345","<p style=""font-size:30px"",lang=""ko"">들으신 단어는 <br> ""ㅅ,ㅡ,ㄴ,ㅐ,ㄴ""  ""ㅅ,ㅡ,ㄴ,ㅐ"" ""ㅅ,ㄴ,ㅐ,ㄴ (""으"" 소리가 안 들리는 경우)"" 등 <br> 사람에 따라 다양하게 들릴 수 있습니다 <br> 본인에게 들리는대로 쓰시면 됩니다.</p><p lang=""ko"">스페이스바를 누르면 다음 페이지로 넘어갑니다</p>"," ","html-keyboard-response","21","1500329","0.0-8.0-2.0","","","",""
"1585","PracticeRecordings/phrak.wav","0","audio-button-response","22","1501942","0.0-8.0-0.1","","","",""
"6367","phrak","{""P0_Q0"":""ㅍ,ㅡ,ㄹ,ㅏ,ㅋ""}","survey","23","1508315","0.0-8.0-1.1","[]","practice","NA","FALSE"
"6855","<p style=""font-size:30px"",lang=""ko"">들으신 단어는 <br> ""ㅍ,ㅡ,ㄹ,ㅏ,ㄱ"" ""ㅍ,ㅡ,ㄹ,ㅏ,ㅅ"" ""ㅋ,ㅡ,ㄹ,ㅏ,ㄱ"" ""ㅍ,ㄹ,ㅏ,ㄱ (""으"" 소리가 안 들리는 경우)"" 등 <br> 사람에 따라 다양하게 들릴 수 있습니다 <br> 본인에게 들리는대로 쓰시면 됩니다.</p><p lang=""ko"">스페이스바를 누르면 다음 페이지로 넘어갑니다</p>"," ","html-keyboard-response","24","1515171","0.0-8.0-2.1","","","",""
"1409","PracticeRecordings/chka.wav","0","audio-button-response","25","1516654","0.0-8.0-0.2","","","",""
"9176","chka","{""P0_Q0"":""ㅅ,ㅡ,ㅋ,ㅏ,ㅅ""}","survey","26","1525836","0.0-8.0-1.2","[]","practice","NA","FALSE"
"3269","<p style=""font-size:30px"",lang=""ko"">들으신 단어는 ""ㅊ,ㅣ,ㄱ,ㅏ"", ""ㅊ,ㅡ,ㄱ,ㅏ"", ""ㅊ,ㄱ,ㅏ"", ""ㅊ,ㅟ,ㄱ,ㅏ"" 등 <br> 사람에 따라 다양하게 들릴 수 있습니다. <br> 본인에게 들리는대로 쓰시면 됩니다.</p><p lang=""ko"">스페이스바를 누르면 다음 페이지로 넘어갑니다</p>"," ","html-keyboard-response","27","1529106","0.0-8.0-2.2","","","",""
"3333",""," ","html-keyboard-response","28","1532440","0.0-9.0","","","",""
"3401","<p style=""font-size:30px"",lang=""ko"">이제 실험을 시작하겠습니다.</p><p style=""font-size:30px"",lang=""ko"">실전에서는 각각의 만든 단어를 한 번씩만 들을 수 있습니다.</p>"," ","html-keyboard-response","29","1535842","0.0-10.0","","","",""
"16760","<p style=""font-size:30px"",lang=""ko"">단어를 풀어 쓰신 후에 그 단어가 한국어로 가능한 단어인지 평가해주세요</p><p lang=""ko"">스페이스바를 누르면 다음 페이지로 넘어갑니다</p>"," ","html-keyboard-response","30","1552602","0.0-11.0","","","",""
"2617","TestRecordings/nucok.wav","0","audio-button-response","31","1555307","0.0-12.0-0.0","","","",""
"10078","","{""P0_Q0"":""ㄴ,ㅜ,ㅈ,ㅗ,ㄱ"",""P0_Q1"":""(가능)""}","survey","32","1565401","0.0-12.0-1.0","[]","","",""
"2352","TestRecordings/mkithun.wav","0","audio-button-response","33","1567838","0.0-12.0-0.1","","","",""
"18277","","{""P0_Q0"":""ㅇ,ㅡ,ㄱ,ㅣ,ㅌ,ㅜ"",""P0_Q1"":""(불가능)""}","survey","34","1586125","0.0-12.0-1.1","[]","","",""
"1664","TestRecordings/khun.wav","0","audio-button-response","35","1587873","0.0-12.0-0.2","","","",""
"9555","","{""P0_Q0"":""ㅋ,ㅜ,ㄴ"",""P0_Q1"":""(불가능)""}","survey","36","1597436","0.0-12.0-1.2","[]","","",""
"1357","TestRecordings/chut.wav","0","audio-button-response","37","1598877","0.0-12.0-0.3","","","",""
"9892","","{""P0_Q0"":""ㅊ,ㅜ,ㅅ"",""P0_Q1"":""(가능)""}","survey","38","1608776","0.0-12.0-1.3","[]","","",""
"1549","TestRecordings/phwim.wav","0","audio-button-response","39","1610408","0.0-12.0-0.4","","","",""
"7384","","{""P0_Q0"":""ㅋ,ㅜ,ㅣ,ㅁ"",""P0_Q1"":""(가능)""}","survey","40","1617799","0.0-12.0-1.4","[]","","",""
"2091","TestRecordings/pmathin.wav","0","audio-button-response","41","1619974","0.0-12.0-0.5","","","",""
"11309","","{""P0_Q0"":""ㅇ,ㅡ,ㅁ,ㅏ,ㅌ,ㅣ,ㅅ"",""P0_Q1"":""(가능)""}","survey","42","1631292","0.0-12.0-1.5","[]","","",""
"1927","TestRecordings/nchak.wav","0","audio-button-response","43","1633240","0.0-12.0-0.6","","","",""
"10128","","{""P0_Q0"":""ㅇ,ㅡ.ㅊ,ㅏ,ㄱ"",""P0_Q1"":""(불가능)""}","survey","44","1643375","0.0-12.0-1.6","[]","","",""
"1609","TestRecordings/khmoting.wav","0","audio-button-response","45","1645007","0.0-12.0-0.7","","","",""
"12602","","{""P0_Q0"":""ㅋ,ㅡ,ㄴ,ㅗ,ㄷ,ㅣ,ㅇ"",""P0_Q1"":""(불가능)""}","survey","46","1657616","0.0-12.0-1.7","[]","","",""
"2827","TestRecordings/phmacot.wav","0","audio-button-response","47","1660528","0.0-12.0-0.8","","","",""
"17827","","{""P0_Q0"":""ㅍ,ㅡ,ㅁ,ㅏ,ㅈ,ㅗ"",""P0_Q1"":""(불가능)""}","survey","48","1678362","0.0-12.0-1.8","[]","","",""
"1316","TestRecordings/kwat.wav","0","audio-button-response","49","1679761","0.0-12.0-0.9","","","",""
"7579","","{""P0_Q0"":""ㄱ,ㅗ,ㅏ,ㄱ"",""P0_Q1"":""(불가능)""}","survey","50","1687348","0.0-12.0-1.9","[]","","",""
"1720","TestRecordings/mphithup.wav","0","audio-button-response","51","1689152","0.0-12.0-0.10","","","",""
"17805","","{""P0_Q0"":""ㅇ,ㅡ,ㄴ,ㅍ,ㅣ,ㅌ,ㅜ,ㄴ"",""P0_Q1"":""(불가능)""}","survey","52","1706964","0.0-12.0-1.10","[]","","",""
"1526","TestRecordings/khnichat.wav","0","audio-button-response","53","1708576","0.0-12.0-0.11","","","",""
"11921","","{""P0_Q0"":""ㅋ,ㅡ,ㄴ,ㅣ,ㅊ,ㅏ"",""P0_Q1"":""(불가능)""}","survey","54","1720505","0.0-12.0-1.11","[]","","",""
"1243","TestRecordings/ncuk.wav","0","audio-button-response","55","1721835","0.0-12.0-0.12","","","",""
"10649","","{""P0_Q0"":""ㅇ,ㅡ,ㄴ,ㅈ,ㅜ,ㄱ"",""P0_Q1"":""(불가능)""}","survey","56","1732492","0.0-12.0-1.12","[]","","",""
"1245","TestRecordings/takhut.wav","0","audio-button-response","57","1733768","0.0-12.0-0.13","","","",""
"11149","","{""P0_Q0"":""ㄷ,ㅏ,ㅅ,ㅋ,ㅜ,ㄱ"",""P0_Q1"":""(불가능)""}","survey","58","1744925","0.0-12.0-1.13","[]","","",""
"2279","TestRecordings/mip.wav","0","audio-button-response","59","1747285","0.0-12.0-0.14","","","",""
"4293","","{""P0_Q0"":""ㅁ,ㅣ,ㅍ"",""P0_Q1"":""(불가능)""}","survey","60","1751585","0.0-12.0-1.14","[]","","",""
"1280","TestRecordings/khnacin.wav","0","audio-button-response","61","1752937","0.0-12.0-0.15","","","",""
"10765","","{""P0_Q0"":""ㅋ,ㅡ,ㄴ,ㅏ,ㅈ,ㅣ,ㄴ"",""P0_Q1"":""(불가능)""}","survey","62","1763711","0.0-12.0-1.15","[]","","",""
"1707","TestRecordings/mtunak.wav","0","audio-button-response","63","1765502","0.0-12.0-0.16","","","",""
"11234","","{""P0_Q0"":""ㅇ,ㅡ,ㅇ,ㄷ,ㅜ,ㄴ,ㅏ,ㅅ"",""P0_Q1"":""(불가능)""}","survey","64","1776743","0.0-12.0-1.16","[]","","",""
"4813","TestRecordings/cwasop.wav","0","audio-button-response","65","1781640","0.0-12.0-0.17","","","",""
"14805","","{""P0_Q0"":""ㅈ,ㅏ,ㅅ,ㅗ,ㅅ"",""P0_Q1"":""(불가능)""}","survey","66","1796453","0.0-12.0-1.17","[]","","",""
"1381","TestRecordings/masuk.wav","0","audio-button-response","67","1797920","0.0-12.0-0.18","","","",""
"9471","","{""P0_Q0"":""ㅁ,ㅏ,ㅅ,ㅜ,ㄱ"",""P0_Q1"":""(불가능)""}","survey","68","1807399","0.0-12.0-1.18","[]","","",""
"1261","TestRecordings/khmip.wav","0","audio-button-response","69","1808743","0.0-12.0-0.19","","","",""
"10462","","{""P0_Q0"":""ㅋ,ㅡ,ㅁ,ㅣ,ㅍ"",""P0_Q1"":""(불가능)""}","survey","70","1819211","0.0-12.0-1.19","[]","","",""
"1258","TestRecordings/swicit.wav","0","audio-button-response","71","1820555","0.0-12.0-0.20","","","",""
"6860","","{""P0_Q0"":""ㅅ,ㅜ,ㅣ,ㅈ,ㅣ,ㅅ"",""P0_Q1"":""(불가능)""}","survey","72","1827423","0.0-12.0-1.20","[]","","",""
"1067","TestRecordings/thwicap.wav","0","audio-button-response","73","1828575","0.0-12.0-0.21","","","",""
"9111","","{""P0_Q0"":""ㅌ,ㅜ,ㅣ,ㅈ,ㅏ,ㅂ"",""P0_Q1"":""(불가능)""}","survey","74","1837692","0.0-12.0-1.21","[]","","",""
"1671","TestRecordings/thnakop.wav","0","audio-button-response","75","1839448","0.0-12.0-0.22","","","",""
"9015","","{""P0_Q0"":""ㅌ,ㅡ,ㄴ,ㅏ,ㄱ,ㅗ,ㄱ"",""P0_Q1"":""(불가능)""}","survey","76","1848469","0.0-12.0-1.22","[]","","",""
"1249","TestRecordings/nchat.wav","0","audio-button-response","77","1849751","0.0-12.0-0.23","","","",""
"8080","","{""P0_Q0"":""ㅇ,ㅡ,ㄴ,ㅊ,ㅏ,ㅅ"",""P0_Q1"":""(불가능)""}","survey","78","1857837","0.0-12.0-1.23","[]","","",""
"1465","TestRecordings/swapong.wav","0","audio-button-response","79","1859388","0.0-12.0-0.24","","","",""
"14355","","{""P0_Q0"":""ㅅ,ㅗ,ㅏ,ㅂ,ㅗ,ㅇ"",""P0_Q1"":""(불가능)""}","survey","80","1873750","0.0-12.0-1.24","[]","","",""
"1300","TestRecordings/knothing.wav","0","audio-button-response","81","1875134","0.0-12.0-0.25","","","",""
"8796","","{""P0_Q0"":""ㅋ,ㅡ,ㄴ,ㅗ,ㅌ,ㅣ,ㅇ"",""P0_Q1"":""(불가능)""}","survey","82","1883936","0.0-12.0-1.25","[]","","",""
"1165","TestRecordings/niphak.wav","0","audio-button-response","83","1885184","0.0-12.0-0.26","","","",""
"8547","","{""P0_Q0"":""ㄴ,ㅣ,ㅍ,ㅏ,ㅋ"",""P0_Q1"":""(불가능)""}","survey","84","1893737","0.0-12.0-1.26","[]","","",""
"2167","TestRecordings/nthunit.wav","0","audio-button-response","85","1895989","0.0-12.0-0.27","","","",""
"9966","","{""P0_Q0"":""ㅇ,ㅡ,ㅇ,ㅌ,ㅜ,ㄴ,ㅣ,ㅅ"",""P0_Q1"":""(불가능)""}","survey","86","1905965","0.0-12.0-1.27","[]","","",""
"1122","TestRecordings/thum.wav","0","audio-button-response","87","1907171","0.0-12.0-0.28","","","",""
"4840","","{""P0_Q0"":""ㅌ,ㅜ,ㅁ"",""P0_Q1"":""(불가능)""}","survey","88","1912019","0.0-12.0-1.28","[]","","",""
"1281","TestRecordings/kophak.wav","0","audio-button-response","89","1913385","0.0-12.0-0.29","","","",""
"7873","","{""P0_Q0"":""ㄱ,ㅗ,ㅍ,ㅏ,ㅋ"",""P0_Q1"":""(불가능)""}","survey","90","1921264","0.0-12.0-1.29","[]","","",""
"1066","TestRecordings/ntosin.wav","0","audio-button-response","91","1922354","0.0-12.0-0.30","","","",""
"13109","","{""P0_Q0"":""ㅇ,ㅡ,ㄴ,ㄷ,ㅜ,ㅅ,ㅜ,ㅣ,ㄴ"",""P0_Q1"":""(불가능)""}","survey","92","1935470","0.0-12.0-1.30","[]","","",""
"1811","TestRecordings/phninot.wav","0","audio-button-response","93","1937370","0.0-12.0-0.31","","","",""
"7638","","{""P0_Q0"":""ㅍ,ㅡ,ㄴ,ㅣ,ㄴ,ㅗ,ㅅ"",""P0_Q1"":""(불가능)""}","survey","94","1945016","0.0-12.0-1.31","[]","","",""
"1652","TestRecordings/npokit.wav","0","audio-button-response","95","1946752","0.0-12.0-0.32","","","",""
"13746","","{""P0_Q0"":""ㄱ,ㅡ,ㅇ,ㅂ,ㅜ,ㄱ,ㅜ,ㅣ,ㄴ"",""P0_Q1"":""(불가능)""}","survey","96","1960506","0.0-12.0-1.32","[]","","",""
"1789","TestRecordings/khonik.wav","0","audio-button-response","97","1962379","0.0-12.0-0.33","","","",""
"6552","","{""P0_Q0"":""ㅋ,ㅗ,ㄴ,ㅣ,ㄱ"",""P0_Q1"":""(불가능)""}","survey","98","1968939","0.0-12.0-1.33","[]","","",""
"1164","TestRecordings/chwakap.wav","0","audio-button-response","99","1970187","0.0-12.0-0.34","","","",""
"10766","","{""P0_Q0"":""ㅊ,ㅗ,ㅏ,ㄱ,ㅏ,ㅂ"",""P0_Q1"":""(불가능)""}","survey","100","1980960","0.0-12.0-1.34","[]","","",""
"1362","TestRecordings/thnukip.wav","0","audio-button-response","101","1982406","0.0-12.0-0.35","","","",""
"11468","","{""P0_Q0"":""ㅌ,ㅡ,ㄴ,ㅜ,ㄱ,ㅣ,ㅅ"",""P0_Q1"":""(불가능)""}","survey","102","1993882","0.0-12.0-1.35","[]","","",""
"1361","TestRecordings/phuthik.wav","0","audio-button-response","103","1995328","0.0-12.0-0.36","","","",""
"7199","","{""P0_Q0"":""ㅍ,ㅜ,ㅌ,ㅣ,ㄱ"",""P0_Q1"":""(불가능)""}","survey","104","2002533","0.0-12.0-1.36","[]","","",""
"1178","TestRecordings/cwang.wav","0","audio-button-response","105","2003795","0.0-12.0-0.37","","","",""
"10598","","{""P0_Q0"":""ㅈ,ㅗ,ㅏ,ㅇ"",""P0_Q1"":""(불가능)""}","survey","106","2014401","0.0-12.0-1.37","[]","","",""
"1391","TestRecordings/cwiphing.wav","0","audio-button-response","107","2015875","0.0-12.0-0.38","","","",""
"9118","","{""P0_Q0"":""ㅈ,ㅜ,ㅣ,ㅂ,ㅍ,ㅣ,ㅇ"",""P0_Q1"":""(불가능)""}","survey","108","2024999","0.0-12.0-1.38","[]","","",""
"1187","TestRecordings/cmot.wav","0","audio-button-response","109","2026268","0.0-12.0-0.39","","","",""
"7344","","{""P0_Q0"":""ㅅ,ㅡ,ㅁ,ㅗ,ㅅ"",""P0_Q1"":""(불가능)""}","survey","110","2033619","0.0-12.0-1.39","[]","","",""
"1682","TestRecordings/swakhing.wav","0","audio-button-response","111","2035389","0.0-12.0-0.40","","","",""
"8780","","{""P0_Q0"":""ㅅ,ㅗ,ㅏ,ㅋ,ㅣ,ㅇ"",""P0_Q1"":""(불가능)""}","survey","112","2044175","0.0-12.0-1.40","[]","","",""
"1491","TestRecordings/phwing.wav","0","audio-button-response","113","2045704","0.0-12.0-0.41","","","",""
"5225","","{""P0_Q0"":""ㅍ,ㅡ,ㅣ,ㅇ"",""P0_Q1"":""(불가능)""}","survey","114","2050937","0.0-12.0-1.41","[]","","",""
"1060","TestRecordings/khwapan.wav","0","audio-button-response","115","2052082","0.0-12.0-0.42","","","",""
"6692","","{""P0_Q0"":""ㅋ,ㅗ,ㅏ,ㅂ,ㅏ,ㄴ"",""P0_Q1"":""(불가능)""}","survey","116","2058780","0.0-12.0-1.42","[]","","",""
"1451","TestRecordings/nchitam.wav","0","audio-button-response","117","2060316","0.0-12.0-0.43","","","",""
"10550","","{""P0_Q0"":""ㅇ,ㅡ,ㅇ,ㅊ,ㅣ,ㄷ,ㅏ,ㅁ"",""P0_Q1"":""(불가능)""}","survey","118","2070873","0.0-12.0-1.43","[]","","",""
"1493","TestRecordings/sutik.wav","0","audio-button-response","119","2072451","0.0-12.0-0.44","","","",""
"7540","","{""P0_Q0"":""ㅅ,ㅜ,ㄷ,ㅜ,ㅣ,ㅅ"",""P0_Q1"":""(불가능)""}","survey","120","2079999","0.0-12.0-1.44","[]","","",""
"1000","TestRecordings/phmut.wav","0","audio-button-response","121","2081083","0.0-12.0-0.45","","","",""
"7308","","{""P0_Q0"":""ㅍ,ㅡ,ㅁ,ㅗ,ㅅ"",""P0_Q1"":""(불가능)""}","survey","122","2088398","0.0-12.0-1.45","[]","","",""
"1040","TestRecordings/pmuk.wav","0","audio-button-response","123","2089521","0.0-12.0-0.46","","","",""
"6328","","{""P0_Q0"":""ㅂ,ㅡ,ㅁ,ㅗ,ㅅ"",""P0_Q1"":""(불가능)""}","survey","124","2095855","0.0-12.0-1.46","[]","","",""
"1190","TestRecordings/mciphom.wav","0","audio-button-response","125","2097130","0.0-12.0-0.47","","","",""
"8183","","{""P0_Q0"":""ㅇ,ㅡ,ㅇ,ㅈ,ㅣ,ㅍ,ㅗ,ㅁ"",""P0_Q1"":""(불가능)""}","survey","126","2105320","0.0-12.0-1.47","[]","","",""
"1625","TestRecordings/siphuk.wav","0","audio-button-response","127","2107028","0.0-12.0-0.48","","","",""
"7790","","{""P0_Q0"":""ㅅ,ㅡ,ㅍ,ㅜ,ㄱ"",""P0_Q1"":""(불가능)""}","survey","128","2114825","0.0-12.0-1.48","[]","","",""
"2178","TestRecordings/pmisung.wav","0","audio-button-response","129","2117090","0.0-12.0-0.49","","","",""
"11236","","{""P0_Q0"":""ㅍ,ㅡ,ㅁ,ㅣ,ㅅ,ㅜ,ㅇ"",""P0_Q1"":""(불가능)""}","survey","130","2128332","0.0-12.0-1.49","[]","","",""
"1059","TestRecordings/nthochap.wav","0","audio-button-response","131","2129416","0.0-12.0-0.50","","","",""
"8966","","{""P0_Q0"":""ㅇ,ㅡ,ㅇ,ㅌ,ㅜ,ㅊ,ㅏ,ㅂ"",""P0_Q1"":""(불가능)""}","survey","132","2138389","0.0-12.0-1.50","[]","","",""
"1142","TestRecordings/pwacung.wav","0","audio-button-response","133","2139616","0.0-12.0-0.51","","","",""
"7345","","{""P0_Q0"":""ㄱ,ㅗ,ㅏ,ㅈ,ㅜ,ㅇ"",""P0_Q1"":""(불가능)""}","survey","134","2146968","0.0-12.0-1.51","[]","","",""
"2196","TestRecordings/chwap.wav","0","audio-button-response","135","2149247","0.0-12.0-0.52","","","",""
"6725","","{""P0_Q0"":""ㅊ,ㅗ,ㅏ,ㅂ"",""P0_Q1"":""(불가능)""}","survey","136","2155978","0.0-12.0-1.52","[]","","",""
"1107","TestRecordings/nthiton.wav","0","audio-button-response","137","2157172","0.0-12.0-0.53","","","",""
"7529","","{""P0_Q0"":""ㅇ,ㅡ,ㅇ,ㅌ,ㅣ,ㄷ,ㅜ,ㄴ"",""P0_Q1"":""(불가능)""}","survey","138","2164707","0.0-12.0-1.53","[]","","",""
"1555","TestRecordings/pathik.wav","0","audio-button-response","139","2166348","0.0-12.0-0.54","","","",""
"7926","","{""P0_Q0"":""ㅂ,ㅏ,ㅌ,ㅜ,ㅣ,ㄱ"",""P0_Q1"":""(불가능)""}","survey","140","2174282","0.0-12.0-1.54","[]","","",""
"1166","TestRecordings/knop.wav","0","audio-button-response","141","2175530","0.0-12.0-0.55","","","",""
"6602","","{""P0_Q0"":""ㅋ,ㅡ,ㄴ,ㅗ,ㅂ"",""P0_Q1"":""(불가능)""}","survey","142","2182138","0.0-12.0-1.55","[]","","",""
"903","TestRecordings/mtak.wav","0","audio-button-response","143","2183124","0.0-12.0-0.56","","","",""
"5572","","{""P0_Q0"":""ㅇ,ㅡ,ㅇ,ㄷ,ㅏ,ㅂ"",""P0_Q1"":""(불가능)""}","survey","144","2188703","0.0-12.0-1.56","[]","","",""
"942","TestRecordings/nchup.wav","0","audio-button-response","145","2189668","0.0-12.0-0.57","","","",""
"9831","","{""P0_Q0"":""ㅇ,ㅡ,ㅇ,ㅊ,ㅜ,ㄱ"",""P0_Q1"":""(가능)""}","survey","146","2199506","0.0-12.0-1.57","[]","","",""
"952","TestRecordings/cut.wav","0","audio-button-response","147","2200540","0.0-12.0-0.58","","","",""
"5438","","{""P0_Q0"":""ㅈ,ㅜ,ㅅ"",""P0_Q1"":""(불가능)""}","survey","148","2205987","0.0-12.0-1.58","[]","","",""
"1068","TestRecordings/twikhit.wav","0","audio-button-response","149","2207138","0.0-12.0-0.59","","","",""
"8045","","{""P0_Q0"":""ㅌ,ㅡ,ㅋ,ㅜ,ㅣ,ㅅ"",""P0_Q1"":""(불가능)""}","survey","150","2215189","0.0-12.0-1.59","[]","","",""
"3812",""," ","html-keyboard-response","151","2219002","0.0-13.0","","","",""
"35824","","{""P0_Q0"":""20"",""P0_Q1"":""여"",""P0_Q2"":""12살"",""P0_Q3"":""없음"",""P0_Q4"":""없음"",""P0_Q5"":""없음"",""P0_Q6"":""없음""}","survey","152","2254830","0.0-14.0","[]","","",""
"1259","<p style=""font-size:30px"",lang=""ko"">실험이 끝났습니다</p><p style=""font-size:30px"",lang=""ko"">참가해주셔서 고맙습니다</p>"," ","html-keyboard-response","153","2256089","0.0-15.0","","","",""
,