"rt","stimulus","response","trial_type","trial_index","time_elapsed","internal_node_id","accuracy","PracticeTest","ConsonantSequence","Grammaticality"
"2918327","<p style=""font-size:30px"",lang=""ko"">실험에 오신 것을 환영합니다</p><p lang=""ko"">스페이스바를 누르면 다음 페이지로 넘어갑니다</p>"," ","html-keyboard-response","0","2918225","0.0-0.0","","","",""
"1521","<p style=""font-size:30px"",lang=""ko"">해드폰을 본인에게 잘 맞게 착용하세요</p><p lang=""ko"">스페이스바를 누르면 다음 페이지로 넘어갑니다</p>"," ","html-keyboard-response","1","2919748","0.0-1.0","","","",""
"2854","<p style=""font-size:30px"",lang=""ko"">이 실험에서는 새로 만든 한국 단어를 들으실 겁니다</p><p style=""font-size:30px"",lang=""ko"">단어를 들리는대로 쓰세요. 그런 다음 그 단어가 한국어 단어로 가능한지 평가하세요</p><p lang=""ko"">스페이스바를 누르면 다음 페이지로 넘어갑니다</p>"," ","html-keyboard-response","2","2922602","0.0-2.0","","","",""
"1493","<p style=""font-size:30px"",lang=""ko"">원래 있는 단어로 예를 들어 봅시다</p><p lang=""ko"">스페이스바를 누르면 다음 페이지로 넘어갑니다</p>"," ","html-keyboard-response","3","2924095","0.0-3.0","","","",""
"8074","PracticeRecordings/kom_bear.wav","0","audio-button-response","4","2932229","0.0-4.0","","","",""
"1994","<p style=""font-size:30px"",lang=""ko"">이제 직접 단어를 듣고 쓰는 연습을 해봅시다. </p><p style=""font-size:30px"",lang=""ko"">스페이스바를 누르면 다음 페이지로 넘어갑니다</p>"," ","html-keyboard-response","5","2934224","0.0-5.0","","","",""
"4157","PracticeRecordings/kirin_giraffe.wav","0","audio-button-response","6","2938402","0.0-6.0-0.0","","","",""
"9844","kirin_giraffe","{""P0_Q0"":""ㄱ,ㅣ,ㄹ,ㅣ,ㄴ""}","survey","7","2948277","0.0-6.0-1.0","[]","practice","NA","TRUE"
"1986","<p style=""font-size:30px"",lang=""ko"">방금 들으신 단어는 ""ㄱ,ㅣ,ㄹ,ㅣ,ㄴ"" 이라고 쓰시면 됩니다</p><p lang=""ko"">스페이스바를 누르면 다음 페이지로 넘어갑니다</p>"," ","html-keyboard-response","8","2950264","0.0-6.0-2.0","","","",""
"2412","PracticeRecordings/saca_lion.wav","0","audio-button-response","9","2952694","0.0-6.0-0.1","","","",""
"5001","saca_lion","{""P0_Q0"":""ㅅ,ㅏ,ㅈ,ㅏ""}","survey","10","2957702","0.0-6.0-1.1","[]","practice","NA","FALSE"
"861","<p style=""font-size:30px"",lang=""ko"">방금 들으신 단어는 ""ㅅ,ㅏ,ㅈ,ㅏ"" 라고 쓰시면 됩니다</p><p lang=""ko"">스페이스바를 누르면 다음 페이지로 넘어갑니다</p>"," ","html-keyboard-response","11","2958563","0.0-6.0-2.1","","","",""
"3159","PracticeRecordings/saseum_deer.wav","0","audio-button-response","12","2961742","0.0-6.0-0.2","","","",""
"6041","saseum_deer","{""P0_Q0"":""ㅅ,ㅏ,ㅅ,ㅡ,ㅁ""}","survey","13","2967789","0.0-6.0-1.2","[]","practice","NA","FALSE"
"1622","<p style=""font-size:30px"",lang=""ko"">방금 들으신 단어는 ""ㅅ,ㅏ,ㅅ,ㅡ,ㅁ""이라고 쓰시면 됩니다</p><p lang=""ko"">스페이스바를 누르면 다음 페이지로 넘어갑니다</p>"," ","html-keyboard-response","14","2969412","0.0-6.0-2.2","","","",""
"2707","PracticeRecordings/thokki_rabbit.wav","0","audio-button-response","15","2972139","0.0-6.0-0.3","","","",""
"8010","thokki_rabbit","{""P0_Q0"":""ㅌ,ㅗ,ㄲ,ㅣ""}","survey","16","2980155","0.0-6.0-1.3","[]","practice","NA","FALSE"
"807","<p style=""font-size:30px"",lang=""ko"">방금 들으신 단어는 ""ㅌ,ㅗ,ㄲ,ㅣ"" 라고 쓰시면 됩니다</p><p lang=""ko"">스페이스바를 누르면 다음 페이지로 넘어갑니다</p>"," ","html-keyboard-response","17","2980963","0.0-6.0-2.3","","","",""
"1239","<p style=""font-size:30px"",lang=""ko"">이제 만든 단어로 연습해봅시다.</p><p lang=""ko"">스페이스바를 누르면 다음 페이지로 넘어갑니다</p>"," ","html-keyboard-response","18","2982202","0.0-7.0","","","",""
"6134","PracticeRecordings/snen.wav","0","audio-button-response","19","2988355","0.0-8.0-0.0","","","",""
"10085","snen","{""P0_Q0"":""ㅅ,ㅡ,ㄴ,ㅔ,ㄴ""}","survey","20","2998446","0.0-8.0-1.0","[]","practice","NA","TRUE"
"4156","<p style=""font-size:30px"",lang=""ko"">들으신 단어는 <br> ""ㅅ,ㅡ,ㄴ,ㅐ,ㄴ""  ""ㅅ,ㅡ,ㄴ,ㅐ"" ""ㅅ,ㄴ,ㅐ,ㄴ (""으"" 소리가 안 들리는 경우)"" 등 <br> 사람에 따라 다양하게 들릴 수 있습니다 <br> 본인에게 들리는대로 쓰시면 됩니다.</p><p lang=""ko"">스페이스바를 누르면 다음 페이지로 넘어갑니다</p>"," ","html-keyboard-response","21","3002603","0.0-8.0-2.0","","","",""
"3700","PracticeRecordings/phrak.wav","0","audio-button-response","22","3006325","0.0-8.0-0.1","","","",""
"8707","phrak","{""P0_Q0"":""ㅌ,ㅡ,ㄹ,ㅏ,ㄱ""}","survey","23","3015038","0.0-8.0-1.1","[]","practice","NA","FALSE"
"2916","<p style=""font-size:30px"",lang=""ko"">들으신 단어는 <br> ""ㅍ,ㅡ,ㄹ,ㅏ,ㄱ"" ""ㅍ,ㅡ,ㄹ,ㅏ,ㅅ"" ""ㅋ,ㅡ,ㄹ,ㅏ,ㄱ"" ""ㅍ,ㄹ,ㅏ,ㄱ (""으"" 소리가 안 들리는 경우)"" 등 <br> 사람에 따라 다양하게 들릴 수 있습니다 <br> 본인에게 들리는대로 쓰시면 됩니다.</p><p lang=""ko"">스페이스바를 누르면 다음 페이지로 넘어갑니다</p>"," ","html-keyboard-response","24","3017955","0.0-8.0-2.1","","","",""
"2431","PracticeRecordings/chka.wav","0","audio-button-response","25","3020409","0.0-8.0-0.2","","","",""
"6672","chka","{""P0_Q0"":""ㅅ,ㅡ,ㄲ,ㅏ""}","survey","26","3027086","0.0-8.0-1.2","[]","practice","NA","FALSE"
"2899","<p style=""font-size:30px"",lang=""ko"">들으신 단어는 ""ㅊ,ㅣ,ㄱ,ㅏ"", ""ㅊ,ㅡ,ㄱ,ㅏ"", ""ㅊ,ㄱ,ㅏ"", ""ㅊ,ㅟ,ㄱ,ㅏ"" 등 <br> 사람에 따라 다양하게 들릴 수 있습니다. <br> 본인에게 들리는대로 쓰시면 됩니다.</p><p lang=""ko"">스페이스바를 누르면 다음 페이지로 넘어갑니다</p>"," ","html-keyboard-response","27","3029986","0.0-8.0-2.2","","","",""
"2408",""," ","html-keyboard-response","28","3032394","0.0-9.0","","","",""
"1927","<p style=""font-size:30px"",lang=""ko"">이제 실험을 시작하겠습니다.</p><p style=""font-size:30px"",lang=""ko"">실전에서는 각각의 만든 단어를 한 번씩만 들을 수 있습니다.</p>"," ","html-keyboard-response","29","3034322","0.0-10.0","","","",""
"20055","<p style=""font-size:30px"",lang=""ko"">단어를 풀어 쓰신 후에 그 단어가 한국어로 가능한 단어인지 평가해주세요</p><p lang=""ko"">스페이스바를 누르면 다음 페이지로 넘어갑니다</p>"," ","html-keyboard-response","30","3054378","0.0-11.0","","","",""
"3454","TestRecordings/mtunak.wav","0","audio-button-response","31","3057857","0.0-12.0-0.0","","","",""
"21196","","{""P0_Q0"":""ㄷ,ㅡ,ㅇ,ㄱ,ㅜ,ㄴ,ㅏ,ㄱ"",""P0_Q1"":""(불가능)""}","survey","32","3079069","0.0-12.0-1.0","[]","","",""
"2752","TestRecordings/khnichat.wav","0","audio-button-response","33","3081843","0.0-12.0-0.1","","","",""
"18637","","{""P0_Q0"":""ㅋ,ㅡ,ㄴ,ㅏ,ㄱ"",""P0_Q1"":""(불가능)""}","survey","34","3100489","0.0-12.0-1.1","[]","","",""
"2307","TestRecordings/phwim.wav","0","audio-button-response","35","3102818","0.0-12.0-0.2","","","",""
"9662","","{""P0_Q0"":""ㅍ,ㅟ,ㅁ"",""P0_Q1"":""(가능)""}","survey","36","3112487","0.0-12.0-1.2","[]","","",""
"1757","TestRecordings/nucok.wav","0","audio-button-response","37","3114274","0.0-12.0-0.3","","","",""
"7486","","{""P0_Q0"":""ㄴ,ㅜ,ㅈ,ㅗ,ㄱ"",""P0_Q1"":""(가능)""}","survey","38","3121768","0.0-12.0-1.3","[]","","",""
"2300","TestRecordings/nchitam.wav","0","audio-button-response","39","3124090","0.0-12.0-0.4","","","",""
"12452","","{""P0_Q0"":""ㅇ,ㅜ,ㅇ,ㅊ,ㅣ,ㄷ,ㅏ,ㅁ"",""P0_Q1"":""(가능)""}","survey","40","3136549","0.0-12.0-1.4","[]","","",""
"1653","TestRecordings/nthunit.wav","0","audio-button-response","41","3138222","0.0-12.0-0.5","","","",""
"15900","","{""P0_Q0"":""ㅇ,ㅡ,ㅇ,ㅌ,ㅜ,ㄴ,ㅣ,ㅅ"",""P0_Q1"":""(불가능)""}","survey","42","3154128","0.0-12.0-1.5","[]","","",""
"1840","TestRecordings/chwap.wav","0","audio-button-response","43","3155989","0.0-12.0-0.6","","","",""
"6661","","{""P0_Q0"":""ㅊ,ㅘ,ㅂ"",""P0_Q1"":""(불가능)""}","survey","44","3162658","0.0-12.0-1.6","[]","","",""
"1833","TestRecordings/thnakop.wav","0","audio-button-response","45","3164513","0.0-12.0-0.7","","","",""
"8846","","{""P0_Q0"":""ㅌ,ㅡ,ㄴ,ㅏ,ㄱ,ㅗ,ㅂ"",""P0_Q1"":""(불가능)""}","survey","46","3173365","0.0-12.0-1.7","[]","","",""
"6044","TestRecordings/pmuk.wav","0","audio-button-response","47","3179430","0.0-12.0-0.8","","","",""
"4897","","{""P0_Q0"":""ㅁ,ㅜ,ㄱ"",""P0_Q1"":""(가능)""}","survey","48","3184334","0.0-12.0-1.8","[]","","",""
"2044","TestRecordings/swicit.wav","0","audio-button-response","49","3186400","0.0-12.0-0.9","","","",""
"12825","","{""P0_Q0"":""ㅅ,ㅟ,ㅈ,ㅣ,ㅅ"",""P0_Q1"":""(불가능)""}","survey","50","3199231","0.0-12.0-1.9","[]","","",""
"1826","TestRecordings/thwicap.wav","0","audio-button-response","51","3201078","0.0-12.0-0.10","","","",""
"8507","","{""P0_Q0"":""ㅌ,ㅟ,ㅈ,ㅏ,ㅂ"",""P0_Q1"":""(가능)""}","survey","52","3209594","0.0-12.0-1.10","[]","","",""
"4753","TestRecordings/ntosin.wav","0","audio-button-response","53","3214369","0.0-12.0-0.11","","","",""
"12928","","{""P0_Q0"":""ㅇ,ㅡ,ㅇ,ㄷ,ㅜ,ㅅ,ㅟ,ㄴ"",""P0_Q1"":""(불가능)""}","survey","54","3227305","0.0-12.0-1.11","[]","","",""
"2357","TestRecordings/chwakap.wav","0","audio-button-response","55","3229684","0.0-12.0-0.12","","","",""
"16350","","{""P0_Q0"":""ㅊ,ㅘ,ㄱ,ㅏ,ㅂ"",""P0_Q1"":""(가능)""}","survey","56","3246041","0.0-12.0-1.12","[]","","",""
"2345","TestRecordings/pmisung.wav","0","audio-button-response","57","3248408","0.0-12.0-0.13","","","",""
"16699","","{""P0_Q0"":""ㅇ,ㅡ,ㅇ,ㄴ,ㅣ,ㅅ,ㅜ,"",""P0_Q1"":""(불가능)""}","survey","58","3265113","0.0-12.0-1.13","[]","","",""
"2132","TestRecordings/pwacung.wav","0","audio-button-response","59","3267268","0.0-12.0-0.14","","","",""
"11024","","{""P0_Q0"":""ㅂ,ㅘ,ㅈ,ㅜ,ㅇ"",""P0_Q1"":""(가능)""}","survey","60","3278300","0.0-12.0-1.14","[]","","",""
"1819","TestRecordings/khonik.wav","0","audio-button-response","61","3280142","0.0-12.0-0.15","","","",""
"8810","","{""P0_Q0"":""ㅋ,ㅗ,ㄴ,ㅣ,ㄱ"",""P0_Q1"":""(가능)""}","survey","62","3288959","0.0-12.0-1.15","[]","","",""
"2043","TestRecordings/mphithup.wav","0","audio-button-response","63","3291024","0.0-12.0-0.16","","","",""
"10147","","{""P0_Q0"":""ㅇ,ㅡ,ㅇ,ㅍ,ㅣ,ㅌ,ㅜ,ㅅ"",""P0_Q1"":""(불가능)""}","survey","64","3301179","0.0-12.0-1.16","[]","","",""
"1759","TestRecordings/mtak.wav","0","audio-button-response","65","3302958","0.0-12.0-0.17","","","",""
"9138","","{""P0_Q0"":""ㅇ,ㅡ,ㅇ,ㄷ,ㅏㅅ"",""P0_Q1"":""(불가능)""}","survey","66","3312103","0.0-12.0-1.17","[]","","",""
"1702","TestRecordings/chut.wav","0","audio-button-response","67","3313829","0.0-12.0-0.18","","","",""
"15245","","{""P0_Q0"":""ㅊ,ㅠ,ㅅ"",""P0_Q1"":""(불가능)""}","survey","68","3329081","0.0-12.0-1.18","[]","","",""
"1911","TestRecordings/khun.wav","0","audio-button-response","69","3331014","0.0-12.0-0.19","","","",""
"4443","","{""P0_Q0"":""ㅋ,ㅜ,ㄴ"",""P0_Q1"":""(가능)""}","survey","70","3335464","0.0-12.0-1.19","[]","","",""
"1720","TestRecordings/niphak.wav","0","audio-button-response","71","3337204","0.0-12.0-0.20","","","",""
"12056","","{""P0_Q0"":""ㄴ,ㅣ,ㅍ,ㅏ,ㄱ"",""P0_Q1"":""(가능)""}","survey","72","3349267","0.0-12.0-1.20","[]","","",""
"1822","TestRecordings/cwang.wav","0","audio-button-response","73","3351110","0.0-12.0-0.21","","","",""
"7307","","{""P0_Q0"":""ㅈ,ㅘ,ㅇ"",""P0_Q1"":""(가능)""}","survey","74","3358425","0.0-12.0-1.21","[]","","",""
"1947","TestRecordings/phwing.wav","0","audio-button-response","75","3360395","0.0-12.0-0.22","","","",""
"8967","","{""P0_Q0"":""ㅍ,ㅞ,ㅇ"",""P0_Q1"":""(가능)""}","survey","76","3369369","0.0-12.0-1.22","[]","","",""
"1677","TestRecordings/nchup.wav","0","audio-button-response","77","3371068","0.0-12.0-0.23","","","",""
"7076","","{""P0_Q0"":""ㅇ,ㅡ,ㅇ,ㅊ,ㅠ,ㅂ"",""P0_Q1"":""(불가능)""}","survey","78","3378150","0.0-12.0-1.23","[]","","",""
"2018","TestRecordings/kwat.wav","0","audio-button-response","79","3380191","0.0-12.0-0.24","","","",""
"6098","","{""P0_Q0"":""ㄱ,ㅘ,ㅅ"",""P0_Q1"":""(가능)""}","survey","80","3386296","0.0-12.0-1.24","[]","","",""
"1391","TestRecordings/masuk.wav","0","audio-button-response","81","3387715","0.0-12.0-0.25","","","",""
"6480","","{""P0_Q0"":""ㅁ,ㅏ,ㅅ,ㅜ,ㄱ"",""P0_Q1"":""(가능)""}","survey","82","3394201","0.0-12.0-1.25","[]","","",""
"1613","TestRecordings/pathik.wav","0","audio-button-response","83","3395838","0.0-12.0-0.26","","","",""
"6599","","{""P0_Q0"":""ㅂ,ㅏ,ㅌ,ㅣ,ㄱ"",""P0_Q1"":""(가능)""}","survey","84","3402443","0.0-12.0-1.26","[]","","",""
"1471","TestRecordings/phmut.wav","0","audio-button-response","85","3403934","0.0-12.0-0.27","","","",""
"6551","","{""P0_Q0"":""ㅍ,ㅡ,ㅁ,ㅜ,ㅅ"",""P0_Q1"":""(불가능)""}","survey","86","3410492","0.0-12.0-1.27","[]","","",""
"1300","TestRecordings/phninot.wav","0","audio-button-response","87","3411814","0.0-12.0-0.28","","","",""
"9785","","{""P0_Q0"":""ㅍ,ㅡ,ㄴ,ㅣ,ㄴ,ㅗ,ㅅ"",""P0_Q1"":""(불가능)""}","survey","88","3421605","0.0-12.0-1.28","[]","","",""
"1585","TestRecordings/cwiphing.wav","0","audio-button-response","89","3423213","0.0-12.0-0.29","","","",""
"14214","","{""P0_Q0"":""ㅈ,ㅟ,ㅍ,ㅣ,ㅇ"",""P0_Q1"":""(가능)""}","survey","90","3437434","0.0-12.0-1.29","[]","","",""
"2886","TestRecordings/siphuk.wav","0","audio-button-response","91","3440342","0.0-12.0-0.30","","","",""
"7785","","{""P0_Q0"":""ㅅ,ㅣ,ㅍ,ㅜ,ㄱ"",""P0_Q1"":""(가능)""}","survey","92","3448133","0.0-12.0-1.30","[]","","",""
"1344","TestRecordings/thum.wav","0","audio-button-response","93","3449499","0.0-12.0-0.31","","","",""
"5813","","{""P0_Q0"":""ㅌ,ㅜ,ㅁ"",""P0_Q1"":""(가능)""}","survey","94","3455318","0.0-12.0-1.31","[]","","",""
"1905","TestRecordings/phuthik.wav","0","audio-button-response","95","3457244","0.0-12.0-0.32","","","",""
"6135","","{""P0_Q0"":""ㅍ,ㅜ,ㅌ,ㅣ,ㄱ"",""P0_Q1"":""(가능)""}","survey","96","3463387","0.0-12.0-1.32","[]","","",""
"1397","TestRecordings/phmacot.wav","0","audio-button-response","97","3464806","0.0-12.0-0.33","","","",""
"10675","","{""P0_Q0"":""ㅍ,ㅡ,ㅁ,ㅏ,ㅈ,ㅗ,ㅅ"",""P0_Q1"":""(불가능)""}","survey","98","3475488","0.0-12.0-1.33","[]","","",""
"1489","TestRecordings/takhut.wav","0","audio-button-response","99","3476998","0.0-12.0-0.34","","","",""
"7411","","{""P0_Q0"":""ㄷ,ㅏ,ㅋ,ㅜ,ㅅ"",""P0_Q1"":""(가능)""}","survey","100","3484416","0.0-12.0-1.34","[]","","",""
"1603","TestRecordings/khnacin.wav","0","audio-button-response","101","3486041","0.0-12.0-0.35","","","",""
"7873","","{""P0_Q0"":""ㅋ,ㅡ,ㄴ,ㅏ,ㅈ,ㅣ,ㄴ"",""P0_Q1"":""(가능)""}","survey","102","3493922","0.0-12.0-1.35","[]","","",""
"1537","TestRecordings/knothing.wav","0","audio-button-response","103","3495485","0.0-12.0-0.36","","","",""
"7795","","{""P0_Q0"":""ㅋ,ㅡ,ㄴ,ㅗ,ㅌ,ㅣ,ㅇ"",""P0_Q1"":""(가능)""}","survey","104","3503289","0.0-12.0-1.36","[]","","",""
"1441","TestRecordings/cmot.wav","0","audio-button-response","105","3504749","0.0-12.0-0.37","","","",""
"10042","","{""P0_Q0"":""ㅈ,ㅡ,ㅁ,ㅗ,ㅅ"",""P0_Q1"":""(불가능)""}","survey","106","3514798","0.0-12.0-1.37","[]","","",""
"1229","TestRecordings/khmoting.wav","0","audio-button-response","107","3516110","0.0-12.0-0.38","","","",""
"10988","","{""P0_Q0"":""ㅋ,ㅡ,ㅁ,ㅗ,ㄷ,ㅣ,ㅇ"",""P0_Q1"":""(가능)""}","survey","108","3527105","0.0-12.0-1.38","[]","","",""
"2082","TestRecordings/swakhing.wav","0","audio-button-response","109","3529213","0.0-12.0-0.39","","","",""
"9157","","{""P0_Q0"":""ㅅ,ㅘ,ㅋ,ㅣ,ㅇ"",""P0_Q1"":""(가능)""}","survey","110","3538377","0.0-12.0-1.39","[]","","",""
"1371","TestRecordings/nchak.wav","0","audio-button-response","111","3539768","0.0-12.0-0.40","","","",""
"12506","","{""P0_Q0"":""ㅇ,ㅡ,ㅇ,ㅊ,ㅏ,ㄱ"",""P0_Q1"":""(불가능)""}","survey","112","3552280","0.0-12.0-1.40","[]","","",""
"1509","TestRecordings/cwasop.wav","0","audio-button-response","113","3553811","0.0-12.0-0.41","","","",""
"11451","","{""P0_Q0"":""ㅈ,ㅘ,ㅅ,ㅗ,ㅂ"",""P0_Q1"":""(가능)""}","survey","114","3565262","0.0-12.0-1.41","[]","","",""
"1344","TestRecordings/npokit.wav","0","audio-button-response","115","3566630","0.0-12.0-0.42","","","",""
"8935","","{""P0_Q0"":""ㅇ,ㅡ,ㅇ,ㅂ,ㅜ,ㄱ,ㅣ,ㅅ"",""P0_Q1"":""(불가능)""}","survey","116","3575573","0.0-12.0-1.42","[]","","",""
"1376","TestRecordings/ncuk.wav","0","audio-button-response","117","3576972","0.0-12.0-0.43","","","",""
"5760","","{""P0_Q0"":""ㅇ,ㅡ,ㅇ,ㅈ,ㅜ,ㄱ"",""P0_Q1"":""(불가능)""}","survey","118","3582739","0.0-12.0-1.43","[]","","",""
"1356","TestRecordings/khwapan.wav","0","audio-button-response","119","3584171","0.0-12.0-0.44","","","",""
"5535","","{""P0_Q0"":""ㅋ,ㅘ,ㅂ,ㅏ,ㄴ"",""P0_Q1"":""(가능)""}","survey","120","3589714","0.0-12.0-1.44","[]","","",""
"3579","TestRecordings/nthochap.wav","0","audio-button-response","121","3593316","0.0-12.0-0.45","","","",""
"11094","","{""P0_Q0"":""ㅇ,ㅡ,ㅇ,ㅌ,ㅗ,ㅊ,ㅏ,ㅅ"",""P0_Q1"":""(불가능)""}","survey","122","3604416","0.0-12.0-1.45","[]","","",""
"2497","TestRecordings/mciphom.wav","0","audio-button-response","123","3606936","0.0-12.0-0.46","","","",""
"13043","","{""P0_Q0"":""ㅇ,ㅡ,ㅇ,ㅈ,ㅣ,ㅍ,ㅗ,ㅅ"",""P0_Q1"":""(불가능)""}","survey","124","3619987","0.0-12.0-1.46","[]","","",""
"2881","TestRecordings/nthiton.wav","0","audio-button-response","125","3622889","0.0-12.0-0.47","","","",""
"11513","","{""P0_Q0"":""ㅇ,ㅡ,ㅇ,ㅌ,ㅣ,ㄷ,ㅗ,ㄴ"",""P0_Q1"":""(불가능)""}","survey","126","3634416","0.0-12.0-1.47","[]","","",""
"2378","TestRecordings/twikhit.wav","0","audio-button-response","127","3636815","0.0-12.0-0.48","","","",""
"8902","","{""P0_Q0"":""ㄷ,ㅟ,ㅋ,ㅣ,ㄴ"",""P0_Q1"":""(가능)""}","survey","128","3645723","0.0-12.0-1.48","[]","","",""
"2041","TestRecordings/pmathin.wav","0","audio-button-response","129","3647798","0.0-12.0-0.49","","","",""
"13318","","{""P0_Q0"":""ㅋ,ㅡ,ㅁ,ㅏ,ㅌ,ㅣ,ㄴ"",""P0_Q1"":""(불가능)""}","survey","130","3661123","0.0-12.0-1.49","[]","","",""
"1492","TestRecordings/mkithun.wav","0","audio-button-response","131","3662638","0.0-12.0-0.50","","","",""
"10088","","{""P0_Q0"":""ㅇ,ㅡ,ㅁ,ㄱ,ㅣ,ㅌ,ㅜ,ㄴ"",""P0_Q1"":""(불가능)""}","survey","132","3672734","0.0-12.0-1.50","[]","","",""
"1506","TestRecordings/knop.wav","0","audio-button-response","133","3674261","0.0-12.0-0.51","","","",""
"8217","","{""P0_Q0"":""ㅋ,ㅡ,ㄴ,ㅗ,ㅂ"",""P0_Q1"":""(가능)""}","survey","134","3682484","0.0-12.0-1.51","[]","","",""
"1334","TestRecordings/thnukip.wav","0","audio-button-response","135","3683840","0.0-12.0-0.52","","","",""
"11386","","{""P0_Q0"":""ㅌ,ㅡ,ㄴ,ㅜ,ㄱ,ㅣ,ㅅ"",""P0_Q1"":""(가능)""}","survey","136","3695232","0.0-12.0-1.52","[]","","",""
"1381","TestRecordings/khmip.wav","0","audio-button-response","137","3696633","0.0-12.0-0.53","","","",""
"9069","","{""P0_Q0"":""ㅋ,ㅡ,ㅁ,ㅣ,ㅅ"",""P0_Q1"":""(가능)""}","survey","138","3705710","0.0-12.0-1.53","[]","","",""
"1620","TestRecordings/swapong.wav","0","audio-button-response","139","3707352","0.0-12.0-0.54","","","",""
"7764","","{""P0_Q0"":""ㅅ,ㅘ,ㅂ,ㅗ,ㅇ"",""P0_Q1"":""(가능)""}","survey","140","3715122","0.0-12.0-1.54","[]","","",""
"2125","TestRecordings/nchat.wav","0","audio-button-response","141","3717269","0.0-12.0-0.55","","","",""
"8131","","{""P0_Q0"":""ㅇ,ㅡ,ㅇ,ㅊ,ㅏ,ㅅ"",""P0_Q1"":""(불가능)""}","survey","142","3725407","0.0-12.0-1.55","[]","","",""
"1940","TestRecordings/mip.wav","0","audio-button-response","143","3727367","0.0-12.0-0.56","","","",""
"4717","","{""P0_Q0"":""ㅁ,ㅣ,ㅅ"",""P0_Q1"":""(가능)""}","survey","144","3732091","0.0-12.0-1.56","[]","","",""
"1513","TestRecordings/kophak.wav","0","audio-button-response","145","3733627","0.0-12.0-0.57","","","",""
"8066","","{""P0_Q0"":""ㄱ,ㅗ,ㅍ,ㅏ,ㄱ"",""P0_Q1"":""(가능)""}","survey","146","3741699","0.0-12.0-1.57","[]","","",""
"1528","TestRecordings/sutik.wav","0","audio-button-response","147","3743249","0.0-12.0-0.58","","","",""
"6027","","{""P0_Q0"":""ㅅ,ㅜ,ㄷ,ㅣ,ㅅ"",""P0_Q1"":""(가능)""}","survey","148","3749283","0.0-12.0-1.58","[]","","",""
"1529","TestRecordings/cut.wav","0","audio-button-response","149","3750834","0.0-12.0-0.59","","","",""
"4242","","{""P0_Q0"":""ㅈ,ㅜ,ㅅ"",""P0_Q1"":""(가능)""}","survey","150","3755082","0.0-12.0-1.59","[]","","",""
"1859",""," ","html-keyboard-response","151","3756942","0.0-13.0","","","",""
"83322","","{""P0_Q0"":""18"",""P0_Q1"":""여"",""P0_Q2"":""10"",""P0_Q3"":""만 18세, 6주"",""P0_Q4"":""중국어, 일본어"",""P0_Q5"":""만 16세 2년, 만 18세 2주"",""P0_Q6"":""중국어와 일본어를 배우고 있습니다.""}","survey","152","3840272","0.0-14.0","[]","","",""
"1364","<p style=""font-size:30px"",lang=""ko"">실험이 끝났습니다</p><p style=""font-size:30px"",lang=""ko"">참가해주셔서 고맙습니다</p>"," ","html-keyboard-response","153","3841637","0.0-15.0","","","",""
,