"rt","stimulus","response","trial_type","trial_index","time_elapsed","internal_node_id","accuracy","PracticeTest","ConsonantSequence","Grammaticality"
"542355","<p style=""font-size:30px"",lang=""ko"">실험에 오신 것을 환영합니다</p><p lang=""ko"">스페이스바를 누르면 다음 페이지로 넘어갑니다</p>"," ","html-keyboard-response","0","548939","0.0-0.0","","","",""
"4254","<p style=""font-size:30px"",lang=""ko"">해드폰을 본인에게 잘 맞게 착용하세요</p><p lang=""ko"">스페이스바를 누르면 다음 페이지로 넘어갑니다</p>"," ","html-keyboard-response","1","553194","0.0-1.0","","","",""
"5400","<p style=""font-size:30px"",lang=""ko"">이 실험에서는 새로 만든 한국 단어를 들으실 겁니다</p><p style=""font-size:30px"",lang=""ko"">단어를 들리는대로 쓰세요. 그런 다음 그 단어가 한국어 단어로 가능한지 평가하세요</p><p lang=""ko"">스페이스바를 누르면 다음 페이지로 넘어갑니다</p>"," ","html-keyboard-response","2","558595","0.0-2.0","","","",""
"2108","<p style=""font-size:30px"",lang=""ko"">원래 있는 단어로 예를 들어 봅시다</p><p lang=""ko"">스페이스바를 누르면 다음 페이지로 넘어갑니다</p>"," ","html-keyboard-response","3","560703","0.0-3.0","","","",""
"9150","PracticeRecordings/kom_bear.wav","0","audio-button-response","4","570015","0.0-4.0","","","",""
"3340","<p style=""font-size:30px"",lang=""ko"">이제 직접 단어를 듣고 쓰는 연습을 해봅시다. </p><p style=""font-size:30px"",lang=""ko"">스페이스바를 누르면 다음 페이지로 넘어갑니다</p>"," ","html-keyboard-response","5","573355","0.0-5.0","","","",""
"3917","PracticeRecordings/kirin_giraffe.wav","0","audio-button-response","6","577332","0.0-6.0-0.0","","","",""
"11573","kirin_giraffe","{""P0_Q0"":""ㄱ,ㅣ,ㄹ,ㅣ,ㄴ""}","survey","7","588996","0.0-6.0-1.0","[]","practice","NA","TRUE"
"2766","<p style=""font-size:30px"",lang=""ko"">방금 들으신 단어는 ""ㄱ,ㅣ,ㄹ,ㅣ,ㄴ"" 이라고 쓰시면 됩니다</p><p lang=""ko"">스페이스바를 누르면 다음 페이지로 넘어갑니다</p>"," ","html-keyboard-response","8","591763","0.0-6.0-2.0","","","",""
"4898","PracticeRecordings/saca_lion.wav","0","audio-button-response","9","596721","0.0-6.0-0.1","","","",""
"7763","saca_lion","{""P0_Q0"":""ㅅ,ㅏ,ㅈ,ㅏ""}","survey","10","604527","0.0-6.0-1.1","[]","practice","NA","FALSE"
"3495","<p style=""font-size:30px"",lang=""ko"">방금 들으신 단어는 ""ㅅ,ㅏ,ㅈ,ㅏ"" 라고 쓰시면 됩니다</p><p lang=""ko"">스페이스바를 누르면 다음 페이지로 넘어갑니다</p>"," ","html-keyboard-response","11","608022","0.0-6.0-2.1","","","",""
"3624","PracticeRecordings/saseum_deer.wav","0","audio-button-response","12","611671","0.0-6.0-0.2","","","",""
"8532","saseum_deer","{""P0_Q0"":""ㅅ,ㅏ,ㅅ,ㅡ,ㅁ""}","survey","13","620212","0.0-6.0-1.2","[]","practice","NA","FALSE"
"2160","<p style=""font-size:30px"",lang=""ko"">방금 들으신 단어는 ""ㅅ,ㅏ,ㅅ,ㅡ,ㅁ""이라고 쓰시면 됩니다</p><p lang=""ko"">스페이스바를 누르면 다음 페이지로 넘어갑니다</p>"," ","html-keyboard-response","14","622372","0.0-6.0-2.2","","","",""
"3386","PracticeRecordings/thokki_rabbit.wav","0","audio-button-response","15","625817","0.0-6.0-0.3","","","",""
"7450","thokki_rabbit","{""P0_Q0"":""ㅌ,ㅗ,ㄲ,ㅣ""}","survey","16","633275","0.0-6.0-1.3","[]","practice","NA","FALSE"
"1938","<p style=""font-size:30px"",lang=""ko"">방금 들으신 단어는 ""ㅌ,ㅗ,ㄲ,ㅣ"" 라고 쓰시면 됩니다</p><p lang=""ko"">스페이스바를 누르면 다음 페이지로 넘어갑니다</p>"," ","html-keyboard-response","17","635214","0.0-6.0-2.3","","","",""
"2186","<p style=""font-size:30px"",lang=""ko"">이제 만든 단어로 연습해봅시다.</p><p lang=""ko"">스페이스바를 누르면 다음 페이지로 넘어갑니다</p>"," ","html-keyboard-response","18","637401","0.0-7.0","","","",""
"5223","PracticeRecordings/snen.wav","0","audio-button-response","19","642681","0.0-8.0-0.0","","","",""
"11147","snen","{""P0_Q0"":""ㅅ,ㅡ,ㄴ,ㅔ,ㄴ""}","survey","20","653867","0.0-8.0-1.0","[]","practice","NA","TRUE"
"3465","<p style=""font-size:30px"",lang=""ko"">들으신 단어는 <br> ""ㅅ,ㅡ,ㄴ,ㅐ,ㄴ""  ""ㅅ,ㅡ,ㄴ,ㅐ"" ""ㅅ,ㄴ,ㅐ,ㄴ (""으"" 소리가 안 들리는 경우)"" 등 <br> 사람에 따라 다양하게 들릴 수 있습니다 <br> 본인에게 들리는대로 쓰시면 됩니다.</p><p lang=""ko"">스페이스바를 누르면 다음 페이지로 넘어갑니다</p>"," ","html-keyboard-response","21","657333","0.0-8.0-2.0","","","",""
"4339","PracticeRecordings/phrak.wav","0","audio-button-response","22","661703","0.0-8.0-0.1","","","",""
"7111","phrak","{""P0_Q0"":""ㅍ,ㅡ,ㄹ,ㅏ,ㄱ""}","survey","23","668821","0.0-8.0-1.1","[]","practice","NA","FALSE"
"3509","<p style=""font-size:30px"",lang=""ko"">들으신 단어는 <br> ""ㅍ,ㅡ,ㄹ,ㅏ,ㄱ"" ""ㅍ,ㅡ,ㄹ,ㅏ,ㅅ"" ""ㅋ,ㅡ,ㄹ,ㅏ,ㄱ"" ""ㅍ,ㄹ,ㅏ,ㄱ (""으"" 소리가 안 들리는 경우)"" 등 <br> 사람에 따라 다양하게 들릴 수 있습니다 <br> 본인에게 들리는대로 쓰시면 됩니다.</p><p lang=""ko"">스페이스바를 누르면 다음 페이지로 넘어갑니다</p>"," ","html-keyboard-response","24","672330","0.0-8.0-2.1","","","",""
"3479","PracticeRecordings/chka.wav","0","audio-button-response","25","675839","0.0-8.0-0.2","","","",""
"8154","chka","{""P0_Q0"":""ㅅ,ㅡ,ㄱ,ㅏ""}","survey","26","684000","0.0-8.0-1.2","[]","practice","NA","FALSE"
"5190","<p style=""font-size:30px"",lang=""ko"">들으신 단어는 ""ㅊ,ㅣ,ㄱ,ㅏ"", ""ㅊ,ㅡ,ㄱ,ㅏ"", ""ㅊ,ㄱ,ㅏ"", ""ㅊ,ㅟ,ㄱ,ㅏ"" 등 <br> 사람에 따라 다양하게 들릴 수 있습니다. <br> 본인에게 들리는대로 쓰시면 됩니다.</p><p lang=""ko"">스페이스바를 누르면 다음 페이지로 넘어갑니다</p>"," ","html-keyboard-response","27","689190","0.0-8.0-2.2","","","",""
"2162",""," ","html-keyboard-response","28","691353","0.0-9.0","","","",""
"5233","<p style=""font-size:30px"",lang=""ko"">이제 실험을 시작하겠습니다.</p><p style=""font-size:30px"",lang=""ko"">실전에서는 각각의 만든 단어를 한 번씩만 들을 수 있습니다.</p>"," ","html-keyboard-response","29","696587","0.0-10.0","","","",""
"19542","<p style=""font-size:30px"",lang=""ko"">단어를 풀어 쓰신 후에 그 단어가 한국어로 가능한 단어인지 평가해주세요</p><p lang=""ko"">스페이스바를 누르면 다음 페이지로 넘어갑니다</p>"," ","html-keyboard-response","30","716129","0.0-11.0","","","",""
"10274","TestRecordings/khmoting.wav","0","audio-button-response","31","726463","0.0-12.0-0.0","","","",""
"14968","","{""P0_Q0"":""ㅋ,ㅡ,ㄴ,ㅗ,ㄷ,ㅣ,ㅇ"",""P0_Q1"":""(가능)""}","survey","32","741447","0.0-12.0-1.0","[]","","",""
"6375","TestRecordings/cmot.wav","0","audio-button-response","33","747883","0.0-12.0-0.1","","","",""
"17802","","{""P0_Q0"":""ㅅ,ㅡ,ㅁ,ㅗ,ㅅ"",""P0_Q1"":""(가능)""}","survey","34","765693","0.0-12.0-1.1","[]","","",""
"5920","TestRecordings/masuk.wav","0","audio-button-response","35","771672","0.0-12.0-0.2","","","",""
"11406","","{""P0_Q0"":""ㅁ,ㅏ,ㅅ,ㅜ,ㄱ"",""P0_Q1"":""(가능)""}","survey","36","783085","0.0-12.0-1.2","[]","","",""
"5003","TestRecordings/knothing.wav","0","audio-button-response","37","788144","0.0-12.0-0.3","","","",""
"11506","","{""P0_Q0"":""ㅋ,ㅡ,ㄴ,ㅗ,ㅌ,ㅣ,ㅇ"",""P0_Q1"":""(가능)""}","survey","38","799657","0.0-12.0-1.3","[]","","",""
"4012","TestRecordings/nucok.wav","0","audio-button-response","39","803696","0.0-12.0-0.4","","","",""
"12198","","{""P0_Q0"":""ㄴ,ㅜ,ㅈ,ㅗ,ㄱ"",""P0_Q1"":""(가능)""}","survey","40","815902","0.0-12.0-1.4","[]","","",""
"4134","TestRecordings/mphithup.wav","0","audio-button-response","41","820091","0.0-12.0-0.5","","","",""
"16730","","{""P0_Q0"":""ㅇ,ㅡ,ㅁ,ㅍ,ㅣ,ㅌ,ㅜ,ㅂ"",""P0_Q1"":""(불가능)""}","survey","42","836828","0.0-12.0-1.5","[]","","",""
"3600","TestRecordings/khnichat.wav","0","audio-button-response","43","840483","0.0-12.0-0.6","","","",""
"17846","","{""P0_Q0"":""ㅋ,ㅡ,ㄴ,ㅣ,ㅊ,ㅏ,ㅅ"",""P0_Q1"":""(가능)""}","survey","44","858335","0.0-12.0-1.6","[]","","",""
"7133","TestRecordings/phwing.wav","0","audio-button-response","45","865492","0.0-12.0-0.7","","","",""
"38503","","{""P0_Q0"":""ㅋ,ㅞ,ㅇ"",""P0_Q1"":""(가능)""}","survey","46","904003","0.0-12.0-1.7","[]","","",""
"6854","TestRecordings/khonik.wav","0","audio-button-response","47","910918","0.0-12.0-0.8","","","",""
"23549","","{""P0_Q0"":""ㅋ,ㅗ,ㄴ,ㅣ,ㄱ"",""P0_Q1"":""(불가능)""}","survey","48","934474","0.0-12.0-1.8","[]","","",""
"6794","TestRecordings/swakhing.wav","0","audio-button-response","49","941328","0.0-12.0-0.9","","","",""
"23302","","{""P0_Q0"":""ㅅ,ㅡ,ㅇ,ㅘ,ㅋ,ㅣ,ㅇ"",""P0_Q1"":""(가능)""}","survey","50","964638","0.0-12.0-1.9","[]","","",""
"4746","TestRecordings/twikhit.wav","0","audio-button-response","51","969445","0.0-12.0-0.10","","","",""
"10790","","{""P0_Q0"":""ㄷ,ㅟ,ㅋ,ㅣ,ㅅ"",""P0_Q1"":""(불가능)""}","survey","52","980242","0.0-12.0-1.10","[]","","",""
"2926","TestRecordings/cut.wav","0","audio-button-response","53","983192","0.0-12.0-0.11","","","",""
"6675","","{""P0_Q0"":""ㅈ,ㅜ,ㅅ"",""P0_Q1"":""(가능)""}","survey","54","989874","0.0-12.0-1.11","[]","","",""
"4204","TestRecordings/niphak.wav","0","audio-button-response","55","994132","0.0-12.0-0.12","","","",""
"11410","","{""P0_Q0"":""ㄴ,ㅣ,ㅍ,ㅏ,ㄱ"",""P0_Q1"":""(가능)""}","survey","56","1005550","0.0-12.0-1.12","[]","","",""
"2555","TestRecordings/cwang.wav","0","audio-button-response","57","1008161","0.0-12.0-0.13","","","",""
"13886","","{""P0_Q0"":""ㄷ,ㅡ,ㅇ,ㅘ,ㅇ"",""P0_Q1"":""(불가능)""}","survey","58","1022055","0.0-12.0-1.13","[]","","",""
"2152","TestRecordings/khun.wav","0","audio-button-response","59","1024264","0.0-12.0-0.14","","","",""
"6380","","{""P0_Q0"":""ㅋ,ㅜ,ㄴ"",""P0_Q1"":""(가능)""}","survey","60","1030651","0.0-12.0-1.14","[]","","",""
"3603","TestRecordings/phmut.wav","0","audio-button-response","61","1034310","0.0-12.0-0.15","","","",""
"18314","","{""P0_Q0"":""ㅍ,ㅡ,ㅁ,ㅜ,ㅅ"",""P0_Q1"":""(불가능)""}","survey","62","1052632","0.0-12.0-1.15","[]","","",""
"5798","TestRecordings/nthiton.wav","0","audio-button-response","63","1058489","0.0-12.0-0.16","","","",""
"14722","","{""P0_Q0"":""ㅇ,ㅡ,ㄴ,ㅍ,ㅣ,ㄷ,ㅗ,ㄴ"",""P0_Q1"":""(불가능)""}","survey","64","1073219","0.0-12.0-1.16","[]","","",""
"2324","TestRecordings/nchitam.wav","0","audio-button-response","65","1075600","0.0-12.0-0.17","","","",""
"17303","","{""P0_Q0"":""ㅇ,ㅡ,ㄴ,ㅊ,ㅣ,ㄷ,ㅏ,ㅁ"",""P0_Q1"":""(불가능)""}","survey","66","1092911","0.0-12.0-1.17","[]","","",""
"2055","TestRecordings/nchak.wav","0","audio-button-response","67","1095020","0.0-12.0-0.18","","","",""
"13496","","{""P0_Q0"":""ㅇ,ㅡ,ㄴ,ㅊ,ㅏ,ㄱ"",""P0_Q1"":""(불가능)""}","survey","68","1108522","0.0-12.0-1.18","[]","","",""
"2347","TestRecordings/kophak.wav","0","audio-button-response","69","1110893","0.0-12.0-0.19","","","",""
"8324","","{""P0_Q0"":""ㄱ,ㅗ,ㅍ,ㅏ,ㄱ"",""P0_Q1"":""(가능)""}","survey","70","1119225","0.0-12.0-1.19","[]","","",""
"1645","TestRecordings/phuthik.wav","0","audio-button-response","71","1120892","0.0-12.0-0.20","","","",""
"6463","","{""P0_Q0"":""ㅍ,ㅜ,ㅌ,ㅣ,ㄱ"",""P0_Q1"":""(가능)""}","survey","72","1127362","0.0-12.0-1.20","[]","","",""
"2883","TestRecordings/npokit.wav","0","audio-button-response","73","1130302","0.0-12.0-0.21","","","",""
"13507","","{""P0_Q0"":""ㅇ,ㅡ,ㄴ,ㅂ,ㅗ,ㄱ,ㅣ,ㅅ"",""P0_Q1"":""(불가능)""}","survey","74","1143816","0.0-12.0-1.21","[]","","",""
"2015","TestRecordings/phninot.wav","0","audio-button-response","75","1145887","0.0-12.0-0.22","","","",""
"12538","","{""P0_Q0"":""ㅍ,ㅡ,ㄴ,ㅣ,ㄴ,ㅗ,ㅅ"",""P0_Q1"":""(가능)""}","survey","76","1158431","0.0-12.0-1.22","[]","","",""
"2340","TestRecordings/mtak.wav","0","audio-button-response","77","1160826","0.0-12.0-0.23","","","",""
"14957","","{""P0_Q0"":""ㅇ,ㅡ,ㄴ,ㄷ,ㅏ,ㄱ"",""P0_Q1"":""(불가능)""}","survey","78","1175791","0.0-12.0-1.23","[]","","",""
"2075","TestRecordings/mciphom.wav","0","audio-button-response","79","1177921","0.0-12.0-0.24","","","",""
"12373","","{""P0_Q0"":""ㅇ,ㅡ,ㅁ,ㅈ,ㅣ,ㅍ,ㅗ,ㅁ"",""P0_Q1"":""(불가능)""}","survey","80","1190301","0.0-12.0-1.24","[]","","",""
"1818","TestRecordings/nthochap.wav","0","audio-button-response","81","1192142","0.0-12.0-0.25","","","",""
"12905","","{""P0_Q0"":""ㅇ,ㅡ,ㅁ,ㅌ,ㅗ,ㅊ,ㅏ,ㅂ"",""P0_Q1"":""(불가능)""}","survey","82","1205053","0.0-12.0-1.25","[]","","",""
"1716","TestRecordings/nchup.wav","0","audio-button-response","83","1206825","0.0-12.0-0.26","","","",""
"18746","","{""P0_Q0"":""ㅇ,ㅡ,ㅁ,ㅊ,ㅜ,ㄱ"",""P0_Q1"":""(불가능)""}","survey","84","1225578","0.0-12.0-1.26","[]","","",""
"4314","TestRecordings/cwasop.wav","0","audio-button-response","85","1229948","0.0-12.0-0.27","","","",""
"8731","","{""P0_Q0"":""ㅈ,ㅘ,ㅅ,ㅗ,ㄱ"",""P0_Q1"":""(가능)""}","survey","86","1238685","0.0-12.0-1.27","[]","","",""
"1914","TestRecordings/phwim.wav","0","audio-button-response","87","1240655","0.0-12.0-0.28","","","",""
"13207","","{""P0_Q0"":""ㅍ,ㅟ,ㅇ,ㅣ,ㅁ"",""P0_Q1"":""(불가능)""}","survey","88","1253868","0.0-12.0-1.28","[]","","",""
"2154","TestRecordings/siphuk.wav","0","audio-button-response","89","1256078","0.0-12.0-0.29","","","",""
"20569","","{""P0_Q0"":""ㅅ,ㅣ,ㅍ,ㅜ"",""P0_Q1"":""(가능)""}","survey","90","1276653","0.0-12.0-1.29","[]","","",""
"2921","TestRecordings/thum.wav","0","audio-button-response","91","1279632","0.0-12.0-0.30","","","",""
"5674","","{""P0_Q0"":""ㅌ,ㅜ,ㅁ"",""P0_Q1"":""(가능)""}","survey","92","1285314","0.0-12.0-1.30","[]","","",""
"2293","TestRecordings/mkithun.wav","0","audio-button-response","93","1287665","0.0-12.0-0.31","","","",""
"10635","","{""P0_Q0"":""ㅇ,ㅡ,ㅁ,ㄱ,ㅣ,ㅌ,ㅜ,ㄴ"",""P0_Q1"":""(불가능)""}","survey","94","1298306","0.0-12.0-1.31","[]","","",""
"4443","TestRecordings/pmathin.wav","0","audio-button-response","95","1302806","0.0-12.0-0.32","","","",""
"13495","","{""P0_Q0"":""ㄱ,ㅡ,ㅁ,ㅏ,ㅌ,ㅣ,ㄴ"",""P0_Q1"":""(불가능)""}","survey","96","1316307","0.0-12.0-1.32","[]","","",""
"3042","TestRecordings/pmisung.wav","0","audio-button-response","97","1319405","0.0-12.0-0.33","","","",""
"10165","","{""P0_Q0"":""ㄱ,ㅡ,ㅁ,ㅣ,ㅅ,ㅜ,ㅇ"",""P0_Q1"":""(불가능)""}","survey","98","1329577","0.0-12.0-1.33","[]","","",""
"2665","TestRecordings/chwakap.wav","0","audio-button-response","99","1332298","0.0-12.0-0.34","","","",""
"6940","","{""P0_Q0"":""ㅊ,ㅏ,ㄱ,ㅏ,ㅂ"",""P0_Q1"":""(가능)""}","survey","100","1339244","0.0-12.0-1.34","[]","","",""
"1720","TestRecordings/mtunak.wav","0","audio-button-response","101","1341019","0.0-12.0-0.35","","","",""
"8260","","{""P0_Q0"":""ㅇ,ㅡ,ㅁ,ㄷ,ㅜ,ㄴ,ㅏ,ㄱ"",""P0_Q1"":""(불가능)""}","survey","102","1349286","0.0-12.0-1.35","[]","","",""
"2035","TestRecordings/phmacot.wav","0","audio-button-response","103","1351376","0.0-12.0-0.36","","","",""
"10629","","{""P0_Q0"":""ㅍ,ㅡ,ㅁ,ㅏ,ㅈ,ㅗ,ㅅ"",""P0_Q1"":""(불가능)""}","survey","104","1362012","0.0-12.0-1.36","[]","","",""
"1475","TestRecordings/nthunit.wav","0","audio-button-response","105","1363542","0.0-12.0-0.37","","","",""
"9589","","{""P0_Q0"":""ㅇ,ㅡ,ㅁ,ㅌ,ㅜ,ㄴ,ㅣ,ㅅ"",""P0_Q1"":""(불가능)""}","survey","106","1373137","0.0-12.0-1.37","[]","","",""
"1678","TestRecordings/khwapan.wav","0","audio-button-response","107","1374871","0.0-12.0-0.38","","","",""
"10040","","{""P0_Q0"":""ㅋ,ㅘ,ㅂ,ㅏ,ㄴ"",""P0_Q1"":""(가능)""}","survey","108","1384918","0.0-12.0-1.38","[]","","",""
"2261","TestRecordings/khnacin.wav","0","audio-button-response","109","1387235","0.0-12.0-0.39","","","",""
"10402","","{""P0_Q0"":""ㅋ,ㅡ,ㄴ,ㅏ,ㅈ,ㅣ,ㄴ"",""P0_Q1"":""(불가능)""}","survey","110","1397643","0.0-12.0-1.39","[]","","",""
"2228","TestRecordings/chwap.wav","0","audio-button-response","111","1399928","0.0-12.0-0.40","","","",""
"8840","","{""P0_Q0"":""ㅊ,ㅘ,ㅂ"",""P0_Q1"":""(가능)""}","survey","112","1408775","0.0-12.0-1.40","[]","","",""
"1541","TestRecordings/mip.wav","0","audio-button-response","113","1410369","0.0-12.0-0.41","","","",""
"20339","","{""P0_Q0"":""ㅁ,ㅣ,ㅂ"",""P0_Q1"":""(가능)""}","survey","114","1430715","0.0-12.0-1.41","[]","","",""
"2101","TestRecordings/knop.wav","0","audio-button-response","115","1432874","0.0-12.0-0.42","","","",""
"7231","","{""P0_Q0"":""ㄱ,ㅡ,ㄴ,ㅗ,ㄱ"",""P0_Q1"":""(불가능)""}","survey","116","1440111","0.0-12.0-1.42","[]","","",""
"1576","TestRecordings/kwat.wav","0","audio-button-response","117","1441742","0.0-12.0-0.43","","","",""
"6863","","{""P0_Q0"":""ㄱ,ㅘ,ㅅ"",""P0_Q1"":""(가능)""}","survey","118","1448611","0.0-12.0-1.43","[]","","",""
"1633","TestRecordings/chut.wav","0","audio-button-response","119","1450299","0.0-12.0-0.44","","","",""
"5859","","{""P0_Q0"":""ㅊ,ㅜ,ㅅ"",""P0_Q1"":""(가능)""}","survey","120","1456164","0.0-12.0-1.44","[]","","",""
"2011","TestRecordings/thnukip.wav","0","audio-button-response","121","1458231","0.0-12.0-0.45","","","",""
"11448","","{""P0_Q0"":""ㅌ,ㅡ,ㄴ,ㅜ,ㄱ,ㅣ,ㅂ"",""P0_Q1"":""(불가능)""}","survey","122","1469686","0.0-12.0-1.45","[]","","",""
"2072","TestRecordings/cwiphing.wav","0","audio-button-response","123","1471815","0.0-12.0-0.46","","","",""
"14522","","{""P0_Q0"":""ㅈ,ㅟ,ㅍ,ㅣ,ㅇ"",""P0_Q1"":""(가능)""}","survey","124","1486343","0.0-12.0-1.46","[]","","",""
"2604","TestRecordings/pathik.wav","0","audio-button-response","125","1488972","0.0-12.0-0.47","","","",""
"6785","","{""P0_Q0"":""ㅂ,ㅏ,ㅌ,ㅣ,ㄱ"",""P0_Q1"":""(가능)""}","survey","126","1495762","0.0-12.0-1.47","[]","","",""
"1732","TestRecordings/thwicap.wav","0","audio-button-response","127","1497550","0.0-12.0-0.48","","","",""
"9844","","{""P0_Q0"":""ㅌ,ㅟ,ㅈ,ㅏ,ㅂ"",""P0_Q1"":""(가능)""}","survey","128","1507400","0.0-12.0-1.48","[]","","",""
"2272","TestRecordings/khmip.wav","0","audio-button-response","129","1509728","0.0-12.0-0.49","","","",""
"7255","","{""P0_Q0"":""ㅋ,ㅡ,ㅁ,ㅣ,ㅂ"",""P0_Q1"":""(불가능)""}","survey","130","1516990","0.0-12.0-1.49","[]","","",""
"1603","TestRecordings/ncuk.wav","0","audio-button-response","131","1518647","0.0-12.0-0.50","","","",""
"17567","","{""P0_Q0"":""ㅇ,ㅡ,ㅁ,ㅈ,ㅜ,ㄱ"",""P0_Q1"":""(불가능)""}","survey","132","1536221","0.0-12.0-1.50","[]","","",""
"2697","TestRecordings/pmuk.wav","0","audio-button-response","133","1538973","0.0-12.0-0.51","","","",""
"14238","","{""P0_Q0"":""ㅂ,ㅡ,ㅁ,ㅜ,ㄱ"",""P0_Q1"":""(불가능)""}","survey","134","1553218","0.0-12.0-1.51","[]","","",""
"3175","TestRecordings/pwacung.wav","0","audio-button-response","135","1556449","0.0-12.0-0.52","","","",""
"15903","","{""P0_Q0"":""ㅂ,ㅘ,ㅈ,ㅜ,ㅇ"",""P0_Q1"":""(가능)""}","survey","136","1572359","0.0-12.0-1.52","[]","","",""
"2067","TestRecordings/nchat.wav","0","audio-button-response","137","1574483","0.0-12.0-0.53","","","",""
"11748","","{""P0_Q0"":""ㅇ,ㅡ,ㄴ,ㅊ,ㅏ,ㅅ"",""P0_Q1"":""(불가능)""}","survey","138","1586239","0.0-12.0-1.53","[]","","",""
"1861","TestRecordings/ntosin.wav","0","audio-button-response","139","1588125","0.0-12.0-0.54","","","",""
"11960","","{""P0_Q0"":""ㅇ,ㅡ,ㄴ,ㄷ,ㅜ,ㅅ,ㅣ,ㄴ"",""P0_Q1"":""(불가능)""}","survey","140","1600091","0.0-12.0-1.54","[]","","",""
"1876","TestRecordings/swicit.wav","0","audio-button-response","141","1602023","0.0-12.0-0.55","","","",""
"7558","","{""P0_Q0"":""ㅅ,ㅟ,ㅈ,ㅣ,ㅅ"",""P0_Q1"":""(가능)""}","survey","142","1609589","0.0-12.0-1.55","[]","","",""
"1810","TestRecordings/takhut.wav","0","audio-button-response","143","1611422","0.0-12.0-0.56","","","",""
"8610","","{""P0_Q0"":""ㅂ,ㅏ,ㅋ,ㅜ,ㅅ"",""P0_Q1"":""(가능)""}","survey","144","1620039","0.0-12.0-1.56","[]","","",""
"1754","TestRecordings/sutik.wav","0","audio-button-response","145","1621848","0.0-12.0-0.57","","","",""
"6503","","{""P0_Q0"":""ㅅ,ㅜ,ㄷ,ㅣ,ㄱ"",""P0_Q1"":""(가능)""}","survey","146","1628357","0.0-12.0-1.57","[]","","",""
"1809","TestRecordings/swapong.wav","0","audio-button-response","147","1630223","0.0-12.0-0.58","","","",""
"6266","","{""P0_Q0"":""ㅅ,ㅘ,ㅂ,ㅗ,ㅇ"",""P0_Q1"":""(가능)""}","survey","148","1636495","0.0-12.0-1.58","[]","","",""
"1818","TestRecordings/thnakop.wav","0","audio-button-response","149","1638370","0.0-12.0-0.59","","","",""
"12084","","{""P0_Q0"":""ㅋ,ㅡ,ㄴ,ㅏ,ㄱ,ㅗ,ㄱ"",""P0_Q1"":""(불가능)""}","survey","150","1650461","0.0-12.0-1.59","[]","","",""
"2228",""," ","html-keyboard-response","151","1652689","0.0-13.0","","","",""
"134921","","{""P0_Q0"":""19"",""P0_Q1"":""여성"",""P0_Q2"":""7"",""P0_Q3"":""없음"",""P0_Q4"":""중국어"",""P0_Q5"":""17살, 1년"",""P0_Q6"":""중국어 회화 수업을 들었습니다.""}","survey","152","1787619","0.0-14.0","[]","","",""
"146178","<p style=""font-size:30px"",lang=""ko"">실험이 끝났습니다</p><p style=""font-size:30px"",lang=""ko"">참가해주셔서 고맙습니다</p>"," ","html-keyboard-response","153","1933795","0.0-15.0","","","",""
,