"rt","stimulus","response","trial_type","trial_index","time_elapsed","internal_node_id","accuracy","PracticeTest","ConsonantSequence","Grammaticality"
"2927347","<p style=""font-size:30px"",lang=""ko"">실험에 오신 것을 환영합니다</p><p lang=""ko"">스페이스바를 누르면 다음 페이지로 넘어갑니다</p>"," ","html-keyboard-response","0","2927246","0.0-0.0","","","",""
"928","<p style=""font-size:30px"",lang=""ko"">해드폰을 본인에게 잘 맞게 착용하세요</p><p lang=""ko"">스페이스바를 누르면 다음 페이지로 넘어갑니다</p>"," ","html-keyboard-response","1","2928174","0.0-1.0","","","",""
"3634","<p style=""font-size:30px"",lang=""ko"">이 실험에서는 새로 만든 한국 단어를 들으실 겁니다</p><p style=""font-size:30px"",lang=""ko"">단어를 들리는대로 쓰세요. 그런 다음 그 단어가 한국어 단어로 가능한지 평가하세요</p><p lang=""ko"">스페이스바를 누르면 다음 페이지로 넘어갑니다</p>"," ","html-keyboard-response","2","2931808","0.0-2.0","","","",""
"1841","<p style=""font-size:30px"",lang=""ko"">원래 있는 단어로 예를 들어 봅시다</p><p lang=""ko"">스페이스바를 누르면 다음 페이지로 넘어갑니다</p>"," ","html-keyboard-response","3","2933650","0.0-3.0","","","",""
"10202","PracticeRecordings/kom_bear.wav","0","audio-button-response","4","2944249","0.0-4.0","","","",""
"3008","<p style=""font-size:30px"",lang=""ko"">이제 직접 단어를 듣고 쓰는 연습을 해봅시다. </p><p style=""font-size:30px"",lang=""ko"">스페이스바를 누르면 다음 페이지로 넘어갑니다</p>"," ","html-keyboard-response","5","2947257","0.0-5.0","","","",""
"2741","PracticeRecordings/kirin_giraffe.wav","0","audio-button-response","6","2950017","0.0-6.0-0.0","","","",""
"20200","kirin_giraffe","{""P0_Q0"":""ㄱ,ㅣ, ㄹ, ㅣ, ㄴ""}","survey","7","2970249","0.0-6.0-1.0","[]","practice","NA","TRUE"
"2005","<p style=""font-size:30px"",lang=""ko"">방금 들으신 단어는 ""ㄱ,ㅣ,ㄹ,ㅣ,ㄴ"" 이라고 쓰시면 됩니다</p><p lang=""ko"">스페이스바를 누르면 다음 페이지로 넘어갑니다</p>"," ","html-keyboard-response","8","2972255","0.0-6.0-2.0","","","",""
"2031","PracticeRecordings/saca_lion.wav","0","audio-button-response","9","2974309","0.0-6.0-0.1","","","",""
"6933","saca_lion","{""P0_Q0"":""ㅅ,ㅏ,ㅈ,ㅏ""}","survey","10","2981248","0.0-6.0-1.1","[]","practice","NA","FALSE"
"1637","<p style=""font-size:30px"",lang=""ko"">방금 들으신 단어는 ""ㅅ,ㅏ,ㅈ,ㅏ"" 라고 쓰시면 됩니다</p><p lang=""ko"">스페이스바를 누르면 다음 페이지로 넘어갑니다</p>"," ","html-keyboard-response","11","2982886","0.0-6.0-2.1","","","",""
"3385","PracticeRecordings/saseum_deer.wav","0","audio-button-response","12","2986291","0.0-6.0-0.2","","","",""
"5582","saseum_deer","{""P0_Q0"":""ㅅ,ㅏ,ㅅ,ㅡ,ㅁ""}","survey","13","2991880","0.0-6.0-1.2","[]","practice","NA","FALSE"
"2579","<p style=""font-size:30px"",lang=""ko"">방금 들으신 단어는 ""ㅅ,ㅏ,ㅅ,ㅡ,ㅁ""이라고 쓰시면 됩니다</p><p lang=""ko"">스페이스바를 누르면 다음 페이지로 넘어갑니다</p>"," ","html-keyboard-response","14","2994459","0.0-6.0-2.2","","","",""
"2068","PracticeRecordings/thokki_rabbit.wav","0","audio-button-response","15","2996547","0.0-6.0-0.3","","","",""
"5534","thokki_rabbit","{""P0_Q0"":""ㅌ,ㅗ,ㄲ,ㅣ""}","survey","16","3002088","0.0-6.0-1.3","[]","practice","NA","FALSE"
"958","<p style=""font-size:30px"",lang=""ko"">방금 들으신 단어는 ""ㅌ,ㅗ,ㄲ,ㅣ"" 라고 쓰시면 됩니다</p><p lang=""ko"">스페이스바를 누르면 다음 페이지로 넘어갑니다</p>"," ","html-keyboard-response","17","3003046","0.0-6.0-2.3","","","",""
"1684","<p style=""font-size:30px"",lang=""ko"">이제 만든 단어로 연습해봅시다.</p><p lang=""ko"">스페이스바를 누르면 다음 페이지로 넘어갑니다</p>"," ","html-keyboard-response","18","3004731","0.0-7.0","","","",""
"5551","PracticeRecordings/snen.wav","0","audio-button-response","19","3010300","0.0-8.0-0.0","","","",""
"4868","snen","{""P0_Q0"":""ㅅ,ㅡ,ㄴ,ㅐ,ㄴ""}","survey","20","3015178","0.0-8.0-1.0","[]","practice","NA","TRUE"
"3633","<p style=""font-size:30px"",lang=""ko"">들으신 단어는 <br> ""ㅅ,ㅡ,ㄴ,ㅐ,ㄴ""  ""ㅅ,ㅡ,ㄴ,ㅐ"" ""ㅅ,ㄴ,ㅐ,ㄴ (""으"" 소리가 안 들리는 경우)"" 등 <br> 사람에 따라 다양하게 들릴 수 있습니다 <br> 본인에게 들리는대로 쓰시면 됩니다.</p><p lang=""ko"">스페이스바를 누르면 다음 페이지로 넘어갑니다</p>"," ","html-keyboard-response","21","3018811","0.0-8.0-2.0","","","",""
"2736","PracticeRecordings/phrak.wav","0","audio-button-response","22","3021569","0.0-8.0-0.1","","","",""
"5964","phrak","{""P0_Q0"":""ㅍ,ㅡ,ㄹ,ㅏ,ㄱ""}","survey","23","3027539","0.0-8.0-1.1","[]","practice","NA","FALSE"
"1491","<p style=""font-size:30px"",lang=""ko"">들으신 단어는 <br> ""ㅍ,ㅡ,ㄹ,ㅏ,ㄱ"" ""ㅍ,ㅡ,ㄹ,ㅏ,ㅅ"" ""ㅋ,ㅡ,ㄹ,ㅏ,ㄱ"" ""ㅍ,ㄹ,ㅏ,ㄱ (""으"" 소리가 안 들리는 경우)"" 등 <br> 사람에 따라 다양하게 들릴 수 있습니다 <br> 본인에게 들리는대로 쓰시면 됩니다.</p><p lang=""ko"">스페이스바를 누르면 다음 페이지로 넘어갑니다</p>"," ","html-keyboard-response","24","3029031","0.0-8.0-2.1","","","",""
"3146","PracticeRecordings/chka.wav","0","audio-button-response","25","3032199","0.0-8.0-0.2","","","",""
"4480","chka","{""P0_Q0"":""ㅊ,ㅡ,ㄱ,ㅏ""}","survey","26","3036685","0.0-8.0-1.2","[]","practice","NA","FALSE"
"2512","<p style=""font-size:30px"",lang=""ko"">들으신 단어는 ""ㅊ,ㅣ,ㄱ,ㅏ"", ""ㅊ,ㅡ,ㄱ,ㅏ"", ""ㅊ,ㄱ,ㅏ"", ""ㅊ,ㅟ,ㄱ,ㅏ"" 등 <br> 사람에 따라 다양하게 들릴 수 있습니다. <br> 본인에게 들리는대로 쓰시면 됩니다.</p><p lang=""ko"">스페이스바를 누르면 다음 페이지로 넘어갑니다</p>"," ","html-keyboard-response","27","3039198","0.0-8.0-2.2","","","",""
"2176",""," ","html-keyboard-response","28","3041376","0.0-9.0","","","",""
"2122","<p style=""font-size:30px"",lang=""ko"">이제 실험을 시작하겠습니다.</p><p style=""font-size:30px"",lang=""ko"">실전에서는 각각의 만든 단어를 한 번씩만 들을 수 있습니다.</p>"," ","html-keyboard-response","29","3043498","0.0-10.0","","","",""
"20387","<p style=""font-size:30px"",lang=""ko"">단어를 풀어 쓰신 후에 그 단어가 한국어로 가능한 단어인지 평가해주세요</p><p lang=""ko"">스페이스바를 누르면 다음 페이지로 넘어갑니다</p>"," ","html-keyboard-response","30","3063885","0.0-11.0","","","",""
"3551","TestRecordings/phwim.wav","0","audio-button-response","31","3067460","0.0-12.0-0.0","","","",""
"5894","","{""P0_Q0"":""ㅍ,ㅣ,ㅁ"",""P0_Q1"":""(불가능)""}","survey","32","3073371","0.0-12.0-1.0","[]","","",""
"3998","TestRecordings/kophak.wav","0","audio-button-response","33","3077391","0.0-12.0-0.1","","","",""
"13618","","{""P0_Q0"":""ㄱ,ㅗ,ㅍ,ㅏ,ㄱ"",""P0_Q1"":""(불가능)""}","survey","34","3091018","0.0-12.0-1.1","[]","","",""
"3849","TestRecordings/khnichat.wav","0","audio-button-response","35","3094890","0.0-12.0-0.2","","","",""
"8981","","{""P0_Q0"":""ㅋ,ㅡ,ㄴ,ㅣ,ㅊ,ㅏ,ㅅ"",""P0_Q1"":""(불가능)""}","survey","36","3103879","0.0-12.0-1.2","[]","","",""
"1626","TestRecordings/thwicap.wav","0","audio-button-response","37","3105527","0.0-12.0-0.3","","","",""
"6801","","{""P0_Q0"":""ㅌ,ㅜ,ㅣ,ㅈ,ㅏ,ㅂ"",""P0_Q1"":""(불가능)""}","survey","38","3112335","0.0-12.0-1.3","[]","","",""
"2845","TestRecordings/nchat.wav","0","audio-button-response","39","3115263","0.0-12.0-0.4","","","",""
"6737","","{""P0_Q0"":""ㅇ,ㅡ,ㄴ,ㅊ,ㅏ,ㅅ"",""P0_Q1"":""(불가능)""}","survey","40","3122008","0.0-12.0-1.4","[]","","",""
"2321","TestRecordings/phninot.wav","0","audio-button-response","41","3124352","0.0-12.0-0.5","","","",""
"9860","","{""P0_Q0"":""ㅍ,ㅡ,ㄴ,ㅣ,ㄴ,ㅗ,ㅅ"",""P0_Q1"":""(불가능)""}","survey","42","3134220","0.0-12.0-1.5","[]","","",""
"1551","TestRecordings/phmut.wav","0","audio-button-response","43","3135792","0.0-12.0-0.6","","","",""
"5141","","{""P0_Q0"":""ㅍ,ㅡ,ㅁ,ㅜ,ㅅ"",""P0_Q1"":""(불가능)""}","survey","44","3140940","0.0-12.0-1.6","[]","","",""
"2451","TestRecordings/nucok.wav","0","audio-button-response","45","3143413","0.0-12.0-0.7","","","",""
"17246","","{""P0_Q0"":""ㄴ,ㅜ,ㅈ,ㅗ,ㄱ"",""P0_Q1"":""(가능)""}","survey","46","3160665","0.0-12.0-1.7","[]","","",""
"2598","TestRecordings/chwakap.wav","0","audio-button-response","47","3163284","0.0-12.0-0.8","","","",""
"8805","","{""P0_Q0"":""ㅊ,ㅏ,ㄱ,ㅏ,ㅂ"",""P0_Q1"":""(가능)""}","survey","48","3172097","0.0-12.0-1.8","[]","","",""
"2401","TestRecordings/knothing.wav","0","audio-button-response","49","3174521","0.0-12.0-0.9","","","",""
"6802","","{""P0_Q0"":""ㅋ,ㅡ,ㄴ,ㅗ,ㅌ,ㅣ,ㅇ"",""P0_Q1"":""(불가능)""}","survey","50","3181331","0.0-12.0-1.9","[]","","",""
"1767","TestRecordings/masuk.wav","0","audio-button-response","51","3183119","0.0-12.0-0.10","","","",""
"6771","","{""P0_Q0"":""ㅁ,ㅏ,ㅅ,ㅜ,ㄱ"",""P0_Q1"":""(가능)""}","survey","52","3189897","0.0-12.0-1.10","[]","","",""
"2313","TestRecordings/sutik.wav","0","audio-button-response","53","3192233","0.0-12.0-0.11","","","",""
"6431","","{""P0_Q0"":""ㅅ,ㅜ,ㄷ,ㅣ,ㄱ"",""P0_Q1"":""(불가능)""}","survey","54","3198670","0.0-12.0-1.11","[]","","",""
"2568","TestRecordings/ntosin.wav","0","audio-button-response","55","3201261","0.0-12.0-0.12","","","",""
"12465","","{""P0_Q0"":""ㅎ,ㅣ,ㄴ,ㄷ,ㅜ,ㅅ,ㅣ,ㄴ"",""P0_Q1"":""(불가능)""}","survey","56","3213733","0.0-12.0-1.12","[]","","",""
"2366","TestRecordings/swapong.wav","0","audio-button-response","57","3216121","0.0-12.0-0.13","","","",""
"7312","","{""P0_Q0"":""ㅅ,ㅏ,ㅂ,ㅗ,ㅇ"",""P0_Q1"":""(불가능)""}","survey","58","3223439","0.0-12.0-1.13","[]","","",""
"1518","TestRecordings/khun.wav","0","audio-button-response","59","3224979","0.0-12.0-0.14","","","",""
"6545","","{""P0_Q0"":""ㅋ,ㅜ,ㄴ"",""P0_Q1"":""(가능)""}","survey","60","3231532","0.0-12.0-1.14","[]","","",""
"1282","TestRecordings/mip.wav","0","audio-button-response","61","3232835","0.0-12.0-0.15","","","",""
"3874","","{""P0_Q0"":""밉"",""P0_Q1"":""(가능)""}","survey","62","3236716","0.0-12.0-1.15","[]","","",""
"3396","TestRecordings/phuthik.wav","0","audio-button-response","63","3240136","0.0-12.0-0.16","","","",""
"5600","","{""P0_Q0"":""ㅍ,ㅜ,ㅌ,ㅣ,ㅂ"",""P0_Q1"":""(불가능)""}","survey","64","3245744","0.0-12.0-1.16","[]","","",""
"2246","TestRecordings/pathik.wav","0","audio-button-response","65","3248014","0.0-12.0-0.17","","","",""
"6191","","{""P0_Q0"":""ㅂ,ㅏ,ㅌ,ㅣ,ㄱ"",""P0_Q1"":""(불가능)""}","survey","66","3254212","0.0-12.0-1.17","[]","","",""
"1703","TestRecordings/takhut.wav","0","audio-button-response","67","3255938","0.0-12.0-0.18","","","",""
"5147","","{""P0_Q0"":""ㅂ,ㅏ,ㅋ,ㅜ,ㅅ"",""P0_Q1"":""(불가능)""}","survey","68","3261094","0.0-12.0-1.18","[]","","",""
"3633","TestRecordings/siphuk.wav","0","audio-button-response","69","3264749","0.0-12.0-0.19","","","",""
"9234","","{""P0_Q0"":""ㅅ,ㅣ,ㅍ,ㅜ,ㄷ"",""P0_Q1"":""(불가능)""}","survey","70","3273989","0.0-12.0-1.19","[]","","",""
"1418","TestRecordings/khnacin.wav","0","audio-button-response","71","3275430","0.0-12.0-0.20","","","",""
"6683","","{""P0_Q0"":""ㅋ,ㅡ,ㄴ,ㅏ,ㅈ,ㅣ,ㄴ"",""P0_Q1"":""(불가능)""}","survey","72","3282121","0.0-12.0-1.20","[]","","",""
"2290","TestRecordings/mciphom.wav","0","audio-button-response","73","3284434","0.0-12.0-0.21","","","",""
"10464","","{""P0_Q0"":""ㅇ,ㅡ,ㅇ,ㅈ,ㅣ,ㅍ,ㅗ,ㅁ"",""P0_Q1"":""(불가능)""}","survey","74","3294906","0.0-12.0-1.21","[]","","",""
"1447","TestRecordings/khmoting.wav","0","audio-button-response","75","3296376","0.0-12.0-0.22","","","",""
"6689","","{""P0_Q0"":""ㅋ,ㅡ,ㅁ,ㅗ,ㄷ,ㅣ,ㅇ"",""P0_Q1"":""(불가능)""}","survey","76","3303072","0.0-12.0-1.22","[]","","",""
"1826","TestRecordings/thnakop.wav","0","audio-button-response","77","3304921","0.0-12.0-0.23","","","",""
"7738","","{""P0_Q0"":""ㅋ,ㅡ,ㄴ,ㅏ,ㄱ,ㅗ,ㅂ"",""P0_Q1"":""(불가능)""}","survey","78","3312665","0.0-12.0-1.23","[]","","",""
"3090","TestRecordings/mtak.wav","0","audio-button-response","79","3315776","0.0-12.0-0.24","","","",""
"5813","","{""P0_Q0"":""ㅇ,ㅡ,ㅇ,ㄷ,ㅏ,ㅂ"",""P0_Q1"":""(가능)""}","survey","80","3321597","0.0-12.0-1.24","[]","","",""
"2989","TestRecordings/phwing.wav","0","audio-button-response","81","3324609","0.0-12.0-0.25","","","",""
"5492","","{""P0_Q0"":""ㅋ,ㅜ,ㅔ,ㅇ"",""P0_Q1"":""(가능)""}","survey","82","3330108","0.0-12.0-1.25","[]","","",""
"1856","TestRecordings/cwiphing.wav","0","audio-button-response","83","3331986","0.0-12.0-0.26","","","",""
"4736","","{""P0_Q0"":""ㅈ,ㅣ,ㅍ,ㅣ,ㅇ"",""P0_Q1"":""(불가능)""}","survey","84","3336728","0.0-12.0-1.26","[]","","",""
"1854","TestRecordings/chut.wav","0","audio-button-response","85","3338604","0.0-12.0-0.27","","","",""
"8792","","{""P0_Q0"":""ㅊ,ㅜ,ㅅ"",""P0_Q1"":""(불가능)""}","survey","86","3347403","0.0-12.0-1.27","[]","","",""
"1514","TestRecordings/cut.wav","0","audio-button-response","87","3348937","0.0-12.0-0.28","","","",""
"5342","","{""P0_Q0"":""ㅈ,ㅜ,ㅅ"",""P0_Q1"":""(불가능)""}","survey","88","3354286","0.0-12.0-1.28","[]","","",""
"1405","TestRecordings/twikhit.wav","0","audio-button-response","89","3355713","0.0-12.0-0.29","","","",""
"6051","","{""P0_Q0"":""ㄷ,ㅜ,ㅣ,ㅋ,ㅣ,ㅅ"",""P0_Q1"":""(불가능)""}","survey","90","3361770","0.0-12.0-1.29","[]","","",""
"2312","TestRecordings/pmuk.wav","0","audio-button-response","91","3364104","0.0-12.0-0.30","","","",""
"5763","","{""P0_Q0"":""ㅂ,ㅡ,ㅁ,ㅜ,ㄱ"",""P0_Q1"":""(불가능)""}","survey","92","3369876","0.0-12.0-1.30","[]","","",""
"3604","TestRecordings/niphak.wav","0","audio-button-response","93","3373502","0.0-12.0-0.31","","","",""
"6363","","{""P0_Q0"":""ㄴ,ㅣ,ㅍ,ㅏ,ㄱ"",""P0_Q1"":""(불가능)""}","survey","94","3379871","0.0-12.0-1.31","[]","","",""
"1714","TestRecordings/mkithun.wav","0","audio-button-response","95","3381608","0.0-12.0-0.32","","","",""
"7359","","{""P0_Q0"":""ㅇ,ㅡ,ㅇ,ㄱ,ㅣ,ㅌ,ㅜ,ㄴ"",""P0_Q1"":""(불가능)""}","survey","96","3388974","0.0-12.0-1.32","[]","","",""
"1377","TestRecordings/kwat.wav","0","audio-button-response","97","3390373","0.0-12.0-0.33","","","",""
"4699","","{""P0_Q0"":""ㄱ,ㅗ,ㅏ,ㄷ"",""P0_Q1"":""(불가능)""}","survey","98","3395079","0.0-12.0-1.33","[]","","",""
"1588","TestRecordings/swakhing.wav","0","audio-button-response","99","3396691","0.0-12.0-0.34","","","",""
"6271","","{""P0_Q0"":""ㅅ,ㅗ,ㅏ,ㅋ,ㅣ,ㅇ"",""P0_Q1"":""(불가능)""}","survey","100","3402969","0.0-12.0-1.34","[]","","",""
"1467","TestRecordings/knop.wav","0","audio-button-response","101","3404457","0.0-12.0-0.35","","","",""
"4780","","{""P0_Q0"":""ㅋ,ㅡ,ㄴ,ㅗ,ㅂ"",""P0_Q1"":""(불가능)""}","survey","102","3409243","0.0-12.0-1.35","[]","","",""
"1254","TestRecordings/thnukip.wav","0","audio-button-response","103","3410519","0.0-12.0-0.36","","","",""
"7901","","{""P0_Q0"":""ㅋ,ㅡ,ㄴ,ㅜ,ㄱ,ㅣ,ㅂ"",""P0_Q1"":""(불가능)""}","survey","104","3418428","0.0-12.0-1.36","[]","","",""
"2523","TestRecordings/thum.wav","0","audio-button-response","105","3420974","0.0-12.0-0.37","","","",""
"3352","","{""P0_Q0"":""ㅌ,ㅜ,ㅁ"",""P0_Q1"":""(불가능)""}","survey","106","3424333","0.0-12.0-1.37","[]","","",""
"1402","TestRecordings/khwapan.wav","0","audio-button-response","107","3425758","0.0-12.0-0.38","","","",""
"5668","","{""P0_Q0"":""ㅋ,ㅗ,ㅏ,ㅂ,ㅏ,ㄴ"",""P0_Q1"":""(불가능)""}","survey","108","3431433","0.0-12.0-1.38","[]","","",""
"1333","TestRecordings/pwacung.wav","0","audio-button-response","109","3432788","0.0-12.0-0.39","","","",""
"6540","","{""P0_Q0"":""ㅂ,ㅗ,ㅏ,ㅈ,ㅜ,ㅇ"",""P0_Q1"":""(불가능)""}","survey","110","3439336","0.0-12.0-1.39","[]","","",""
"1397","TestRecordings/npokit.wav","0","audio-button-response","111","3440755","0.0-12.0-0.40","","","",""
"5832","","{""P0_Q0"":""ㅇ,ㅡ,ㅇ,ㅂ,ㅜ,ㄱ,ㅣ,ㅅ"",""P0_Q1"":""(불가능)""}","survey","112","3446594","0.0-12.0-1.40","[]","","",""
"1786","TestRecordings/nchitam.wav","0","audio-button-response","113","3448405","0.0-12.0-0.41","","","",""
"8257","","{""P0_Q0"":""ㅇ,ㅡ,ㅇ,ㅊ,ㅣ,ㄷ,ㅏ,ㅁ"",""P0_Q1"":""(불가능)""}","survey","114","3456669","0.0-12.0-1.41","[]","","",""
"1393","TestRecordings/pmisung.wav","0","audio-button-response","115","3458086","0.0-12.0-0.42","","","",""
"6481","","{""P0_Q0"":""ㅂ,ㅡ,ㅁ,ㅣ,ㅅ,ㅜ,ㅇ"",""P0_Q1"":""(불가능)""}","survey","116","3464576","0.0-12.0-1.42","[]","","",""
"1831","TestRecordings/ncuk.wav","0","audio-button-response","117","3466428","0.0-12.0-0.43","","","",""
"9683","","{""P0_Q0"":""ㅇ,ㅡ,ㅇ,ㅈ,ㅜ,ㄱ"",""P0_Q1"":""(불가능)""}","survey","118","3476118","0.0-12.0-1.43","[]","","",""
"2234","TestRecordings/khonik.wav","0","audio-button-response","119","3478373","0.0-12.0-0.44","","","",""
"6220","","{""P0_Q0"":""ㅋ,ㅗ,ㄴ,ㅣ,ㄱ"",""P0_Q1"":""(불가능)""}","survey","120","3484599","0.0-12.0-1.44","[]","","",""
"1191","TestRecordings/chwap.wav","0","audio-button-response","121","3485813","0.0-12.0-0.45","","","",""
"9485","","{""P0_Q0"":""ㅊ,ㅏ,ㅂ"",""P0_Q1"":""(불가능)""}","survey","122","3495305","0.0-12.0-1.45","[]","","",""
"1227","TestRecordings/nthiton.wav","0","audio-button-response","123","3496555","0.0-12.0-0.46","","","",""
"7445","","{""P0_Q0"":""ㅇ,ㅡ,ㅇ,ㅌ,ㅣ,ㄷ,ㅗ,ㄴ"",""P0_Q1"":""(불가능)""}","survey","124","3504008","0.0-12.0-1.46","[]","","",""
"1335","TestRecordings/mphithup.wav","0","audio-button-response","125","3505365","0.0-12.0-0.47","","","",""
"8977","","{""P0_Q0"":""ㅇ,ㅡ,ㅇ,ㅍ,ㅣ,ㅌ,ㅜ,ㅂ"",""P0_Q1"":""(불가능)""}","survey","126","3514349","0.0-12.0-1.47","[]","","",""
"1557","TestRecordings/nthunit.wav","0","audio-button-response","127","3515928","0.0-12.0-0.48","","","",""
"10195","","{""P0_Q0"":""ㅇ,ㅡ,ㅇ,ㅌ,ㅜ,ㄴ,ㅣ,ㅅ"",""P0_Q1"":""(불가능)""}","survey","128","3526129","0.0-12.0-1.48","[]","","",""
"1323","TestRecordings/nchak.wav","0","audio-button-response","129","3527473","0.0-12.0-0.49","","","",""
"8168","","{""P0_Q0"":""ㅇ,ㅡ,ㅇ,ㅊ,ㅏ,ㄱ"",""P0_Q1"":""(가능)""}","survey","130","3535648","0.0-12.0-1.49","[]","","",""
"1286","TestRecordings/khmip.wav","0","audio-button-response","131","3536955","0.0-12.0-0.50","","","",""
"6074","","{""P0_Q0"":""ㅋ,ㅡ,ㅁ,ㅣ,ㅂ"",""P0_Q1"":""(불가능)""}","survey","132","3543038","0.0-12.0-1.50","[]","","",""
"1320","TestRecordings/nchup.wav","0","audio-button-response","133","3544380","0.0-12.0-0.51","","","",""
"11017","","{""P0_Q0"":""ㅇ,ㅡ,ㅇ,ㅊ,ㅜ,ㄱ"",""P0_Q1"":""(가능)""}","survey","134","3555404","0.0-12.0-1.51","[]","","",""
"1331","TestRecordings/cwang.wav","0","audio-button-response","135","3556756","0.0-12.0-0.52","","","",""
"5957","","{""P0_Q0"":""ㅈ,ㅗ,ㅏ,ㅇ"",""P0_Q1"":""(불가능)""}","survey","136","3562720","0.0-12.0-1.52","[]","","",""
"977","TestRecordings/phmacot.wav","0","audio-button-response","137","3563720","0.0-12.0-0.53","","","",""
"5873","","{""P0_Q0"":""ㅍ,ㅡ,ㅁ,ㅏ,ㅈ,ㅗ,ㅅ"",""P0_Q1"":""(불가능)""}","survey","138","3569600","0.0-12.0-1.53","[]","","",""
"1605","TestRecordings/swicit.wav","0","audio-button-response","139","3571239","0.0-12.0-0.54","","","",""
"6849","","{""P0_Q0"":""ㅅ,ㅜ,ㅣ,ㅈ,ㅣ,ㅅ"",""P0_Q1"":""(불가능)""}","survey","140","3578095","0.0-12.0-1.54","[]","","",""
"1974","TestRecordings/nthochap.wav","0","audio-button-response","141","3580092","0.0-12.0-0.55","","","",""
"8352","","{""P0_Q0"":""ㅇ,ㅡ,ㅇ,ㅌ,ㅗ,ㅊ,ㅏ,ㅂ"",""P0_Q1"":""(불가능)""}","survey","142","3588451","0.0-12.0-1.55","[]","","",""
"1142","TestRecordings/pmathin.wav","0","audio-button-response","143","3589616","0.0-12.0-0.56","","","",""
"10044","","{""P0_Q0"":""ㅍ,ㅡ,ㅁ,ㅏ,ㅌ,ㅣ,ㄴ"",""P0_Q1"":""(불가능)""}","survey","144","3599667","0.0-12.0-1.56","[]","","",""
"1422","TestRecordings/cmot.wav","0","audio-button-response","145","3601110","0.0-12.0-0.57","","","",""
"6075","","{""P0_Q0"":""ㅈ,ㅡ,ㅁ,ㅗ,ㅅ"",""P0_Q1"":""(불가능)""}","survey","146","3607193","0.0-12.0-1.57","[]","","",""
"1304","TestRecordings/mtunak.wav","0","audio-button-response","147","3608519","0.0-12.0-0.58","","","",""
"8082","","{""P0_Q0"":""ㅇ,ㅡ,ㅇ,ㄷ,ㅜ,ㄴ,ㅏ,ㅅ"",""P0_Q1"":""(불가능)""}","survey","148","3616608","0.0-12.0-1.58","[]","","",""
"1174","TestRecordings/cwasop.wav","0","audio-button-response","149","3617805","0.0-12.0-0.59","","","",""
"4952","","{""P0_Q0"":""ㅈ,ㅗ,ㅏ,ㅅ,ㅗ,ㅂ"",""P0_Q1"":""(불가능)""}","survey","150","3622764","0.0-12.0-1.59","[]","","",""
"2145",""," ","html-keyboard-response","151","3624909","0.0-13.0","","","",""
"50550","","{""P0_Q0"":""23"",""P0_Q1"":""여자"",""P0_Q2"":""8"",""P0_Q3"":""x"",""P0_Q4"":""일본어 중국어 "",""P0_Q5"":""18살 때부터 2년간"",""P0_Q6"":""외국어는 아닌데 한문 공부중입니다.""}","survey","152","3675468","0.0-14.0","[]","","",""
"84025","<p style=""font-size:30px"",lang=""ko"">실험이 끝났습니다</p><p style=""font-size:30px"",lang=""ko"">참가해주셔서 고맙습니다</p>"," ","html-keyboard-response","153","3759494","0.0-15.0","","","",""
,