"rt","stimulus","response","trial_type","trial_index","time_elapsed","internal_node_id","accuracy","PracticeTest","ConsonantSequence","Grammaticality"
"2614660","<p style=""font-size:30px"",lang=""ko"">실험에 오신 것을 환영합니다</p><p lang=""ko"">스페이스바를 누르면 다음 페이지로 넘어갑니다</p>"," ","html-keyboard-response","0","2614557","0.0-0.0","","","",""
"1440","<p style=""font-size:30px"",lang=""ko"">해드폰을 본인에게 잘 맞게 착용하세요</p><p lang=""ko"">스페이스바를 누르면 다음 페이지로 넘어갑니다</p>"," ","html-keyboard-response","1","2615998","0.0-1.0","","","",""
"1735","<p style=""font-size:30px"",lang=""ko"">이 실험에서는 새로 만든 한국 단어를 들으실 겁니다</p><p style=""font-size:30px"",lang=""ko"">단어를 들리는대로 쓰세요. 그런 다음 그 단어가 한국어 단어로 가능한지 평가하세요</p><p lang=""ko"">스페이스바를 누르면 다음 페이지로 넘어갑니다</p>"," ","html-keyboard-response","2","2617734","0.0-2.0","","","",""
"1303","<p style=""font-size:30px"",lang=""ko"">원래 있는 단어로 예를 들어 봅시다</p><p lang=""ko"">스페이스바를 누르면 다음 페이지로 넘어갑니다</p>"," ","html-keyboard-response","3","2619038","0.0-3.0","","","",""
"9494","PracticeRecordings/kom_bear.wav","0","audio-button-response","4","2628585","0.0-4.0","","","",""
"2172","<p style=""font-size:30px"",lang=""ko"">이제 직접 단어를 듣고 쓰는 연습을 해봅시다. </p><p style=""font-size:30px"",lang=""ko"">스페이스바를 누르면 다음 페이지로 넘어갑니다</p>"," ","html-keyboard-response","5","2630757","0.0-5.0","","","",""
"3425","PracticeRecordings/kirin_giraffe.wav","0","audio-button-response","6","2634201","0.0-6.0-0.0","","","",""
"11757","kirin_giraffe","{""P0_Q0"":""ㄱ,ㅣ,ㄹ,ㅣ,ㄴ""}","survey","7","2645989","0.0-6.0-1.0","[]","practice","NA","TRUE"
"2280","<p style=""font-size:30px"",lang=""ko"">방금 들으신 단어는 ""ㄱ,ㅣ,ㄹ,ㅣ,ㄴ"" 이라고 쓰시면 됩니다</p><p lang=""ko"">스페이스바를 누르면 다음 페이지로 넘어갑니다</p>"," ","html-keyboard-response","8","2648270","0.0-6.0-2.0","","","",""
"2396","PracticeRecordings/saca_lion.wav","0","audio-button-response","9","2650687","0.0-6.0-0.1","","","",""
"5964","saca_lion","{""P0_Q0"":""ㅅ,ㅏ,ㅈ,ㅏ""}","survey","10","2656657","0.0-6.0-1.1","[]","practice","NA","FALSE"
"1861","<p style=""font-size:30px"",lang=""ko"">방금 들으신 단어는 ""ㅅ,ㅏ,ㅈ,ㅏ"" 라고 쓰시면 됩니다</p><p lang=""ko"">스페이스바를 누르면 다음 페이지로 넘어갑니다</p>"," ","html-keyboard-response","11","2658519","0.0-6.0-2.1","","","",""
"2069","PracticeRecordings/saseum_deer.wav","0","audio-button-response","12","2660608","0.0-6.0-0.2","","","",""
"5786","saseum_deer","{""P0_Q0"":""ㅅ,ㅏ,ㅅ,ㅡ,ㅁ""}","survey","13","2666400","0.0-6.0-1.2","[]","practice","NA","FALSE"
"1294","<p style=""font-size:30px"",lang=""ko"">방금 들으신 단어는 ""ㅅ,ㅏ,ㅅ,ㅡ,ㅁ""이라고 쓰시면 됩니다</p><p lang=""ko"">스페이스바를 누르면 다음 페이지로 넘어갑니다</p>"," ","html-keyboard-response","14","2667692","0.0-6.0-2.2","","","",""
"2225","PracticeRecordings/thokki_rabbit.wav","0","audio-button-response","15","2669935","0.0-6.0-0.3","","","",""
"7890","thokki_rabbit","{""P0_Q0"":""ㅌ,ㅗ,ㄲ,ㅣ""}","survey","16","2677831","0.0-6.0-1.3","[]","practice","NA","FALSE"
"1063","<p style=""font-size:30px"",lang=""ko"">방금 들으신 단어는 ""ㅌ,ㅗ,ㄲ,ㅣ"" 라고 쓰시면 됩니다</p><p lang=""ko"">스페이스바를 누르면 다음 페이지로 넘어갑니다</p>"," ","html-keyboard-response","17","2678895","0.0-6.0-2.3","","","",""
"2048","<p style=""font-size:30px"",lang=""ko"">이제 만든 단어로 연습해봅시다.</p><p lang=""ko"">스페이스바를 누르면 다음 페이지로 넘어갑니다</p>"," ","html-keyboard-response","18","2680944","0.0-7.0","","","",""
"4505","PracticeRecordings/snen.wav","0","audio-button-response","19","2685467","0.0-8.0-0.0","","","",""
"9107","snen","{""P0_Q0"":""ㅅ,ㅡ,ㄴ,ㅐ,ㄴ""}","survey","20","2694580","0.0-8.0-1.0","[]","practice","NA","TRUE"
"3726","<p style=""font-size:30px"",lang=""ko"">들으신 단어는 <br> ""ㅅ,ㅡ,ㄴ,ㅐ,ㄴ""  ""ㅅ,ㅡ,ㄴ,ㅐ"" ""ㅅ,ㄴ,ㅐ,ㄴ (""으"" 소리가 안 들리는 경우)"" 등 <br> 사람에 따라 다양하게 들릴 수 있습니다 <br> 본인에게 들리는대로 쓰시면 됩니다.</p><p lang=""ko"">스페이스바를 누르면 다음 페이지로 넘어갑니다</p>"," ","html-keyboard-response","21","2698306","0.0-8.0-2.0","","","",""
"2252","PracticeRecordings/phrak.wav","0","audio-button-response","22","2700579","0.0-8.0-0.1","","","",""
"5908","phrak","{""P0_Q0"":""ㅍ,ㅡ,ㄹ,ㅏ,ㄱ""}","survey","23","2706494","0.0-8.0-1.1","[]","practice","NA","FALSE"
"2998","<p style=""font-size:30px"",lang=""ko"">들으신 단어는 <br> ""ㅍ,ㅡ,ㄹ,ㅏ,ㄱ"" ""ㅍ,ㅡ,ㄹ,ㅏ,ㅅ"" ""ㅋ,ㅡ,ㄹ,ㅏ,ㄱ"" ""ㅍ,ㄹ,ㅏ,ㄱ (""으"" 소리가 안 들리는 경우)"" 등 <br> 사람에 따라 다양하게 들릴 수 있습니다 <br> 본인에게 들리는대로 쓰시면 됩니다.</p><p lang=""ko"">스페이스바를 누르면 다음 페이지로 넘어갑니다</p>"," ","html-keyboard-response","24","2709492","0.0-8.0-2.1","","","",""
"2476","PracticeRecordings/chka.wav","0","audio-button-response","25","2711991","0.0-8.0-0.2","","","",""
"5661","chka","{""P0_Q0"":""ㅊ,ㅡ,ㄱ,ㅏ""}","survey","26","2717659","0.0-8.0-1.2","[]","practice","NA","FALSE"
"2712","<p style=""font-size:30px"",lang=""ko"">들으신 단어는 ""ㅊ,ㅣ,ㄱ,ㅏ"", ""ㅊ,ㅡ,ㄱ,ㅏ"", ""ㅊ,ㄱ,ㅏ"", ""ㅊ,ㅟ,ㄱ,ㅏ"" 등 <br> 사람에 따라 다양하게 들릴 수 있습니다. <br> 본인에게 들리는대로 쓰시면 됩니다.</p><p lang=""ko"">스페이스바를 누르면 다음 페이지로 넘어갑니다</p>"," ","html-keyboard-response","27","2720371","0.0-8.0-2.2","","","",""
"2355",""," ","html-keyboard-response","28","2722727","0.0-9.0","","","",""
"2062","<p style=""font-size:30px"",lang=""ko"">이제 실험을 시작하겠습니다.</p><p style=""font-size:30px"",lang=""ko"">실전에서는 각각의 만든 단어를 한 번씩만 들을 수 있습니다.</p>"," ","html-keyboard-response","29","2724790","0.0-10.0","","","",""
"3225","<p style=""font-size:30px"",lang=""ko"">단어를 풀어 쓰신 후에 그 단어가 한국어로 가능한 단어인지 평가해주세요</p><p lang=""ko"">스페이스바를 누르면 다음 페이지로 넘어갑니다</p>"," ","html-keyboard-response","30","2728018","0.0-11.0","","","",""
"3674","TestRecordings/nchat.wav","0","audio-button-response","31","2731712","0.0-12.0-0.0","","","",""
"24220","","{""P0_Q0"":""ㅇ,ㅡ,ㅇ,ㅊ,ㅐ,ㅅ"",""P0_Q1"":""(가능)""}","survey","32","2755946","0.0-12.0-1.0","[]","","",""
"2826","TestRecordings/cut.wav","0","audio-button-response","33","2758797","0.0-12.0-0.1","","","",""
"12067","","{""P0_Q0"":""ㅈ,ㅜ,ㅅ"",""P0_Q1"":""(가능)""}","survey","34","2770873","0.0-12.0-1.1","[]","","",""
"3091","TestRecordings/phmut.wav","0","audio-button-response","35","2773985","0.0-12.0-0.2","","","",""
"6129","","{""P0_Q0"":""ㅍ,ㅡ,ㅁ,ㅜ,ㅅ"",""P0_Q1"":""(가능)""}","survey","36","2780122","0.0-12.0-1.2","[]","","",""
"2974","TestRecordings/phmacot.wav","0","audio-button-response","37","2783117","0.0-12.0-0.3","","","",""
"12670","","{""P0_Q0"":""ㅍ,ㅡ,ㅁ,ㅏ,ㅈ,ㅗ,ㄷ"",""P0_Q1"":""(가능)""}","survey","38","2795793","0.0-12.0-1.3","[]","","",""
"4572","TestRecordings/ntosin.wav","0","audio-button-response","39","2800388","0.0-12.0-0.4","","","",""
"12265","","{""P0_Q0"":""ㅇ,ㅡ,ㄴ,ㄷ,ㅗ,ㅅ,ㅣ,ㄴ"",""P0_Q1"":""(가능)""}","survey","40","2812661","0.0-12.0-1.4","[]","","",""
"2725","TestRecordings/cwiphing.wav","0","audio-button-response","41","2815407","0.0-12.0-0.5","","","",""
"8117","","{""P0_Q0"":""ㅈ,ㅜ,ㅣ,ㅍ,ㅣ,ㅇ"",""P0_Q1"":""(가능)""}","survey","42","2823532","0.0-12.0-1.5","[]","","",""
"2030","TestRecordings/khnacin.wav","0","audio-button-response","43","2825584","0.0-12.0-0.6","","","",""
"19297","","{""P0_Q0"":""ㅋ,ㅡ,ㄴ,ㅏ,ㅈ,ㅣ,ㅇ,ㅡ,ㄴ"",""P0_Q1"":""(불가능)""}","survey","44","2844888","0.0-12.0-1.6","[]","","",""
"2527","TestRecordings/khonik.wav","0","audio-button-response","45","2847436","0.0-12.0-0.7","","","",""
"6301","","{""P0_Q0"":""ㅋ,ㅗ,ㄴ,ㅣ,ㄱ"",""P0_Q1"":""(가능)""}","survey","46","2853745","0.0-12.0-1.7","[]","","",""
"3666","TestRecordings/siphuk.wav","0","audio-button-response","47","2857432","0.0-12.0-0.8","","","",""
"7637","","{""P0_Q0"":""ㅅ,ㅣ,ㅍ,ㅜ"",""P0_Q1"":""(가능)""}","survey","48","2865075","0.0-12.0-1.8","[]","","",""
"2016","TestRecordings/thnukip.wav","0","audio-button-response","49","2867114","0.0-12.0-0.9","","","",""
"12961","","{""P0_Q0"":""ㅌ,ㅡ,ㄴ,ㅜ,ㄱ,ㅣ,ㅍ"",""P0_Q1"":""(가능)""}","survey","50","2880082","0.0-12.0-1.9","[]","","",""
"1748","TestRecordings/thum.wav","0","audio-button-response","51","2881852","0.0-12.0-0.10","","","",""
"4368","","{""P0_Q0"":""ㅌ,ㅜ,ㅁ"",""P0_Q1"":""(가능)""}","survey","52","2886228","0.0-12.0-1.10","[]","","",""
"2820","TestRecordings/cwasop.wav","0","audio-button-response","53","2889072","0.0-12.0-0.11","","","",""
"7379","","{""P0_Q0"":""ㅈ,ㅗ,ㅏ,ㅅ,ㅗ,ㅍ"",""P0_Q1"":""(가능)""}","survey","54","2896458","0.0-12.0-1.11","[]","","",""
"2313","TestRecordings/chwap.wav","0","audio-button-response","55","2898793","0.0-12.0-0.12","","","",""
"5201","","{""P0_Q0"":""ㅊ,ㅗ,ㅏ,ㅂ"",""P0_Q1"":""(가능)""}","survey","56","2904000","0.0-12.0-1.12","[]","","",""
"2393","TestRecordings/cmot.wav","0","audio-button-response","57","2906425","0.0-12.0-0.13","","","",""
"8735","","{""P0_Q0"":""ㅈ,ㅡ,ㅁ,ㅗ,ㄷ"",""P0_Q1"":""(가능)""}","survey","58","2915166","0.0-12.0-1.13","[]","","",""
"3929","TestRecordings/npokit.wav","0","audio-button-response","59","2919117","0.0-12.0-0.14","","","",""
"11394","","{""P0_Q0"":""ㅇ,ㅡ,ㅇ,ㄱ,ㅗ,ㄱ,ㅣ,ㅅ"",""P0_Q1"":""(불가능)""}","survey","60","2930518","0.0-12.0-1.14","[]","","",""
"2374","TestRecordings/swicit.wav","0","audio-button-response","61","2932914","0.0-12.0-0.15","","","",""
"9511","","{""P0_Q0"":""ㅅ,ㅜ,ㅣ,ㅈ,ㅣ,ㅅ"",""P0_Q1"":""(불가능)""}","survey","62","2942433","0.0-12.0-1.15","[]","","",""
"3576","TestRecordings/takhut.wav","0","audio-button-response","63","2946032","0.0-12.0-0.16","","","",""
"10276","","{""P0_Q0"":""ㄷ,ㅏ,ㅋ,ㅜ,ㅅ"",""P0_Q1"":""(가능)""}","survey","64","2956315","0.0-12.0-1.16","[]","","",""
"2099","TestRecordings/pmathin.wav","0","audio-button-response","65","2958436","0.0-12.0-0.17","","","",""
"6754","","{""P0_Q0"":""ㅋ,ㅡ,ㅁ,ㅏ,ㅌ,ㅣ,ㄴ"",""P0_Q1"":""(가능)""}","survey","66","2965199","0.0-12.0-1.17","[]","","",""
"2118","TestRecordings/cwang.wav","0","audio-button-response","67","2967340","0.0-12.0-0.18","","","",""
"11308","","{""P0_Q0"":""ㅈ,ㅗ,ㅏ,ㅇ"",""P0_Q1"":""(가능)""}","survey","68","2978654","0.0-12.0-1.18","[]","","",""
"2121","TestRecordings/chwakap.wav","0","audio-button-response","69","2980796","0.0-12.0-0.19","","","",""
"6433","","{""P0_Q0"":""ㅊ,ㅗ,ㅏ,ㄱ,ㅏ,ㅂ"",""P0_Q1"":""(가능)""}","survey","70","2987235","0.0-12.0-1.19","[]","","",""
"2507","TestRecordings/masuk.wav","0","audio-button-response","71","2989763","0.0-12.0-0.20","","","",""
"5386","","{""P0_Q0"":""ㅁ,ㅏ,ㅅ,ㅜ,ㄱ"",""P0_Q1"":""(가능)""}","survey","72","2995155","0.0-12.0-1.20","[]","","",""
"4127","TestRecordings/nchup.wav","0","audio-button-response","73","2999303","0.0-12.0-0.21","","","",""
"14241","","{""P0_Q0"":""ㅇ,ㅡ,ㅇ,ㅊ,ㅜ,ㅂ"",""P0_Q1"":""(불가능)""}","survey","74","3013552","0.0-12.0-1.21","[]","","",""
"2134","TestRecordings/niphak.wav","0","audio-button-response","75","3015707","0.0-12.0-0.22","","","",""
"14079","","{""P0_Q0"":""ㄴ,ㅣ,ㅍ,ㅏ,ㄹ,ㄱ"",""P0_Q1"":""(가능)""}","survey","76","3029792","0.0-12.0-1.22","[]","","",""
"2890","TestRecordings/swakhing.wav","0","audio-button-response","77","3032704","0.0-12.0-0.23","","","",""
"7189","","{""P0_Q0"":""ㅅ,ㅗ,ㅏ,ㅋ,ㅣ,ㅇ"",""P0_Q1"":""(가능)""}","survey","78","3039899","0.0-12.0-1.23","[]","","",""
"5071","TestRecordings/pmisung.wav","0","audio-button-response","79","3044992","0.0-12.0-0.24","","","",""
"6409","","{""P0_Q0"":""ㄱ,ㅡ,ㅁ,ㅣ,ㅅ,ㅜ,ㅇ"",""P0_Q1"":""(가능)""}","survey","80","3051408","0.0-12.0-1.24","[]","","",""
"1824","TestRecordings/khun.wav","0","audio-button-response","81","3053254","0.0-12.0-0.25","","","",""
"4863","","{""P0_Q0"":""ㅋ,ㅜ,ㄴ"",""P0_Q1"":""(가능)""}","survey","82","3058124","0.0-12.0-1.25","[]","","",""
"3214","TestRecordings/nchak.wav","0","audio-button-response","83","3061358","0.0-12.0-0.26","","","",""
"9573","","{""P0_Q0"":""ㅇ,ㅡ,ㅇ,ㅊ,ㅏ,ㄱ"",""P0_Q1"":""(가능)""}","survey","84","3070939","0.0-12.0-1.26","[]","","",""
"1709","TestRecordings/sutik.wav","0","audio-button-response","85","3072669","0.0-12.0-0.27","","","",""
"7922","","{""P0_Q0"":""ㅅ,ㅜ,ㄷ,ㅣ,ㄱ"",""P0_Q1"":""(가능)""}","survey","86","3080599","0.0-12.0-1.27","[]","","",""
"2258","TestRecordings/mtak.wav","0","audio-button-response","87","3082878","0.0-12.0-0.28","","","",""
"7008","","{""P0_Q0"":""ㅇ,ㅡ,ㅇ,ㄷ,ㅏ,ㄱ"",""P0_Q1"":""(가능)""}","survey","88","3089892","0.0-12.0-1.28","[]","","",""
"2409","TestRecordings/nthunit.wav","0","audio-button-response","89","3092323","0.0-12.0-0.29","","","",""
"10041","","{""P0_Q0"":""ㅇ,ㅡ,ㅇ,ㅌ,ㅜ,ㄴ,ㅣ,ㅅ"",""P0_Q1"":""(가능)""}","survey","90","3102370","0.0-12.0-1.29","[]","","",""
"1813","TestRecordings/twikhit.wav","0","audio-button-response","91","3104203","0.0-12.0-0.30","","","",""
"12739","","{""P0_Q0"":""ㄷ,ㅜ,ㅣ,ㅋ,ㅣ,ㅅ"",""P0_Q1"":""(가능)""}","survey","92","3116950","0.0-12.0-1.30","[]","","",""
"3243","TestRecordings/swapong.wav","0","audio-button-response","93","3120214","0.0-12.0-0.31","","","",""
"5699","","{""P0_Q0"":""ㅅ,ㅗ,ㅏ,ㅂ,ㅗ,ㅇ"",""P0_Q1"":""(가능)""}","survey","94","3125921","0.0-12.0-1.31","[]","","",""
"1996","TestRecordings/khmoting.wav","0","audio-button-response","95","3127939","0.0-12.0-0.32","","","",""
"10130","","{""P0_Q0"":""ㅋ,ㅡ,ㅁ,ㅗ,ㄷ,ㅣ,ㅇ"",""P0_Q1"":""(가능)""}","survey","96","3138075","0.0-12.0-1.32","[]","","",""
"4003","TestRecordings/nchitam.wav","0","audio-button-response","97","3142109","0.0-12.0-0.33","","","",""
"8987","","{""P0_Q0"":""ㅇ,ㅡ,ㅇ,ㅊ,ㅣ,ㄷ,ㅏ,ㅁ"",""P0_Q1"":""(가능)""}","survey","98","3151103","0.0-12.0-1.33","[]","","",""
"1845","TestRecordings/pathik.wav","0","audio-button-response","99","3152970","0.0-12.0-0.34","","","",""
"7034","","{""P0_Q0"":""ㅂ,ㅏ,ㅌ,ㅣ,ㄱ"",""P0_Q1"":""(가능)""}","survey","100","3160011","0.0-12.0-1.34","[]","","",""
"3718","TestRecordings/nthiton.wav","0","audio-button-response","101","3163751","0.0-12.0-0.35","","","",""
"9507","","{""P0_Q0"":""ㅇ,ㅡ,ㅇ,ㅌ,ㅣ,ㄷ,ㅗ,ㄴ"",""P0_Q1"":""(가능)""}","survey","102","3173265","0.0-12.0-1.35","[]","","",""
"2312","TestRecordings/khwapan.wav","0","audio-button-response","103","3175599","0.0-12.0-0.36","","","",""
"6947","","{""P0_Q0"":""ㅋ,ㅗ,ㅏ,ㅂ,ㅏ,ㄴ"",""P0_Q1"":""(가능)""}","survey","104","3182551","0.0-12.0-1.36","[]","","",""
"2119","TestRecordings/phwing.wav","0","audio-button-response","105","3184693","0.0-12.0-0.37","","","",""
"10321","","{""P0_Q0"":""ㅋ,ㅜ,ㅔ,ㅇ,ㅣ,ㅇ"",""P0_Q1"":""(가능)""}","survey","106","3195020","0.0-12.0-1.37","[]","","",""
"1543","TestRecordings/knop.wav","0","audio-button-response","107","3196585","0.0-12.0-0.38","","","",""
"6051","","{""P0_Q0"":""ㄱ,ㅡ,ㄴ,ㅗ,ㅂ"",""P0_Q1"":""(가능)""}","survey","108","3202643","0.0-12.0-1.38","[]","","",""
"2305","TestRecordings/knothing.wav","0","audio-button-response","109","3204970","0.0-12.0-0.39","","","",""
"7125","","{""P0_Q0"":""ㄱ,ㅡ,ㄴ,ㅗ,ㅌ,ㅣ,ㅇ"",""P0_Q1"":""(가능)""}","survey","110","3212097","0.0-12.0-1.39","[]","","",""
"2239","TestRecordings/mciphom.wav","0","audio-button-response","111","3214362","0.0-12.0-0.40","","","",""
"8129","","{""P0_Q0"":""ㅇ,ㅡ,ㅇ,ㅈ,ㅣ,ㅍ,ㅗ,ㅁ"",""P0_Q1"":""(가능)""}","survey","112","3222497","0.0-12.0-1.40","[]","","",""
"2072","TestRecordings/mip.wav","0","audio-button-response","113","3224590","0.0-12.0-0.41","","","",""
"10781","","{""P0_Q0"":""ㅁ,ㅔ,ㅇ,ㅣ,ㅍ"",""P0_Q1"":""(가능)""}","survey","114","3235378","0.0-12.0-1.41","[]","","",""
"2530","TestRecordings/kophak.wav","0","audio-button-response","115","3237932","0.0-12.0-0.42","","","",""
"8299","","{""P0_Q0"":""ㄱ,ㅗ,ㅜ,ㅍ,ㅏ,ㄱ"",""P0_Q1"":""(불가능)""}","survey","116","3246239","0.0-12.0-1.42","[]","","",""
"1630","TestRecordings/kwat.wav","0","audio-button-response","117","3247887","0.0-12.0-0.43","","","",""
"5394","","{""P0_Q0"":""ㄱ,ㅗ,ㅏ,ㅅ"",""P0_Q1"":""(가능)""}","survey","118","3253287","0.0-12.0-1.43","[]","","",""
"1776","TestRecordings/khmip.wav","0","audio-button-response","119","3255084","0.0-12.0-0.44","","","",""
"7887","","{""P0_Q0"":""ㅋ,ㅡ,ㅁ,ㅣ,ㅂ"",""P0_Q1"":""(가능)""}","survey","120","3262978","0.0-12.0-1.44","[]","","",""
"1907","TestRecordings/phuthik.wav","0","audio-button-response","121","3264906","0.0-12.0-0.45","","","",""
"6101","","{""P0_Q0"":""ㅍ,ㅜ,ㅌ,ㅣ,ㄱ"",""P0_Q1"":""(가능)""}","survey","122","3271016","0.0-12.0-1.45","[]","","",""
"2175","TestRecordings/ncuk.wav","0","audio-button-response","123","3273213","0.0-12.0-0.46","","","",""
"7309","","{""P0_Q0"":""ㅇ,ㅡ,ㅇ,ㅈ,ㅜ,ㄷ"",""P0_Q1"":""(불가능)""}","survey","124","3280529","0.0-12.0-1.46","[]","","",""
"2122","TestRecordings/mtunak.wav","0","audio-button-response","125","3282672","0.0-12.0-0.47","","","",""
"11467","","{""P0_Q0"":""ㅇ,ㅡ,ㅁ,ㄷ,ㅜ,ㄴ,ㅏ,ㄱ"",""P0_Q1"":""(가능)""}","survey","126","3294146","0.0-12.0-1.47","[]","","",""
"2126","TestRecordings/thnakop.wav","0","audio-button-response","127","3296295","0.0-12.0-0.48","","","",""
"6960","","{""P0_Q0"":""ㅌ,ㅡ,ㄴ,ㅏ,ㄱ,ㅗ,ㄷ"",""P0_Q1"":""(가능)""}","survey","128","3303261","0.0-12.0-1.48","[]","","",""
"1523","TestRecordings/thwicap.wav","0","audio-button-response","129","3304805","0.0-12.0-0.49","","","",""
"5165","","{""P0_Q0"":""ㅌ,ㅜ,ㅣ,ㅈ,ㅏ,ㅂ"",""P0_Q1"":""(가능)""}","survey","130","3309977","0.0-12.0-1.49","[]","","",""
"1955","TestRecordings/khnichat.wav","0","audio-button-response","131","3311954","0.0-12.0-0.50","","","",""
"9483","","{""P0_Q0"":""ㅋ,ㅡ,ㄴ,ㅣ,ㅊ,ㅑ,ㅅ"",""P0_Q1"":""(가능)""}","survey","132","3321443","0.0-12.0-1.50","[]","","",""
"2141","TestRecordings/phwim.wav","0","audio-button-response","133","3323605","0.0-12.0-0.51","","","",""
"12693","","{""P0_Q0"":""ㅋ,ㅜ,ㅣ,ㅇ,ㅣ,ㅁ"",""P0_Q1"":""(가능)""}","survey","134","3336305","0.0-12.0-1.51","[]","","",""
"1859","TestRecordings/nucok.wav","0","audio-button-response","135","3338185","0.0-12.0-0.52","","","",""
"4849","","{""P0_Q0"":""ㄴ,ㅜ,ㅈ,ㅗ,ㄱ"",""P0_Q1"":""(가능)""}","survey","136","3343041","0.0-12.0-1.52","[]","","",""
"2134","TestRecordings/pwacung.wav","0","audio-button-response","137","3345197","0.0-12.0-0.53","","","",""
"5207","","{""P0_Q0"":""ㅂ,ㅗ,ㅏ,ㅈ,ㅜ,ㅇ"",""P0_Q1"":""(가능)""}","survey","138","3350410","0.0-12.0-1.53","[]","","",""
"2238","TestRecordings/mkithun.wav","0","audio-button-response","139","3352669","0.0-12.0-0.54","","","",""
"10040","","{""P0_Q0"":""ㅇ,ㅡ,ㅇ,ㄱ,ㅣ,ㅌ,ㅜ,ㄴ"",""P0_Q1"":""(가능)""}","survey","140","3362714","0.0-12.0-1.54","[]","","",""
"2314","TestRecordings/chut.wav","0","audio-button-response","141","3365048","0.0-12.0-0.55","","","",""
"8842","","{""P0_Q0"":""ㅊ,ㅜ,ㄷ"",""P0_Q1"":""(가능)""}","survey","142","3373898","0.0-12.0-1.55","[]","","",""
"1776","TestRecordings/pmuk.wav","0","audio-button-response","143","3375695","0.0-12.0-0.56","","","",""
"16023","","{""P0_Q0"":""ㄱ,ㅡ,ㅁ,ㅜ,ㄱ"",""P0_Q1"":""(가능)""}","survey","144","3391724","0.0-12.0-1.56","[]","","",""
"2230","TestRecordings/phninot.wav","0","audio-button-response","145","3393976","0.0-12.0-0.57","","","",""
"8157","","{""P0_Q0"":""ㅍ,ㅡ,ㄴ,ㅣ,ㄴ,ㅗ,ㅅ"",""P0_Q1"":""(가능)""}","survey","146","3402138","0.0-12.0-1.57","[]","","",""
"2257","TestRecordings/nthochap.wav","0","audio-button-response","147","3404417","0.0-12.0-0.58","","","",""
"9078","","{""P0_Q0"":""ㅇ,ㅡ,ㅇ,ㅌ,ㅗ,ㅊ,ㅏ,ㅂ"",""P0_Q1"":""(불가능)""}","survey","148","3413502","0.0-12.0-1.58","[]","","",""
"2038","TestRecordings/mphithup.wav","0","audio-button-response","149","3415561","0.0-12.0-0.59","","","",""
"10883","","{""P0_Q0"":""ㅇ,ㅡ,ㅇ,ㅍ,ㅣ,ㅌ,ㅜ,ㅂ"",""P0_Q1"":""(가능)""}","survey","150","3426451","0.0-12.0-1.59","[]","","",""
"3692",""," ","html-keyboard-response","151","3430144","0.0-13.0","","","",""
"96808","","{""P0_Q0"":""23"",""P0_Q1"":""여"",""P0_Q2"":""10"",""P0_Q3"":""아니요"",""P0_Q4"":""일본어/독일어"",""P0_Q5"":""만 16세, 1년/만 21세, 6개월"",""P0_Q6"":""없습니다""}","survey","152","3526960","0.0-14.0","[]","","",""
"60661","<p style=""font-size:30px"",lang=""ko"">실험이 끝났습니다</p><p style=""font-size:30px"",lang=""ko"">참가해주셔서 고맙습니다</p>"," ","html-keyboard-response","153","3587622","0.0-15.0","","","",""
,