"rt","stimulus","response","trial_type","trial_index","time_elapsed","internal_node_id","accuracy","PracticeTest","ConsonantSequence","Grammaticality"
"1733060","<p style=""font-size:30px"",lang=""ko"">실험에 오신 것을 환영합니다</p><p lang=""ko"">스페이스바를 누르면 다음 페이지로 넘어갑니다</p>"," ","html-keyboard-response","0","1732948","0.0-0.0","","","",""
"1353","<p style=""font-size:30px"",lang=""ko"">해드폰을 본인에게 잘 맞게 착용하세요</p><p lang=""ko"">스페이스바를 누르면 다음 페이지로 넘어갑니다</p>"," ","html-keyboard-response","1","1734302","0.0-1.0","","","",""
"2716","<p style=""font-size:30px"",lang=""ko"">이 실험에서는 새로 만든 한국 단어를 들으실 겁니다</p><p style=""font-size:30px"",lang=""ko"">단어를 들리는대로 쓰세요. 그런 다음 그 단어가 한국어 단어로 가능한지 평가하세요</p><p lang=""ko"">스페이스바를 누르면 다음 페이지로 넘어갑니다</p>"," ","html-keyboard-response","2","1737018","0.0-2.0","","","",""
"2182","<p style=""font-size:30px"",lang=""ko"">원래 있는 단어로 예를 들어 봅시다</p><p lang=""ko"">스페이스바를 누르면 다음 페이지로 넘어갑니다</p>"," ","html-keyboard-response","3","1739201","0.0-3.0","","","",""
"8530","PracticeRecordings/kom_bear.wav","0","audio-button-response","4","1747894","0.0-4.0","","","",""
"1829","<p style=""font-size:30px"",lang=""ko"">이제 직접 단어를 듣고 쓰는 연습을 해봅시다. </p><p style=""font-size:30px"",lang=""ko"">스페이스바를 누르면 다음 페이지로 넘어갑니다</p>"," ","html-keyboard-response","5","1749724","0.0-5.0","","","",""
"3770","PracticeRecordings/kirin_giraffe.wav","0","audio-button-response","6","1753579","0.0-6.0-0.0","","","",""
"10361","kirin_giraffe","{""P0_Q0"":""ㄱ,ㅣ,ㄹ,ㅣ,ㄴ""}","survey","7","1763975","0.0-6.0-1.0","[]","practice","NA","TRUE"
"1930","<p style=""font-size:30px"",lang=""ko"">방금 들으신 단어는 ""ㄱ,ㅣ,ㄹ,ㅣ,ㄴ"" 이라고 쓰시면 됩니다</p><p lang=""ko"">스페이스바를 누르면 다음 페이지로 넘어갑니다</p>"," ","html-keyboard-response","8","1765906","0.0-6.0-2.0","","","",""
"2646","PracticeRecordings/saca_lion.wav","0","audio-button-response","9","1768573","0.0-6.0-0.1","","","",""
"6583","saca_lion","{""P0_Q0"":""ㅅ,ㅏ,ㅈ,ㅏ ""}","survey","10","1775162","0.0-6.0-1.1","[]","practice","NA","FALSE"
"1544","<p style=""font-size:30px"",lang=""ko"">방금 들으신 단어는 ""ㅅ,ㅏ,ㅈ,ㅏ"" 라고 쓰시면 됩니다</p><p lang=""ko"">스페이스바를 누르면 다음 페이지로 넘어갑니다</p>"," ","html-keyboard-response","11","1776707","0.0-6.0-2.1","","","",""
"2591","PracticeRecordings/saseum_deer.wav","0","audio-button-response","12","1779380","0.0-6.0-0.2","","","",""
"5608","saseum_deer","{""P0_Q0"":""ㅅ,ㅏ,ㅅ,ㅡ,ㅁ""}","survey","13","1785003","0.0-6.0-1.2","[]","practice","NA","FALSE"
"2061","<p style=""font-size:30px"",lang=""ko"">방금 들으신 단어는 ""ㅅ,ㅏ,ㅅ,ㅡ,ㅁ""이라고 쓰시면 됩니다</p><p lang=""ko"">스페이스바를 누르면 다음 페이지로 넘어갑니다</p>"," ","html-keyboard-response","14","1787064","0.0-6.0-2.2","","","",""
"2240","PracticeRecordings/thokki_rabbit.wav","0","audio-button-response","15","1789387","0.0-6.0-0.3","","","",""
"5416","thokki_rabbit","{""P0_Q0"":""ㅌ,ㅗ,ㄲ,ㅣ""}","survey","16","1794809","0.0-6.0-1.3","[]","practice","NA","FALSE"
"851","<p style=""font-size:30px"",lang=""ko"">방금 들으신 단어는 ""ㅌ,ㅗ,ㄲ,ㅣ"" 라고 쓰시면 됩니다</p><p lang=""ko"">스페이스바를 누르면 다음 페이지로 넘어갑니다</p>"," ","html-keyboard-response","17","1795661","0.0-6.0-2.3","","","",""
"1602","<p style=""font-size:30px"",lang=""ko"">이제 만든 단어로 연습해봅시다.</p><p lang=""ko"">스페이스바를 누르면 다음 페이지로 넘어갑니다</p>"," ","html-keyboard-response","18","1797264","0.0-7.0","","","",""
"1962","PracticeRecordings/snen.wav","0","audio-button-response","19","1799297","0.0-8.0-0.0","","","",""
"6954","snen","{""P0_Q0"":""ㅅ,ㅡ,ㄴ,ㅔ,ㄴ""}","survey","20","1806256","0.0-8.0-1.0","[]","practice","NA","TRUE"
"2271","<p style=""font-size:30px"",lang=""ko"">들으신 단어는 <br> ""ㅅ,ㅡ,ㄴ,ㅐ,ㄴ""  ""ㅅ,ㅡ,ㄴ,ㅐ"" ""ㅅ,ㄴ,ㅐ,ㄴ (""으"" 소리가 안 들리는 경우)"" 등 <br> 사람에 따라 다양하게 들릴 수 있습니다 <br> 본인에게 들리는대로 쓰시면 됩니다.</p><p lang=""ko"">스페이스바를 누르면 다음 페이지로 넘어갑니다</p>"," ","html-keyboard-response","21","1808528","0.0-8.0-2.0","","","",""
"1875","PracticeRecordings/phrak.wav","0","audio-button-response","22","1810482","0.0-8.0-0.1","","","",""
"4947","phrak","{""P0_Q0"":""ㅍ,ㅡ,ㄹ,ㅏ,ㄱ""}","survey","23","1815436","0.0-8.0-1.1","[]","practice","NA","FALSE"
"1970","<p style=""font-size:30px"",lang=""ko"">들으신 단어는 <br> ""ㅍ,ㅡ,ㄹ,ㅏ,ㄱ"" ""ㅍ,ㅡ,ㄹ,ㅏ,ㅅ"" ""ㅋ,ㅡ,ㄹ,ㅏ,ㄱ"" ""ㅍ,ㄹ,ㅏ,ㄱ (""으"" 소리가 안 들리는 경우)"" 등 <br> 사람에 따라 다양하게 들릴 수 있습니다 <br> 본인에게 들리는대로 쓰시면 됩니다.</p><p lang=""ko"">스페이스바를 누르면 다음 페이지로 넘어갑니다</p>"," ","html-keyboard-response","24","1817406","0.0-8.0-2.1","","","",""
"1708","PracticeRecordings/chka.wav","0","audio-button-response","25","1819199","0.0-8.0-0.2","","","",""
"4417","chka","{""P0_Q0"":""ㅊ,ㅡ,ㄱ,ㅏ""}","survey","26","1823622","0.0-8.0-1.2","[]","practice","NA","FALSE"
"1650","<p style=""font-size:30px"",lang=""ko"">들으신 단어는 ""ㅊ,ㅣ,ㄱ,ㅏ"", ""ㅊ,ㅡ,ㄱ,ㅏ"", ""ㅊ,ㄱ,ㅏ"", ""ㅊ,ㅟ,ㄱ,ㅏ"" 등 <br> 사람에 따라 다양하게 들릴 수 있습니다. <br> 본인에게 들리는대로 쓰시면 됩니다.</p><p lang=""ko"">스페이스바를 누르면 다음 페이지로 넘어갑니다</p>"," ","html-keyboard-response","27","1825272","0.0-8.0-2.2","","","",""
"2438",""," ","html-keyboard-response","28","1827711","0.0-9.0","","","",""
"2211","<p style=""font-size:30px"",lang=""ko"">이제 실험을 시작하겠습니다.</p><p style=""font-size:30px"",lang=""ko"">실전에서는 각각의 만든 단어를 한 번씩만 들을 수 있습니다.</p>"," ","html-keyboard-response","29","1829923","0.0-10.0","","","",""
"22078","<p style=""font-size:30px"",lang=""ko"">단어를 풀어 쓰신 후에 그 단어가 한국어로 가능한 단어인지 평가해주세요</p><p lang=""ko"">스페이스바를 누르면 다음 페이지로 넘어갑니다</p>"," ","html-keyboard-response","30","1852001","0.0-11.0","","","",""
"2868","TestRecordings/chut.wav","0","audio-button-response","31","1854958","0.0-12.0-0.0","","","",""
"17462","","{""P0_Q0"":""ㅊ,ㅜ,ㅈ"",""P0_Q1"":""(가능)""}","survey","32","1872434","0.0-12.0-1.0","[]","","",""
"3110","TestRecordings/nchitam.wav","0","audio-button-response","33","1875609","0.0-12.0-0.1","","","",""
"12910","","{""P0_Q0"":""ㅇ,ㅜ,ㅇ,ㅊ,ㅣ,ㄷ,ㅏ,ㅁ"",""P0_Q1"":""(가능)""}","survey","34","1888528","0.0-12.0-1.1","[]","","",""
"3277","TestRecordings/nchak.wav","0","audio-button-response","35","1891879","0.0-12.0-0.2","","","",""
"8024","","{""P0_Q0"":""ㅇ,ㅡ,ㅇ,ㅊ,ㅏ,ㄱ"",""P0_Q1"":""(가능)""}","survey","36","1899910","0.0-12.0-1.2","[]","","",""
"2810","TestRecordings/takhut.wav","0","audio-button-response","37","1902742","0.0-12.0-0.3","","","",""
"10728","","{""P0_Q0"":""ㄷ,ㅏ,ㅋ,ㅜ,ㅅ"",""P0_Q1"":""(불가능)""}","survey","38","1913478","0.0-12.0-1.3","[]","","",""
"3118","TestRecordings/swapong.wav","0","audio-button-response","39","1916682","0.0-12.0-0.4","","","",""
"17099","","{""P0_Q0"":""ㅅ,ㅘ,ㅂ,ㅗ,ㅇ"",""P0_Q1"":""(불가능)""}","survey","40","1933788","0.0-12.0-1.4","[]","","",""
"3070","TestRecordings/khmip.wav","0","audio-button-response","41","1936948","0.0-12.0-0.5","","","",""
"6038","","{""P0_Q0"":""ㅋ,ㅡ,ㅁ,ㅣ,ㅂ"",""P0_Q1"":""(불가능)""}","survey","42","1942992","0.0-12.0-1.5","[]","","",""
"2347","TestRecordings/nucok.wav","0","audio-button-response","43","1945426","0.0-12.0-0.6","","","",""
"6356","","{""P0_Q0"":""ㄴ,ㅜ,ㅈ,ㅗ,ㄱ"",""P0_Q1"":""(가능)""}","survey","44","1951789","0.0-12.0-1.6","[]","","",""
"2477","TestRecordings/nthunit.wav","0","audio-button-response","45","1954351","0.0-12.0-0.7","","","",""
"17976","","{""P0_Q0"":""ㅇ,ㅡ,ㅇ,ㅌ,ㅡ,ㄴ,ㅣ,ㅅ"",""P0_Q1"":""(불가능)""}","survey","46","1972334","0.0-12.0-1.7","[]","","",""
"1833","TestRecordings/niphak.wav","0","audio-button-response","47","1974256","0.0-12.0-0.8","","","",""
"12255","","{""P0_Q0"":""ㄴ,ㅣ,ㅍ,ㅏ,ㄱ"",""P0_Q1"":""(가능)""}","survey","48","1986517","0.0-12.0-1.8","[]","","",""
"6864","TestRecordings/ncuk.wav","0","audio-button-response","49","1993466","0.0-12.0-0.9","","","",""
"12023","","{""P0_Q0"":""ㅇ,ㅡ,ㅇ,ㅈ,ㅜ"",""P0_Q1"":""(불가능)""}","survey","50","2005496","0.0-12.0-1.9","[]","","",""
"3914","TestRecordings/twikhit.wav","0","audio-button-response","51","2009498","0.0-12.0-0.10","","","",""
"8606","","{""P0_Q0"":""ㄷ,ㅣ,ㅋ,ㅣ,ㅅ"",""P0_Q1"":""(불가능)""}","survey","52","2018113","0.0-12.0-1.10","[]","","",""
"1468","TestRecordings/mip.wav","0","audio-button-response","53","2019663","0.0-12.0-0.11","","","",""
"4558","","{""P0_Q0"":""ㄴ,ㅣ,ㅂ"",""P0_Q1"":""(가능)""}","survey","54","2024227","0.0-12.0-1.11","[]","","",""
"1599","TestRecordings/cwang.wav","0","audio-button-response","55","2025871","0.0-12.0-0.12","","","",""
"19280","","{""P0_Q0"":""ㅈ,ㅘ,ㅇ"",""P0_Q1"":""(가능)""}","survey","56","2045157","0.0-12.0-1.12","[]","","",""
"2184","TestRecordings/mphithup.wav","0","audio-button-response","57","2047367","0.0-12.0-0.13","","","",""
"9485","","{""P0_Q0"":""ㅇ,ㅡ,ㅁ,ㅍ,ㅣ,ㅌ,ㅜ,ㅂ"",""P0_Q1"":""(불가능)""}","survey","58","2056860","0.0-12.0-1.13","[]","","",""
"1838","TestRecordings/kophak.wav","0","audio-button-response","59","2058783","0.0-12.0-0.14","","","",""
"10284","","{""P0_Q0"":""ㄱ,ㅗ,ㅍ,ㅏ,ㄱ"",""P0_Q1"":""(가능)""}","survey","60","2069075","0.0-12.0-1.14","[]","","",""
"2057","TestRecordings/mciphom.wav","0","audio-button-response","61","2071216","0.0-12.0-0.15","","","",""
"10113","","{""P0_Q0"":""ㅇ,ㅡ,ㅇ,ㅈ,ㅣ,ㅍ,ㅗ,ㅁ"",""P0_Q1"":""(가능)""}","survey","62","2081337","0.0-12.0-1.15","[]","","",""
"1951","TestRecordings/phninot.wav","0","audio-button-response","63","2083317","0.0-12.0-0.16","","","",""
"13350","","{""P0_Q0"":""ㅋ,ㅡ,ㄴ,ㅣ,ㄴ,ㅗ,ㅅ"",""P0_Q1"":""(불가능)""}","survey","64","2096674","0.0-12.0-1.16","[]","","",""
"2040","TestRecordings/mtunak.wav","0","audio-button-response","65","2098737","0.0-12.0-0.17","","","",""
"12121","","{""P0_Q0"":""ㅇ,ㅡ,ㅁ,ㄷ,ㅜ,ㄴ,ㅏ,ㄱ"",""P0_Q1"":""(불가능)""}","survey","66","2110867","0.0-12.0-1.17","[]","","",""
"1658","TestRecordings/ntosin.wav","0","audio-button-response","67","2112600","0.0-12.0-0.18","","","",""
"19580","","{""P0_Q0"":""ㅇ,ㅡ,ㅁ,ㄷ,ㅜ,ㅅ,ㅣ,ㄴ"",""P0_Q1"":""(가능)""}","survey","68","2132187","0.0-12.0-1.18","[]","","",""
"2501","TestRecordings/phmacot.wav","0","audio-button-response","69","2134776","0.0-12.0-0.19","","","",""
"15597","","{""P0_Q0"":""ㅌ,ㅡ,ㅁ,ㅏ,ㅈ,ㅗ,ㅅ"",""P0_Q1"":""(불가능)""}","survey","70","2150380","0.0-12.0-1.19","[]","","",""
"3345","TestRecordings/nthochap.wav","0","audio-button-response","71","2153805","0.0-12.0-0.20","","","",""
"7946","","{""P0_Q0"":""ㅇ,ㅡ,ㅇ,ㅌ,ㅗ,ㅊ,ㅏ,ㅂ"",""P0_Q1"":""(불가능)""}","survey","72","2161756","0.0-12.0-1.20","[]","","",""
"1758","TestRecordings/khmoting.wav","0","audio-button-response","73","2163538","0.0-12.0-0.21","","","",""
"7643","","{""P0_Q0"":""ㅋ,ㅡ,ㅁ,ㅗ,ㄷ,ㅣ,ㅇ"",""P0_Q1"":""(가능)""}","survey","74","2171189","0.0-12.0-1.21","[]","","",""
"2385","TestRecordings/siphuk.wav","0","audio-button-response","75","2173606","0.0-12.0-0.22","","","",""
"9956","","{""P0_Q0"":""ㅅ,ㅣ,ㅂ,ㅍ,ㅜ"",""P0_Q1"":""(가능)""}","survey","76","2183570","0.0-12.0-1.22","[]","","",""
"1594","TestRecordings/khnacin.wav","0","audio-button-response","77","2185250","0.0-12.0-0.23","","","",""
"8003","","{""P0_Q0"":""ㅋ,ㅡ,ㄴ,ㅏ,ㅈ,ㅣ,ㄴ"",""P0_Q1"":""(가능)""}","survey","78","2193259","0.0-12.0-1.23","[]","","",""
"1398","TestRecordings/swicit.wav","0","audio-button-response","79","2194742","0.0-12.0-0.24","","","",""
"7708","","{""P0_Q0"":""ㅅ,ㅟ,ㅈ,ㅣ,ㅅ"",""P0_Q1"":""(불가능)""}","survey","80","2202457","0.0-12.0-1.24","[]","","",""
"1786","TestRecordings/masuk.wav","0","audio-button-response","81","2204328","0.0-12.0-0.25","","","",""
"5860","","{""P0_Q0"":""ㅁ,ㅏ,ㅅ,ㅜ,ㄱ"",""P0_Q1"":""(가능)""}","survey","82","2210194","0.0-12.0-1.25","[]","","",""
"1624","TestRecordings/pmisung.wav","0","audio-button-response","83","2211902","0.0-12.0-0.26","","","",""
"12635","","{""P0_Q0"":""ㄱ,ㅡ,ㄴ,ㅣ,ㅅ,ㅜ,ㅇ"",""P0_Q1"":""(불가능)""}","survey","84","2224544","0.0-12.0-1.26","[]","","",""
"1610","TestRecordings/chwap.wav","0","audio-button-response","85","2226238","0.0-12.0-0.27","","","",""
"10717","","{""P0_Q0"":""ㅊ,ㅘ,ㅂ"",""P0_Q1"":""(가능)""}","survey","86","2236962","0.0-12.0-1.27","[]","","",""
"1529","TestRecordings/nchup.wav","0","audio-button-response","87","2238574","0.0-12.0-0.28","","","",""
"7214","","{""P0_Q0"":""ㅇ,ㅡ,ㅇ,ㅊ,ㅜ,ㅂ"",""P0_Q1"":""(가능)""}","survey","88","2245798","0.0-12.0-1.28","[]","","",""
"1617","TestRecordings/knothing.wav","0","audio-button-response","89","2247502","0.0-12.0-0.29","","","",""
"12492","","{""P0_Q0"":""ㅋ,ㅡ,ㄴ,ㅗ,ㅌ,ㅣ,ㅇ"",""P0_Q1"":""(가능)""}","survey","90","2259999","0.0-12.0-1.29","[]","","",""
"1529","TestRecordings/mtak.wav","0","audio-button-response","91","2261601","0.0-12.0-0.30","","","",""
"14017","","{""P0_Q0"":""ㅇ,ㅡ,ㅁ,ㄷ,ㅏ,ㄱ"",""P0_Q1"":""(가능)""}","survey","92","2275626","0.0-12.0-1.30","[]","","",""
"1726","TestRecordings/cwiphing.wav","0","audio-button-response","93","2277438","0.0-12.0-0.31","","","",""
"6234","","{""P0_Q0"":""ㅈ,ㅟ,ㅍ,ㅣ,ㅇ"",""P0_Q1"":""(불가능)""}","survey","94","2283678","0.0-12.0-1.31","[]","","",""
"3526","TestRecordings/khun.wav","0","audio-button-response","95","2287289","0.0-12.0-0.32","","","",""
"4461","","{""P0_Q0"":""ㅋ,ㅜ,ㄴ"",""P0_Q1"":""(가능)""}","survey","96","2291756","0.0-12.0-1.32","[]","","",""
"1855","TestRecordings/khwapan.wav","0","audio-button-response","97","2293696","0.0-12.0-0.33","","","",""
"6005","","{""P0_Q0"":""ㅋ,ㅘ,ㅂ,ㅏ,ㄴ"",""P0_Q1"":""(불가능)""}","survey","98","2299708","0.0-12.0-1.33","[]","","",""
"1648","TestRecordings/mkithun.wav","0","audio-button-response","99","2301444","0.0-12.0-0.34","","","",""
"16074","","{""P0_Q0"":""ㅇ,ㅡ,ㅁ,ㄱ,ㅣ,ㅌ,ㅜ,ㄴ"",""P0_Q1"":""(불가능)""}","survey","100","2317525","0.0-12.0-1.34","[]","","",""
"2131","TestRecordings/thnukip.wav","0","audio-button-response","101","2319731","0.0-12.0-0.35","","","",""
"11887","","{""P0_Q0"":""ㅋ,ㅡ,ㄴ,ㅜ,ㄱ,ㅣ,ㅂ"",""P0_Q1"":""(불가능)""}","survey","102","2331624","0.0-12.0-1.35","[]","","",""
"1364","TestRecordings/thwicap.wav","0","audio-button-response","103","2333073","0.0-12.0-0.36","","","",""
"6432","","{""P0_Q0"":""ㅌ,ㅣ,ㅈ,ㅏ,ㅂ"",""P0_Q1"":""(가능)""}","survey","104","2339512","0.0-12.0-1.36","[]","","",""
"1575","TestRecordings/sutik.wav","0","audio-button-response","105","2341169","0.0-12.0-0.37","","","",""
"5655","","{""P0_Q0"":""ㅅ,ㅜ,ㄷ,ㅣ,ㄱ"",""P0_Q1"":""(가능)""}","survey","106","2346830","0.0-12.0-1.37","[]","","",""
"1915","TestRecordings/phmut.wav","0","audio-button-response","107","2348828","0.0-12.0-0.38","","","",""
"5752","","{""P0_Q0"":""ㅋ,ㅡ,ㅁ,ㅜ,ㅅ"",""P0_Q1"":""(불가능)""}","survey","108","2354586","0.0-12.0-1.38","[]","","",""
"1480","TestRecordings/phuthik.wav","0","audio-button-response","109","2356151","0.0-12.0-0.39","","","",""
"5636","","{""P0_Q0"":""ㅍ,ㅜ,ㅌ,ㅣ,ㄱ"",""P0_Q1"":""(가능)""}","survey","110","2361793","0.0-12.0-1.39","[]","","",""
"1421","TestRecordings/nchat.wav","0","audio-button-response","111","2363281","0.0-12.0-0.40","","","",""
"14797","","{""P0_Q0"":""ㅇ,ㅡ,ㅁ,ㅊ,ㅏ,ㅅ"",""P0_Q1"":""(불가능)""}","survey","112","2378085","0.0-12.0-1.40","[]","","",""
"1971","TestRecordings/pmathin.wav","0","audio-button-response","113","2380207","0.0-12.0-0.41","","","",""
"7312","","{""P0_Q0"":""ㄱ,ㅡ,ㅁ,ㅏ,ㅌ,ㅣ,ㄴ"",""P0_Q1"":""(가능)""}","survey","114","2387526","0.0-12.0-1.41","[]","","",""
"1689","TestRecordings/phwim.wav","0","audio-button-response","115","2389300","0.0-12.0-0.42","","","",""
"13321","","{""P0_Q0"":""ㅍ,ㅟ,ㅁ"",""P0_Q1"":""(불가능)""}","survey","116","2402630","0.0-12.0-1.42","[]","","",""
"1472","TestRecordings/pmuk.wav","0","audio-button-response","117","2404186","0.0-12.0-0.43","","","",""
"9207","","{""P0_Q0"":""ㅂ,ㅡ,ㅁ,ㅜ,ㄱ"",""P0_Q1"":""(불가능)""}","survey","118","2413400","0.0-12.0-1.43","[]","","",""
"1609","TestRecordings/pwacung.wav","0","audio-button-response","119","2415053","0.0-12.0-0.44","","","",""
"8562","","{""P0_Q0"":""ㅂ,ㅘ,ㅈ,ㅜ,ㅇ"",""P0_Q1"":""(가능)""}","survey","120","2423622","0.0-12.0-1.44","[]","","",""
"1725","TestRecordings/pathik.wav","0","audio-button-response","121","2425432","0.0-12.0-0.45","","","",""
"9967","","{""P0_Q0"":""ㅂ,ㅏ,ㅌ,ㅣ,ㄱ"",""P0_Q1"":""(가능)""}","survey","122","2435406","0.0-12.0-1.45","[]","","",""
"1738","TestRecordings/nthiton.wav","0","audio-button-response","123","2437167","0.0-12.0-0.46","","","",""
"9687","","{""P0_Q0"":""ㅇ,ㅡ,ㅇ,ㅌ,ㅣ,ㄷ,ㅗ,ㄴ"",""P0_Q1"":""(불가능)""}","survey","124","2446861","0.0-12.0-1.46","[]","","",""
"2282","TestRecordings/cwasop.wav","0","audio-button-response","125","2449228","0.0-12.0-0.47","","","",""
"6463","","{""P0_Q0"":""ㅈ,ㅘ,ㅅ,ㅗ,ㅂ"",""P0_Q1"":""(불가능)""}","survey","126","2455698","0.0-12.0-1.47","[]","","",""
"1507","TestRecordings/cut.wav","0","audio-button-response","127","2457293","0.0-12.0-0.48","","","",""
"6462","","{""P0_Q0"":""ㅈ,ㅜ,ㅊ"",""P0_Q1"":""(가능)""}","survey","128","2463761","0.0-12.0-1.48","[]","","",""
"1525","TestRecordings/npokit.wav","0","audio-button-response","129","2465371","0.0-12.0-0.49","","","",""
"6877","","{""P0_Q0"":""ㅇ,ㅡ,ㅁ,ㅂ,ㅗ,ㄱ,ㅣ,ㅅ"",""P0_Q1"":""(불가능)""}","survey","130","2472255","0.0-12.0-1.49","[]","","",""
"2795","TestRecordings/swakhing.wav","0","audio-button-response","131","2475074","0.0-12.0-0.50","","","",""
"11936","","{""P0_Q0"":""ㅅ,ㅘ,ㅋ,ㅣ,ㅇ"",""P0_Q1"":""(불가능)""}","survey","132","2487016","0.0-12.0-1.50","[]","","",""
"1740","TestRecordings/thnakop.wav","0","audio-button-response","133","2488778","0.0-12.0-0.51","","","",""
"13809","","{""P0_Q0"":""ㅋ,ㅡ,ㄴ,ㅏ,ㄱ,ㅗ,ㅂ"",""P0_Q1"":""(가능)""}","survey","134","2502594","0.0-12.0-1.51","[]","","",""
"1630","TestRecordings/khnichat.wav","0","audio-button-response","135","2504247","0.0-12.0-0.52","","","",""
"7647","","{""P0_Q0"":""ㅋ,ㅡ,ㄴ,ㅣ,ㅊ,ㅏ,ㅅ"",""P0_Q1"":""(불가능)""}","survey","136","2511901","0.0-12.0-1.52","[]","","",""
"1433","TestRecordings/knop.wav","0","audio-button-response","137","2513418","0.0-12.0-0.53","","","",""
"7315","","{""P0_Q0"":""ㅋ,ㅡ,ㄴ,ㅗ,ㄱ"",""P0_Q1"":""(가능)""}","survey","138","2520741","0.0-12.0-1.53","[]","","",""
"1508","TestRecordings/cmot.wav","0","audio-button-response","139","2522271","0.0-12.0-0.54","","","",""
"6615","","{""P0_Q0"":""ㅈ,ㅣ,ㅁ,ㅗ,ㅅ"",""P0_Q1"":""(가능)""}","survey","140","2528893","0.0-12.0-1.54","[]","","",""
"1761","TestRecordings/phwing.wav","0","audio-button-response","141","2530680","0.0-12.0-0.55","","","",""
"9874","","{""P0_Q0"":""ㅋ,ㅚ,ㅇ"",""P0_Q1"":""(불가능)""}","survey","142","2540561","0.0-12.0-1.55","[]","","",""
"1468","TestRecordings/thum.wav","0","audio-button-response","143","2542102","0.0-12.0-0.56","","","",""
"4425","","{""P0_Q0"":""ㅌ,ㅜ,ㅁ"",""P0_Q1"":""(불가능)""}","survey","144","2546535","0.0-12.0-1.56","[]","","",""
"1475","TestRecordings/chwakap.wav","0","audio-button-response","145","2548083","0.0-12.0-0.57","","","",""
"7836","","{""P0_Q0"":""ㅊ,ㅏ,ㄱ,ㅇ,ㅏ,ㅂ"",""P0_Q1"":""(가능)""}","survey","146","2555926","0.0-12.0-1.57","[]","","",""
"1636","TestRecordings/kwat.wav","0","audio-button-response","147","2557645","0.0-12.0-0.58","","","",""
"9060","","{""P0_Q0"":""ㄱ,ㅘ,ㅅ"",""P0_Q1"":""(불가능)""}","survey","148","2566712","0.0-12.0-1.58","[]","","",""
"1440","TestRecordings/khonik.wav","0","audio-button-response","149","2568240","0.0-12.0-0.59","","","",""
"7656","","{""P0_Q0"":""ㅋ,ㅗ,ㄴ,ㅣ,ㄱ"",""P0_Q1"":""(가능)""}","survey","150","2575901","0.0-12.0-1.59","[]","","",""
"2846",""," ","html-keyboard-response","151","2578748","0.0-13.0","","","",""
"54409","","{""P0_Q0"":""22"",""P0_Q1"":""여"",""P0_Q2"":""5살"",""P0_Q3"":""없음"",""P0_Q4"":""일본어"",""P0_Q5"":""18살, 1년"",""P0_Q6"":""없음""}","survey","152","2633165","0.0-14.0","[]","","",""
"50404","<p style=""font-size:30px"",lang=""ko"">실험이 끝났습니다</p><p style=""font-size:30px"",lang=""ko"">참가해주셔서 고맙습니다</p>"," ","html-keyboard-response","153","2683570","0.0-15.0","","","",""
,