"rt","stimulus","response","trial_type","trial_index","time_elapsed","internal_node_id","accuracy","PracticeTest","ConsonantSequence","Grammaticality"
"2624649","<p style=""font-size:30px"",lang=""ko"">실험에 오신 것을 환영합니다</p><p lang=""ko"">스페이스바를 누르면 다음 페이지로 넘어갑니다</p>"," ","html-keyboard-response","0","2624545","0.0-0.0","","","",""
"5233","<p style=""font-size:30px"",lang=""ko"">해드폰을 본인에게 잘 맞게 착용하세요</p><p lang=""ko"">스페이스바를 누르면 다음 페이지로 넘어갑니다</p>"," ","html-keyboard-response","1","2629779","0.0-1.0","","","",""
"6158","<p style=""font-size:30px"",lang=""ko"">이 실험에서는 새로 만든 한국 단어를 들으실 겁니다</p><p style=""font-size:30px"",lang=""ko"">단어를 들리는대로 쓰세요. 그런 다음 그 단어가 한국어 단어로 가능한지 평가하세요</p><p lang=""ko"">스페이스바를 누르면 다음 페이지로 넘어갑니다</p>"," ","html-keyboard-response","2","2635937","0.0-2.0","","","",""
"1441","<p style=""font-size:30px"",lang=""ko"">원래 있는 단어로 예를 들어 봅시다</p><p lang=""ko"">스페이스바를 누르면 다음 페이지로 넘어갑니다</p>"," ","html-keyboard-response","3","2637378","0.0-3.0","","","",""
"8559","PracticeRecordings/kom_bear.wav","0","audio-button-response","4","2646063","0.0-4.0","","","",""
"2071","<p style=""font-size:30px"",lang=""ko"">이제 직접 단어를 듣고 쓰는 연습을 해봅시다. </p><p style=""font-size:30px"",lang=""ko"">스페이스바를 누르면 다음 페이지로 넘어갑니다</p>"," ","html-keyboard-response","5","2648134","0.0-5.0","","","",""
"7066","PracticeRecordings/kirin_giraffe.wav","0","audio-button-response","6","2655220","0.0-6.0-0.0","","","",""
"11884","kirin_giraffe","{""P0_Q0"":""ㄱ,ㅣ,ㄹ,ㅣ,ㄴ""}","survey","7","2667135","0.0-6.0-1.0","[]","practice","NA","TRUE"
"8149","<p style=""font-size:30px"",lang=""ko"">방금 들으신 단어는 ""ㄱ,ㅣ,ㄹ,ㅣ,ㄴ"" 이라고 쓰시면 됩니다</p><p lang=""ko"">스페이스바를 누르면 다음 페이지로 넘어갑니다</p>"," ","html-keyboard-response","8","2675285","0.0-6.0-2.0","","","",""
"1934","PracticeRecordings/saca_lion.wav","0","audio-button-response","9","2677241","0.0-6.0-0.1","","","",""
"5777","saca_lion","{""P0_Q0"":""ㅅ,ㅏ,ㅈ,ㅏ""}","survey","10","2683024","0.0-6.0-1.1","[]","practice","NA","FALSE"
"1602","<p style=""font-size:30px"",lang=""ko"">방금 들으신 단어는 ""ㅅ,ㅏ,ㅈ,ㅏ"" 라고 쓰시면 됩니다</p><p lang=""ko"">스페이스바를 누르면 다음 페이지로 넘어갑니다</p>"," ","html-keyboard-response","11","2684627","0.0-6.0-2.1","","","",""
"1879","PracticeRecordings/saseum_deer.wav","0","audio-button-response","12","2686525","0.0-6.0-0.2","","","",""
"6865","saseum_deer","{""P0_Q0"":""ㅅ,ㅏ,ㅅ,ㅡ,ㅁ""}","survey","13","2693396","0.0-6.0-1.2","[]","practice","NA","FALSE"
"1651","<p style=""font-size:30px"",lang=""ko"">방금 들으신 단어는 ""ㅅ,ㅏ,ㅅ,ㅡ,ㅁ""이라고 쓰시면 됩니다</p><p lang=""ko"">스페이스바를 누르면 다음 페이지로 넘어갑니다</p>"," ","html-keyboard-response","14","2695048","0.0-6.0-2.2","","","",""
"1638","PracticeRecordings/thokki_rabbit.wav","0","audio-button-response","15","2696709","0.0-6.0-0.3","","","",""
"5968","thokki_rabbit","{""P0_Q0"":""ㅌ,ㅗ,ㄲ,ㅣ""}","survey","16","2702685","0.0-6.0-1.3","[]","practice","NA","FALSE"
"1805","<p style=""font-size:30px"",lang=""ko"">방금 들으신 단어는 ""ㅌ,ㅗ,ㄲ,ㅣ"" 라고 쓰시면 됩니다</p><p lang=""ko"">스페이스바를 누르면 다음 페이지로 넘어갑니다</p>"," ","html-keyboard-response","17","2704491","0.0-6.0-2.3","","","",""
"2650","<p style=""font-size:30px"",lang=""ko"">이제 만든 단어로 연습해봅시다.</p><p lang=""ko"">스페이스바를 누르면 다음 페이지로 넘어갑니다</p>"," ","html-keyboard-response","18","2707142","0.0-7.0","","","",""
"5062","PracticeRecordings/snen.wav","0","audio-button-response","19","2712227","0.0-8.0-0.0","","","",""
"6464","snen","{""P0_Q0"":""ㅅ,ㅡ,ㄴ,ㅐ,ㄴ""}","survey","20","2718699","0.0-8.0-1.0","[]","practice","NA","TRUE"
"2618","<p style=""font-size:30px"",lang=""ko"">들으신 단어는 <br> ""ㅅ,ㅡ,ㄴ,ㅐ,ㄴ""  ""ㅅ,ㅡ,ㄴ,ㅐ"" ""ㅅ,ㄴ,ㅐ,ㄴ (""으"" 소리가 안 들리는 경우)"" 등 <br> 사람에 따라 다양하게 들릴 수 있습니다 <br> 본인에게 들리는대로 쓰시면 됩니다.</p><p lang=""ko"">스페이스바를 누르면 다음 페이지로 넘어갑니다</p>"," ","html-keyboard-response","21","2721318","0.0-8.0-2.0","","","",""
"2081","PracticeRecordings/phrak.wav","0","audio-button-response","22","2723420","0.0-8.0-0.1","","","",""
"5354","phrak","{""P0_Q0"":""ㅍ,ㅡ,ㄹ,ㅏ,ㄱ""}","survey","23","2728781","0.0-8.0-1.1","[]","practice","NA","FALSE"
"1863","<p style=""font-size:30px"",lang=""ko"">들으신 단어는 <br> ""ㅍ,ㅡ,ㄹ,ㅏ,ㄱ"" ""ㅍ,ㅡ,ㄹ,ㅏ,ㅅ"" ""ㅋ,ㅡ,ㄹ,ㅏ,ㄱ"" ""ㅍ,ㄹ,ㅏ,ㄱ (""으"" 소리가 안 들리는 경우)"" 등 <br> 사람에 따라 다양하게 들릴 수 있습니다 <br> 본인에게 들리는대로 쓰시면 됩니다.</p><p lang=""ko"">스페이스바를 누르면 다음 페이지로 넘어갑니다</p>"," ","html-keyboard-response","24","2730644","0.0-8.0-2.1","","","",""
"3948","PracticeRecordings/chka.wav","0","audio-button-response","25","2734614","0.0-8.0-0.2","","","",""
"5283","chka","{""P0_Q0"":""ㅊ,ㅡ,ㅋ,ㅏ""}","survey","26","2739903","0.0-8.0-1.2","[]","practice","NA","FALSE"
"2112","<p style=""font-size:30px"",lang=""ko"">들으신 단어는 ""ㅊ,ㅣ,ㄱ,ㅏ"", ""ㅊ,ㅡ,ㄱ,ㅏ"", ""ㅊ,ㄱ,ㅏ"", ""ㅊ,ㅟ,ㄱ,ㅏ"" 등 <br> 사람에 따라 다양하게 들릴 수 있습니다. <br> 본인에게 들리는대로 쓰시면 됩니다.</p><p lang=""ko"">스페이스바를 누르면 다음 페이지로 넘어갑니다</p>"," ","html-keyboard-response","27","2742016","0.0-8.0-2.2","","","",""
"3948",""," ","html-keyboard-response","28","2745964","0.0-9.0","","","",""
"4338","<p style=""font-size:30px"",lang=""ko"">이제 실험을 시작하겠습니다.</p><p style=""font-size:30px"",lang=""ko"">실전에서는 각각의 만든 단어를 한 번씩만 들을 수 있습니다.</p>"," ","html-keyboard-response","29","2750303","0.0-10.0","","","",""
"16383","<p style=""font-size:30px"",lang=""ko"">단어를 풀어 쓰신 후에 그 단어가 한국어로 가능한 단어인지 평가해주세요</p><p lang=""ko"">스페이스바를 누르면 다음 페이지로 넘어갑니다</p>"," ","html-keyboard-response","30","2766686","0.0-11.0","","","",""
"2738","TestRecordings/mkithun.wav","0","audio-button-response","31","2769450","0.0-12.0-0.0","","","",""
"14111","","{""P0_Q0"":""ㅇ,ㅡ,ㅇ,ㄱ,ㅣ,ㅌ,ㅜ,ㄴ"",""P0_Q1"":""(불가능)""}","survey","32","2783577","0.0-12.0-1.0","[]","","",""
"2005","TestRecordings/nthunit.wav","0","audio-button-response","33","2785605","0.0-12.0-0.1","","","",""
"16749","","{""P0_Q0"":""ㅇ,ㅡ,ㅇ,ㅌ,ㅜ,ㄴ,ㅣ,ㅅ"",""P0_Q1"":""(불가능)""}","survey","34","2802363","0.0-12.0-1.1","[]","","",""
"1547","TestRecordings/twikhit.wav","0","audio-button-response","35","2803933","0.0-12.0-0.2","","","",""
"13743","","{""P0_Q0"":""ㅌ,ㅜ,ㅣ,ㅋ,ㅣ,ㅅ"",""P0_Q1"":""(불가능)""}","survey","36","2817683","0.0-12.0-1.2","[]","","",""
"1592","TestRecordings/nthiton.wav","0","audio-button-response","37","2819297","0.0-12.0-0.3","","","",""
"19737","","{""P0_Q0"":""ㅇ,ㅡ,ㅇ,ㅌ,ㅜ,ㅣ,ㄷ,ㅜ,ㄴ"",""P0_Q1"":""(불가능)""}","survey","38","2839043","0.0-12.0-1.3","[]","","",""
"1592","TestRecordings/khnichat.wav","0","audio-button-response","39","2840658","0.0-12.0-0.4","","","",""
"10978","","{""P0_Q0"":""ㅋ,ㅡ,ㄴ,ㅣ,ㅊ,ㅏ,ㅅ"",""P0_Q1"":""(가능)""}","survey","40","2851642","0.0-12.0-1.4","[]","","",""
"1764","TestRecordings/pathik.wav","0","audio-button-response","41","2853428","0.0-12.0-0.5","","","",""
"10717","","{""P0_Q0"":""ㅂ,ㅏ,ㅌ,ㅣ,ㄱ"",""P0_Q1"":""(가능)""}","survey","42","2864153","0.0-12.0-1.5","[]","","",""
"1666","TestRecordings/ntosin.wav","0","audio-button-response","43","2865842","0.0-12.0-0.6","","","",""
"16363","","{""P0_Q0"":""ㅇ,ㅡ,ㅇ,ㄷ,ㅜ,ㅅ,ㅣ,ㄴ"",""P0_Q1"":""(불가능)""}","survey","44","2882213","0.0-12.0-1.6","[]","","",""
"1564","TestRecordings/mtunak.wav","0","audio-button-response","45","2883798","0.0-12.0-0.7","","","",""
"13525","","{""P0_Q0"":""ㅇ,ㅡ,ㅁ,ㄷ,ㅜ,ㄴ,ㅏ,ㄱ"",""P0_Q1"":""(불가능)""}","survey","46","2897330","0.0-12.0-1.7","[]","","",""
"1547","TestRecordings/swicit.wav","0","audio-button-response","47","2898908","0.0-12.0-0.8","","","",""
"13167","","{""P0_Q0"":""ㅅ,ㅜ,ㅣ,ㅈ,ㅣ,ㅅ"",""P0_Q1"":""(가능)""}","survey","48","2912084","0.0-12.0-1.8","[]","","",""
"1624","TestRecordings/phmut.wav","0","audio-button-response","49","2913727","0.0-12.0-0.9","","","",""
"12120","","{""P0_Q0"":""ㅍ,ㅡ,ㅁ,ㅜ,ㅅ"",""P0_Q1"":""(불가능)""}","survey","50","2925856","0.0-12.0-1.9","[]","","",""
"1519","TestRecordings/khmip.wav","0","audio-button-response","51","2927397","0.0-12.0-0.10","","","",""
"12188","","{""P0_Q0"":""ㅋ,ㅡ,ㄴ,ㅣ,ㄱ"",""P0_Q1"":""(가능)""}","survey","52","2939591","0.0-12.0-1.10","[]","","",""
"1896","TestRecordings/kophak.wav","0","audio-button-response","53","2941508","0.0-12.0-0.11","","","",""
"14856","","{""P0_Q0"":""ㄱ,ㅗ,ㅇ,ㅗ,ㅍ,ㅏ,ㄱ"",""P0_Q1"":""(가능)""}","survey","54","2956372","0.0-12.0-1.11","[]","","",""
"1881","TestRecordings/khwapan.wav","0","audio-button-response","55","2958274","0.0-12.0-0.12","","","",""
"9406","","{""P0_Q0"":""ㅋ,ㅗ,ㅏ,ㅂ,ㅏ,ㄴ"",""P0_Q1"":""(가능)""}","survey","56","2967687","0.0-12.0-1.12","[]","","",""
"1572","TestRecordings/knothing.wav","0","audio-button-response","57","2969283","0.0-12.0-0.13","","","",""
"11088","","{""P0_Q0"":""ㅋ,ㅡ,ㄴ,ㅗ,ㅌ,ㅣ,ㅇ"",""P0_Q1"":""(가능)""}","survey","58","2980379","0.0-12.0-1.13","[]","","",""
"2248","TestRecordings/takhut.wav","0","audio-button-response","59","2982650","0.0-12.0-0.14","","","",""
"7680","","{""P0_Q0"":""ㅂ,ㅏ,ㅋ,ㅜ,ㅅ"",""P0_Q1"":""(불가능)""}","survey","60","2990337","0.0-12.0-1.14","[]","","",""
"1674","TestRecordings/cwasop.wav","0","audio-button-response","61","2992033","0.0-12.0-0.15","","","",""
"20749","","{""P0_Q0"":""ㅈ,ㅗ,ㅏ,ㅅ,ㅗ,ㅅ"",""P0_Q1"":""(가능)""}","survey","62","3012792","0.0-12.0-1.15","[]","","",""
"2296","TestRecordings/nchak.wav","0","audio-button-response","63","3015111","0.0-12.0-0.16","","","",""
"14922","","{""P0_Q0"":""ㅇ,ㅡ,ㅇ,ㅊ,ㅏ,ㄱ"",""P0_Q1"":""(가능)""}","survey","64","3030040","0.0-12.0-1.16","[]","","",""
"1590","TestRecordings/masuk.wav","0","audio-button-response","65","3031655","0.0-12.0-0.17","","","",""
"7448","","{""P0_Q0"":""ㅁ,ㅏ,ㅅ,ㅜ,ㄱ"",""P0_Q1"":""(가능)""}","survey","66","3039110","0.0-12.0-1.17","[]","","",""
"2479","TestRecordings/swapong.wav","0","audio-button-response","67","3041614","0.0-12.0-0.18","","","",""
"13758","","{""P0_Q0"":""ㅅ,ㅡ,ㅇ,ㅗ,ㅏ,ㅂ,ㅗ,ㅇ"",""P0_Q1"":""(가능)""}","survey","68","3055381","0.0-12.0-1.18","[]","","",""
"1840","TestRecordings/phninot.wav","0","audio-button-response","69","3057243","0.0-12.0-0.19","","","",""
"12686","","{""P0_Q0"":""ㅍ,ㅡ,ㄴ,ㅣ,ㄴ,ㅗ,ㅅ"",""P0_Q1"":""(불가능)""}","survey","70","3069936","0.0-12.0-1.19","[]","","",""
"1616","TestRecordings/thwicap.wav","0","audio-button-response","71","3071571","0.0-12.0-0.20","","","",""
"8192","","{""P0_Q0"":""ㅌ,ㅜ,ㅣ,ㅈ,ㅏ,ㅂ"",""P0_Q1"":""(가능)""}","survey","72","3079771","0.0-12.0-1.20","[]","","",""
"2513","TestRecordings/siphuk.wav","0","audio-button-response","73","3082306","0.0-12.0-0.21","","","",""
"10437","","{""P0_Q0"":""ㅅ,ㅜ,ㅣ,ㅍ,ㅜ"",""P0_Q1"":""(불가능)""}","survey","74","3092749","0.0-12.0-1.21","[]","","",""
"1697","TestRecordings/cwang.wav","0","audio-button-response","75","3094467","0.0-12.0-0.22","","","",""
"15737","","{""P0_Q0"":""ㅈ,ㅜ,ㅇ,ㅗ,ㅏ,ㅇ"",""P0_Q1"":""(불가능)""}","survey","76","3110210","0.0-12.0-1.22","[]","","",""
"1963","TestRecordings/pmathin.wav","0","audio-button-response","77","3112195","0.0-12.0-0.23","","","",""
"9337","","{""P0_Q0"":""ㅍ,ㅡ,ㅁ,ㅏ,ㅌ,ㅣ,ㅅ"",""P0_Q1"":""(불가능)""}","survey","78","3121539","0.0-12.0-1.23","[]","","",""
"1579","TestRecordings/nucok.wav","0","audio-button-response","79","3123143","0.0-12.0-0.24","","","",""
"8846","","{""P0_Q0"":""ㄴ,ㅜ,ㅈ,ㅗ,ㄱ"",""P0_Q1"":""(가능)""}","survey","80","3131996","0.0-12.0-1.24","[]","","",""
"1585","TestRecordings/ncuk.wav","0","audio-button-response","81","3133602","0.0-12.0-0.25","","","",""
"9858","","{""P0_Q0"":""ㅇ,ㅡ,ㅁ,ㅈ,ㅜ,ㄱ"",""P0_Q1"":""(가능)""}","survey","82","3143467","0.0-12.0-1.25","[]","","",""
"1573","TestRecordings/nthochap.wav","0","audio-button-response","83","3145060","0.0-12.0-0.26","","","",""
"12131","","{""P0_Q0"":""ㅇ,ㅡ,ㅁ,ㅌ,ㅗ,ㅊ,ㅏ,ㅅ"",""P0_Q1"":""(불가능)""}","survey","84","3157197","0.0-12.0-1.26","[]","","",""
"1385","TestRecordings/knop.wav","0","audio-button-response","85","3158602","0.0-12.0-0.27","","","",""
"8456","","{""P0_Q0"":""ㅋ,ㅡ,ㄴ,ㅗ,ㅂ"",""P0_Q1"":""(불가능)""}","survey","86","3167065","0.0-12.0-1.27","[]","","",""
"1471","TestRecordings/phwim.wav","0","audio-button-response","87","3168559","0.0-12.0-0.28","","","",""
"7864","","{""P0_Q0"":""ㅍ,ㅜ,ㅣ,ㅁ"",""P0_Q1"":""(불가능)""}","survey","88","3176430","0.0-12.0-1.28","[]","","",""
"1502","TestRecordings/npokit.wav","0","audio-button-response","89","3177954","0.0-12.0-0.29","","","",""
"13285","","{""P0_Q0"":""ㅇ,ㅡ,ㅁ,ㅂ,ㅗ,ㄱ,ㅣ,ㅅ"",""P0_Q1"":""(불가능)""}","survey","90","3191246","0.0-12.0-1.29","[]","","",""
"1383","TestRecordings/pmuk.wav","0","audio-button-response","91","3192651","0.0-12.0-0.30","","","",""
"14029","","{""P0_Q0"":""ㅂ,ㅡ,ㅁ,ㅡ,ㄱ"",""P0_Q1"":""(불가능)""}","survey","92","3206681","0.0-12.0-1.30","[]","","",""
"1297","TestRecordings/thum.wav","0","audio-button-response","93","3208000","0.0-12.0-0.31","","","",""
"8156","","{""P0_Q0"":""ㅌ,ㅜ,ㅁ"",""P0_Q1"":""(불가능)""}","survey","94","3216163","0.0-12.0-1.31","[]","","",""
"1596","TestRecordings/thnakop.wav","0","audio-button-response","95","3217784","0.0-12.0-0.32","","","",""
"12913","","{""P0_Q0"":""ㅋ,ㅡ,ㄴ,ㅏ,ㄱ,ㅗ"",""P0_Q1"":""(불가능)""}","survey","96","3230703","0.0-12.0-1.32","[]","","",""
"1406","TestRecordings/khun.wav","0","audio-button-response","97","3232131","0.0-12.0-0.33","","","",""
"5006","","{""P0_Q0"":""ㅋ,ㅜ,ㄴ"",""P0_Q1"":""(불가능)""}","survey","98","3237144","0.0-12.0-1.33","[]","","",""
"1556","TestRecordings/khmoting.wav","0","audio-button-response","99","3238722","0.0-12.0-0.34","","","",""
"13308","","{""P0_Q0"":""ㅋ,ㅡ,ㅁ,ㅗ,ㄷ,ㅣ,ㅇ"",""P0_Q1"":""(불가능)""}","survey","100","3252035","0.0-12.0-1.34","[]","","",""
"1697","TestRecordings/khonik.wav","0","audio-button-response","101","3253755","0.0-12.0-0.35","","","",""
"10203","","{""P0_Q0"":""ㅋ,ㅗ,ㄴ,ㅣ,ㄱ"",""P0_Q1"":""(불가능)""}","survey","102","3263964","0.0-12.0-1.35","[]","","",""
"1340","TestRecordings/chwakap.wav","0","audio-button-response","103","3265331","0.0-12.0-0.36","","","",""
"8276","","{""P0_Q0"":""ㅊ,ㅗ,ㅏ,ㄱ,ㅏㅂ"",""P0_Q1"":""(가능)""}","survey","104","3273613","0.0-12.0-1.36","[]","","",""
"1460","TestRecordings/pwacung.wav","0","audio-button-response","105","3275096","0.0-12.0-0.37","","","",""
"8473","","{""P0_Q0"":""ㅂ,ㅗ,ㅏ,ㅈ,ㅜ,ㅇ"",""P0_Q1"":""(가능)""}","survey","106","3283577","0.0-12.0-1.37","[]","","",""
"1597","TestRecordings/thnukip.wav","0","audio-button-response","107","3285197","0.0-12.0-0.38","","","",""
"8314","","{""P0_Q0"":""ㅋ,ㅡ,ㄴ,ㅜ,ㄱ,ㅣ,ㅂ"",""P0_Q1"":""(불가능)""}","survey","108","3293517","0.0-12.0-1.38","[]","","",""
"1426","TestRecordings/chwap.wav","0","audio-button-response","109","3294964","0.0-12.0-0.39","","","",""
"8154","","{""P0_Q0"":""ㅊ,ㅗ,ㅏ,ㅂ"",""P0_Q1"":""(가능)""}","survey","110","3303125","0.0-12.0-1.39","[]","","",""
"1847","TestRecordings/mphithup.wav","0","audio-button-response","111","3304995","0.0-12.0-0.40","","","",""
"9807","","{""P0_Q0"":""ㅇ,ㅡㅇ,ㅍ,ㅣ,ㅌ,ㅜ,ㄱ"",""P0_Q1"":""(불가능)""}","survey","112","3314808","0.0-12.0-1.40","[]","","",""
"1425","TestRecordings/phmacot.wav","0","audio-button-response","113","3316254","0.0-12.0-0.41","","","",""
"9504","","{""P0_Q0"":""ㅍ,ㅡ,ㅁ,ㅏ,ㅈ,ㅗ,ㅅ"",""P0_Q1"":""(불가능)""}","survey","114","3325760","0.0-12.0-1.41","[]","","",""
"1464","TestRecordings/kwat.wav","0","audio-button-response","115","3327246","0.0-12.0-0.42","","","",""
"5885","","{""P0_Q0"":""ㄱ,ㅗ,ㅏ,ㅅ"",""P0_Q1"":""(가능)""}","survey","116","3333138","0.0-12.0-1.42","[]","","",""
"1308","TestRecordings/mtak.wav","0","audio-button-response","117","3334467","0.0-12.0-0.43","","","",""
"8778","","{""P0_Q0"":""ㅇ,ㅡ,ㅇ,ㄷ,ㅏ,ㄱ"",""P0_Q1"":""(불가능)""}","survey","118","3343252","0.0-12.0-1.43","[]","","",""
"1296","TestRecordings/khnacin.wav","0","audio-button-response","119","3344571","0.0-12.0-0.44","","","",""
"10376","","{""P0_Q0"":""ㅋ,ㅡ,ㄴ,ㅏ,ㅈ,ㅣㄴ"",""P0_Q1"":""(가능)""}","survey","120","3354955","0.0-12.0-1.44","[]","","",""
"1613","TestRecordings/mip.wav","0","audio-button-response","121","3356589","0.0-12.0-0.45","","","",""
"6556","","{""P0_Q0"":""ㅁ,ㅣ,ㅂ"",""P0_Q1"":""(가능)""}","survey","122","3363153","0.0-12.0-1.45","[]","","",""
"2114","TestRecordings/pmisung.wav","0","audio-button-response","123","3365289","0.0-12.0-0.46","","","",""
"12948","","{""P0_Q0"":""ㅂ,ㅡ,ㅁ,ㅣ,ㅅ,ㅜ,ㅇ"",""P0_Q1"":""(불가능)""}","survey","124","3378243","0.0-12.0-1.46","[]","","",""
"1312","TestRecordings/niphak.wav","0","audio-button-response","125","3379575","0.0-12.0-0.47","","","",""
"8461","","{""P0_Q0"":""ㄴ,ㅣ,ㅍ,ㅏ,ㄱ"",""P0_Q1"":""(불가능)""}","survey","126","3388050","0.0-12.0-1.47","[]","","",""
"1342","TestRecordings/nchitam.wav","0","audio-button-response","127","3389415","0.0-12.0-0.48","","","",""
"9061","","{""P0_Q0"":""ㅇ,ㅡ,ㅇ,ㅊ,ㅣ,ㄷ,ㅏ,ㅁ"",""P0_Q1"":""(불가능)""}","survey","128","3398482","0.0-12.0-1.48","[]","","",""
"1624","TestRecordings/nchat.wav","0","audio-button-response","129","3400127","0.0-12.0-0.49","","","",""
"8214","","{""P0_Q0"":""ㅇ,ㅡ,ㅇ,ㅊ,ㅏ,ㅅ"",""P0_Q1"":""(불가능)""}","survey","130","3408349","0.0-12.0-1.49","[]","","",""
"1349","TestRecordings/cmot.wav","0","audio-button-response","131","3409719","0.0-12.0-0.50","","","",""
"7669","","{""P0_Q0"":""ㅈ,ㅡ,ㅁ,ㅗ,ㅅ"",""P0_Q1"":""(불가능)""}","survey","132","3417394","0.0-12.0-1.50","[]","","",""
"1341","TestRecordings/swakhing.wav","0","audio-button-response","133","3418759","0.0-12.0-0.51","","","",""
"10082","","{""P0_Q0"":""ㅅ,ㅡ,ㅇ,ㅗ,ㅏ,ㅋ,ㅣ,ㅇ"",""P0_Q1"":""(가능)""}","survey","134","3428847","0.0-12.0-1.51","[]","","",""
"1740","TestRecordings/phwing.wav","0","audio-button-response","135","3430611","0.0-12.0-0.52","","","",""
"6282","","{""P0_Q0"":""ㅋ,ㅡ,ㅣ,ㅇ"",""P0_Q1"":""(불가능)""}","survey","136","3436899","0.0-12.0-1.52","[]","","",""
"1441","TestRecordings/nchup.wav","0","audio-button-response","137","3438360","0.0-12.0-0.53","","","",""
"13016","","{""P0_Q0"":""ㅇ,ㅡ,ㅇ,ㅊ,ㅜ,ㄱ"",""P0_Q1"":""(가능)""}","survey","138","3451381","0.0-12.0-1.53","[]","","",""
"1616","TestRecordings/mciphom.wav","0","audio-button-response","139","3453018","0.0-12.0-0.54","","","",""
"13049","","{""P0_Q0"":""ㅇ,ㅡ,ㅇ,ㅈ,ㅣ,ㅍ,ㅜ,ㅇ"",""P0_Q1"":""(불가능)""}","survey","140","3466073","0.0-12.0-1.54","[]","","",""
"1456","TestRecordings/sutik.wav","0","audio-button-response","141","3467548","0.0-12.0-0.55","","","",""
"7026","","{""P0_Q0"":""ㅅ,ㅜ,ㄷ,ㅣ,ㄱ"",""P0_Q1"":""(가능)""}","survey","142","3474581","0.0-12.0-1.55","[]","","",""
"1492","TestRecordings/cwiphing.wav","0","audio-button-response","143","3476096","0.0-12.0-0.56","","","",""
"8945","","{""P0_Q0"":""ㅈ,ㅜ,ㅣ,ㅍ,ㅣ,ㅇ"",""P0_Q1"":""(가능)""}","survey","144","3485047","0.0-12.0-1.56","[]","","",""
"1343","TestRecordings/chut.wav","0","audio-button-response","145","3486410","0.0-12.0-0.57","","","",""
"5598","","{""P0_Q0"":""ㅊ,ㅜ,ㅅ"",""P0_Q1"":""(가능)""}","survey","146","3492016","0.0-12.0-1.57","[]","","",""
"1352","TestRecordings/phuthik.wav","0","audio-button-response","147","3493389","0.0-12.0-0.58","","","",""
"6826","","{""P0_Q0"":""ㅍ,ㅜ,ㅌ,ㅣ,ㄱ"",""P0_Q1"":""(가능)""}","survey","148","3500222","0.0-12.0-1.58","[]","","",""
"1210","TestRecordings/cut.wav","0","audio-button-response","149","3501453","0.0-12.0-0.59","","","",""
"5867","","{""P0_Q0"":""ㅈ,ㅜ,ㅅ"",""P0_Q1"":""(가능)""}","survey","150","3507329","0.0-12.0-1.59","[]","","",""
"2618",""," ","html-keyboard-response","151","3509947","0.0-13.0","","","",""
"54081","","{""P0_Q0"":""22살"",""P0_Q1"":""여자"",""P0_Q2"":""10살"",""P0_Q3"":""없음"",""P0_Q4"":""중국어 , 일본어"",""P0_Q5"":""16살, 1년"",""P0_Q6"":""없음""}","survey","152","3564035","0.0-14.0","[]","","",""
"49267","<p style=""font-size:30px"",lang=""ko"">실험이 끝났습니다</p><p style=""font-size:30px"",lang=""ko"">참가해주셔서 고맙습니다</p>"," ","html-keyboard-response","153","3613304","0.0-15.0","","","",""
,