"rt","stimulus","response","trial_type","trial_index","time_elapsed","internal_node_id","accuracy","PracticeTest","ConsonantSequence","Grammaticality"
"547412","<p style=""font-size:30px"",lang=""ko"">실험에 오신 것을 환영합니다</p><p lang=""ko"">스페이스바를 누르면 다음 페이지로 넘어갑니다</p>"," ","html-keyboard-response","0","547405","0.0-0.0","","","",""
"1787","<p style=""font-size:30px"",lang=""ko"">해드폰을 본인에게 잘 맞게 착용하세요</p><p lang=""ko"">스페이스바를 누르면 다음 페이지로 넘어갑니다</p>"," ","html-keyboard-response","1","549192","0.0-1.0","","","",""
"5631","<p style=""font-size:30px"",lang=""ko"">이 실험에서는 새로 만든 한국 단어를 들으실 겁니다</p><p style=""font-size:30px"",lang=""ko"">단어를 들리는대로 쓰세요. 그런 다음 그 단어가 한국어 단어로 가능한지 평가하세요</p><p lang=""ko"">스페이스바를 누르면 다음 페이지로 넘어갑니다</p>"," ","html-keyboard-response","2","554824","0.0-2.0","","","",""
"1661","<p style=""font-size:30px"",lang=""ko"">원래 있는 단어로 예를 들어 봅시다</p><p lang=""ko"">스페이스바를 누르면 다음 페이지로 넘어갑니다</p>"," ","html-keyboard-response","3","556486","0.0-3.0","","","",""
"11740","PracticeRecordings/kom_bear.wav","0","audio-button-response","4","568291","0.0-4.0","","","",""
"2449","<p style=""font-size:30px"",lang=""ko"">이제 직접 단어를 듣고 쓰는 연습을 해봅시다. </p><p style=""font-size:30px"",lang=""ko"">스페이스바를 누르면 다음 페이지로 넘어갑니다</p>"," ","html-keyboard-response","5","570741","0.0-5.0","","","",""
"3559","PracticeRecordings/kirin_giraffe.wav","0","audio-button-response","6","574324","0.0-6.0-0.0","","","",""
"6082","kirin_giraffe","{""P0_Q0"":""ㄱ,ㅣ,ㄹ,ㅣ,ㄴ""}","survey","7","580447","0.0-6.0-1.0","[]","practice","NA","TRUE"
"2489","<p style=""font-size:30px"",lang=""ko"">방금 들으신 단어는 ""ㄱ,ㅣ,ㄹ,ㅣ,ㄴ"" 이라고 쓰시면 됩니다</p><p lang=""ko"">스페이스바를 누르면 다음 페이지로 넘어갑니다</p>"," ","html-keyboard-response","8","582937","0.0-6.0-2.0","","","",""
"2274","PracticeRecordings/saca_lion.wav","0","audio-button-response","9","585234","0.0-6.0-0.1","","","",""
"6675","saca_lion","{""P0_Q0"":""ㅅ,ㅏ,ㅈ,ㅏ""}","survey","10","591929","0.0-6.0-1.1","[]","practice","NA","FALSE"
"1907","<p style=""font-size:30px"",lang=""ko"">방금 들으신 단어는 ""ㅅ,ㅏ,ㅈ,ㅏ"" 라고 쓰시면 됩니다</p><p lang=""ko"">스페이스바를 누르면 다음 페이지로 넘어갑니다</p>"," ","html-keyboard-response","11","593836","0.0-6.0-2.1","","","",""
"2041","PracticeRecordings/saseum_deer.wav","0","audio-button-response","12","595900","0.0-6.0-0.2","","","",""
"7427","saseum_deer","{""P0_Q0"":""ㅅ,ㅏ,ㅅ,ㅡ,ㅁ""}","survey","13","603335","0.0-6.0-1.2","[]","practice","NA","FALSE"
"1465","<p style=""font-size:30px"",lang=""ko"">방금 들으신 단어는 ""ㅅ,ㅏ,ㅅ,ㅡ,ㅁ""이라고 쓰시면 됩니다</p><p lang=""ko"">스페이스바를 누르면 다음 페이지로 넘어갑니다</p>"," ","html-keyboard-response","14","604801","0.0-6.0-2.2","","","",""
"2462","PracticeRecordings/thokki_rabbit.wav","0","audio-button-response","15","607286","0.0-6.0-0.3","","","",""
"6351","thokki_rabbit","{""P0_Q0"":""ㅌ,ㅗ,ㄲ,ㅣ""}","survey","16","613645","0.0-6.0-1.3","[]","practice","NA","FALSE"
"1358","<p style=""font-size:30px"",lang=""ko"">방금 들으신 단어는 ""ㅌ,ㅗ,ㄲ,ㅣ"" 라고 쓰시면 됩니다</p><p lang=""ko"">스페이스바를 누르면 다음 페이지로 넘어갑니다</p>"," ","html-keyboard-response","17","615004","0.0-6.0-2.3","","","",""
"1314","<p style=""font-size:30px"",lang=""ko"">이제 만든 단어로 연습해봅시다.</p><p lang=""ko"">스페이스바를 누르면 다음 페이지로 넘어갑니다</p>"," ","html-keyboard-response","18","616318","0.0-7.0","","","",""
"3355","PracticeRecordings/snen.wav","0","audio-button-response","19","619697","0.0-8.0-0.0","","","",""
"6361","snen","{""P0_Q0"":""ㅅ,ㅡ,ㄴ,ㅐ,ㄴ""}","survey","20","626066","0.0-8.0-1.0","[]","practice","NA","TRUE"
"6453","<p style=""font-size:30px"",lang=""ko"">들으신 단어는 <br> ""ㅅ,ㅡ,ㄴ,ㅐ,ㄴ""  ""ㅅ,ㅡ,ㄴ,ㅐ"" ""ㅅ,ㄴ,ㅐ,ㄴ (""으"" 소리가 안 들리는 경우)"" 등 <br> 사람에 따라 다양하게 들릴 수 있습니다 <br> 본인에게 들리는대로 쓰시면 됩니다.</p><p lang=""ko"">스페이스바를 누르면 다음 페이지로 넘어갑니다</p>"," ","html-keyboard-response","21","632520","0.0-8.0-2.0","","","",""
"2585","PracticeRecordings/phrak.wav","0","audio-button-response","22","635125","0.0-8.0-0.1","","","",""
"5668","phrak","{""P0_Q0"":""ㅍ,ㅡ,ㄹ,ㅏ,ㄱ""}","survey","23","640800","0.0-8.0-1.1","[]","practice","NA","FALSE"
"2038","<p style=""font-size:30px"",lang=""ko"">들으신 단어는 <br> ""ㅍ,ㅡ,ㄹ,ㅏ,ㄱ"" ""ㅍ,ㅡ,ㄹ,ㅏ,ㅅ"" ""ㅋ,ㅡ,ㄹ,ㅏ,ㄱ"" ""ㅍ,ㄹ,ㅏ,ㄱ (""으"" 소리가 안 들리는 경우)"" 등 <br> 사람에 따라 다양하게 들릴 수 있습니다 <br> 본인에게 들리는대로 쓰시면 됩니다.</p><p lang=""ko"">스페이스바를 누르면 다음 페이지로 넘어갑니다</p>"," ","html-keyboard-response","24","642838","0.0-8.0-2.1","","","",""
"2490","PracticeRecordings/chka.wav","0","audio-button-response","25","645349","0.0-8.0-0.2","","","",""
"4857","chka","{""P0_Q0"":""ㅊ,ㅡ,ㄱ,ㅏ""}","survey","26","650213","0.0-8.0-1.2","[]","practice","NA","FALSE"
"2784","<p style=""font-size:30px"",lang=""ko"">들으신 단어는 ""ㅊ,ㅣ,ㄱ,ㅏ"", ""ㅊ,ㅡ,ㄱ,ㅏ"", ""ㅊ,ㄱ,ㅏ"", ""ㅊ,ㅟ,ㄱ,ㅏ"" 등 <br> 사람에 따라 다양하게 들릴 수 있습니다. <br> 본인에게 들리는대로 쓰시면 됩니다.</p><p lang=""ko"">스페이스바를 누르면 다음 페이지로 넘어갑니다</p>"," ","html-keyboard-response","27","652995","0.0-8.0-2.2","","","",""
"3853",""," ","html-keyboard-response","28","656849","0.0-9.0","","","",""
"3756","<p style=""font-size:30px"",lang=""ko"">이제 실험을 시작하겠습니다.</p><p style=""font-size:30px"",lang=""ko"">실전에서는 각각의 만든 단어를 한 번씩만 들을 수 있습니다.</p>"," ","html-keyboard-response","29","660605","0.0-10.0","","","",""
"20127","<p style=""font-size:30px"",lang=""ko"">단어를 풀어 쓰신 후에 그 단어가 한국어로 가능한 단어인지 평가해주세요</p><p lang=""ko"">스페이스바를 누르면 다음 페이지로 넘어갑니다</p>"," ","html-keyboard-response","30","680733","0.0-11.0","","","",""
"3853","TestRecordings/pathik.wav","0","audio-button-response","31","684612","0.0-12.0-0.0","","","",""
"12940","","{""P0_Q0"":""ㅂ,ㅏ,ㅌ,ㅣ,ㄱ"",""P0_Q1"":""(불가능)""}","survey","32","697578","0.0-12.0-1.0","[]","","",""
"3258","TestRecordings/kwat.wav","0","audio-button-response","33","700856","0.0-12.0-0.1","","","",""
"13056","","{""P0_Q0"":""ㄱ,ㅗ,ㅏ,ㅈ"",""P0_Q1"":""(가능)""}","survey","34","713924","0.0-12.0-1.1","[]","","",""
"2822","TestRecordings/swicit.wav","0","audio-button-response","35","716770","0.0-12.0-0.2","","","",""
"11885","","{""P0_Q0"":""ㅅ,ㅜ,ㅣ,ㅈ,ㅣ,ㅅ"",""P0_Q1"":""(불가능)""}","survey","36","728662","0.0-12.0-1.2","[]","","",""
"3218","TestRecordings/kophak.wav","0","audio-button-response","37","731903","0.0-12.0-0.3","","","",""
"7295","","{""P0_Q0"":""ㄱ,ㅗ,ㅍ,ㅏ,ㄱ"",""P0_Q1"":""(가능)""}","survey","38","739206","0.0-12.0-1.3","[]","","",""
"3963","TestRecordings/swapong.wav","0","audio-button-response","39","743199","0.0-12.0-0.4","","","",""
"10088","","{""P0_Q0"":""ㅅ,ㅗ,ㅏ,ㅂ,ㅗ,ㅇ"",""P0_Q1"":""(불가능)""}","survey","40","753296","0.0-12.0-1.4","[]","","",""
"3867","TestRecordings/nthiton.wav","0","audio-button-response","41","757184","0.0-12.0-0.5","","","",""
"10692","","{""P0_Q0"":""ㅇ,ㅣ,ㅁ,ㅌ,ㅣ,ㄷ,ㅜ,ㄴ"",""P0_Q1"":""(불가능)""}","survey","42","767886","0.0-12.0-1.5","[]","","",""
"2125","TestRecordings/khnichat.wav","0","audio-button-response","43","770032","0.0-12.0-0.6","","","",""
"10920","","{""P0_Q0"":""ㅋ,ㅡ,ㄴ,ㅣ,ㅊ,ㅏ,ㅅ"",""P0_Q1"":""(불가능)""}","survey","44","780958","0.0-12.0-1.6","[]","","",""
"3982","TestRecordings/swakhing.wav","0","audio-button-response","45","784962","0.0-12.0-0.7","","","",""
"18583","","{""P0_Q0"":""ㅅ,ㅡ,ㅇ,ㅗ,ㅏ,ㅋ,ㅣ,ㅇ"",""P0_Q1"":""(불가능)""}","survey","46","803552","0.0-12.0-1.7","[]","","",""
"3428","TestRecordings/chwap.wav","0","audio-button-response","47","807115","0.0-12.0-0.8","","","",""
"17879","","{""P0_Q0"":""ㅊ,ㅘ,ㅂ"",""P0_Q1"":""(불가능)""}","survey","48","825001","0.0-12.0-1.8","[]","","",""
"3207","TestRecordings/nchat.wav","0","audio-button-response","49","828231","0.0-12.0-0.9","","","",""
"11351","","{""P0_Q0"":""ㅇ,ㅡ,ㅁ,ㅊ,ㅏ,ㅅ"",""P0_Q1"":""(가능)""}","survey","50","839589","0.0-12.0-1.9","[]","","",""
"3739","TestRecordings/khwapan.wav","0","audio-button-response","51","843351","0.0-12.0-0.10","","","",""
"8016","","{""P0_Q0"":""ㅋ,ㅘ,ㅂ,ㅏ,ㄴ"",""P0_Q1"":""(가능)""}","survey","52","851374","0.0-12.0-1.10","[]","","",""
"3911","TestRecordings/nchup.wav","0","audio-button-response","53","855305","0.0-12.0-0.11","","","",""
"8900","","{""P0_Q0"":""ㅇ,ㅡ,ㅁ,ㅊ,ㅜ,ㄱ"",""P0_Q1"":""(가능)""}","survey","54","864213","0.0-12.0-1.11","[]","","",""
"2186","TestRecordings/pmathin.wav","0","audio-button-response","55","866423","0.0-12.0-0.12","","","",""
"9523","","{""P0_Q0"":""ㅋ,ㅡ,ㅁ,ㅏ,ㅌ,ㅣ,ㄴ"",""P0_Q1"":""(불가능)""}","survey","56","875952","0.0-12.0-1.12","[]","","",""
"1951","TestRecordings/nchak.wav","0","audio-button-response","57","877923","0.0-12.0-0.13","","","",""
"10152","","{""P0_Q0"":""ㅇ,ㅡ,ㅁ,ㅊ,ㅏ,ㄱ"",""P0_Q1"":""(가능)""}","survey","58","888083","0.0-12.0-1.13","[]","","",""
"2540","TestRecordings/npokit.wav","0","audio-button-response","59","890645","0.0-12.0-0.14","","","",""
"17679","","{""P0_Q0"":""ㅇ,ㅡ,ㅁ,ㅂ,ㅜ,ㄱ,ㅣ,ㅅ"",""P0_Q1"":""(불가능)""}","survey","60","908330","0.0-12.0-1.14","[]","","",""
"1785","TestRecordings/mip.wav","0","audio-button-response","61","910138","0.0-12.0-0.15","","","",""
"4957","","{""P0_Q0"":""ㅁ,ㅣ,ㅂ"",""P0_Q1"":""(가능)""}","survey","62","915101","0.0-12.0-1.15","[]","","",""
"2012","TestRecordings/phwing.wav","0","audio-button-response","63","917136","0.0-12.0-0.16","","","",""
"6096","","{""P0_Q0"":""ㅋ,ㅟ,ㅇ"",""P0_Q1"":""(불가능)""}","survey","64","923238","0.0-12.0-1.16","[]","","",""
"2399","TestRecordings/ncuk.wav","0","audio-button-response","65","925658","0.0-12.0-0.17","","","",""
"7481","","{""P0_Q0"":""ㅇ,ㅡ,ㅁ,ㅈ,ㅜ,ㄱ"",""P0_Q1"":""(가능)""}","survey","66","933145","0.0-12.0-1.17","[]","","",""
"1894","TestRecordings/mtak.wav","0","audio-button-response","67","935062","0.0-12.0-0.18","","","",""
"11034","","{""P0_Q0"":""ㅇ,ㅡ,ㅇ,ㄷ,ㅏ,ㄱ"",""P0_Q1"":""(가능)""}","survey","68","946102","0.0-12.0-1.18","[]","","",""
"2477","TestRecordings/cwang.wav","0","audio-button-response","69","948601","0.0-12.0-0.19","","","",""
"11119","","{""P0_Q0"":""ㅈ,ㅘ,ㅇ"",""P0_Q1"":""(불가능)""}","survey","70","959727","0.0-12.0-1.19","[]","","",""
"2118","TestRecordings/mkithun.wav","0","audio-button-response","71","961867","0.0-12.0-0.20","","","",""
"8030","","{""P0_Q0"":""ㅇ,ㅡ,ㅁ,ㄱ,ㅣ,ㅌ,ㅜ,ㄴ"",""P0_Q1"":""(불가능)""}","survey","72","969903","0.0-12.0-1.20","[]","","",""
"1678","TestRecordings/phuthik.wav","0","audio-button-response","73","971604","0.0-12.0-0.21","","","",""
"9965","","{""P0_Q0"":""ㅍ,ㅜ,ㅌ,ㅣ,ㄱ"",""P0_Q1"":""(불가능)""}","survey","74","981575","0.0-12.0-1.21","[]","","",""
"1867","TestRecordings/nthochap.wav","0","audio-button-response","75","983463","0.0-12.0-0.22","","","",""
"11366","","{""P0_Q0"":""ㅇ,ㅡ,ㅁ,ㅌ,ㅜ,ㅊ,ㅏ,ㅅ"",""P0_Q1"":""(불가능)""}","survey","76","994837","0.0-12.0-1.22","[]","","",""
"2436","TestRecordings/cwasop.wav","0","audio-button-response","77","997294","0.0-12.0-0.23","","","",""
"10140","","{""P0_Q0"":""ㅈ,ㅘ,ㅅ,ㅗ,ㅂ"",""P0_Q1"":""(가능)""}","survey","78","1007442","0.0-12.0-1.23","[]","","",""
"1697","TestRecordings/takhut.wav","0","audio-button-response","79","1009161","0.0-12.0-0.24","","","",""
"10336","","{""P0_Q0"":""ㄷ,ㅏ,ㄱ,ㅋ,ㅜ,ㅅ"",""P0_Q1"":""(불가능)""}","survey","80","1019503","0.0-12.0-1.24","[]","","",""
"1667","TestRecordings/chut.wav","0","audio-button-response","81","1021190","0.0-12.0-0.25","","","",""
"6403","","{""P0_Q0"":""ㅊ,ㅜ,ㅅ"",""P0_Q1"":""(가능)""}","survey","82","1027598","0.0-12.0-1.25","[]","","",""
"2318","TestRecordings/masuk.wav","0","audio-button-response","83","1029938","0.0-12.0-0.26","","","",""
"7083","","{""P0_Q0"":""ㅁ,ㅏ,ㅅ,ㅜ,ㄱ"",""P0_Q1"":""(가능)""}","survey","84","1037029","0.0-12.0-1.26","[]","","",""
"1595","TestRecordings/knothing.wav","0","audio-button-response","85","1038646","0.0-12.0-0.27","","","",""
"9245","","{""P0_Q0"":""ㅋ,ㅡ,ㄴ,ㅗ,ㅌ,ㅣ,ㅇ"",""P0_Q1"":""(불가능)""}","survey","86","1047898","0.0-12.0-1.27","[]","","",""
"1844","TestRecordings/mphithup.wav","0","audio-button-response","87","1049763","0.0-12.0-0.28","","","",""
"11368","","{""P0_Q0"":""ㅇ,ㅜ,ㅁ,ㅍ,ㅣ,ㅌ,ㅜ,ㄱ"",""P0_Q1"":""(불가능)""}","survey","88","1061139","0.0-12.0-1.28","[]","","",""
"1654","TestRecordings/chwakap.wav","0","audio-button-response","89","1062815","0.0-12.0-0.29","","","",""
"8593","","{""P0_Q0"":""ㅊ,ㅘ,ㄱ,ㅏ,ㅂ"",""P0_Q1"":""(가능)""}","survey","90","1071414","0.0-12.0-1.29","[]","","",""
"1547","TestRecordings/phmut.wav","0","audio-button-response","91","1072982","0.0-12.0-0.30","","","",""
"6842","","{""P0_Q0"":""ㅍ,ㅡ,ㅁ,ㅜ,ㅅ"",""P0_Q1"":""(가능)""}","survey","92","1079832","0.0-12.0-1.30","[]","","",""
"1718","TestRecordings/thnukip.wav","0","audio-button-response","93","1081572","0.0-12.0-0.31","","","",""
"9598","","{""P0_Q0"":""ㅌ,ㅡ,ㄴ,ㅜ,ㄱ,ㅣ,ㅂ"",""P0_Q1"":""(가능)""}","survey","94","1091176","0.0-12.0-1.31","[]","","",""
"3158","TestRecordings/khmip.wav","0","audio-button-response","95","1094354","0.0-12.0-0.32","","","",""
"10319","","{""P0_Q0"":""ㅋ,ㅡ,ㄴ,ㅣ,ㅂ"",""P0_Q1"":""(가능)""}","survey","96","1104683","0.0-12.0-1.32","[]","","",""
"1827","TestRecordings/niphak.wav","0","audio-button-response","97","1106531","0.0-12.0-0.33","","","",""
"8297","","{""P0_Q0"":""ㄴ,ㅣ,ㅍ,ㅏ,ㄱ"",""P0_Q1"":""(가능)""}","survey","98","1114834","0.0-12.0-1.33","[]","","",""
"1708","TestRecordings/pmuk.wav","0","audio-button-response","99","1116563","0.0-12.0-0.34","","","",""
"5781","","{""P0_Q0"":""ㅁ,ㅜ,ㄱ"",""P0_Q1"":""(가능)""}","survey","100","1122351","0.0-12.0-1.34","[]","","",""
"1724","TestRecordings/knop.wav","0","audio-button-response","101","1124095","0.0-12.0-0.35","","","",""
"11608","","{""P0_Q0"":""ㅋ,ㅡ,ㄴ,ㅗ,ㅂ"",""P0_Q1"":""(불가능)""}","survey","102","1135709","0.0-12.0-1.35","[]","","",""
"1611","TestRecordings/mtunak.wav","0","audio-button-response","103","1137341","0.0-12.0-0.36","","","",""
"11869","","{""P0_Q0"":""ㅇ,ㅡ,ㅁ,ㄷ,ㅜ,ㄴ,ㅏ,ㄱ"",""P0_Q1"":""(가능)""}","survey","104","1149216","0.0-12.0-1.36","[]","","",""
"1754","TestRecordings/nucok.wav","0","audio-button-response","105","1150990","0.0-12.0-0.37","","","",""
"6172","","{""P0_Q0"":""ㄴ,ㅜ,ㅈ,ㅗ,ㄱ"",""P0_Q1"":""(가능)""}","survey","106","1157170","0.0-12.0-1.37","[]","","",""
"2153","TestRecordings/khun.wav","0","audio-button-response","107","1159346","0.0-12.0-0.38","","","",""
"4582","","{""P0_Q0"":""ㅋ,ㅜ,ㄴ"",""P0_Q1"":""(가능)""}","survey","108","1163934","0.0-12.0-1.38","[]","","",""
"2427","TestRecordings/siphuk.wav","0","audio-button-response","109","1166383","0.0-12.0-0.39","","","",""
"8193","","{""P0_Q0"":""ㅅ,ㅣ,ㅍ,ㅜ,ㄱ"",""P0_Q1"":""(가능)""}","survey","110","1174583","0.0-12.0-1.39","[]","","",""
"2286","TestRecordings/khonik.wav","0","audio-button-response","111","1176890","0.0-12.0-0.40","","","",""
"5913","","{""P0_Q0"":""ㅋ,ㅗ,ㄴ,ㅣ,ㄱ"",""P0_Q1"":""(불가능)""}","survey","112","1182809","0.0-12.0-1.40","[]","","",""
"1856","TestRecordings/mciphom.wav","0","audio-button-response","113","1184688","0.0-12.0-0.41","","","",""
"10393","","{""P0_Q0"":""ㅇ,ㅡ,ㅁ,ㅈ,ㅣ,ㅍ,ㅗ,ㅁ"",""P0_Q1"":""(불가능)""}","survey","114","1195087","0.0-12.0-1.41","[]","","",""
"1409","TestRecordings/thnakop.wav","0","audio-button-response","115","1196517","0.0-12.0-0.42","","","",""
"13225","","{""P0_Q0"":""ㅌ,ㅡ,ㄴ,ㅏ,ㄱ,ㅗ,ㅂ"",""P0_Q1"":""(불가능)""}","survey","116","1209749","0.0-12.0-1.42","[]","","",""
"1502","TestRecordings/twikhit.wav","0","audio-button-response","117","1211274","0.0-12.0-0.43","","","",""
"11573","","{""P0_Q0"":""ㅌ,ㅟ,ㅋ,ㅣ,ㅅ"",""P0_Q1"":""(불가능)""}","survey","118","1222854","0.0-12.0-1.43","[]","","",""
"1972","TestRecordings/khmoting.wav","0","audio-button-response","119","1224847","0.0-12.0-0.44","","","",""
"12221","","{""P0_Q0"":""ㅋ,ㅡ,ㅁ,ㅗ,ㄷ,ㅣ,ㅇ"",""P0_Q1"":""(불가능)""}","survey","120","1237076","0.0-12.0-1.44","[]","","",""
"1548","TestRecordings/khnacin.wav","0","audio-button-response","121","1238646","0.0-12.0-0.45","","","",""
"12929","","{""P0_Q0"":""ㅋ,ㅡ,ㄴ,ㅏ,ㅈ,ㅣ,ㄴ"",""P0_Q1"":""(가능)""}","survey","122","1251582","0.0-12.0-1.45","[]","","",""
"2785","TestRecordings/nthunit.wav","0","audio-button-response","123","1254389","0.0-12.0-0.46","","","",""
"9269","","{""P0_Q0"":""ㅇ,ㅡ,ㅁ,ㅌ,ㅜ,ㄴ,ㅣ,ㅅ"",""P0_Q1"":""(불가능)""}","survey","124","1263665","0.0-12.0-1.46","[]","","",""
"2373","TestRecordings/cmot.wav","0","audio-button-response","125","1266058","0.0-12.0-0.47","","","",""
"6414","","{""P0_Q0"":""ㅅ,ㅡ,ㅁ,ㅗ,ㅅ"",""P0_Q1"":""(불가능)""}","survey","126","1272480","0.0-12.0-1.47","[]","","",""
"1741","TestRecordings/ntosin.wav","0","audio-button-response","127","1274243","0.0-12.0-0.48","","","",""
"8755","","{""P0_Q0"":""ㅇ,ㅡ,ㅁ,ㄷ,ㅜ,ㅅ,ㅣ,ㄴ"",""P0_Q1"":""(가능)""}","survey","128","1283005","0.0-12.0-1.48","[]","","",""
"2568","TestRecordings/cwiphing.wav","0","audio-button-response","129","1285595","0.0-12.0-0.49","","","",""
"7998","","{""P0_Q0"":""ㅈ,ㅟ,ㅍ,ㅣ,ㅇ"",""P0_Q1"":""(불가능)""}","survey","130","1293600","0.0-12.0-1.49","[]","","",""
"1966","TestRecordings/pmisung.wav","0","audio-button-response","131","1295590","0.0-12.0-0.50","","","",""
"8696","","{""P0_Q0"":""ㄱ,ㅡ,ㅁ,ㅣ,ㅅ,ㅜ,ㅇ"",""P0_Q1"":""(가능)""}","survey","132","1304292","0.0-12.0-1.50","[]","","",""
"1747","TestRecordings/phninot.wav","0","audio-button-response","133","1306062","0.0-12.0-0.51","","","",""
"7374","","{""P0_Q0"":""ㅋ,ㅡ,ㄴ,ㅣ,ㄴ,ㅗ,ㅅ"",""P0_Q1"":""(불가능)""}","survey","134","1313441","0.0-12.0-1.51","[]","","",""
"1640","TestRecordings/thwicap.wav","0","audio-button-response","135","1315102","0.0-12.0-0.52","","","",""
"6912","","{""P0_Q0"":""ㅌ,ㅟ,ㅈ,ㅏ,ㅂ"",""P0_Q1"":""(불가능)""}","survey","136","1322022","0.0-12.0-1.52","[]","","",""
"1723","TestRecordings/phmacot.wav","0","audio-button-response","137","1323769","0.0-12.0-0.53","","","",""
"8105","","{""P0_Q0"":""ㅍ,ㅡ,ㅁ,ㅏ,ㅈ,ㅗ,ㅅ"",""P0_Q1"":""(불가능)""}","survey","138","1331885","0.0-12.0-1.53","[]","","",""
"1897","TestRecordings/pwacung.wav","0","audio-button-response","139","1333805","0.0-12.0-0.54","","","",""
"7993","","{""P0_Q0"":""ㅂ,ㅘ,ㅈ,ㅜ,ㅇ"",""P0_Q1"":""(가능)""}","survey","140","1341804","0.0-12.0-1.54","[]","","",""
"1789","TestRecordings/phwim.wav","0","audio-button-response","141","1343615","0.0-12.0-0.55","","","",""
"8051","","{""P0_Q0"":""ㅌ,ㅟ,ㅁ"",""P0_Q1"":""(불가능)""}","survey","142","1351673","0.0-12.0-1.55","[]","","",""
"1442","TestRecordings/sutik.wav","0","audio-button-response","143","1353136","0.0-12.0-0.56","","","",""
"5848","","{""P0_Q0"":""ㅅ,ㅜ,ㄷ,ㅣ,ㄱ"",""P0_Q1"":""(불가능)""}","survey","144","1358991","0.0-12.0-1.56","[]","","",""
"1872","TestRecordings/nchitam.wav","0","audio-button-response","145","1360885","0.0-12.0-0.57","","","",""
"11086","","{""P0_Q0"":""ㅇ,ㅡ,ㅇ,ㅊ,ㅣ,ㄷ,ㅏ,ㅁ"",""P0_Q1"":""(불가능)""}","survey","146","1371978","0.0-12.0-1.57","[]","","",""
"1593","TestRecordings/cut.wav","0","audio-button-response","147","1373596","0.0-12.0-0.58","","","",""
"5650","","{""P0_Q0"":""ㅈ,ㅜ,ㅅ"",""P0_Q1"":""(가능)""}","survey","148","1379253","0.0-12.0-1.58","[]","","",""
"1685","TestRecordings/thum.wav","0","audio-button-response","149","1380959","0.0-12.0-0.59","","","",""
"10555","","{""P0_Q0"":""ㅌ,ㅜ,ㅁ"",""P0_Q1"":""(가능)""}","survey","150","1391523","0.0-12.0-1.59","[]","","",""
"2334",""," ","html-keyboard-response","151","1393857","0.0-13.0","","","",""
"52048","","{""P0_Q0"":""23"",""P0_Q1"":""여"",""P0_Q2"":""8"",""P0_Q3"":""없음"",""P0_Q4"":""일본어"",""P0_Q5"":""18살 2년간"",""P0_Q6"":""고등학교 제2 외국어로 배움""}","survey","152","1445914","0.0-14.0","[]","","",""
"55989","<p style=""font-size:30px"",lang=""ko"">실험이 끝났습니다</p><p style=""font-size:30px"",lang=""ko"">참가해주셔서 고맙습니다</p>"," ","html-keyboard-response","153","1501903","0.0-15.0","","","",""
,