"rt","stimulus","response","trial_type","trial_index","time_elapsed","internal_node_id","accuracy","PracticeTest","ConsonantSequence","Grammaticality"
"459343","<p style=""font-size:30px"",lang=""ko"">실험에 오신 것을 환영합니다</p><p lang=""ko"">스페이스바를 누르면 다음 페이지로 넘어갑니다</p>"," ","html-keyboard-response","0","459347","0.0-0.0","","","",""
"1434","<p style=""font-size:30px"",lang=""ko"">해드폰을 본인에게 잘 맞게 착용하세요</p><p lang=""ko"">스페이스바를 누르면 다음 페이지로 넘어갑니다</p>"," ","html-keyboard-response","1","460781","0.0-1.0","","","",""
"2352","<p style=""font-size:30px"",lang=""ko"">이 실험에서는 새로 만든 한국 단어를 들으실 겁니다</p><p style=""font-size:30px"",lang=""ko"">단어를 들리는대로 쓰세요. 그런 다음 그 단어가 한국어 단어로 가능한지 평가하세요</p><p lang=""ko"">스페이스바를 누르면 다음 페이지로 넘어갑니다</p>"," ","html-keyboard-response","2","463134","0.0-2.0","","","",""
"1036","<p style=""font-size:30px"",lang=""ko"">원래 있는 단어로 예를 들어 봅시다</p><p lang=""ko"">스페이스바를 누르면 다음 페이지로 넘어갑니다</p>"," ","html-keyboard-response","3","464170","0.0-3.0","","","",""
"8833","PracticeRecordings/kom_bear.wav","0","audio-button-response","4","473086","0.0-4.0","","","",""
"2495","<p style=""font-size:30px"",lang=""ko"">이제 직접 단어를 듣고 쓰는 연습을 해봅시다. </p><p style=""font-size:30px"",lang=""ko"">스페이스바를 누르면 다음 페이지로 넘어갑니다</p>"," ","html-keyboard-response","5","475582","0.0-5.0","","","",""
"4105","PracticeRecordings/kirin_giraffe.wav","0","audio-button-response","6","479702","0.0-6.0-0.0","","","",""
"18576","kirin_giraffe","{""P0_Q0"":""ㄱ,ㅣ,ㄹ,ㅣ,ㄴ""}","survey","7","498306","0.0-6.0-1.0","[]","practice","NA","TRUE"
"2919","<p style=""font-size:30px"",lang=""ko"">방금 들으신 단어는 ""ㄱ,ㅣ,ㄹ,ㅣ,ㄴ"" 이라고 쓰시면 됩니다</p><p lang=""ko"">스페이스바를 누르면 다음 페이지로 넘어갑니다</p>"," ","html-keyboard-response","8","501225","0.0-6.0-2.0","","","",""
"3275","PracticeRecordings/saca_lion.wav","0","audio-button-response","9","504519","0.0-6.0-0.1","","","",""
"5925","saca_lion","{""P0_Q0"":""ㅅ,ㅏ,ㅈ,ㅏ""}","survey","10","510449","0.0-6.0-1.1","[]","practice","NA","FALSE"
"1458","<p style=""font-size:30px"",lang=""ko"">방금 들으신 단어는 ""ㅅ,ㅏ,ㅈ,ㅏ"" 라고 쓰시면 됩니다</p><p lang=""ko"">스페이스바를 누르면 다음 페이지로 넘어갑니다</p>"," ","html-keyboard-response","11","511908","0.0-6.0-2.1","","","",""
"2253","PracticeRecordings/saseum_deer.wav","0","audio-button-response","12","514179","0.0-6.0-0.2","","","",""
"6171","saseum_deer","{""P0_Q0"":""ㅅ,ㅏ,ㅅ,ㅡ,ㅁ""}","survey","13","520355","0.0-6.0-1.2","[]","practice","NA","FALSE"
"1062","<p style=""font-size:30px"",lang=""ko"">방금 들으신 단어는 ""ㅅ,ㅏ,ㅅ,ㅡ,ㅁ""이라고 쓰시면 됩니다</p><p lang=""ko"">스페이스바를 누르면 다음 페이지로 넘어갑니다</p>"," ","html-keyboard-response","14","521418","0.0-6.0-2.2","","","",""
"5271","PracticeRecordings/thokki_rabbit.wav","0","audio-button-response","15","526703","0.0-6.0-0.3","","","",""
"6486","thokki_rabbit","{""P0_Q0"":""ㅌ,ㅗ,ㄲ,ㅣ""}","survey","16","533193","0.0-6.0-1.3","[]","practice","NA","FALSE"
"944","<p style=""font-size:30px"",lang=""ko"">방금 들으신 단어는 ""ㅌ,ㅗ,ㄲ,ㅣ"" 라고 쓰시면 됩니다</p><p lang=""ko"">스페이스바를 누르면 다음 페이지로 넘어갑니다</p>"," ","html-keyboard-response","17","534138","0.0-6.0-2.3","","","",""
"1689","<p style=""font-size:30px"",lang=""ko"">이제 만든 단어로 연습해봅시다.</p><p lang=""ko"">스페이스바를 누르면 다음 페이지로 넘어갑니다</p>"," ","html-keyboard-response","18","535827","0.0-7.0","","","",""
"2318","PracticeRecordings/snen.wav","0","audio-button-response","19","538160","0.0-8.0-0.0","","","",""
"5091","snen","{""P0_Q0"":""ㅅ,ㅡ,ㄴ,ㅐ,ㄴ""}","survey","20","543257","0.0-8.0-1.0","[]","practice","NA","TRUE"
"3121","<p style=""font-size:30px"",lang=""ko"">들으신 단어는 <br> ""ㅅ,ㅡ,ㄴ,ㅐ,ㄴ""  ""ㅅ,ㅡ,ㄴ,ㅐ"" ""ㅅ,ㄴ,ㅐ,ㄴ (""으"" 소리가 안 들리는 경우)"" 등 <br> 사람에 따라 다양하게 들릴 수 있습니다 <br> 본인에게 들리는대로 쓰시면 됩니다.</p><p lang=""ko"">스페이스바를 누르면 다음 페이지로 넘어갑니다</p>"," ","html-keyboard-response","21","546378","0.0-8.0-2.0","","","",""
"1875","PracticeRecordings/phrak.wav","0","audio-button-response","22","548268","0.0-8.0-0.1","","","",""
"5112","phrak","{""P0_Q0"":""ㅍ,ㅡ,ㄹ,ㅏ,ㄱ""}","survey","23","553384","0.0-8.0-1.1","[]","practice","NA","FALSE"
"1721","<p style=""font-size:30px"",lang=""ko"">들으신 단어는 <br> ""ㅍ,ㅡ,ㄹ,ㅏ,ㄱ"" ""ㅍ,ㅡ,ㄹ,ㅏ,ㅅ"" ""ㅋ,ㅡ,ㄹ,ㅏ,ㄱ"" ""ㅍ,ㄹ,ㅏ,ㄱ (""으"" 소리가 안 들리는 경우)"" 등 <br> 사람에 따라 다양하게 들릴 수 있습니다 <br> 본인에게 들리는대로 쓰시면 됩니다.</p><p lang=""ko"">스페이스바를 누르면 다음 페이지로 넘어갑니다</p>"," ","html-keyboard-response","24","555105","0.0-8.0-2.1","","","",""
"1990","PracticeRecordings/chka.wav","0","audio-button-response","25","557109","0.0-8.0-0.2","","","",""
"3922","chka","{""P0_Q0"":""ㅅ,ㅡ,ㄱ,ㅏ""}","survey","26","561034","0.0-8.0-1.2","[]","practice","NA","FALSE"
"2714","<p style=""font-size:30px"",lang=""ko"">들으신 단어는 ""ㅊ,ㅣ,ㄱ,ㅏ"", ""ㅊ,ㅡ,ㄱ,ㅏ"", ""ㅊ,ㄱ,ㅏ"", ""ㅊ,ㅟ,ㄱ,ㅏ"" 등 <br> 사람에 따라 다양하게 들릴 수 있습니다. <br> 본인에게 들리는대로 쓰시면 됩니다.</p><p lang=""ko"">스페이스바를 누르면 다음 페이지로 넘어갑니다</p>"," ","html-keyboard-response","27","563749","0.0-8.0-2.2","","","",""
"7042",""," ","html-keyboard-response","28","570791","0.0-9.0","","","",""
"2525","<p style=""font-size:30px"",lang=""ko"">이제 실험을 시작하겠습니다.</p><p style=""font-size:30px"",lang=""ko"">실전에서는 각각의 만든 단어를 한 번씩만 들을 수 있습니다.</p>"," ","html-keyboard-response","29","573316","0.0-10.0","","","",""
"2721","<p style=""font-size:30px"",lang=""ko"">단어를 풀어 쓰신 후에 그 단어가 한국어로 가능한 단어인지 평가해주세요</p><p lang=""ko"">스페이스바를 누르면 다음 페이지로 넘어갑니다</p>"," ","html-keyboard-response","30","576038","0.0-11.0","","","",""
"2707","TestRecordings/knop.wav","0","audio-button-response","31","578941","0.0-12.0-0.0","","","",""
"17441","","{""P0_Q0"":""ㅋ,ㅡ,ㄴ,ㅗ,ㅂ"",""P0_Q1"":""(가능)""}","survey","32","596391","0.0-12.0-1.0","[]","","",""
"2153","TestRecordings/nchak.wav","0","audio-button-response","33","598558","0.0-12.0-0.1","","","",""
"15254","","{""P0_Q0"":""ㅇ,ㅡ,ㅇ,ㅊ,ㅏ,ㄱ"",""P0_Q1"":""(가능)""}","survey","34","613817","0.0-12.0-1.1","[]","","",""
"2269","TestRecordings/cmot.wav","0","audio-button-response","35","616099","0.0-12.0-0.2","","","",""
"8415","","{""P0_Q0"":""ㅈ,ㅣ,ㅁ,ㅗ,ㅅ"",""P0_Q1"":""(불가능)""}","survey","36","624518","0.0-12.0-1.2","[]","","",""
"1980","TestRecordings/khun.wav","0","audio-button-response","37","626512","0.0-12.0-0.3","","","",""
"5908","","{""P0_Q0"":""ㅋ,ㅜ,ㄴ"",""P0_Q1"":""(가능)""}","survey","38","632425","0.0-12.0-1.3","[]","","",""
"2235","TestRecordings/kophak.wav","0","audio-button-response","39","634674","0.0-12.0-0.4","","","",""
"12165","","{""P0_Q0"":""ㄱ,ㅗ,ㅍ,ㅏ,ㄱ"",""P0_Q1"":""(가능)""}","survey","40","646843","0.0-12.0-1.4","[]","","",""
"2295","TestRecordings/phninot.wav","0","audio-button-response","41","649151","0.0-12.0-0.5","","","",""
"10848","","{""P0_Q0"":""ㅌ,ㅜ,ㄴ,ㅣ,ㄴ,ㅗ,ㅅ"",""P0_Q1"":""(불가능)""}","survey","42","660003","0.0-12.0-1.5","[]","","",""
"1847","TestRecordings/cut.wav","0","audio-button-response","43","661862","0.0-12.0-0.6","","","",""
"6063","","{""P0_Q0"":""ㅈ,ㅜ,ㅅ"",""P0_Q1"":""(불가능)""}","survey","44","667930","0.0-12.0-1.6","[]","","",""
"1966","TestRecordings/thnukip.wav","0","audio-button-response","45","669911","0.0-12.0-0.7","","","",""
"9822","","{""P0_Q0"":""ㅋ,ㅡ,ㄴ,ㅜ,ㄱ,ㅣ,ㅂ"",""P0_Q1"":""(불가능)""}","survey","46","679738","0.0-12.0-1.7","[]","","",""
"2010","TestRecordings/masuk.wav","0","audio-button-response","47","681763","0.0-12.0-0.8","","","",""
"9418","","{""P0_Q0"":""ㅁ,ㅏ,ㅅ,ㅜ,ㄱ"",""P0_Q1"":""(가능)""}","survey","48","691186","0.0-12.0-1.8","[]","","",""
"1885","TestRecordings/nchat.wav","0","audio-button-response","49","693087","0.0-12.0-0.9","","","",""
"9264","","{""P0_Q0"":""ㅇ,ㅡ,ㅇ,ㅊ,ㅏ,ㅅ"",""P0_Q1"":""(가능)""}","survey","50","702356","0.0-12.0-1.9","[]","","",""
"3303","TestRecordings/siphuk.wav","0","audio-button-response","51","705674","0.0-12.0-0.10","","","",""
"5530","","{""P0_Q0"":""ㅅ,ㅣ,ㅍ,ㅡ"",""P0_Q1"":""(불가능)""}","survey","52","711208","0.0-12.0-1.10","[]","","",""
"2215","TestRecordings/chut.wav","0","audio-button-response","53","713439","0.0-12.0-0.11","","","",""
"4800","","{""P0_Q0"":""ㅊ,ㅜ,ㅅ"",""P0_Q1"":""(가능)""}","survey","54","718243","0.0-12.0-1.11","[]","","",""
"2232","TestRecordings/cwiphing.wav","0","audio-button-response","55","720492","0.0-12.0-0.12","","","",""
"13298","","{""P0_Q0"":""ㅈ,ㅜ,ㅣ,ㅍ,ㅣ,ㅇ"",""P0_Q1"":""(불가능)""}","survey","56","733794","0.0-12.0-1.12","[]","","",""
"2484","TestRecordings/swakhing.wav","0","audio-button-response","57","736294","0.0-12.0-0.13","","","",""
"9319","","{""P0_Q0"":""ㅅ,ㅗ,ㅏ,ㄱ,ㅋ,ㅣ,ㅇ"",""P0_Q1"":""(불가능)""}","survey","58","745618","0.0-12.0-1.13","[]","","",""
"1913","TestRecordings/cwang.wav","0","audio-button-response","59","747607","0.0-12.0-0.14","","","",""
"10599","","{""P0_Q0"":""ㄷ,ㅡ,ㄹ,ㅏ,ㅇ"",""P0_Q1"":""(가능)""}","survey","60","758210","0.0-12.0-1.14","[]","","",""
"2307","TestRecordings/mtak.wav","0","audio-button-response","61","760534","0.0-12.0-0.15","","","",""
"7993","","{""P0_Q0"":""ㅇ,ㅡ,ㅇ,ㄷ,ㅏ,ㅅ"",""P0_Q1"":""(가능)""}","survey","62","768531","0.0-12.0-1.15","[]","","",""
"1968","TestRecordings/thnakop.wav","0","audio-button-response","63","770515","0.0-12.0-0.16","","","",""
"10205","","{""P0_Q0"":""ㅌ,ㅡ,ㄴ,ㅏ,ㄱ,ㅗ"",""P0_Q1"":""(가능)""}","survey","64","780725","0.0-12.0-1.16","[]","","",""
"2829","TestRecordings/ntosin.wav","0","audio-button-response","65","783570","0.0-12.0-0.17","","","",""
"15009","","{""P0_Q0"":""ㅇ,ㅡ,ㄴ,ㄷ,ㅗ,ㅅ,ㅣ,ㅁ"",""P0_Q1"":""(가능)""}","survey","66","798583","0.0-12.0-1.17","[]","","",""
"2584","TestRecordings/pathik.wav","0","audio-button-response","67","801183","0.0-12.0-0.18","","","",""
"4916","","{""P0_Q0"":""ㅂ,ㅏ,ㅌ,ㅣ,ㄱ"",""P0_Q1"":""(불가능)""}","survey","68","806103","0.0-12.0-1.18","[]","","",""
"2881","TestRecordings/mip.wav","0","audio-button-response","69","808997","0.0-12.0-0.19","","","",""
"4306","","{""P0_Q0"":""ㄴ,ㅣ,ㅂ"",""P0_Q1"":""(가능)""}","survey","70","813307","0.0-12.0-1.19","[]","","",""
"2184","TestRecordings/pmisung.wav","0","audio-button-response","71","815509","0.0-12.0-0.20","","","",""
"7709","","{""P0_Q0"":""ㄷ,ㅡ,ㅁ,ㅣ,ㅅ,ㅜ,ㅇ"",""P0_Q1"":""(불가능)""}","survey","72","823223","0.0-12.0-1.20","[]","","",""
"3266","TestRecordings/ncuk.wav","0","audio-button-response","73","826505","0.0-12.0-0.21","","","",""
"6587","","{""P0_Q0"":""ㅇ,ㅗ,ㅇ,ㅈ,ㅜ"",""P0_Q1"":""(가능)""}","survey","74","833097","0.0-12.0-1.21","[]","","",""
"2491","TestRecordings/cwasop.wav","0","audio-button-response","75","835691","0.0-12.0-0.22","","","",""
"6371","","{""P0_Q0"":""ㅈ,ㅏ,ㅅ,ㅗ,ㅂ"",""P0_Q1"":""(불가능)""}","survey","76","842066","0.0-12.0-1.22","[]","","",""
"3582","TestRecordings/npokit.wav","0","audio-button-response","77","845663","0.0-12.0-0.23","","","",""
"7637","","{""P0_Q0"":""ㅇ,ㅡ,ㄴ,ㅂ,ㅗ,ㄱ,ㅣ,ㅅ"",""P0_Q1"":""(불가능)""}","survey","78","853304","0.0-12.0-1.23","[]","","",""
"2104","TestRecordings/phmacot.wav","0","audio-button-response","79","855424","0.0-12.0-0.24","","","",""
"10204","","{""P0_Q0"":""ㅌ,ㅡ,ㅁ,ㅏ,ㅈ,ㅗ,ㅅ"",""P0_Q1"":""(가능)""}","survey","80","865632","0.0-12.0-1.24","[]","","",""
"1801","TestRecordings/phmut.wav","0","audio-button-response","81","867448","0.0-12.0-0.25","","","",""
"8556","","{""P0_Q0"":""ㅍ,ㅡ,ㅁ,ㅜ,ㅅ"",""P0_Q1"":""(불가능)""}","survey","82","876008","0.0-12.0-1.25","[]","","",""
"1964","TestRecordings/nucok.wav","0","audio-button-response","83","877988","0.0-12.0-0.26","","","",""
"5514","","{""P0_Q0"":""ㄴ,ㅜ,ㅈ,ㅗ,ㄱ"",""P0_Q1"":""(가능)""}","survey","84","883508","0.0-12.0-1.26","[]","","",""
"1846","TestRecordings/khnacin.wav","0","audio-button-response","85","885374","0.0-12.0-0.27","","","",""
"7794","","{""P0_Q0"":""ㅋ,ㅡ,ㄴ,ㅏ,ㅈ,ㅣ,ㄴ"",""P0_Q1"":""(가능)""}","survey","86","893172","0.0-12.0-1.27","[]","","",""
"1696","TestRecordings/niphak.wav","0","audio-button-response","87","894882","0.0-12.0-0.28","","","",""
"5624","","{""P0_Q0"":""ㄴ,ㅣ,ㅍ,ㅏ,ㄱ"",""P0_Q1"":""(가능)""}","survey","88","900511","0.0-12.0-1.28","[]","","",""
"2154","TestRecordings/thwicap.wav","0","audio-button-response","89","902682","0.0-12.0-0.29","","","",""
"6333","","{""P0_Q0"":""ㅌ,ㅜ,ㅣ,ㅈ,ㅏ,ㅂ"",""P0_Q1"":""(가능)""}","survey","90","909019","0.0-12.0-1.29","[]","","",""
"1655","TestRecordings/sutik.wav","0","audio-button-response","91","910689","0.0-12.0-0.30","","","",""
"5630","","{""P0_Q0"":""ㅅ,ㅜ,ㄷ,ㅣ,ㄱ"",""P0_Q1"":""(가능)""}","survey","92","916324","0.0-12.0-1.30","[]","","",""
"1620","TestRecordings/khwapan.wav","0","audio-button-response","93","917960","0.0-12.0-0.31","","","",""
"6991","","{""P0_Q0"":""ㅋ,ㅗ,ㅏ,ㅂ,ㅏ,ㄴ"",""P0_Q1"":""(불가능)""}","survey","94","924955","0.0-12.0-1.31","[]","","",""
"2882","TestRecordings/knothing.wav","0","audio-button-response","95","927852","0.0-12.0-0.32","","","",""
"7652","","{""P0_Q0"":""ㄱ,ㅡ,ㄴ,ㅗ,ㅅ,ㅌ,ㅣ,ㅇ"",""P0_Q1"":""(불가능)""}","survey","96","935508","0.0-12.0-1.32","[]","","",""
"2444","TestRecordings/mciphom.wav","0","audio-button-response","97","937967","0.0-12.0-0.33","","","",""
"8010","","{""P0_Q0"":""ㅇ,ㅡ,ㅇ,ㅈ,ㅣ,ㅍ,ㅗ,ㅁ"",""P0_Q1"":""(불가능)""}","survey","98","945981","0.0-12.0-1.33","[]","","",""
"1807","TestRecordings/mtunak.wav","0","audio-button-response","99","947803","0.0-12.0-0.34","","","",""
"12412","","{""P0_Q0"":""ㅇ,ㅡ,ㄴ,ㄷ,ㅜ,ㄴ,ㅏ,ㄱ"",""P0_Q1"":""(가능)""}","survey","100","960219","0.0-12.0-1.34","[]","","",""
"2135","TestRecordings/nthochap.wav","0","audio-button-response","101","962370","0.0-12.0-0.35","","","",""
"8613","","{""P0_Q0"":""ㅇ,ㅜ,ㅇ,ㅌ,ㅗ,ㅊ,ㅏ,ㅂ"",""P0_Q1"":""(가능)""}","survey","102","970987","0.0-12.0-1.35","[]","","",""
"2104","TestRecordings/mkithun.wav","0","audio-button-response","103","973114","0.0-12.0-0.36","","","",""
"8863","","{""P0_Q0"":""ㅇ,ㅡ,ㅁ,ㄱ,ㅣ,ㅌ,ㅜ,ㄴ"",""P0_Q1"":""(불가능)""}","survey","104","981981","0.0-12.0-1.36","[]","","",""
"3060","TestRecordings/khonik.wav","0","audio-button-response","105","985057","0.0-12.0-0.37","","","",""
"5344","","{""P0_Q0"":""ㅋ,ㅗ,ㄴ,ㅣ,ㄱ"",""P0_Q1"":""(가능)""}","survey","106","990406","0.0-12.0-1.37","[]","","",""
"1574","TestRecordings/chwap.wav","0","audio-button-response","107","991995","0.0-12.0-0.38","","","",""
"5341","","{""P0_Q0"":""ㅊ,ㅏ,ㅂ"",""P0_Q1"":""(가능)""}","survey","108","997340","0.0-12.0-1.38","[]","","",""
"1766","TestRecordings/nchup.wav","0","audio-button-response","109","999120","0.0-12.0-0.39","","","",""
"7267","","{""P0_Q0"":""ㅇ,ㅡ,ㄴ,ㅊ,ㅜ,ㄱ"",""P0_Q1"":""(가능)""}","survey","110","1006390","0.0-12.0-1.39","[]","","",""
"1655","TestRecordings/nchitam.wav","0","audio-button-response","111","1008062","0.0-12.0-0.40","","","",""
"17474","","{""P0_Q0"":""ㅇ,ㅜ,ㅇ,ㅊ,ㅣ,ㄷ,ㅏ,ㅁ"",""P0_Q1"":""(가능)""}","survey","112","1025540","0.0-12.0-1.40","[]","","",""
"2018","TestRecordings/phwing.wav","0","audio-button-response","113","1027573","0.0-12.0-0.41","","","",""
"7428","","{""P0_Q0"":""ㅌ,ㅡ,ㅇ,ㅜ,ㅣ,ㅇ"",""P0_Q1"":""(불가능)""}","survey","114","1035006","0.0-12.0-1.41","[]","","",""
"1618","TestRecordings/khmip.wav","0","audio-button-response","115","1036641","0.0-12.0-0.42","","","",""
"5451","","{""P0_Q0"":""ㅋ,ㅡ,ㅁ,ㅣ,ㅂ"",""P0_Q1"":""(불가능)""}","survey","116","1042096","0.0-12.0-1.42","[]","","",""
"1672","TestRecordings/mphithup.wav","0","audio-button-response","117","1043783","0.0-12.0-0.43","","","",""
"9968","","{""P0_Q0"":""ㅇ,ㅡ,ㄴ,ㅍ,ㅣ,ㅅ,ㅌ,ㅜ,ㅂ"",""P0_Q1"":""(불가능)""}","survey","118","1053756","0.0-12.0-1.43","[]","","",""
"1555","TestRecordings/thum.wav","0","audio-button-response","119","1055327","0.0-12.0-0.44","","","",""
"4712","","{""P0_Q0"":""ㅌ,ㅜ,ㅁ"",""P0_Q1"":""(가능)""}","survey","120","1060044","0.0-12.0-1.44","[]","","",""
"4379","TestRecordings/nthiton.wav","0","audio-button-response","121","1064441","0.0-12.0-0.45","","","",""
"13558","","{""P0_Q0"":""ㅇ,ㅡ,ㄴ,ㅌ,ㅣ,ㄷ,ㅜ,ㅁ"",""P0_Q1"":""(가능)""}","survey","122","1078003","0.0-12.0-1.45","[]","","",""
"1806","TestRecordings/khnichat.wav","0","audio-button-response","123","1079901","0.0-12.0-0.46","","","",""
"8957","","{""P0_Q0"":""ㅋ,ㅡ,ㄴ,ㅣ,ㅊ,ㅏ,ㅈ"",""P0_Q1"":""(불가능)""}","survey","124","1088864","0.0-12.0-1.46","[]","","",""
"1529","TestRecordings/nthunit.wav","0","audio-button-response","125","1090408","0.0-12.0-0.47","","","",""
"10062","","{""P0_Q0"":""ㅇ,ㅡ,ㄴ,ㅌ,ㅜ,ㄴ,ㅣㅅ"",""P0_Q1"":""(불가능)""}","survey","126","1100475","0.0-12.0-1.47","[]","","",""
"1607","TestRecordings/kwat.wav","0","audio-button-response","127","1102096","0.0-12.0-0.48","","","",""
"7436","","{""P0_Q0"":""ㄱ,ㅗ,ㅏ,ㅅ"",""P0_Q1"":""(가능)""}","survey","128","1109536","0.0-12.0-1.48","[]","","",""
"2581","TestRecordings/swicit.wav","0","audio-button-response","129","1112133","0.0-12.0-0.49","","","",""
"6564","","{""P0_Q0"":""ㅅ,ㅜ,ㅣ,ㅈ,ㅣ,ㅅ"",""P0_Q1"":""(불가능)""}","survey","130","1118701","0.0-12.0-1.49","[]","","",""
"1595","TestRecordings/takhut.wav","0","audio-button-response","131","1120311","0.0-12.0-0.50","","","",""
"6595","","{""P0_Q0"":""ㄷ,ㅏ,ㅋ,ㅜ,ㅅ"",""P0_Q1"":""(가능)""}","survey","132","1126910","0.0-12.0-1.50","[]","","",""
"1668","TestRecordings/pmuk.wav","0","audio-button-response","133","1128593","0.0-12.0-0.51","","","",""
"6582","","{""P0_Q0"":""ㅂ,ㅡ,ㅁ,ㅜ,ㅅ"",""P0_Q1"":""(불가능)""}","survey","134","1135180","0.0-12.0-1.51","[]","","",""
"3664","TestRecordings/phuthik.wav","0","audio-button-response","135","1138860","0.0-12.0-0.52","","","",""
"6683","","{""P0_Q0"":""ㅍ,ㅜ,ㅌ,ㅣ,ㄱ"",""P0_Q1"":""(불가능)""}","survey","136","1145547","0.0-12.0-1.52","[]","","",""
"1745","TestRecordings/pwacung.wav","0","audio-button-response","137","1147367","0.0-12.0-0.53","","","",""
"8577","","{""P0_Q0"":""ㅂ,ㅗ,ㅏ,ㅈ,ㅜ,ㅇ"",""P0_Q1"":""(가능)""}","survey","138","1155948","0.0-12.0-1.53","[]","","",""
"1609","TestRecordings/swapong.wav","0","audio-button-response","139","1157575","0.0-12.0-0.54","","","",""
"9188","","{""P0_Q0"":""ㅅ,ㅗ,ㅏ,ㅂ,ㅗ,ㅇ"",""P0_Q1"":""(불가능)""}","survey","140","1166768","0.0-12.0-1.54","[]","","",""
"1526","TestRecordings/chwakap.wav","0","audio-button-response","141","1168309","0.0-12.0-0.55","","","",""
"7890","","{""P0_Q0"":""ㅊ,ㅗ,ㅏ,ㄱ,ㅏ,ㅂ"",""P0_Q1"":""(가능)""}","survey","142","1176203","0.0-12.0-1.55","[]","","",""
"2514","TestRecordings/khmoting.wav","0","audio-button-response","143","1178734","0.0-12.0-0.56","","","",""
"6797","","{""P0_Q0"":""ㅋ,ㅡ,ㅁ,ㅗ,ㄷ,ㅣ,ㅇ"",""P0_Q1"":""(가능)""}","survey","144","1185535","0.0-12.0-1.56","[]","","",""
"1663","TestRecordings/twikhit.wav","0","audio-button-response","145","1187274","0.0-12.0-0.57","","","",""
"6630","","{""P0_Q0"":""ㄷ,ㅜ,ㅣ,ㅋ,ㅣ,ㅅ"",""P0_Q1"":""(불가능)""}","survey","146","1193908","0.0-12.0-1.57","[]","","",""
"2235","TestRecordings/phwim.wav","0","audio-button-response","147","1196159","0.0-12.0-0.58","","","",""
"5065","","{""P0_Q0"":""ㅌ,ㅜ,ㅣ,ㅁ"",""P0_Q1"":""(불가능)""}","survey","148","1201229","0.0-12.0-1.58","[]","","",""
"2064","TestRecordings/pmathin.wav","0","audio-button-response","149","1203318","0.0-12.0-0.59","","","",""
"8129","","{""P0_Q0"":""ㅌ,ㅡ,ㅁ,ㅏ,ㅌ,ㅣ,ㄴ"",""P0_Q1"":""(가능)""}","survey","150","1211451","0.0-12.0-1.59","[]","","",""
"1219",""," ","html-keyboard-response","151","1212670","0.0-13.0","","","",""
"42826","","{""P0_Q0"":""22"",""P0_Q1"":""남"",""P0_Q2"":""14"",""P0_Q3"":""x"",""P0_Q4"":""일본어"",""P0_Q5"":""14살부터 계속"",""P0_Q6"":""고등학교 때 일본어 조금 배웠습니다""}","survey","152","1255501","0.0-14.0","[]","","",""
"76134","<p style=""font-size:30px"",lang=""ko"">실험이 끝났습니다</p><p style=""font-size:30px"",lang=""ko"">참가해주셔서 고맙습니다</p>"," ","html-keyboard-response","153","1331636","0.0-15.0","","","",""
,