"rt","stimulus","response","trial_type","trial_index","time_elapsed","internal_node_id","accuracy","PracticeTest","ConsonantSequence","Grammaticality"
"90378","<p style=""font-size:30px"",lang=""ko"">실험에 오신 것을 환영합니다</p><p lang=""ko"">스페이스바를 누르면 다음 페이지로 넘어갑니다</p>"," ","html-keyboard-response","0","90380","0.0-0.0","","","",""
"2309","<p style=""font-size:30px"",lang=""ko"">해드폰을 본인에게 잘 맞게 착용하세요</p><p lang=""ko"">스페이스바를 누르면 다음 페이지로 넘어갑니다</p>"," ","html-keyboard-response","1","92689","0.0-1.0","","","",""
"6269","<p style=""font-size:30px"",lang=""ko"">이 실험에서는 새로 만든 한국 단어를 들으실 겁니다</p><p style=""font-size:30px"",lang=""ko"">단어를 들리는대로 쓰세요. 그런 다음 그 단어가 한국어 단어로 가능한지 평가하세요</p><p lang=""ko"">스페이스바를 누르면 다음 페이지로 넘어갑니다</p>"," ","html-keyboard-response","2","98959","0.0-2.0","","","",""
"1314","<p style=""font-size:30px"",lang=""ko"">원래 있는 단어로 예를 들어 봅시다</p><p lang=""ko"">스페이스바를 누르면 다음 페이지로 넘어갑니다</p>"," ","html-keyboard-response","3","100273","0.0-3.0","","","",""
"7566","PracticeRecordings/kom_bear.wav","0","audio-button-response","4","107859","0.0-4.0","","","",""
"3633","<p style=""font-size:30px"",lang=""ko"">이제 직접 단어를 듣고 쓰는 연습을 해봅시다. </p><p style=""font-size:30px"",lang=""ko"">스페이스바를 누르면 다음 페이지로 넘어갑니다</p>"," ","html-keyboard-response","5","111493","0.0-5.0","","","",""
"2848","PracticeRecordings/kirin_giraffe.wav","0","audio-button-response","6","114356","0.0-6.0-0.0","","","",""
"9915","kirin_giraffe","{""P0_Q0"":""ㄱ,ㅣ,ㄹ,ㅣ,ㄴ""}","survey","7","124296","0.0-6.0-1.0","[]","practice","NA","TRUE"
"3591","<p style=""font-size:30px"",lang=""ko"">방금 들으신 단어는 ""ㄱ,ㅣ,ㄹ,ㅣ,ㄴ"" 이라고 쓰시면 됩니다</p><p lang=""ko"">스페이스바를 누르면 다음 페이지로 넘어갑니다</p>"," ","html-keyboard-response","8","127888","0.0-6.0-2.0","","","",""
"2585","PracticeRecordings/saca_lion.wav","0","audio-button-response","9","130489","0.0-6.0-0.1","","","",""
"5738","saca_lion","{""P0_Q0"":""ㅅ,ㅏ,ㅈ,ㅏ""}","survey","10","136232","0.0-6.0-1.1","[]","practice","NA","FALSE"
"3171","<p style=""font-size:30px"",lang=""ko"">방금 들으신 단어는 ""ㅅ,ㅏ,ㅈ,ㅏ"" 라고 쓰시면 됩니다</p><p lang=""ko"">스페이스바를 누르면 다음 페이지로 넘어갑니다</p>"," ","html-keyboard-response","11","139403","0.0-6.0-2.1","","","",""
"2923","PracticeRecordings/saseum_deer.wav","0","audio-button-response","12","142342","0.0-6.0-0.2","","","",""
"6146","saseum_deer","{""P0_Q0"":""ㅅ,ㅏ,ㅅ,ㅡ,ㅁ""}","survey","13","148493","0.0-6.0-1.2","[]","practice","NA","FALSE"
"1417","<p style=""font-size:30px"",lang=""ko"">방금 들으신 단어는 ""ㅅ,ㅏ,ㅅ,ㅡ,ㅁ""이라고 쓰시면 됩니다</p><p lang=""ko"">스페이스바를 누르면 다음 페이지로 넘어갑니다</p>"," ","html-keyboard-response","14","149910","0.0-6.0-2.2","","","",""
"2768","PracticeRecordings/thokki_rabbit.wav","0","audio-button-response","15","152693","0.0-6.0-0.3","","","",""
"8122","thokki_rabbit","{""P0_Q0"":""ㅌ,ㅗ,ㄲ,ㅣ""}","survey","16","160819","0.0-6.0-1.3","[]","practice","NA","FALSE"
"2023","<p style=""font-size:30px"",lang=""ko"">방금 들으신 단어는 ""ㅌ,ㅗ,ㄲ,ㅣ"" 라고 쓰시면 됩니다</p><p lang=""ko"">스페이스바를 누르면 다음 페이지로 넘어갑니다</p>"," ","html-keyboard-response","17","162843","0.0-6.0-2.3","","","",""
"2140","<p style=""font-size:30px"",lang=""ko"">이제 만든 단어로 연습해봅시다.</p><p lang=""ko"">스페이스바를 누르면 다음 페이지로 넘어갑니다</p>"," ","html-keyboard-response","18","164983","0.0-7.0","","","",""
"2749","PracticeRecordings/snen.wav","0","audio-button-response","19","167747","0.0-8.0-0.0","","","",""
"12126","snen","{""P0_Q0"":""ㅅ,ㅡ,ㄴ,ㅔ,ㄴ""}","survey","20","179878","0.0-8.0-1.0","[]","practice","NA","TRUE"
"6468","<p style=""font-size:30px"",lang=""ko"">들으신 단어는 <br> ""ㅅ,ㅡ,ㄴ,ㅐ,ㄴ""  ""ㅅ,ㅡ,ㄴ,ㅐ"" ""ㅅ,ㄴ,ㅐ,ㄴ (""으"" 소리가 안 들리는 경우)"" 등 <br> 사람에 따라 다양하게 들릴 수 있습니다 <br> 본인에게 들리는대로 쓰시면 됩니다.</p><p lang=""ko"">스페이스바를 누르면 다음 페이지로 넘어갑니다</p>"," ","html-keyboard-response","21","186347","0.0-8.0-2.0","","","",""
"2184","PracticeRecordings/phrak.wav","0","audio-button-response","22","188544","0.0-8.0-0.1","","","",""
"8908","phrak","{""P0_Q0"":""ㅍ,ㅡ,ㄹ,ㅏ,ㄱ""}","survey","23","197456","0.0-8.0-1.1","[]","practice","NA","FALSE"
"8057","<p style=""font-size:30px"",lang=""ko"">들으신 단어는 <br> ""ㅍ,ㅡ,ㄹ,ㅏ,ㄱ"" ""ㅍ,ㅡ,ㄹ,ㅏ,ㅅ"" ""ㅋ,ㅡ,ㄹ,ㅏ,ㄱ"" ""ㅍ,ㄹ,ㅏ,ㄱ (""으"" 소리가 안 들리는 경우)"" 등 <br> 사람에 따라 다양하게 들릴 수 있습니다 <br> 본인에게 들리는대로 쓰시면 됩니다.</p><p lang=""ko"">스페이스바를 누르면 다음 페이지로 넘어갑니다</p>"," ","html-keyboard-response","24","205513","0.0-8.0-2.1","","","",""
"2495","PracticeRecordings/chka.wav","0","audio-button-response","25","208023","0.0-8.0-0.2","","","",""
"7729","chka","{""P0_Q0"":""ㅊ,ㅡ,ㄱ,ㅏ""}","survey","26","215756","0.0-8.0-1.2","[]","practice","NA","FALSE"
"2685","<p style=""font-size:30px"",lang=""ko"">들으신 단어는 ""ㅊ,ㅣ,ㄱ,ㅏ"", ""ㅊ,ㅡ,ㄱ,ㅏ"", ""ㅊ,ㄱ,ㅏ"", ""ㅊ,ㅟ,ㄱ,ㅏ"" 등 <br> 사람에 따라 다양하게 들릴 수 있습니다. <br> 본인에게 들리는대로 쓰시면 됩니다.</p><p lang=""ko"">스페이스바를 누르면 다음 페이지로 넘어갑니다</p>"," ","html-keyboard-response","27","218441","0.0-8.0-2.2","","","",""
"3562",""," ","html-keyboard-response","28","222004","0.0-9.0","","","",""
"1944","<p style=""font-size:30px"",lang=""ko"">이제 실험을 시작하겠습니다.</p><p style=""font-size:30px"",lang=""ko"">실전에서는 각각의 만든 단어를 한 번씩만 들을 수 있습니다.</p>"," ","html-keyboard-response","29","223948","0.0-10.0","","","",""
"1124","<p style=""font-size:30px"",lang=""ko"">단어를 풀어 쓰신 후에 그 단어가 한국어로 가능한 단어인지 평가해주세요</p><p lang=""ko"">스페이스바를 누르면 다음 페이지로 넘어갑니다</p>"," ","html-keyboard-response","30","225072","0.0-11.0","","","",""
"3005","TestRecordings/cwang.wav","0","audio-button-response","31","228091","0.0-12.0-0.0","","","",""
"40348","","{""P0_Q0"":""ㅈ,ㅡ,ㅇ,ㅘ,ㅇ"",""P0_Q1"":""(가능)""}","survey","32","268447","0.0-12.0-1.0","[]","","",""
"2547","TestRecordings/thum.wav","0","audio-button-response","33","271010","0.0-12.0-0.1","","","",""
"11715","","{""P0_Q0"":""ㅌ,ㅜ,ㅁ"",""P0_Q1"":""(불가능)""}","survey","34","282731","0.0-12.0-1.1","[]","","",""
"2805","TestRecordings/khnichat.wav","0","audio-button-response","35","285550","0.0-12.0-0.2","","","",""
"15069","","{""P0_Q0"":""ㅋ,ㅡ,ㄴ,ㅣ,ㅊ,ㅏ,ㅅ"",""P0_Q1"":""(불가능)""}","survey","36","300624","0.0-12.0-1.2","[]","","",""
"2420","TestRecordings/mtunak.wav","0","audio-button-response","37","303058","0.0-12.0-0.3","","","",""
"23376","","{""P0_Q0"":""ㅇ,ㅜ,ㄴ,ㄷ,ㅜ,ㅁ,ㅏ,ㄱ"",""P0_Q1"":""(가능)""}","survey","38","326438","0.0-12.0-1.3","[]","","",""
"2539","TestRecordings/phmut.wav","0","audio-button-response","39","328992","0.0-12.0-0.4","","","",""
"16992","","{""P0_Q0"":""ㅌ,ㅜ,ㅁ,ㅜ,ㅅ"",""P0_Q1"":""(불가능)""}","survey","40","345989","0.0-12.0-1.4","[]","","",""
"1877","TestRecordings/swicit.wav","0","audio-button-response","41","347880","0.0-12.0-0.5","","","",""
"10803","","{""P0_Q0"":""ㅅ,ㅟ,ㅈ,ㅣ,ㅅ"",""P0_Q1"":""(불가능)""}","survey","42","358687","0.0-12.0-1.5","[]","","",""
"1985","TestRecordings/pmisung.wav","0","audio-button-response","43","360687","0.0-12.0-0.6","","","",""
"11715","","{""P0_Q0"":""ㅁ,ㅣ,ㅅ,ㅜ,ㅇ"",""P0_Q1"":""(가능)""}","survey","44","372406","0.0-12.0-1.6","[]","","",""
"1813","TestRecordings/nucok.wav","0","audio-button-response","45","374233","0.0-12.0-0.7","","","",""
"12470","","{""P0_Q0"":""ㄴ,ㅜ,ㅈ,ㅗ,ㄱ"",""P0_Q1"":""(가능)""}","survey","46","386707","0.0-12.0-1.7","[]","","",""
"2209","TestRecordings/kophak.wav","0","audio-button-response","47","388930","0.0-12.0-0.8","","","",""
"8602","","{""P0_Q0"":""ㄱ,ㅗ,ㅍ,ㅏ,ㄱ"",""P0_Q1"":""(불가능)""}","survey","48","397536","0.0-12.0-1.8","[]","","",""
"2370","TestRecordings/nthochap.wav","0","audio-button-response","49","399920","0.0-12.0-0.9","","","",""
"16022","","{""P0_Q0"":""ㅇ,ㅜ,ㅇ,ㅌ,ㅗ,ㅊ,ㅏ,ㅂ"",""P0_Q1"":""(가능)""}","survey","50","415946","0.0-12.0-1.9","[]","","",""
"2001","TestRecordings/knothing.wav","0","audio-button-response","51","417960","0.0-12.0-0.10","","","",""
"17505","","{""P0_Q0"":""ㅋ,ㅡ,ㄴ,ㅗ,ㅌ,ㅣ,ㅇ"",""P0_Q1"":""(불가능)""}","survey","52","435470","0.0-12.0-1.10","[]","","",""
"2470","TestRecordings/swakhing.wav","0","audio-button-response","53","437956","0.0-12.0-0.11","","","",""
"15398","","{""P0_Q0"":""ㅅ,ㅘ,ㅋ,ㅣ,ㅇ"",""P0_Q1"":""(불가능)""}","survey","54","453358","0.0-12.0-1.11","[]","","",""
"3512","TestRecordings/siphuk.wav","0","audio-button-response","55","456882","0.0-12.0-0.12","","","",""
"19869","","{""P0_Q0"":""ㅅ,ㅣ,ㅍ,ㅜ,ㄱ"",""P0_Q1"":""(가능)""}","survey","56","476756","0.0-12.0-1.12","[]","","",""
"3619","TestRecordings/phmacot.wav","0","audio-button-response","57","480390","0.0-12.0-0.13","","","",""
"14295","","{""P0_Q0"":""ㅍ,ㅡ,ㅁ,ㅏ,ㅈ,ㅗ,ㅅ"",""P0_Q1"":""(불가능)""}","survey","58","494691","0.0-12.0-1.13","[]","","",""
"2729","TestRecordings/knop.wav","0","audio-button-response","59","497434","0.0-12.0-0.14","","","",""
"14184","","{""P0_Q0"":""ㅋ,ㅡ,ㄴ,ㅗ,ㅂ"",""P0_Q1"":""(불가능)""}","survey","60","511623","0.0-12.0-1.14","[]","","",""
"3535","TestRecordings/phuthik.wav","0","audio-button-response","61","515171","0.0-12.0-0.15","","","",""
"10680","","{""P0_Q0"":""ㅍ,ㅜ,ㅌ,ㅣ,ㅋ,ㅡ"",""P0_Q1"":""(불가능)""}","survey","62","525856","0.0-12.0-1.15","[]","","",""
"2153","TestRecordings/cwiphing.wav","0","audio-button-response","63","528024","0.0-12.0-0.16","","","",""
"8379","","{""P0_Q0"":""ㅈ,ㅟ,ㅍ,ㅣ,ㅇ"",""P0_Q1"":""(불가능)""}","survey","64","536407","0.0-12.0-1.16","[]","","",""
"2732","TestRecordings/nthiton.wav","0","audio-button-response","65","539153","0.0-12.0-0.17","","","",""
"13721","","{""P0_Q0"":""ㅇ,ㅜ,ㅇ,ㅌ,ㅣ,ㅈ,ㅗ,ㄴ"",""P0_Q1"":""(불가능)""}","survey","66","552879","0.0-12.0-1.17","[]","","",""
"1637","TestRecordings/chwap.wav","0","audio-button-response","67","554529","0.0-12.0-0.18","","","",""
"6965","","{""P0_Q0"":""ㅊ,ㅘ,ㅂ"",""P0_Q1"":""(가능)""}","survey","68","561498","0.0-12.0-1.18","[]","","",""
"2863","TestRecordings/phwing.wav","0","audio-button-response","69","564375","0.0-12.0-0.19","","","",""
"13460","","{""P0_Q0"":""ㅍ,ㅡ,ㅇ,ㅣ,ㅇ"",""P0_Q1"":""(불가능)""}","survey","70","577839","0.0-12.0-1.19","[]","","",""
"1808","TestRecordings/thnakop.wav","0","audio-button-response","71","579661","0.0-12.0-0.20","","","",""
"12452","","{""P0_Q0"":""ㅌ,ㅡ,ㄴ,ㅏ,ㄱ,ㅗ,ㅂ"",""P0_Q1"":""(가능)""}","survey","72","592116","0.0-12.0-1.20","[]","","",""
"2216","TestRecordings/pmathin.wav","0","audio-button-response","73","594346","0.0-12.0-0.21","","","",""
"11255","","{""P0_Q0"":""ㅌ,ㅡ,ㅁ,ㅏ,ㅌ,ㅣ,ㄴ"",""P0_Q1"":""(불가능)""}","survey","74","605605","0.0-12.0-1.21","[]","","",""
"2524","TestRecordings/nchup.wav","0","audio-button-response","75","608143","0.0-12.0-0.22","","","",""
"9616","","{""P0_Q0"":""ㅇ,ㅡ,ㅇ,ㅊ,ㅜ,ㄱ"",""P0_Q1"":""(가능)""}","survey","76","617763","0.0-12.0-1.22","[]","","",""
"2108","TestRecordings/nchitam.wav","0","audio-button-response","77","619886","0.0-12.0-0.23","","","",""
"14490","","{""P0_Q0"":""ㅇ,ㅜ,ㅇ,ㅊ,ㅣ,ㄷ,ㅏ,ㅁ"",""P0_Q1"":""(가능)""}","survey","78","634381","0.0-12.0-1.23","[]","","",""
"1764","TestRecordings/cmot.wav","0","audio-button-response","79","636158","0.0-12.0-0.24","","","",""
"9856","","{""P0_Q0"":""ㅈ,ㅣ,ㅁ,ㅗ,ㅅ"",""P0_Q1"":""(불가능)""}","survey","80","646020","0.0-12.0-1.24","[]","","",""
"1837","TestRecordings/sutik.wav","0","audio-button-response","81","647871","0.0-12.0-0.25","","","",""
"9636","","{""P0_Q0"":""ㅅ,ㅜ,ㄷ,ㅣ,ㄱ"",""P0_Q1"":""(불가능)""}","survey","82","657511","0.0-12.0-1.25","[]","","",""
"2129","TestRecordings/npokit.wav","0","audio-button-response","83","659654","0.0-12.0-0.26","","","",""
"12515","","{""P0_Q0"":""ㅇ,ㅡ,ㅇ,ㅂ,ㅗ,ㄱ,ㅣ"",""P0_Q1"":""(가능)""}","survey","84","672174","0.0-12.0-1.26","[]","","",""
"2310","TestRecordings/ntosin.wav","0","audio-button-response","85","674498","0.0-12.0-0.27","","","",""
"13032","","{""P0_Q0"":""ㅇ,ㅣ,ㄴ,ㄷ,ㅗ,ㅅ,ㅣ,ㄴ"",""P0_Q1"":""(가능)""}","survey","86","687534","0.0-12.0-1.27","[]","","",""
"2221","TestRecordings/chut.wav","0","audio-button-response","87","689768","0.0-12.0-0.28","","","",""
"6035","","{""P0_Q0"":""ㅊ,ㅜ,ㅅ"",""P0_Q1"":""(불가능)""}","survey","88","695807","0.0-12.0-1.28","[]","","",""
"1827","TestRecordings/mphithup.wav","0","audio-button-response","89","697649","0.0-12.0-0.29","","","",""
"10846","","{""P0_Q0"":""ㅇ,ㅡ,ㅇ,ㅍ,ㅣ,ㅌ,ㅜ,ㅂ"",""P0_Q1"":""(불가능)""}","survey","90","708498","0.0-12.0-1.29","[]","","",""
"1832","TestRecordings/chwakap.wav","0","audio-button-response","91","710344","0.0-12.0-0.30","","","",""
"10132","","{""P0_Q0"":""ㅊ,ㅘ,ㄱ,ㅏ,ㅂ"",""P0_Q1"":""(불가능)""}","survey","92","720481","0.0-12.0-1.30","[]","","",""
"1489","TestRecordings/kwat.wav","0","audio-button-response","93","721984","0.0-12.0-0.31","","","",""
"7571","","{""P0_Q0"":""ㄱ,ㅘ,ㅅ"",""P0_Q1"":""(가능)""}","survey","94","729559","0.0-12.0-1.31","[]","","",""
"2089","TestRecordings/nthunit.wav","0","audio-button-response","95","731661","0.0-12.0-0.32","","","",""
"12391","","{""P0_Q0"":""ㅇ,ㅡ,ㅇ,ㅌ,ㅜ,ㄴ,ㅣ,ㅅ"",""P0_Q1"":""(가능)""}","survey","96","744057","0.0-12.0-1.32","[]","","",""
"1951","TestRecordings/takhut.wav","0","audio-button-response","97","746022","0.0-12.0-0.33","","","",""
"11697","","{""P0_Q0"":""ㄷ,ㅏ,ㄱ,ㅋ,ㅜ"",""P0_Q1"":""(불가능)""}","survey","98","757722","0.0-12.0-1.33","[]","","",""
"1503","TestRecordings/cut.wav","0","audio-button-response","99","759238","0.0-12.0-0.34","","","",""
"6273","","{""P0_Q0"":""ㅈ,ㅜ,ㅅ"",""P0_Q1"":""(불가능)""}","survey","100","765516","0.0-12.0-1.34","[]","","",""
"1850","TestRecordings/niphak.wav","0","audio-button-response","101","767379","0.0-12.0-0.35","","","",""
"8176","","{""P0_Q0"":""ㄴ,ㅣ,ㅍ,ㅏ,ㄱ"",""P0_Q1"":""(불가능)""}","survey","102","775559","0.0-12.0-1.35","[]","","",""
"1808","TestRecordings/khnacin.wav","0","audio-button-response","103","777382","0.0-12.0-0.36","","","",""
"8619","","{""P0_Q0"":""ㅋ,ㅡ,ㄴ,ㅏ,ㅈ,ㅣ,ㄴ"",""P0_Q1"":""(불가능)""}","survey","104","786005","0.0-12.0-1.36","[]","","",""
"1816","TestRecordings/pathik.wav","0","audio-button-response","105","787835","0.0-12.0-0.37","","","",""
"10039","","{""P0_Q0"":""ㅂ,ㅏ,ㅌ,ㅣ,ㄱ"",""P0_Q1"":""(불가능)""}","survey","106","797879","0.0-12.0-1.37","[]","","",""
"1618","TestRecordings/ncuk.wav","0","audio-button-response","107","799511","0.0-12.0-0.38","","","",""
"11778","","{""P0_Q0"":""ㅇ,ㅗ,ㅇ,ㅈ,ㅜ,ㅂ"",""P0_Q1"":""(가능)""}","survey","108","811292","0.0-12.0-1.38","[]","","",""
"1682","TestRecordings/phwim.wav","0","audio-button-response","109","812988","0.0-12.0-0.39","","","",""
"7295","","{""P0_Q0"":""ㅋ,ㅟ,ㅁ"",""P0_Q1"":""(불가능)""}","survey","110","820287","0.0-12.0-1.39","[]","","",""
"1851","TestRecordings/thwicap.wav","0","audio-button-response","111","822152","0.0-12.0-0.40","","","",""
"15037","","{""P0_Q0"":""ㅌ,ㅟ,ㅈ,ㅏ,ㅂ"",""P0_Q1"":""(불가능)""}","survey","112","837194","0.0-12.0-1.40","[]","","",""
"2071","TestRecordings/khmip.wav","0","audio-button-response","113","839279","0.0-12.0-0.41","","","",""
"13729","","{""P0_Q0"":""ㅋ,ㅡ,ㅁ,ㅣ,ㅅ"",""P0_Q1"":""(불가능)""}","survey","114","853012","0.0-12.0-1.41","[]","","",""
"1663","TestRecordings/thnukip.wav","0","audio-button-response","115","854688","0.0-12.0-0.42","","","",""
"13005","","{""P0_Q0"":""ㅌ,ㅡ,ㄴ,ㅜ,ㄱ,ㅣ,ㅂ"",""P0_Q1"":""(불가능)""}","survey","116","867697","0.0-12.0-1.42","[]","","",""
"1660","TestRecordings/masuk.wav","0","audio-button-response","117","869370","0.0-12.0-0.43","","","",""
"6596","","{""P0_Q0"":""ㅁ,ㅏ,ㅅ,ㅜ,ㄱ"",""P0_Q1"":""(가능)""}","survey","118","875971","0.0-12.0-1.43","[]","","",""
"1660","TestRecordings/twikhit.wav","0","audio-button-response","119","877644","0.0-12.0-0.44","","","",""
"16704","","{""P0_Q0"":""ㄷ,ㅟ,ㅋ,ㅣ,ㅅ"",""P0_Q1"":""(불가능)""}","survey","120","894353","0.0-12.0-1.44","[]","","",""
"1915","TestRecordings/khwapan.wav","0","audio-button-response","121","896283","0.0-12.0-0.45","","","",""
"11816","","{""P0_Q0"":""ㅋ,ㅘ,ㅂ,ㅏ,ㄴ"",""P0_Q1"":""(불가능)""}","survey","122","908104","0.0-12.0-1.45","[]","","",""
"1956","TestRecordings/swapong.wav","0","audio-button-response","123","910073","0.0-12.0-0.46","","","",""
"7715","","{""P0_Q0"":""ㅅ,ㅘ,ㅂ,ㅗ,ㅇ"",""P0_Q1"":""(불가능)""}","survey","124","917792","0.0-12.0-1.46","[]","","",""
"1887","TestRecordings/cwasop.wav","0","audio-button-response","125","919696","0.0-12.0-0.47","","","",""
"8699","","{""P0_Q0"":""ㅈ,ㅘ,ㅅ,ㅗ,ㅂ"",""P0_Q1"":""(불가능)""}","survey","126","928400","0.0-12.0-1.47","[]","","",""
"1969","TestRecordings/pwacung.wav","0","audio-button-response","127","930383","0.0-12.0-0.48","","","",""
"8736","","{""P0_Q0"":""ㅂ,ㅘ,ㅈ,ㅜ,ㅇ"",""P0_Q1"":""(가능)""}","survey","128","939124","0.0-12.0-1.48","[]","","",""
"2008","TestRecordings/nchak.wav","0","audio-button-response","129","941146","0.0-12.0-0.49","","","",""
"6828","","{""P0_Q0"":""ㅇ,ㅜ,ㅇ,ㅊ,ㅏ,ㄱ"",""P0_Q1"":""(가능)""}","survey","130","947978","0.0-12.0-1.49","[]","","",""
"1568","TestRecordings/pmuk.wav","0","audio-button-response","131","949558","0.0-12.0-0.50","","","",""
"7745","","{""P0_Q0"":""ㄷ,ㅡ,ㅁ,ㅜ,ㄱ"",""P0_Q1"":""(불가능)""}","survey","132","957307","0.0-12.0-1.50","[]","","",""
"1567","TestRecordings/mip.wav","0","audio-button-response","133","958887","0.0-12.0-0.51","","","",""
"4662","","{""P0_Q0"":""ㅁ,ㅣ,ㅂ"",""P0_Q1"":""(불가능)""}","survey","134","963554","0.0-12.0-1.51","[]","","",""
"1825","TestRecordings/nchat.wav","0","audio-button-response","135","965393","0.0-12.0-0.52","","","",""
"14323","","{""P0_Q0"":""ㅇ,ㅜ,ㅇ,ㅊ,ㅏ,ㅅ"",""P0_Q1"":""(불가능)""}","survey","136","979721","0.0-12.0-1.52","[]","","",""
"1725","TestRecordings/phninot.wav","0","audio-button-response","137","981461","0.0-12.0-0.53","","","",""
"18320","","{""P0_Q0"":""ㅍ,ㅡ,ㅁ,ㅣ,ㄴ,ㅗ,ㅅ"",""P0_Q1"":""(불가능)""}","survey","138","999786","0.0-12.0-1.53","[]","","",""
"2005","TestRecordings/khmoting.wav","0","audio-button-response","139","1001805","0.0-12.0-0.54","","","",""
"16963","","{""P0_Q0"":""ㅋ,ㅡ,ㅁ,ㅗ,ㄴ,ㅣ,ㅇ"",""P0_Q1"":""(불가능)""}","survey","140","1018771","0.0-12.0-1.54","[]","","",""
"2376","TestRecordings/mkithun.wav","0","audio-button-response","141","1021162","0.0-12.0-0.55","","","",""
"11657","","{""P0_Q0"":""ㅇ,ㅡ,ㅇ,ㄱ,ㅣ,ㅌ,ㅜ,ㄴ"",""P0_Q1"":""(불가능)""}","survey","142","1032824","0.0-12.0-1.55","[]","","",""
"1671","TestRecordings/khonik.wav","0","audio-button-response","143","1034512","0.0-12.0-0.56","","","",""
"10309","","{""P0_Q0"":""ㅋ,ㅗ,ㄴ,ㅣ,ㄱ"",""P0_Q1"":""(불가능)""}","survey","144","1044825","0.0-12.0-1.56","[]","","",""
"1906","TestRecordings/mciphom.wav","0","audio-button-response","145","1046745","0.0-12.0-0.57","","","",""
"13608","","{""P0_Q0"":""ㅇ,ㅡ,ㅇ,ㅈ,ㅣ,ㅍ,ㅗ,ㅁ"",""P0_Q1"":""(가능)""}","survey","146","1060358","0.0-12.0-1.57","[]","","",""
"2134","TestRecordings/khun.wav","0","audio-button-response","147","1062507","0.0-12.0-0.58","","","",""
"5447","","{""P0_Q0"":""ㅋ,ㅜ,ㄴ"",""P0_Q1"":""(불가능)""}","survey","148","1067958","0.0-12.0-1.58","[]","","",""
"1538","TestRecordings/mtak.wav","0","audio-button-response","149","1069510","0.0-12.0-0.59","","","",""
"14683","","{""P0_Q0"":""ㅇ,ㅡ,ㅇ,ㄷ,ㅏ,ㄱ"",""P0_Q1"":""(불가능)""}","survey","150","1084197","0.0-12.0-1.59","[]","","",""
"13843",""," ","html-keyboard-response","151","1098039","0.0-13.0","","","",""
"102311","","{""P0_Q0"":""23"",""P0_Q1"":""여"",""P0_Q2"":""8살"",""P0_Q3"":""12살, 한달"",""P0_Q4"":""독일어"",""P0_Q5"":""23살에 6개월간"",""P0_Q6"":""일본어 취미로 여행 회화로 배웠습니다""}","survey","152","1200356","0.0-14.0","[]","","",""
"11079","<p style=""font-size:30px"",lang=""ko"">실험이 끝났습니다</p><p style=""font-size:30px"",lang=""ko"">참가해주셔서 고맙습니다</p>","enter","html-keyboard-response","153","1211436","0.0-15.0","","","",""
,