"rt","stimulus","response","trial_type","trial_index","time_elapsed","internal_node_id","accuracy","PracticeTest","ConsonantSequence","Grammaticality"
"15270","<p style=""font-size:30px"",lang=""ko"">실험에 오신 것을 환영합니다</p><p lang=""ko"">스페이스바를 누르면 다음 페이지로 넘어갑니다</p>"," ","html-keyboard-response","0","15272","0.0-0.0","","","",""
"2338","<p style=""font-size:30px"",lang=""ko"">해드폰을 본인에게 잘 맞게 착용하세요</p><p lang=""ko"">스페이스바를 누르면 다음 페이지로 넘어갑니다</p>"," ","html-keyboard-response","1","17611","0.0-1.0","","","",""
"10481","<p style=""font-size:30px"",lang=""ko"">이 실험에서는 새로 만든 한국 단어를 들으실 겁니다</p><p style=""font-size:30px"",lang=""ko"">단어를 들리는대로 쓰세요. 그런 다음 그 단어가 한국어 단어로 가능한지 평가하세요</p><p lang=""ko"">스페이스바를 누르면 다음 페이지로 넘어갑니다</p>"," ","html-keyboard-response","2","28092","0.0-2.0","","","",""
"1652","<p style=""font-size:30px"",lang=""ko"">원래 있는 단어로 예를 들어 봅시다</p><p lang=""ko"">스페이스바를 누르면 다음 페이지로 넘어갑니다</p>"," ","html-keyboard-response","3","29744","0.0-3.0","","","",""
"4969","PracticeRecordings/kom_bear.wav","0","audio-button-response","4","34763","0.0-4.0","","","",""
"2652","<p style=""font-size:30px"",lang=""ko"">이제 직접 단어를 듣고 쓰는 연습을 해봅시다. </p><p style=""font-size:30px"",lang=""ko"">스페이스바를 누르면 다음 페이지로 넘어갑니다</p>"," ","html-keyboard-response","5","37415","0.0-5.0","","","",""
"9168","PracticeRecordings/kirin_giraffe.wav","0","audio-button-response","6","46670","0.0-6.0-0.0","","","",""
"9241","kirin_giraffe","{""P0_Q0"":""ㄱ,ㅣ,ㄹ,ㅣ,ㄴ""}","survey","7","55948","0.0-6.0-1.0","[]","practice","NA","TRUE"
"2507","<p style=""font-size:30px"",lang=""ko"">방금 들으신 단어는 ""ㄱ,ㅣ,ㄹ,ㅣ,ㄴ"" 이라고 쓰시면 됩니다</p><p lang=""ko"">스페이스바를 누르면 다음 페이지로 넘어갑니다</p>"," ","html-keyboard-response","8","58455","0.0-6.0-2.0","","","",""
"1801","PracticeRecordings/saca_lion.wav","0","audio-button-response","9","60331","0.0-6.0-0.1","","","",""
"5092","saca_lion","{""P0_Q0"":""ㅅ,ㅏ,ㅈ,ㅏ""}","survey","10","65432","0.0-6.0-1.1","[]","practice","NA","FALSE"
"1497","<p style=""font-size:30px"",lang=""ko"">방금 들으신 단어는 ""ㅅ,ㅏ,ㅈ,ㅏ"" 라고 쓰시면 됩니다</p><p lang=""ko"">스페이스바를 누르면 다음 페이지로 넘어갑니다</p>"," ","html-keyboard-response","11","66930","0.0-6.0-2.1","","","",""
"2145","PracticeRecordings/saseum_deer.wav","0","audio-button-response","12","69098","0.0-6.0-0.2","","","",""
"5049","saseum_deer","{""P0_Q0"":""ㅅ,ㅏ,ㅅ,ㅡ,ㅁ""}","survey","13","74157","0.0-6.0-1.2","[]","practice","NA","FALSE"
"955","<p style=""font-size:30px"",lang=""ko"">방금 들으신 단어는 ""ㅅ,ㅏ,ㅅ,ㅡ,ㅁ""이라고 쓰시면 됩니다</p><p lang=""ko"">스페이스바를 누르면 다음 페이지로 넘어갑니다</p>"," ","html-keyboard-response","14","75113","0.0-6.0-2.2","","","",""
"1477","PracticeRecordings/thokki_rabbit.wav","0","audio-button-response","15","76675","0.0-6.0-0.3","","","",""
"8917","thokki_rabbit","{""P0_Q0"":""ㅌ,ㅗ,ㄲ,ㅣ""}","survey","16","85600","0.0-6.0-1.3","[]","practice","NA","FALSE"
"2109","<p style=""font-size:30px"",lang=""ko"">방금 들으신 단어는 ""ㅌ,ㅗ,ㄲ,ㅣ"" 라고 쓰시면 됩니다</p><p lang=""ko"">스페이스바를 누르면 다음 페이지로 넘어갑니다</p>"," ","html-keyboard-response","17","87709","0.0-6.0-2.3","","","",""
"1354","<p style=""font-size:30px"",lang=""ko"">이제 만든 단어로 연습해봅시다.</p><p lang=""ko"">스페이스바를 누르면 다음 페이지로 넘어갑니다</p>"," ","html-keyboard-response","18","89063","0.0-7.0","","","",""
"3367","PracticeRecordings/snen.wav","0","audio-button-response","19","92453","0.0-8.0-0.0","","","",""
"6864","snen","{""P0_Q0"":""ㅅ,ㅡ,ㄴ,ㅐ,ㄴ""}","survey","20","99325","0.0-8.0-1.0","[]","practice","NA","TRUE"
"5756","<p style=""font-size:30px"",lang=""ko"">들으신 단어는 <br> ""ㅅ,ㅡ,ㄴ,ㅐ,ㄴ""  ""ㅅ,ㅡ,ㄴ,ㅐ"" ""ㅅ,ㄴ,ㅐ,ㄴ (""으"" 소리가 안 들리는 경우)"" 등 <br> 사람에 따라 다양하게 들릴 수 있습니다 <br> 본인에게 들리는대로 쓰시면 됩니다.</p><p lang=""ko"">스페이스바를 누르면 다음 페이지로 넘어갑니다</p>"," ","html-keyboard-response","21","105083","0.0-8.0-2.0","","","",""
"2922","PracticeRecordings/phrak.wav","0","audio-button-response","22","108103","0.0-8.0-0.1","","","",""
"7545","phrak","{""P0_Q0"":""ㅍ,ㅡ,ㄹ,ㅏ,ㄱ""}","survey","23","115654","0.0-8.0-1.1","[]","practice","NA","FALSE"
"3711","<p style=""font-size:30px"",lang=""ko"">들으신 단어는 <br> ""ㅍ,ㅡ,ㄹ,ㅏ,ㄱ"" ""ㅍ,ㅡ,ㄹ,ㅏ,ㅅ"" ""ㅋ,ㅡ,ㄹ,ㅏ,ㄱ"" ""ㅍ,ㄹ,ㅏ,ㄱ (""으"" 소리가 안 들리는 경우)"" 등 <br> 사람에 따라 다양하게 들릴 수 있습니다 <br> 본인에게 들리는대로 쓰시면 됩니다.</p><p lang=""ko"">스페이스바를 누르면 다음 페이지로 넘어갑니다</p>"," ","html-keyboard-response","24","119366","0.0-8.0-2.1","","","",""
"3969","PracticeRecordings/chka.wav","0","audio-button-response","25","123421","0.0-8.0-0.2","","","",""
"6584","chka","{""P0_Q0"":""ㅅ,ㅡ,ㄲ,ㅏ""}","survey","26","130011","0.0-8.0-1.2","[]","practice","NA","FALSE"
"3144","<p style=""font-size:30px"",lang=""ko"">들으신 단어는 ""ㅊ,ㅣ,ㄱ,ㅏ"", ""ㅊ,ㅡ,ㄱ,ㅏ"", ""ㅊ,ㄱ,ㅏ"", ""ㅊ,ㅟ,ㄱ,ㅏ"" 등 <br> 사람에 따라 다양하게 들릴 수 있습니다. <br> 본인에게 들리는대로 쓰시면 됩니다.</p><p lang=""ko"">스페이스바를 누르면 다음 페이지로 넘어갑니다</p>"," ","html-keyboard-response","27","133156","0.0-8.0-2.2","","","",""
"3580",""," ","html-keyboard-response","28","136736","0.0-9.0","","","",""
"3081","<p style=""font-size:30px"",lang=""ko"">이제 실험을 시작하겠습니다.</p><p style=""font-size:30px"",lang=""ko"">실전에서는 각각의 만든 단어를 한 번씩만 들을 수 있습니다.</p>"," ","html-keyboard-response","29","139818","0.0-10.0","","","",""
"6585","<p style=""font-size:30px"",lang=""ko"">단어를 풀어 쓰신 후에 그 단어가 한국어로 가능한 단어인지 평가해주세요</p><p style=""font-size:30px"",lang=""ko"">1점은 한국어로 완전 불가능한 단어, 7점은 한국어로 완전 가능한 단어를 의미합니다</p><p lang=""ko"">스페이스바를 누르면 다음 페이지로 넘어갑니다</p>"," ","html-keyboard-response","30","146403","0.0-11.0","","","",""
"3840","TestRecordings/phmiman.wav","0","audio-button-response","31","150333","0.0-12.0-0.0","","","",""
"14190","","{""P0_Q0"":""ㅍ,ㅡ,ㄴ,ㅣ,ㅁ,ㅏ,ㄴ"",""P0_Q1"":2}","survey","32","164538","0.0-12.0-1.0","[]","","",""
"4935","TestRecordings/chakot.wav","0","audio-button-response","33","169558","0.0-12.0-0.1","","","",""
"14943","","{""P0_Q0"":""ㅊ,ㅏ,ㄱ,ㅇ,ㅗ,ㅅ"",""P0_Q1"":5}","survey","34","184510","0.0-12.0-1.1","[]","","",""
"5573","TestRecordings/thwam.wav","0","audio-button-response","35","190161","0.0-12.0-0.2","","","",""
"20323","","{""P0_Q0"":""ㅌ,ㅘ,ㅁ"",""P0_Q1"":2}","survey","36","210490","0.0-12.0-1.2","[]","","",""
"3377","TestRecordings/chumik.wav","0","audio-button-response","37","213955","0.0-12.0-0.3","","","",""
"12068","","{""P0_Q0"":""ㅊ,ㅜ,ㅁ,ㅣ,ㄱ"",""P0_Q1"":3}","survey","38","226033","0.0-12.0-1.3","[]","","",""
"2387","TestRecordings/chmop.wav","0","audio-button-response","39","228503","0.0-12.0-0.4","","","",""
"8701","","{""P0_Q0"":""ㅊ,ㅡ,ㅁ,ㅗ,ㄱ"",""P0_Q1"":2}","survey","40","237210","0.0-12.0-1.4","[]","","",""
"2960","TestRecordings/cnaphin.wav","0","audio-button-response","41","240255","0.0-12.0-0.5","","","",""
"12284","","{""P0_Q0"":""ㅊ,ㅡ,ㄴ,ㅏ,ㅍ,ㅣ,ㄴ"",""P0_Q1"":2}","survey","42","252547","0.0-12.0-1.5","[]","","",""
"3133","TestRecordings/twamot.wav","0","audio-button-response","43","255765","0.0-12.0-0.6","","","",""
"16581","","{""P0_Q0"":""ㄷ,ㅜ,ㅇ,ㅏ,ㅁ,ㅇ,ㅗ,ㅅ"",""P0_Q1"":4}","survey","44","272353","0.0-12.0-1.6","[]","","",""
"4265","TestRecordings/nchot.wav","0","audio-button-response","45","276701","0.0-12.0-0.7","","","",""
"11791","","{""P0_Q0"":""ㅇ,ㅡ,ㅁ,ㅊ,ㅗ,ㅅ"",""P0_Q1"":2}","survey","46","288499","0.0-12.0-1.7","[]","","",""
"2046","TestRecordings/khithuk.wav","0","audio-button-response","47","290642","0.0-12.0-0.8","","","",""
"12866","","{""P0_Q0"":""ㅋ,ㅣ,ㅌ,ㅜ"",""P0_Q1"":5}","survey","48","303516","0.0-12.0-1.8","[]","","",""
"4099","TestRecordings/thnok.wav","0","audio-button-response","49","307701","0.0-12.0-0.9","","","",""
"12342","","{""P0_Q0"":""ㅊ,ㅡ,ㄴ,ㅗ,ㅂ"",""P0_Q1"":3}","survey","50","320051","0.0-12.0-1.9","[]","","",""
"2734","TestRecordings/ntakhip.wav","0","audio-button-response","51","322873","0.0-12.0-0.10","","","",""
"16140","","{""P0_Q0"":""ㅇ,ㅡ,ㅁ,ㄷ,ㅏ,ㅅ,ㅋ,ㅣ,ㅅ"",""P0_Q1"":1}","survey","52","339021","0.0-12.0-1.10","[]","","",""
"4133","TestRecordings/khwipot.wav","0","audio-button-response","53","343240","0.0-12.0-0.11","","","",""
"8411","","{""P0_Q0"":""ㅋ,ㅟ,ㅂ,ㅗ,ㅅ"",""P0_Q1"":5}","survey","54","351660","0.0-12.0-1.11","[]","","",""
"2265","TestRecordings/mphuk.wav","0","audio-button-response","55","354008","0.0-12.0-0.12","","","",""
"11873","","{""P0_Q0"":""ㅇ,ㅜ,ㅁ,ㅍ,ㅜ,ㄱ"",""P0_Q1"":7}","survey","56","365887","0.0-12.0-1.12","[]","","",""
"1810","TestRecordings/nkat.wav","0","audio-button-response","57","367781","0.0-12.0-0.13","","","",""
"9753","","{""P0_Q0"":""ㅇ,ㅡ,ㅁ,ㄱ,ㅏ,ㅅ"",""P0_Q1"":6}","survey","58","377541","0.0-12.0-1.13","[]","","",""
"2382","TestRecordings/tin.wav","0","audio-button-response","59","380007","0.0-12.0-0.14","","","",""
"8139","","{""P0_Q0"":""ㄷ,ㅣ,ㄴ"",""P0_Q1"":5}","survey","60","388153","0.0-12.0-1.14","[]","","",""
"3210","TestRecordings/mthik.wav","0","audio-button-response","61","391448","0.0-12.0-0.15","","","",""
"8933","","{""P0_Q0"":""ㅇ,ㅡ,ㅁ,ㅍ,ㅣ,ㄱ"",""P0_Q1"":3}","survey","62","400389","0.0-12.0-1.15","[]","","",""
"2387","TestRecordings/nthaking.wav","0","audio-button-response","63","402864","0.0-12.0-0.16","","","",""
"13553","","{""P0_Q0"":""ㅇ,ㅡ,ㅇ,ㅌ,ㅏ,ㄱ,ㅣ,ㅇ"",""P0_Q1"":2}","survey","64","416424","0.0-12.0-1.16","[]","","",""
"1986","TestRecordings/cwit.wav","0","audio-button-response","65","418494","0.0-12.0-0.17","","","",""
"5912","","{""P0_Q0"":""ㅈ,ㅟ,ㅅ"",""P0_Q1"":5}","survey","66","424414","0.0-12.0-1.17","[]","","",""
"1673","TestRecordings/nwimik.wav","0","audio-button-response","67","426171","0.0-12.0-0.18","","","",""
"9301","","{""P0_Q0"":""ㄴ,ㅟ,ㅁ,ㅣ,ㄱ"",""P0_Q1"":3}","survey","68","435479","0.0-12.0-1.18","[]","","",""
"3709","TestRecordings/sikot.wav","0","audio-button-response","69","439271","0.0-12.0-0.19","","","",""
"13685","","{""P0_Q0"":""ㅅ,ㅣ,ㄱ,ㅗ,ㅅ"",""P0_Q1"":6}","survey","70","452963","0.0-12.0-1.19","[]","","",""
"2001","TestRecordings/tikut.wav","0","audio-button-response","71","455033","0.0-12.0-0.20","","","",""
"8273","","{""P0_Q0"":""ㄷ,ㅣ,ㄱ,ㅜ,ㄷ"",""P0_Q1"":5}","survey","72","463313","0.0-12.0-1.20","[]","","",""
"1302","TestRecordings/tup.wav","0","audio-button-response","73","464698","0.0-12.0-0.21","","","",""
"4713","","{""P0_Q0"":""ㄷ,ㅜ,ㅂ"",""P0_Q1"":5}","survey","74","469417","0.0-12.0-1.21","[]","","",""
"1654","TestRecordings/tnunong.wav","0","audio-button-response","75","471156","0.0-12.0-0.22","","","",""
"19312","","{""P0_Q0"":""ㄷ,ㅡ,ㄴ,ㅜ,ㄴ,ㅗ,ㅇ"",""P0_Q1"":3}","survey","76","490476","0.0-12.0-1.22","[]","","",""
"2180","TestRecordings/mpukham.wav","0","audio-button-response","77","492741","0.0-12.0-0.23","","","",""
"11037","","{""P0_Q0"":""ㅇ,ㅡ,ㅁ,ㅂ,ㅜ,ㅋ,ㅏ,ㅇ"",""P0_Q1"":2}","survey","78","503785","0.0-12.0-1.23","[]","","",""
"1179","TestRecordings/tmichut.wav","0","audio-button-response","79","504989","0.0-12.0-0.24","","","",""
"11104","","{""P0_Q0"":""ㄷ,ㅡ,ㅁ,ㅣ,ㅊ,ㅜ,ㅅ"",""P0_Q1"":1}","survey","80","516099","0.0-12.0-1.24","[]","","",""
"1107","TestRecordings/khut.wav","0","audio-button-response","81","517290","0.0-12.0-0.25","","","",""
"5265","","{""P0_Q0"":""ㅋ,ㅜ,ㅅ"",""P0_Q1"":2}","survey","82","522562","0.0-12.0-1.25","[]","","",""
"1405","TestRecordings/mtukin.wav","0","audio-button-response","83","524052","0.0-12.0-0.26","","","",""
"12186","","{""P0_Q0"":""ㅇ,ㅡ,ㅁ,ㄷ,ㅜ,ㄱ,ㅣ,ㅇ"",""P0_Q1"":2}","survey","84","536245","0.0-12.0-1.26","[]","","",""
"1981","TestRecordings/twan.wav","0","audio-button-response","85","538256","0.0-12.0-0.27","","","",""
"6151","","{""P0_Q0"":""ㄷ,ㅘ,ㄴ"",""P0_Q1"":2}","survey","86","544416","0.0-12.0-1.27","[]","","",""
"1107","TestRecordings/thukhat.wav","0","audio-button-response","87","545607","0.0-12.0-0.28","","","",""
"6673","","{""P0_Q0"":""ㅌ,ㅜ,ㅋ,ㅏ,ㅅ"",""P0_Q1"":2}","survey","88","552286","0.0-12.0-1.28","[]","","",""
"2131","TestRecordings/chunak.wav","0","audio-button-response","89","554501","0.0-12.0-0.29","","","",""
"5939","","{""P0_Q0"":""ㅊ,ㅜ,ㄴ,ㅏ,ㄱ"",""P0_Q1"":6}","survey","90","560447","0.0-12.0-1.29","[]","","",""
"1446","TestRecordings/chnupot.wav","0","audio-button-response","91","561977","0.0-12.0-0.30","","","",""
"10882","","{""P0_Q0"":""ㅅ,ㅡ,ㄴ,ㅜ,ㅂ,ㅗ,ㅅ"",""P0_Q1"":4}","survey","92","572865","0.0-12.0-1.30","[]","","",""
"1530","TestRecordings/thwikhip.wav","0","audio-button-response","93","574479","0.0-12.0-0.31","","","",""
"9212","","{""P0_Q0"":""ㅌ,ㅣ,ㅋ,ㅣ,ㅂ"",""P0_Q1"":2}","survey","94","583699","0.0-12.0-1.31","[]","","",""
"1560","TestRecordings/mphutam.wav","0","audio-button-response","95","585344","0.0-12.0-0.32","","","",""
"13130","","{""P0_Q0"":""ㅇ,ㅜ,ㅁ,ㅍ,ㅜ,ㄷ,ㅏ,ㅁ"",""P0_Q1"":4}","survey","96","598482","0.0-12.0-1.32","[]","","",""
"1518","TestRecordings/phnokhing.wav","0","audio-button-response","97","600084","0.0-12.0-0.33","","","",""
"11995","","{""P0_Q0"":""ㅍ,ㅜ,ㄴ,ㅜ,ㅋ,ㅣ,ㅇ"",""P0_Q1"":2}","survey","98","612085","0.0-12.0-1.33","[]","","",""
"1396","TestRecordings/nthimong.wav","0","audio-button-response","99","613565","0.0-12.0-0.34","","","",""
"10928","","{""P0_Q0"":""ㅇ,ㅣ,ㅇ,ㅌ,ㅣ,ㅁ,ㅗ,ㅇ"",""P0_Q1"":1}","survey","100","624500","0.0-12.0-1.34","[]","","",""
"1087","TestRecordings/thinok.wav","0","audio-button-response","101","625670","0.0-12.0-0.35","","","",""
"6213","","{""P0_Q0"":""ㅌ,ㅣ,ㄴ,ㅗ,ㄱ"",""P0_Q1"":5}","survey","102","631890","0.0-12.0-1.35","[]","","",""
"1393","TestRecordings/cmoman.wav","0","audio-button-response","103","633368","0.0-12.0-0.36","","","",""
"14903","","{""P0_Q0"":""ㅅ,ㅡ,ㄴ,ㅗ,ㅁ,ㅏ,ㄴ"",""P0_Q1"":3}","survey","104","648278","0.0-12.0-1.36","[]","","",""
"2697","TestRecordings/khin.wav","0","audio-button-response","105","651058","0.0-12.0-0.37","","","",""
"6085","","{""P0_Q0"":""ㅋ,ㅣ,ㄴ"",""P0_Q1"":4}","survey","106","657150","0.0-12.0-1.37","[]","","",""
"1530","TestRecordings/mphosak.wav","0","audio-button-response","107","658764","0.0-12.0-0.38","","","",""
"13979","","{""P0_Q0"":""ㅇ,ㅡ,ㅁ,ㅍ,ㅗ,ㅅ,ㅏ,ㄱ"",""P0_Q1"":4}","survey","108","672750","0.0-12.0-1.38","[]","","",""
"2323","TestRecordings/chwiphin.wav","0","audio-button-response","109","675157","0.0-12.0-0.39","","","",""
"6793","","{""P0_Q0"":""ㅊ,ㅟ,ㅍ,ㅣㄴ"",""P0_Q1"":3}","survey","110","681956","0.0-12.0-1.39","[]","","",""
"3667","TestRecordings/pmochun.wav","0","audio-button-response","111","685709","0.0-12.0-0.40","","","",""
"7247","","{""P0_Q0"":""ㅁ,ㅜ,ㅊ,ㅜ,ㄴ"",""P0_Q1"":6}","survey","112","692963","0.0-12.0-1.40","[]","","",""
"1160","TestRecordings/twak.wav","0","audio-button-response","113","694207","0.0-12.0-0.41","","","",""
"7517","","{""P0_Q0"":""ㄷ,ㅘ,ㄺ"",""P0_Q1"":5}","survey","114","701731","0.0-12.0-1.41","[]","","",""
"1293","TestRecordings/chnuk.wav","0","audio-button-response","115","703111","0.0-12.0-0.42","","","",""
"12519","","{""P0_Q0"":""ㅊ,ㅡ,ㄴ,ㅜ,ㄱ"",""P0_Q1"":3}","survey","116","715637","0.0-12.0-1.42","[]","","",""
"1979","TestRecordings/nkhuchom.wav","0","audio-button-response","117","717701","0.0-12.0-0.43","","","",""
"9624","","{""P0_Q0"":""ㅇ,ㅜ,ㅁ,ㅋ,ㅜ,ㅊ,ㅗ,ㄱ"",""P0_Q1"":2}","survey","118","727332","0.0-12.0-1.43","[]","","",""
"996","TestRecordings/mkit.wav","0","audio-button-response","119","728356","0.0-12.0-0.44","","","",""
"6284","","{""P0_Q0"":""ㅇ,ㅡ,ㅁ,ㄱ,ㅣㅅ"",""P0_Q1"":5}","survey","120","734648","0.0-12.0-1.44","[]","","",""
"1750","TestRecordings/khwichon.wav","0","audio-button-response","121","736482","0.0-12.0-0.45","","","",""
"7740","","{""P0_Q0"":""ㅋ,ㅟ,ㅊ,ㅗ,ㄴ"",""P0_Q1"":6}","survey","122","744230","0.0-12.0-1.45","[]","","",""
"2230","TestRecordings/cwam.wav","0","audio-button-response","123","746547","0.0-12.0-0.46","","","",""
"4320","","{""P0_Q0"":""ㅈ,ㅘ,ㅁ"",""P0_Q1"":6}","survey","124","750874","0.0-12.0-1.46","[]","","",""
"1445","TestRecordings/khwiphing.wav","0","audio-button-response","125","752403","0.0-12.0-0.47","","","",""
"8518","","{""P0_Q0"":""ㅋ,ㅟ,ㅍ,ㅣ,ㅇ"",""P0_Q1"":2}","survey","126","760928","0.0-12.0-1.47","[]","","",""
"1531","TestRecordings/chwikhong.wav","0","audio-button-response","127","762543","0.0-12.0-0.48","","","",""
"8210","","{""P0_Q0"":""ㅊ,ㅟ,ㅋ,ㅗ,ㅇ"",""P0_Q1"":6}","survey","128","770761","0.0-12.0-1.48","[]","","",""
"961","TestRecordings/knot.wav","0","audio-button-response","129","771805","0.0-12.0-0.49","","","",""
"6995","","{""P0_Q0"":""ㄱ,ㅡ,ㄴ,ㅗ,ㅅ"",""P0_Q1"":4}","survey","130","778807","0.0-12.0-1.49","[]","","",""
"1071","TestRecordings/twaput.wav","0","audio-button-response","131","779962","0.0-12.0-0.50","","","",""
"12316","","{""P0_Q0"":""ㄷ,ㅘ,ㅂ,ㅜ,ㅅ"",""P0_Q1"":5}","survey","132","792286","0.0-12.0-1.50","[]","","",""
"1435","TestRecordings/nchocip.wav","0","audio-button-response","133","793744","0.0-12.0-0.51","","","",""
"13913","","{""P0_Q0"":""ㅇ,ㅡ,ㅁ,ㅊ,ㅗ,ㅈ,ㅣ,ㅂ"",""P0_Q1"":7}","survey","134","807664","0.0-12.0-1.51","[]","","",""
"1040","TestRecordings/mup.wav","0","audio-button-response","135","808789","0.0-12.0-0.52","","","",""
"10536","","{""P0_Q0"":""ㅁ,ㅜ,ㅇ,ㅜ,ㄱ"",""P0_Q1"":7}","survey","136","819331","0.0-12.0-1.52","[]","","",""
"1196","TestRecordings/khnap.wav","0","audio-button-response","137","820611","0.0-12.0-0.53","","","",""
"6385","","{""P0_Q0"":""ㅋ,ㅡ,ㄴ,ㅏ,ㅂ"",""P0_Q1"":2}","survey","138","827003","0.0-12.0-1.53","[]","","",""
"1086","TestRecordings/taphik.wav","0","audio-button-response","139","828173","0.0-12.0-0.54","","","",""
"6314","","{""P0_Q0"":""ㄷ,ㅏ,ㅍ,ㅣ,ㄱ"",""P0_Q1"":2}","survey","140","834495","0.0-12.0-1.54","[]","","",""
"992","TestRecordings/nakhit.wav","0","audio-button-response","141","835571","0.0-12.0-0.55","","","",""
"13955","","{""P0_Q0"":""ㄴ,ㅏ,ㅋ,ㅣ,ㅅ"",""P0_Q1"":2}","survey","142","849532","0.0-12.0-1.55","[]","","",""
"1251","TestRecordings/kmamun.wav","0","audio-button-response","143","850869","0.0-12.0-0.56","","","",""
"13918","","{""P0_Q0"":""ㄱ,ㅡ,ㅁ,ㅏ,ㅁ,ㅜ,ㄴ"",""P0_Q1"":6}","survey","144","864793","0.0-12.0-1.56","[]","","",""
"1158","TestRecordings/swikhat.wav","0","audio-button-response","145","866035","0.0-12.0-0.57","","","",""
"5591","","{""P0_Q0"":""ㅅ,ㅟ,ㅋ,ㅏ,ㅅ"",""P0_Q1"":2}","survey","146","871633","0.0-12.0-1.57","[]","","",""
"1333","TestRecordings/npucap.wav","0","audio-button-response","147","873051","0.0-12.0-0.58","","","",""
"12593","","{""P0_Q0"":""ㅇ,ㅜ,ㅁ,ㅍ,ㅜ,ㅈ,ㅏ,ㅅ"",""P0_Q1"":3}","survey","148","885652","0.0-12.0-1.58","[]","","",""
"1143","TestRecordings/khnothik.wav","0","audio-button-response","149","886879","0.0-12.0-0.59","","","",""
"14327","","{""P0_Q0"":""ㅋ,ㅡ,ㄴ,ㅗ,ㅅ,ㅌ,ㅣ,ㅅ"",""P0_Q1"":2}","survey","150","901214","0.0-12.0-1.59","[]","","",""
"6306",""," ","html-keyboard-response","151","907521","0.0-13.0","","","",""
"68454","","{""P0_Q0"":""21세"",""P0_Q1"":""여자"",""P0_Q2"":""만 6세"",""P0_Q3"":""없습니다."",""P0_Q4"":""독일어"",""P0_Q5"":""만 19세, 1년 6개월"",""P0_Q6"":""없습니다.""}","survey","152","975984","0.0-14.0","[]","","",""
"59247","<p style=""font-size:30px"",lang=""ko"">실험이 끝났습니다</p><p style=""font-size:30px"",lang=""ko"">참가해주셔서 고맙습니다</p>"," ","html-keyboard-response","153","1035232","0.0-15.0","","","",""
