"rt","stimulus","response","trial_type","trial_index","time_elapsed","internal_node_id","accuracy","PracticeTest","ConsonantSequence","Grammaticality"
"515745","<p style=""font-size:30px"",lang=""ko"">실험에 오신 것을 환영합니다</p><p lang=""ko"">스페이스바를 누르면 다음 페이지로 넘어갑니다</p>"," ","html-keyboard-response","0","515746","0.0-0.0","","","",""
"5033","<p style=""font-size:30px"",lang=""ko"">해드폰을 본인에게 잘 맞게 착용하세요</p><p lang=""ko"">스페이스바를 누르면 다음 페이지로 넘어갑니다</p>"," ","html-keyboard-response","1","520779","0.0-1.0","","","",""
"13233","<p style=""font-size:30px"",lang=""ko"">이 실험에서는 새로 만든 한국 단어를 들으실 겁니다</p><p style=""font-size:30px"",lang=""ko"">단어를 들리는대로 쓰세요. 그런 다음 그 단어가 한국어 단어로 가능한지 평가하세요</p><p lang=""ko"">스페이스바를 누르면 다음 페이지로 넘어갑니다</p>"," ","html-keyboard-response","2","534013","0.0-2.0","","","",""
"1385","<p style=""font-size:30px"",lang=""ko"">원래 있는 단어로 예를 들어 봅시다</p><p lang=""ko"">스페이스바를 누르면 다음 페이지로 넘어갑니다</p>"," ","html-keyboard-response","3","535398","0.0-3.0","","","",""
"11661","PracticeRecordings/kom_bear.wav","0","audio-button-response","4","547208","0.0-4.0","","","",""
"8597","<p style=""font-size:30px"",lang=""ko"">이제 직접 단어를 듣고 쓰는 연습을 해봅시다. </p><p style=""font-size:30px"",lang=""ko"">스페이스바를 누르면 다음 페이지로 넘어갑니다</p>"," ","html-keyboard-response","5","555805","0.0-5.0","","","",""
"5148","PracticeRecordings/kirin_giraffe.wav","0","audio-button-response","6","560979","0.0-6.0-0.0","","","",""
"46601","kirin_giraffe","{""P0_Q0"":""ㄱ,ㅣ,ㄹ,ㅣ,ㄴ""}","survey","7","607623","0.0-6.0-1.0","[]","practice","NA","TRUE"
"6583","<p style=""font-size:30px"",lang=""ko"">방금 들으신 단어는 ""ㄱ,ㅣ,ㄹ,ㅣ,ㄴ"" 이라고 쓰시면 됩니다</p><p lang=""ko"">스페이스바를 누르면 다음 페이지로 넘어갑니다</p>"," ","html-keyboard-response","8","614207","0.0-6.0-2.0","","","",""
"6238","PracticeRecordings/saca_lion.wav","0","audio-button-response","9","620472","0.0-6.0-0.1","","","",""
"8872","saca_lion","{""P0_Q0"":""ㅅ,ㅏ,ㅈ,ㅏ""}","survey","10","629354","0.0-6.0-1.1","[]","practice","NA","FALSE"
"5460","<p style=""font-size:30px"",lang=""ko"">방금 들으신 단어는 ""ㅅ,ㅏ,ㅈ,ㅏ"" 라고 쓰시면 됩니다</p><p lang=""ko"">스페이스바를 누르면 다음 페이지로 넘어갑니다</p>"," ","html-keyboard-response","11","634814","0.0-6.0-2.1","","","",""
"2198","PracticeRecordings/saseum_deer.wav","0","audio-button-response","12","637034","0.0-6.0-0.2","","","",""
"9059","saseum_deer","{""P0_Q0"":""ㅅ,ㅏ,ㅅ,ㅡ,ㅁ""}","survey","13","646102","0.0-6.0-1.2","[]","practice","NA","FALSE"
"3206","<p style=""font-size:30px"",lang=""ko"">방금 들으신 단어는 ""ㅅ,ㅏ,ㅅ,ㅡ,ㅁ""이라고 쓰시면 됩니다</p><p lang=""ko"">스페이스바를 누르면 다음 페이지로 넘어갑니다</p>"," ","html-keyboard-response","14","649309","0.0-6.0-2.2","","","",""
"1965","PracticeRecordings/thokki_rabbit.wav","0","audio-button-response","15","651297","0.0-6.0-0.3","","","",""
"9089","thokki_rabbit","{""P0_Q0"":""ㅌ,ㅗ,ㄲ,ㅣ""}","survey","16","660394","0.0-6.0-1.3","[]","practice","NA","FALSE"
"4275","<p style=""font-size:30px"",lang=""ko"">방금 들으신 단어는 ""ㅌ,ㅗ,ㄲ,ㅣ"" 라고 쓰시면 됩니다</p><p lang=""ko"">스페이스바를 누르면 다음 페이지로 넘어갑니다</p>"," ","html-keyboard-response","17","664669","0.0-6.0-2.3","","","",""
"1281","<p style=""font-size:30px"",lang=""ko"">이제 만든 단어로 연습해봅시다.</p><p lang=""ko"">스페이스바를 누르면 다음 페이지로 넘어갑니다</p>"," ","html-keyboard-response","18","665950","0.0-7.0","","","",""
"3083","PracticeRecordings/snen.wav","0","audio-button-response","19","669056","0.0-8.0-0.0","","","",""
"11274","snen","{""P0_Q0"":""ㅅ,ㅡ,ㄴ,ㅔ,ㄴ""}","survey","20","680338","0.0-8.0-1.0","[]","practice","NA","TRUE"
"10216","<p style=""font-size:30px"",lang=""ko"">들으신 단어는 <br> ""ㅅ,ㅡ,ㄴ,ㅐ,ㄴ""  ""ㅅ,ㅡ,ㄴ,ㅐ"" ""ㅅ,ㄴ,ㅐ,ㄴ (""으"" 소리가 안 들리는 경우)"" 등 <br> 사람에 따라 다양하게 들릴 수 있습니다 <br> 본인에게 들리는대로 쓰시면 됩니다.</p><p lang=""ko"">스페이스바를 누르면 다음 페이지로 넘어갑니다</p>"," ","html-keyboard-response","21","690555","0.0-8.0-2.0","","","",""
"2653","PracticeRecordings/phrak.wav","0","audio-button-response","22","693231","0.0-8.0-0.1","","","",""
"11137","phrak","{""P0_Q0"":""ㅍ,ㅡ,ㄹ,ㅏ,ㄱ""}","survey","23","704375","0.0-8.0-1.1","[]","practice","NA","FALSE"
"2461","<p style=""font-size:30px"",lang=""ko"">들으신 단어는 <br> ""ㅍ,ㅡ,ㄹ,ㅏ,ㄱ"" ""ㅍ,ㅡ,ㄹ,ㅏ,ㅅ"" ""ㅋ,ㅡ,ㄹ,ㅏ,ㄱ"" ""ㅍ,ㄹ,ㅏ,ㄱ (""으"" 소리가 안 들리는 경우)"" 등 <br> 사람에 따라 다양하게 들릴 수 있습니다 <br> 본인에게 들리는대로 쓰시면 됩니다.</p><p lang=""ko"">스페이스바를 누르면 다음 페이지로 넘어갑니다</p>"," ","html-keyboard-response","24","706837","0.0-8.0-2.1","","","",""
"2812","PracticeRecordings/chka.wav","0","audio-button-response","25","709670","0.0-8.0-0.2","","","",""
"7472","chka","{""P0_Q0"":""ㅊ,ㅡ,ㄱ,ㅏ""}","survey","26","717148","0.0-8.0-1.2","[]","practice","NA","FALSE"
"3741","<p style=""font-size:30px"",lang=""ko"">들으신 단어는 ""ㅊ,ㅣ,ㄱ,ㅏ"", ""ㅊ,ㅡ,ㄱ,ㅏ"", ""ㅊ,ㄱ,ㅏ"", ""ㅊ,ㅟ,ㄱ,ㅏ"" 등 <br> 사람에 따라 다양하게 들릴 수 있습니다. <br> 본인에게 들리는대로 쓰시면 됩니다.</p><p lang=""ko"">스페이스바를 누르면 다음 페이지로 넘어갑니다</p>"," ","html-keyboard-response","27","720890","0.0-8.0-2.2","","","",""
"11342",""," ","html-keyboard-response","28","732233","0.0-9.0","","","",""
"6702","<p style=""font-size:30px"",lang=""ko"">이제 실험을 시작하겠습니다.</p><p style=""font-size:30px"",lang=""ko"">실전에서는 각각의 만든 단어를 한 번씩만 들을 수 있습니다.</p>"," ","html-keyboard-response","29","738936","0.0-10.0","","","",""
"6012","<p style=""font-size:30px"",lang=""ko"">단어를 풀어 쓰신 후에 그 단어가 한국어로 가능한 단어인지 평가해주세요</p><p style=""font-size:30px"",lang=""ko"">1점은 한국어로 완전 불가능한 단어, 7점은 한국어로 완전 가능한 단어를 의미합니다</p><p lang=""ko"">스페이스바를 누르면 다음 페이지로 넘어갑니다</p>"," ","html-keyboard-response","30","744948","0.0-11.0","","","",""
"3236","TestRecordings/khnothik.wav","0","audio-button-response","31","748209","0.0-12.0-0.0","","","",""
"39097","","{""P0_Q0"":""ㅋ,ㅡ,ㄴ,ㅗ,ㅌ,ㅣ"",""P0_Q1"":3}","survey","32","787321","0.0-12.0-1.0","[]","","",""
"4314","TestRecordings/khin.wav","0","audio-button-response","33","791661","0.0-12.0-0.1","","","",""
"9958","","{""P0_Q0"":""ㅋ,ㅣ,ㄴ"",""P0_Q1"":2}","survey","34","801629","0.0-12.0-1.1","[]","","",""
"2099","TestRecordings/sikot.wav","0","audio-button-response","35","803750","0.0-12.0-0.2","","","",""
"12763","","{""P0_Q0"":""ㅅ,ㅣ,ㄱ,ㅗ,ㅅ"",""P0_Q1"":7}","survey","36","816520","0.0-12.0-1.2","[]","","",""
"2546","TestRecordings/thinok.wav","0","audio-button-response","37","819088","0.0-12.0-0.3","","","",""
"20521","","{""P0_Q0"":""ㅋ,ㅣ,ㄴ,ㅗ,ㄱ"",""P0_Q1"":5}","survey","38","839616","0.0-12.0-1.3","[]","","",""
"2502","TestRecordings/pmochun.wav","0","audio-button-response","39","842142","0.0-12.0-0.4","","","",""
"12995","","{""P0_Q0"":""ㅁ,ㅜ,ㅊ,ㅜ,ㄴ"",""P0_Q1"":7}","survey","40","855146","0.0-12.0-1.4","[]","","",""
"3726","TestRecordings/khwiphing.wav","0","audio-button-response","41","858894","0.0-12.0-0.5","","","",""
"31553","","{""P0_Q0"":""ㅋ,ㅟ,ㅍ,ㅣ,ㅇ"",""P0_Q1"":3}","survey","42","890455","0.0-12.0-1.5","[]","","",""
"2899","TestRecordings/npucap.wav","0","audio-button-response","43","893380","0.0-12.0-0.6","","","",""
"15233","","{""P0_Q0"":""ㅁ,ㅜ,ㅂ,ㅡ,ㅈ,ㅏ,ㅂ"",""P0_Q1"":1}","survey","44","908621","0.0-12.0-1.6","[]","","",""
"2548","TestRecordings/twaput.wav","0","audio-button-response","45","911191","0.0-12.0-0.7","","","",""
"24389","","{""P0_Q0"":""ㄸ,ㅘ,ㅂ,ㅜ,ㅅ"",""P0_Q1"":6}","survey","46","935587","0.0-12.0-1.7","[]","","",""
"4140","TestRecordings/mtukin.wav","0","audio-button-response","47","939753","0.0-12.0-0.8","","","",""
"18077","","{""P0_Q0"":""ㅁ,ㅜ,ㄴ,ㄷ,ㅜ,ㄱ,ㅣ,ㄴ"",""P0_Q1"":5}","survey","48","957837","0.0-12.0-1.8","[]","","",""
"1955","TestRecordings/swikhat.wav","0","audio-button-response","49","959816","0.0-12.0-0.9","","","",""
"18247","","{""P0_Q0"":""ㅅ,ㅟ,ㅋ,ㅏ,ㅅ"",""P0_Q1"":2}","survey","50","978069","0.0-12.0-1.9","[]","","",""
"2257","TestRecordings/khithuk.wav","0","audio-button-response","51","980348","0.0-12.0-0.10","","","",""
"7931","","{""P0_Q0"":""ㅋ,ㅣ,ㅌ,ㅜ"",""P0_Q1"":7}","survey","52","988286","0.0-12.0-1.10","[]","","",""
"1719","TestRecordings/mthik.wav","0","audio-button-response","53","990026","0.0-12.0-0.11","","","",""
"10635","","{""P0_Q0"":""ㅁ,ㅜ,ㄴ,ㅌ,ㅣ,ㄱ"",""P0_Q1"":7}","survey","54","1000668","0.0-12.0-1.11","[]","","",""
"1497","TestRecordings/thnok.wav","0","audio-button-response","55","1002190","0.0-12.0-0.12","","","",""
"12159","","{""P0_Q0"":""ㅌ,ㅡ,ㄴ,ㅗ,ㄱ"",""P0_Q1"":1}","survey","56","1014356","0.0-12.0-1.12","[]","","",""
"1814","TestRecordings/mpukham.wav","0","audio-button-response","57","1016191","0.0-12.0-0.13","","","",""
"9891","","{""P0_Q0"":""ㅁ,ㅜ,ㅂ,ㅡ,ㅋ,ㅏ,ㅁ"",""P0_Q1"":1}","survey","58","1026089","0.0-12.0-1.13","[]","","",""
"1794","TestRecordings/nthaking.wav","0","audio-button-response","59","1027905","0.0-12.0-0.14","","","",""
"12120","","{""P0_Q0"":""ㅁ,ㅜ,ㄴ,ㅌ,ㅏ,ㄱ,ㅣ,ㅇ"",""P0_Q1"":4}","survey","60","1040033","0.0-12.0-1.14","[]","","",""
"1423","TestRecordings/chmop.wav","0","audio-button-response","61","1041477","0.0-12.0-0.15","","","",""
"12741","","{""P0_Q0"":""ㅊ,ㅡ,ㄴ,ㅗ,ㅂ"",""P0_Q1"":3}","survey","62","1054225","0.0-12.0-1.15","[]","","",""
"1942","TestRecordings/chwikhong.wav","0","audio-button-response","63","1056192","0.0-12.0-0.16","","","",""
"10463","","{""P0_Q0"":""ㅊ,ㅟ,ㅋ,ㅗ,ㅇ"",""P0_Q1"":7}","survey","64","1066662","0.0-12.0-1.16","[]","","",""
"1575","TestRecordings/thukhat.wav","0","audio-button-response","65","1068257","0.0-12.0-0.17","","","",""
"6161","","{""P0_Q0"":""ㅌ,ㅜ,ㅋ,ㅏ,ㅅ"",""P0_Q1"":7}","survey","66","1074425","0.0-12.0-1.17","[]","","",""
"1685","TestRecordings/tin.wav","0","audio-button-response","67","1076132","0.0-12.0-0.18","","","",""
"4514","","{""P0_Q0"":""ㄷ,ㅣ,ㄴ"",""P0_Q1"":7}","survey","68","1080653","0.0-12.0-1.18","[]","","",""
"1667","TestRecordings/phmiman.wav","0","audio-button-response","69","1082343","0.0-12.0-0.19","","","",""
"21015","","{""P0_Q0"":""ㅍ,ㅡ,ㅁ,ㅣ,ㅁ,ㅏ,ㄴ"",""P0_Q1"":2}","survey","70","1103365","0.0-12.0-1.19","[]","","",""
"3241","TestRecordings/tmichut.wav","0","audio-button-response","71","1106630","0.0-12.0-0.20","","","",""
"11829","","{""P0_Q0"":""ㅁ,ㅣ,ㅊ,ㅜ,ㅅ"",""P0_Q1"":2}","survey","72","1118465","0.0-12.0-1.20","[]","","",""
"1686","TestRecordings/cwam.wav","0","audio-button-response","73","1120174","0.0-12.0-0.21","","","",""
"8064","","{""P0_Q0"":""ㅈ,ㅘ,ㅁ"",""P0_Q1"":7}","survey","74","1128246","0.0-12.0-1.21","[]","","",""
"1602","TestRecordings/cwit.wav","0","audio-button-response","75","1129870","0.0-12.0-0.22","","","",""
"9179","","{""P0_Q0"":""ㅈ,ㅜ,ㅇ,ㅣ,ㅅ"",""P0_Q1"":5}","survey","76","1139056","0.0-12.0-1.22","[]","","",""
"1434","TestRecordings/tikut.wav","0","audio-button-response","77","1140513","0.0-12.0-0.23","","","",""
"7621","","{""P0_Q0"":""ㄷ,ㅣ,ㄱ,ㅜ,ㄷ"",""P0_Q1"":7}","survey","78","1148140","0.0-12.0-1.23","[]","","",""
"1697","TestRecordings/chunak.wav","0","audio-button-response","79","1149858","0.0-12.0-0.24","","","",""
"6148","","{""P0_Q0"":""ㅊ,ㅜ,ㄴ,ㅏ,ㄱ"",""P0_Q1"":7}","survey","80","1156012","0.0-12.0-1.24","[]","","",""
"1554","TestRecordings/chwiphin.wav","0","audio-button-response","81","1157589","0.0-12.0-0.25","","","",""
"10835","","{""P0_Q0"":""ㅊ,ㅟ,ㅍ,ㅣ,ㄴ"",""P0_Q1"":7}","survey","82","1168432","0.0-12.0-1.25","[]","","",""
"1140","TestRecordings/khnap.wav","0","audio-button-response","83","1169593","0.0-12.0-0.26","","","",""
"10665","","{""P0_Q0"":""ㅋ,ㅡ,ㄴ,ㅏ,ㅂ"",""P0_Q1"":3}","survey","84","1180265","0.0-12.0-1.26","[]","","",""
"1775","TestRecordings/mkit.wav","0","audio-button-response","85","1182061","0.0-12.0-0.27","","","",""
"8459","","{""P0_Q0"":""ㅁ,ㅜ,ㄴ,ㄱ,ㅣ,ㅅ"",""P0_Q1"":1}","survey","86","1190527","0.0-12.0-1.27","[]","","",""
"2115","TestRecordings/thwam.wav","0","audio-button-response","87","1192663","0.0-12.0-0.28","","","",""
"5423","","{""P0_Q0"":""ㅌ,ㅘ,ㅁ"",""P0_Q1"":7}","survey","88","1198092","0.0-12.0-1.28","[]","","",""
"1396","TestRecordings/nakhit.wav","0","audio-button-response","89","1199512","0.0-12.0-0.29","","","",""
"9475","","{""P0_Q0"":""ㄴ,ㅏ,ㅋ,ㅣ,ㅅ"",""P0_Q1"":6}","survey","90","1208994","0.0-12.0-1.29","[]","","",""
"1998","TestRecordings/chnuk.wav","0","audio-button-response","91","1211014","0.0-12.0-0.30","","","",""
"10044","","{""P0_Q0"":""ㅊ,ㅡ,ㄴ,ㅜ,ㅂ"",""P0_Q1"":3}","survey","92","1221064","0.0-12.0-1.30","[]","","",""
"1784","TestRecordings/chumik.wav","0","audio-button-response","93","1222871","0.0-12.0-0.31","","","",""
"10148","","{""P0_Q0"":""ㅊ,ㅜ,ㅁ,ㅣ,ㄱ"",""P0_Q1"":2}","survey","94","1233026","0.0-12.0-1.31","[]","","",""
"1396","TestRecordings/phnokhing.wav","0","audio-button-response","95","1234444","0.0-12.0-0.32","","","",""
"12259","","{""P0_Q0"":""ㅍ,ㅡ,ㄴ,ㅗ,ㅋ,ㅣ,ㅇ"",""P0_Q1"":3}","survey","96","1246709","0.0-12.0-1.32","[]","","",""
"1412","TestRecordings/twamot.wav","0","audio-button-response","97","1248143","0.0-12.0-0.33","","","",""
"10807","","{""P0_Q0"":""ㄷ,ㅘ,ㅁ,ㅗ,ㅅ"",""P0_Q1"":1}","survey","98","1258958","0.0-12.0-1.33","[]","","",""
"1755","TestRecordings/khwichon.wav","0","audio-button-response","99","1260735","0.0-12.0-0.34","","","",""
"9443","","{""P0_Q0"":""ㅋ,ㅟ,ㅊ,ㅗ,ㄴ"",""P0_Q1"":7}","survey","100","1270185","0.0-12.0-1.34","[]","","",""
"2494","TestRecordings/nkhuchom.wav","0","audio-button-response","101","1272702","0.0-12.0-0.35","","","",""
"17691","","{""P0_Q0"":""ㅁ,ㅜ,ㄴ,ㅋ,ㅜ,ㅊ,ㅗ,ㅁ"",""P0_Q1"":1}","survey","102","1290400","0.0-12.0-1.35","[]","","",""
"1609","TestRecordings/mphuk.wav","0","audio-button-response","103","1292030","0.0-12.0-0.36","","","",""
"9899","","{""P0_Q0"":""ㅁ,ㅜ,ㄴ,ㅍ,ㅜ,ㄱ"",""P0_Q1"":2}","survey","104","1301936","0.0-12.0-1.36","[]","","",""
"1343","TestRecordings/twak.wav","0","audio-button-response","105","1303300","0.0-12.0-0.37","","","",""
"4336","","{""P0_Q0"":""ㄷ,ㅘ,ㄱ"",""P0_Q1"":7}","survey","106","1307644","0.0-12.0-1.37","[]","","",""
"1120","TestRecordings/khwipot.wav","0","audio-button-response","107","1308786","0.0-12.0-0.38","","","",""
"15635","","{""P0_Q0"":""ㅋ,ㅟ,ㅂ,ㅗ,ㅅ"",""P0_Q1"":6}","survey","108","1324428","0.0-12.0-1.38","[]","","",""
"1590","TestRecordings/nchocip.wav","0","audio-button-response","109","1326039","0.0-12.0-0.39","","","",""
"10381","","{""P0_Q0"":""ㅁ,ㅜ,ㄴ,ㅊ,ㅗ,ㅈ,ㅣ,ㅂ"",""P0_Q1"":7}","survey","110","1336426","0.0-12.0-1.39","[]","","",""
"1234","TestRecordings/knot.wav","0","audio-button-response","111","1337681","0.0-12.0-0.40","","","",""
"10949","","{""P0_Q0"":""ㅋ,ㅡ,ㄴ,ㅗ,ㅅ"",""P0_Q1"":2}","survey","112","1348636","0.0-12.0-1.40","[]","","",""
"1536","TestRecordings/nchot.wav","0","audio-button-response","113","1350193","0.0-12.0-0.41","","","",""
"7408","","{""P0_Q0"":""ㅇ,ㅡ,ㅁ,ㅊ,ㅗ,ㅅ"",""P0_Q1"":1}","survey","114","1357609","0.0-12.0-1.41","[]","","",""
"1566","TestRecordings/cnaphin.wav","0","audio-button-response","115","1359198","0.0-12.0-0.42","","","",""
"9943","","{""P0_Q0"":""ㅊ,ㅡ,ㄴ,ㅏ,ㅍ,ㅣ,ㄴ"",""P0_Q1"":2}","survey","116","1369149","0.0-12.0-1.42","[]","","",""
"1456","TestRecordings/kmamun.wav","0","audio-button-response","117","1370628","0.0-12.0-0.43","","","",""
"9338","","{""P0_Q0"":""ㅋ,ㅡ,ㅁ,ㅏ,ㅁ,ㅜ,ㄴ"",""P0_Q1"":3}","survey","118","1379973","0.0-12.0-1.43","[]","","",""
"1211","TestRecordings/twan.wav","0","audio-button-response","119","1381206","0.0-12.0-0.44","","","",""
"4721","","{""P0_Q0"":""ㄷ,ㅘ,ㄴ"",""P0_Q1"":7}","survey","120","1385934","0.0-12.0-1.44","[]","","",""
"1304","TestRecordings/tup.wav","0","audio-button-response","121","1387258","0.0-12.0-0.45","","","",""
"6401","","{""P0_Q0"":""ㄷ,ㅜ,ㅂ"",""P0_Q1"":7}","survey","122","1393666","0.0-12.0-1.45","[]","","",""
"1236","TestRecordings/nthimong.wav","0","audio-button-response","123","1394925","0.0-12.0-0.46","","","",""
"8173","","{""P0_Q0"":""ㅁ,ㅜ,ㄴ,ㅌ,ㅣ,ㅁ,ㅗ,ㅇ"",""P0_Q1"":1}","survey","124","1403105","0.0-12.0-1.46","[]","","",""
"1301","TestRecordings/ntakhip.wav","0","audio-button-response","125","1404427","0.0-12.0-0.47","","","",""
"8386","","{""P0_Q0"":""ㅁ,ㅜ,ㄴ,ㄷ,ㅏ,ㅋ,ㅣ,ㅂ"",""P0_Q1"":1}","survey","126","1412821","0.0-12.0-1.47","[]","","",""
"1590","TestRecordings/cmoman.wav","0","audio-button-response","127","1414433","0.0-12.0-0.48","","","",""
"8533","","{""P0_Q0"":""ㅊ,ㅡ,ㅁ,ㅗ,ㅁ,ㅏ,ㄴ"",""P0_Q1"":1}","survey","128","1422973","0.0-12.0-1.48","[]","","",""
"1426","TestRecordings/chakot.wav","0","audio-button-response","129","1424422","0.0-12.0-0.49","","","",""
"5315","","{""P0_Q0"":""ㅊ,ㅏ,ㄱ,ㅗ,ㅅ"",""P0_Q1"":7}","survey","130","1429743","0.0-12.0-1.49","[]","","",""
"1132","TestRecordings/mup.wav","0","audio-button-response","131","1430897","0.0-12.0-0.50","","","",""
"16451","","{""P0_Q0"":""ㅁ,ㅜ,ㅂ"",""P0_Q1"":6}","survey","132","1447355","0.0-12.0-1.50","[]","","",""
"1530","TestRecordings/tnunong.wav","0","audio-button-response","133","1448908","0.0-12.0-0.51","","","",""
"9351","","{""P0_Q0"":""ㅋ,ㅡ,ㄴ,ㅜ,ㄴ,ㅗ,ㅇ"",""P0_Q1"":2}","survey","134","1458269","0.0-12.0-1.51","[]","","",""
"1197","TestRecordings/taphik.wav","0","audio-button-response","135","1459488","0.0-12.0-0.52","","","",""
"7262","","{""P0_Q0"":""ㄷ,ㅏ,ㅍ,ㅣ,ㄱ"",""P0_Q1"":3}","survey","136","1466757","0.0-12.0-1.52","[]","","",""
"1276","TestRecordings/chnupot.wav","0","audio-button-response","137","1468056","0.0-12.0-0.53","","","",""
"7753","","{""P0_Q0"":""ㅊ,ㅡ,ㄴ,ㅜ,ㅂ,ㅗ,ㅅ"",""P0_Q1"":3}","survey","138","1475816","0.0-12.0-1.53","[]","","",""
"1351","TestRecordings/nwimik.wav","0","audio-button-response","139","1477188","0.0-12.0-0.54","","","",""
"18049","","{""P0_Q0"":""ㄴ,ㅠ,ㅇ,ㅣ,ㅁ,ㅣ,ㄱ"",""P0_Q1"":1}","survey","140","1495244","0.0-12.0-1.54","[]","","",""
"1550","TestRecordings/mphutam.wav","0","audio-button-response","141","1496817","0.0-12.0-0.55","","","",""
"7978","","{""P0_Q0"":""ㅁ,ㅜ,ㄴ,ㅍ,ㅡ,ㄷ,ㅏ,ㅁ"",""P0_Q1"":2}","survey","142","1504802","0.0-12.0-1.55","[]","","",""
"1396","TestRecordings/nkat.wav","0","audio-button-response","143","1506219","0.0-12.0-0.56","","","",""
"10509","","{""P0_Q0"":""ㅇ,ㅣ,ㄱ,ㅏ,ㅅ"",""P0_Q1"":3}","survey","144","1516735","0.0-12.0-1.56","[]","","",""
"1025","TestRecordings/khut.wav","0","audio-button-response","145","1517782","0.0-12.0-0.57","","","",""
"5325","","{""P0_Q0"":""ㅋ,ㅜ,ㅅ"",""P0_Q1"":7}","survey","146","1523113","0.0-12.0-1.57","[]","","",""
"1151","TestRecordings/thwikhip.wav","0","audio-button-response","147","1524286","0.0-12.0-0.58","","","",""
"5939","","{""P0_Q0"":""ㅌ,ㅟ,ㅋ,ㅣ,ㅂ"",""P0_Q1"":7}","survey","148","1530232","0.0-12.0-1.58","[]","","",""
"1184","TestRecordings/mphosak.wav","0","audio-button-response","149","1531438","0.0-12.0-0.59","","","",""
"7605","","{""P0_Q0"":""ㅁ,ㅜ,ㄴ,ㅍ,ㅗ,ㅅ,ㅏ,ㄱ"",""P0_Q1"":7}","survey","150","1539050","0.0-12.0-1.59","[]","","",""
"3211",""," ","html-keyboard-response","151","1542262","0.0-13.0","","","",""
"61557","","{""P0_Q0"":""23"",""P0_Q1"":""여자"",""P0_Q2"":""8살"",""P0_Q3"":""없습니다."",""P0_Q4"":""중국어"",""P0_Q5"":""19살, 1년"",""P0_Q6"":""없습니다.""}","survey","152","1603829","0.0-14.0","[]","","",""
"44975","<p style=""font-size:30px"",lang=""ko"">실험이 끝났습니다</p><p style=""font-size:30px"",lang=""ko"">참가해주셔서 고맙습니다</p>"," ","html-keyboard-response","153","1648805","0.0-15.0","","","",""
