"rt","stimulus","response","trial_type","trial_index","time_elapsed","internal_node_id","accuracy","PracticeTest","ConsonantSequence","Grammaticality"
"4730478","<p style=""font-size:30px"",lang=""ko"">실험에 오신 것을 환영합니다</p><p lang=""ko"">스페이스바를 누르면 다음 페이지로 넘어갑니다</p>"," ","html-keyboard-response","0","4730164","0.0-0.0","","","",""
"1504","<p style=""font-size:30px"",lang=""ko"">해드폰을 본인에게 잘 맞게 착용하세요</p><p lang=""ko"">스페이스바를 누르면 다음 페이지로 넘어갑니다</p>"," ","html-keyboard-response","1","4731669","0.0-1.0","","","",""
"5738","<p style=""font-size:30px"",lang=""ko"">이 실험에서는 새로 만든 한국 단어를 들으실 겁니다</p><p style=""font-size:30px"",lang=""ko"">단어를 들리는대로 쓰세요. 그런 다음 그 단어가 한국어 단어로 가능한지 평가하세요</p><p lang=""ko"">스페이스바를 누르면 다음 페이지로 넘어갑니다</p>"," ","html-keyboard-response","2","4737408","0.0-2.0","","","",""
"1820","<p style=""font-size:30px"",lang=""ko"">원래 있는 단어로 예를 들어 봅시다</p><p lang=""ko"">스페이스바를 누르면 다음 페이지로 넘어갑니다</p>"," ","html-keyboard-response","3","4739229","0.0-3.0","","","",""
"9688","PracticeRecordings/kom_bear.wav","0","audio-button-response","4","4749051","0.0-4.0","","","",""
"3086","<p style=""font-size:30px"",lang=""ko"">이제 직접 단어를 듣고 쓰는 연습을 해봅시다. </p><p style=""font-size:30px"",lang=""ko"">스페이스바를 누르면 다음 페이지로 넘어갑니다</p>"," ","html-keyboard-response","5","4752138","0.0-5.0","","","",""
"3574","PracticeRecordings/kirin_giraffe.wav","0","audio-button-response","6","4755795","0.0-6.0-0.0","","","",""
"12030","kirin_giraffe","{""P0_Q0"":""ㄱ,ㅣ,ㄹ,ㅣ,ㄴ""}","survey","7","4767859","0.0-6.0-1.0","[]","practice","NA","TRUE"
"3072","<p style=""font-size:30px"",lang=""ko"">방금 들으신 단어는 ""ㄱ,ㅣ,ㄹ,ㅣ,ㄴ"" 이라고 쓰시면 됩니다</p><p lang=""ko"">스페이스바를 누르면 다음 페이지로 넘어갑니다</p>"," ","html-keyboard-response","8","4770932","0.0-6.0-2.0","","","",""
"1530","PracticeRecordings/saca_lion.wav","0","audio-button-response","9","4772543","0.0-6.0-0.1","","","",""
"4429","saca_lion","{""P0_Q0"":""ㅅ,ㅏ,ㅈ,ㅏ""}","survey","10","4776980","0.0-6.0-1.1","[]","practice","NA","FALSE"
"1210","<p style=""font-size:30px"",lang=""ko"">방금 들으신 단어는 ""ㅅ,ㅏ,ㅈ,ㅏ"" 라고 쓰시면 됩니다</p><p lang=""ko"">스페이스바를 누르면 다음 페이지로 넘어갑니다</p>"," ","html-keyboard-response","11","4778190","0.0-6.0-2.1","","","",""
"1515","PracticeRecordings/saseum_deer.wav","0","audio-button-response","12","4779775","0.0-6.0-0.2","","","",""
"9677","saseum_deer","{""P0_Q0"":""ㅅ,ㅏ,ㅅ,ㅡ,ㅁ""}","survey","13","4789459","0.0-6.0-1.2","[]","practice","NA","FALSE"
"1588","<p style=""font-size:30px"",lang=""ko"">방금 들으신 단어는 ""ㅅ,ㅏ,ㅅ,ㅡ,ㅁ""이라고 쓰시면 됩니다</p><p lang=""ko"">스페이스바를 누르면 다음 페이지로 넘어갑니다</p>"," ","html-keyboard-response","14","4791048","0.0-6.0-2.2","","","",""
"1462","PracticeRecordings/thokki_rabbit.wav","0","audio-button-response","15","4792592","0.0-6.0-0.3","","","",""
"4806","thokki_rabbit","{""P0_Q0"":""ㅌ,ㅗㄲ,ㅣ""}","survey","16","4797404","0.0-6.0-1.3","[]","practice","NA","FALSE"
"1111","<p style=""font-size:30px"",lang=""ko"">방금 들으신 단어는 ""ㅌ,ㅗ,ㄲ,ㅣ"" 라고 쓰시면 됩니다</p><p lang=""ko"">스페이스바를 누르면 다음 페이지로 넘어갑니다</p>"," ","html-keyboard-response","17","4798516","0.0-6.0-2.3","","","",""
"3986","<p style=""font-size:30px"",lang=""ko"">이제 만든 단어로 연습해봅시다.</p><p lang=""ko"">스페이스바를 누르면 다음 페이지로 넘어갑니다</p>"," ","html-keyboard-response","18","4802502","0.0-7.0","","","",""
"3430","PracticeRecordings/snen.wav","0","audio-button-response","19","4806014","0.0-8.0-0.0","","","",""
"6799","snen","{""P0_Q0"":""ㅅ,ㅡ,ㄴ,ㅐ,ㄴ""}","survey","20","4812820","0.0-8.0-1.0","[]","practice","NA","TRUE"
"5609","<p style=""font-size:30px"",lang=""ko"">들으신 단어는 <br> ""ㅅ,ㅡ,ㄴ,ㅐ,ㄴ""  ""ㅅ,ㅡ,ㄴ,ㅐ"" ""ㅅ,ㄴ,ㅐ,ㄴ (""으"" 소리가 안 들리는 경우)"" 등 <br> 사람에 따라 다양하게 들릴 수 있습니다 <br> 본인에게 들리는대로 쓰시면 됩니다.</p><p lang=""ko"">스페이스바를 누르면 다음 페이지로 넘어갑니다</p>"," ","html-keyboard-response","21","4818429","0.0-8.0-2.0","","","",""
"1622","PracticeRecordings/phrak.wav","0","audio-button-response","22","4820075","0.0-8.0-0.1","","","",""
"5113","phrak","{""P0_Q0"":""ㅍ,ㅡ,ㄹ,ㅏ,ㄱ""}","survey","23","4825195","0.0-8.0-1.1","[]","practice","NA","FALSE"
"4083","<p style=""font-size:30px"",lang=""ko"">들으신 단어는 <br> ""ㅍ,ㅡ,ㄹ,ㅏ,ㄱ"" ""ㅍ,ㅡ,ㄹ,ㅏ,ㅅ"" ""ㅋ,ㅡ,ㄹ,ㅏ,ㄱ"" ""ㅍ,ㄹ,ㅏ,ㄱ (""으"" 소리가 안 들리는 경우)"" 등 <br> 사람에 따라 다양하게 들릴 수 있습니다 <br> 본인에게 들리는대로 쓰시면 됩니다.</p><p lang=""ko"">스페이스바를 누르면 다음 페이지로 넘어갑니다</p>"," ","html-keyboard-response","24","4829278","0.0-8.0-2.1","","","",""
"1744","PracticeRecordings/chka.wav","0","audio-button-response","25","4831106","0.0-8.0-0.2","","","",""
"4538","chka","{""P0_Q0"":""ㅅ,ㅡ,ㄱ,ㅏ""}","survey","26","4835651","0.0-8.0-1.2","[]","practice","NA","FALSE"
"4328","<p style=""font-size:30px"",lang=""ko"">들으신 단어는 ""ㅊ,ㅣ,ㄱ,ㅏ"", ""ㅊ,ㅡ,ㄱ,ㅏ"", ""ㅊ,ㄱ,ㅏ"", ""ㅊ,ㅟ,ㄱ,ㅏ"" 등 <br> 사람에 따라 다양하게 들릴 수 있습니다. <br> 본인에게 들리는대로 쓰시면 됩니다.</p><p lang=""ko"">스페이스바를 누르면 다음 페이지로 넘어갑니다</p>"," ","html-keyboard-response","27","4839980","0.0-8.0-2.2","","","",""
"1918",""," ","html-keyboard-response","28","4841898","0.0-9.0","","","",""
"2546","<p style=""font-size:30px"",lang=""ko"">이제 실험을 시작하겠습니다.</p><p style=""font-size:30px"",lang=""ko"">실전에서는 각각의 만든 단어를 한 번씩만 들을 수 있습니다.</p>"," ","html-keyboard-response","29","4844445","0.0-10.0","","","",""
"5570","<p style=""font-size:30px"",lang=""ko"">단어를 풀어 쓰신 후에 그 단어가 한국어로 가능한 단어인지 평가해주세요</p><p style=""font-size:30px"",lang=""ko"">1점은 한국어로 완전 불가능한 단어, 7점은 한국어로 완전 가능한 단어를 의미합니다</p><p lang=""ko"">스페이스바를 누르면 다음 페이지로 넘어갑니다</p>"," ","html-keyboard-response","30","4850015","0.0-11.0","","","",""
"3603","TestRecordings/tup.wav","0","audio-button-response","31","4853701","0.0-12.0-0.0","","","",""
"10490","","{""P0_Q0"":""ㄸ,ㅜ,ㅂ"",""P0_Q1"":1}","survey","32","4864207","0.0-12.0-1.0","[]","","",""
"2718","TestRecordings/mtukin.wav","0","audio-button-response","33","4867011","0.0-12.0-0.1","","","",""
"10361","","{""P0_Q0"":""ㅇ,ㅡ,ㅁ,ㄷ,ㅜ,ㄱ,ㅣ,ㄴ"",""P0_Q1"":1}","survey","34","4877382","0.0-12.0-1.1","[]","","",""
"2071","TestRecordings/chumik.wav","0","audio-button-response","35","4879537","0.0-12.0-0.2","","","",""
"9471","","{""P0_Q0"":""ㅊ,ㅜ,ㅁ,ㅣ,ㄱ"",""P0_Q1"":2}","survey","36","4889016","0.0-12.0-1.2","[]","","",""
"1577","TestRecordings/phmiman.wav","0","audio-button-response","37","4890678","0.0-12.0-0.3","","","",""
"8913","","{""P0_Q0"":""ㅍ,ㅡ,ㄹ,ㅣ,ㅁ,ㅏ,ㄴ"",""P0_Q1"":1}","survey","38","4899600","0.0-12.0-1.3","[]","","",""
"2590","TestRecordings/pmochun.wav","0","audio-button-response","39","4902273","0.0-12.0-0.4","","","",""
"8492","","{""P0_Q0"":""ㅂ,ㅜ,ㅇ,ㅇ,ㅓ,ㅊ,ㅜ,ㄴ"",""P0_Q1"":1}","survey","40","4910773","0.0-12.0-1.4","[]","","",""
"1561","TestRecordings/khnap.wav","0","audio-button-response","41","4912418","0.0-12.0-0.5","","","",""
"6929","","{""P0_Q0"":""ㅋ,ㅡ,ㄴ,ㅏ,ㅂ"",""P0_Q1"":1}","survey","42","4919356","0.0-12.0-1.5","[]","","",""
"4300","TestRecordings/khwiphing.wav","0","audio-button-response","43","4923742","0.0-12.0-0.6","","","",""
"9769","","{""P0_Q0"":""ㅎ,ㅜ,ㅣ,ㅍ,ㅣ,ㅇ"",""P0_Q1"":4}","survey","44","4933517","0.0-12.0-1.6","[]","","",""
"1999","TestRecordings/thwikhip.wav","0","audio-button-response","45","4935602","0.0-12.0-0.7","","","",""
"5215","","{""P0_Q0"":""ㅌ,ㅜ,ㅣ,ㅋ,ㅣ,ㅂ"",""P0_Q1"":1}","survey","46","4940824","0.0-12.0-1.7","[]","","",""
"1718","TestRecordings/mthik.wav","0","audio-button-response","47","4942627","0.0-12.0-0.8","","","",""
"7472","","{""P0_Q0"":""ㅇ,ㅡ,ㅁ,ㅍ,ㅣ,ㄱ"",""P0_Q1"":1}","survey","48","4950106","0.0-12.0-1.8","[]","","",""
"1294","TestRecordings/mup.wav","0","audio-button-response","49","4951483","0.0-12.0-0.9","","","",""
"6723","","{""P0_Q0"":""ㅁ,ㅜ,ㅂ"",""P0_Q1"":1}","survey","50","4958215","0.0-12.0-1.9","[]","","",""
"2646","TestRecordings/nthimong.wav","0","audio-button-response","51","4960945","0.0-12.0-0.10","","","",""
"8206","","{""P0_Q0"":""ㅇ,ㅡ,ㅌ,ㅣ,ㅁ,ㅗ,ㅇ"",""P0_Q1"":1}","survey","52","4969156","0.0-12.0-1.10","[]","","",""
"1487","TestRecordings/chnupot.wav","0","audio-button-response","53","4970728","0.0-12.0-0.11","","","",""
"9999","","{""P0_Q0"":""ㅅ,ㅡ,ㄴ,ㅜ,ㅂ,ㅗ,ㅅ"",""P0_Q1"":3}","survey","54","4980734","0.0-12.0-1.11","[]","","",""
"2503","TestRecordings/chakot.wav","0","audio-button-response","55","4983322","0.0-12.0-0.12","","","",""
"6094","","{""P0_Q0"":""ㅊ,ㅏ,ㄱ,ㅗ,ㅅ"",""P0_Q1"":2}","survey","56","4989424","0.0-12.0-1.12","[]","","",""
"3731","TestRecordings/tin.wav","0","audio-button-response","57","4993240","0.0-12.0-0.13","","","",""
"4597","","{""P0_Q0"":""ㄷ,ㅣ,ㄴ"",""P0_Q1"":2}","survey","58","4997844","0.0-12.0-1.13","[]","","",""
"1454","TestRecordings/cwit.wav","0","audio-button-response","59","4999382","0.0-12.0-0.14","","","",""
"5246","","{""P0_Q0"":""ㅈ,ㅜ,ㅣ,ㅅ"",""P0_Q1"":1}","survey","60","5004636","0.0-12.0-1.14","[]","","",""
"2196","TestRecordings/mpukham.wav","0","audio-button-response","61","5006919","0.0-12.0-0.15","","","",""
"9055","","{""P0_Q0"":""ㅇ,ㅡ,ㅁ,ㅂ,ㅜ,ㅋ,ㅏ,ㅁ"",""P0_Q1"":1}","survey","62","5015981","0.0-12.0-1.15","[]","","",""
"3022","TestRecordings/cnaphin.wav","0","audio-button-response","63","5019089","0.0-12.0-0.16","","","",""
"7694","","{""P0_Q0"":""ㅅ,ㅡ,ㄴ,ㅏ,ㅍ,ㅣ,ㄴ"",""P0_Q1"":1}","survey","64","5026794","0.0-12.0-1.16","[]","","",""
"1806","TestRecordings/chwiphin.wav","0","audio-button-response","65","5028686","0.0-12.0-0.17","","","",""
"9517","","{""P0_Q0"":""ㅊ,ㅜ,ㅣ,ㅍ,ㅣ,ㄴ"",""P0_Q1"":1}","survey","66","5038210","0.0-12.0-1.17","[]","","",""
"1326","TestRecordings/mphosak.wav","0","audio-button-response","67","5039622","0.0-12.0-0.18","","","",""
"7468","","{""P0_Q0"":""ㅇ,ㅡ,ㅁ,ㅍ,ㅗ,ㅅ,ㅏ,ㄱ"",""P0_Q1"":1}","survey","68","5047097","0.0-12.0-1.18","[]","","",""
"1601","TestRecordings/nchot.wav","0","audio-button-response","69","5048783","0.0-12.0-0.19","","","",""
"7732","","{""P0_Q0"":""ㅇ,ㅡ,ㅁ,ㅊ,ㅗ,ㅅ"",""P0_Q1"":1}","survey","70","5056522","0.0-12.0-1.19","[]","","",""
"1607","TestRecordings/twan.wav","0","audio-button-response","71","5058215","0.0-12.0-0.20","","","",""
"5677","","{""P0_Q0"":""ㄷ,ㅗ,ㅏ,ㄴ"",""P0_Q1"":1}","survey","72","5063898","0.0-12.0-1.20","[]","","",""
"1077","TestRecordings/knot.wav","0","audio-button-response","73","5065059","0.0-12.0-0.21","","","",""
"9571","","{""P0_Q0"":""ㅋ,ㅡ,ㄴ,ㅗ,ㅅ"",""P0_Q1"":1}","survey","74","5074636","0.0-12.0-1.21","[]","","",""
"1239","TestRecordings/mphuk.wav","0","audio-button-response","75","5075959","0.0-12.0-0.22","","","",""
"5763","","{""P0_Q0"":""ㅇ,ㅡ,ㅁ,ㅍ,ㅜ,ㄱ"",""P0_Q1"":1}","survey","76","5081730","0.0-12.0-1.22","[]","","",""
"2616","TestRecordings/nthaking.wav","0","audio-button-response","77","5084431","0.0-12.0-0.23","","","",""
"6829","","{""P0_Q0"":""ㅇ,ㅣ,ㅌ,ㅏ,ㄱ,ㅣ,ㅇ"",""P0_Q1"":1}","survey","78","5091266","0.0-12.0-1.23","[]","","",""
"1456","TestRecordings/tmichut.wav","0","audio-button-response","79","5092807","0.0-12.0-0.24","","","",""
"7124","","{""P0_Q0"":""ㅅ,ㅡ,ㅁ,ㅣ,ㅊ,ㅜ,ㅅ"",""P0_Q1"":1}","survey","80","5099938","0.0-12.0-1.24","[]","","",""
"1819","TestRecordings/chwikhong.wav","0","audio-button-response","81","5101841","0.0-12.0-0.25","","","",""
"9331","","{""P0_Q0"":""ㅊ,ㅜ,ㅣ,ㅋ,ㅗ,ㅇ"",""P0_Q1"":1}","survey","82","5111179","0.0-12.0-1.25","[]","","",""
"1302","TestRecordings/khwipot.wav","0","audio-button-response","83","5112567","0.0-12.0-0.26","","","",""
"8244","","{""P0_Q0"":""ㅋ,ㅜ,ㅣ,ㅂ,ㅗ,ㅅ"",""P0_Q1"":2}","survey","84","5120819","0.0-12.0-1.26","[]","","",""
"1095","TestRecordings/thukhat.wav","0","audio-button-response","85","5121944","0.0-12.0-0.27","","","",""
"11222","","{""P0_Q0"":""ㅌ,ㅜ,ㅋ,ㅏ,ㅅ"",""P0_Q1"":2}","survey","86","5133174","0.0-12.0-1.27","[]","","",""
"1221","TestRecordings/twak.wav","0","audio-button-response","87","5134480","0.0-12.0-0.28","","","",""
"6569","","{""P0_Q0"":""ㄷ,ㅗ,ㅏ,ㄱ"",""P0_Q1"":1}","survey","88","5141056","0.0-12.0-1.28","[]","","",""
"1395","TestRecordings/npucap.wav","0","audio-button-response","89","5142535","0.0-12.0-0.29","","","",""
"7402","","{""P0_Q0"":""ㅇ,ㅡ,ㅁ,ㅂ,ㅜ,ㅈ,ㅏ,ㅂ"",""P0_Q1"":1}","survey","90","5149945","0.0-12.0-1.29","[]","","",""
"1895","TestRecordings/tnunong.wav","0","audio-button-response","91","5151925","0.0-12.0-0.30","","","",""
"8761","","{""P0_Q0"":""ㅋ,ㅡ,ㄴ,ㅜ,ㄴ,ㅗ,ㅇ"",""P0_Q1"":1}","survey","92","5160693","0.0-12.0-1.30","[]","","",""
"1114","TestRecordings/thinok.wav","0","audio-button-response","93","5161892","0.0-12.0-0.31","","","",""
"5296","","{""P0_Q0"":""ㅌ,ㅣ,ㄴ,ㅗ,ㄱ"",""P0_Q1"":1}","survey","94","5167195","0.0-12.0-1.31","[]","","",""
"1079","TestRecordings/chunak.wav","0","audio-button-response","95","5168359","0.0-12.0-0.32","","","",""
"6031","","{""P0_Q0"":""ㅊ,ㅜ,ㄴ,ㅏ,ㄱ"",""P0_Q1"":1}","survey","96","5174397","0.0-12.0-1.32","[]","","",""
"1104","TestRecordings/taphik.wav","0","audio-button-response","97","5175586","0.0-12.0-0.33","","","",""
"6730","","{""P0_Q0"":""ㄷ,ㅏ,ㅍ,ㅣ,ㄱ"",""P0_Q1"":1}","survey","98","5182323","0.0-12.0-1.33","[]","","",""
"1232","TestRecordings/nkhuchom.wav","0","audio-button-response","99","5183640","0.0-12.0-0.34","","","",""
"8967","","{""P0_Q0"":""ㅇ,ㅡ,ㅁ,ㅋ,ㅜ,ㅊ,ㅗ,ㅁ"",""P0_Q1"":1}","survey","100","5192614","0.0-12.0-1.34","[]","","",""
"1548","TestRecordings/ntakhip.wav","0","audio-button-response","101","5194184","0.0-12.0-0.35","","","",""
"9507","","{""P0_Q0"":""ㅇ,ㅡ,ㅁ,ㄷ,ㅏ,ㅋ,ㅣ,ㅂ"",""P0_Q1"":1}","survey","102","5203699","0.0-12.0-1.35","[]","","",""
"1571","TestRecordings/nkat.wav","0","audio-button-response","103","5205354","0.0-12.0-0.36","","","",""
"7243","","{""P0_Q0"":""ㅇ,ㅡ,ㅇ,ㄱ,ㅏ,ㅅ"",""P0_Q1"":1}","survey","104","5212604","0.0-12.0-1.36","[]","","",""
"1305","TestRecordings/khithuk.wav","0","audio-button-response","105","5213994","0.0-12.0-0.37","","","",""
"5315","","{""P0_Q0"":""ㅋ,ㅣ,ㅌ,ㅜ,ㄱ"",""P0_Q1"":1}","survey","106","5219316","0.0-12.0-1.37","[]","","",""
"1530","TestRecordings/phnokhing.wav","0","audio-button-response","107","5220930","0.0-12.0-0.38","","","",""
"8258","","{""P0_Q0"":""ㅍ,ㅡ,ㄴ,ㅗ,ㅋ,ㅣ,ㅇ"",""P0_Q1"":1}","survey","108","5229196","0.0-12.0-1.38","[]","","",""
"1930","TestRecordings/khin.wav","0","audio-button-response","109","5231211","0.0-12.0-0.39","","","",""
"3985","","{""P0_Q0"":""ㅋ,ㅣ,ㄴ"",""P0_Q1"":3}","survey","110","5235202","0.0-12.0-1.39","[]","","",""
"1225","TestRecordings/nakhit.wav","0","audio-button-response","111","5236513","0.0-12.0-0.40","","","",""
"6207","","{""P0_Q0"":""ㄴ,ㅏ,ㅋ,ㅣ,ㅅ"",""P0_Q1"":1}","survey","112","5242726","0.0-12.0-1.40","[]","","",""
"1479","TestRecordings/khwichon.wav","0","audio-button-response","113","5244291","0.0-12.0-0.41","","","",""
"6309","","{""P0_Q0"":""ㅋ,ㅜ,ㅣ,ㅊ,ㅗ,ㄴ"",""P0_Q1"":1}","survey","114","5250606","0.0-12.0-1.41","[]","","",""
"1313","TestRecordings/twamot.wav","0","audio-button-response","115","5252003","0.0-12.0-0.42","","","",""
"5740","","{""P0_Q0"":""ㄷ,ㅗ,ㅏ,ㅁ,ㅗ,ㅅ"",""P0_Q1"":1}","survey","116","5257750","0.0-12.0-1.42","[]","","",""
"1156","TestRecordings/nwimik.wav","0","audio-button-response","117","5258991","0.0-12.0-0.43","","","",""
"6266","","{""P0_Q0"":""ㄴ,ㅜ,ㅣ,ㅁ,ㅣ,ㄱ"",""P0_Q1"":1}","survey","118","5265262","0.0-12.0-1.43","[]","","",""
"1167","TestRecordings/swikhat.wav","0","audio-button-response","119","5266515","0.0-12.0-0.44","","","",""
"5786","","{""P0_Q0"":""ㅅ,ㅜ,ㅣ,ㅋ,ㅏ,ㅅ"",""P0_Q1"":1}","survey","120","5272309","0.0-12.0-1.44","[]","","",""
"1594","TestRecordings/mkit.wav","0","audio-button-response","121","5273987","0.0-12.0-0.45","","","",""
"8926","","{""P0_Q0"":""ㅇ,ㅡ,ㅇ,ㄱ,ㅣ,ㅅ"",""P0_Q1"":1}","survey","122","5282919","0.0-12.0-1.45","[]","","",""
"1407","TestRecordings/nchocip.wav","0","audio-button-response","123","5284411","0.0-12.0-0.46","","","",""
"9426","","{""P0_Q0"":""ㅇ,ㅡ,ㅁ,ㅊ,ㅗ,ㅈ,ㅣ,ㅂ"",""P0_Q1"":1}","survey","124","5293845","0.0-12.0-1.46","[]","","",""
"1154","TestRecordings/chmop.wav","0","audio-button-response","125","5295083","0.0-12.0-0.47","","","",""
"5148","","{""P0_Q0"":""ㅅ,ㅡ,ㅁ,ㅗ,ㅂ"",""P0_Q1"":1}","survey","126","5300239","0.0-12.0-1.47","[]","","",""
"1070","TestRecordings/tikut.wav","0","audio-button-response","127","5301331","0.0-12.0-0.48","","","",""
"6292","","{""P0_Q0"":""ㅂ,ㅣ,ㄱ,ㅜ,ㅅ"",""P0_Q1"":2}","survey","128","5307629","0.0-12.0-1.48","[]","","",""
"1102","TestRecordings/twaput.wav","0","audio-button-response","129","5308786","0.0-12.0-0.49","","","",""
"5710","","{""P0_Q0"":""ㄷ,ㅗ,ㅏ,ㅂ,ㅜ,ㅅ"",""P0_Q1"":1}","survey","130","5314502","0.0-12.0-1.49","[]","","",""
"1154","TestRecordings/chnuk.wav","0","audio-button-response","131","5315740","0.0-12.0-0.50","","","",""
"4866","","{""P0_Q0"":""ㅅ,ㅡ,ㄴ,ㅜ,ㄱ"",""P0_Q1"":1}","survey","132","5320614","0.0-12.0-1.50","[]","","",""
"1125","TestRecordings/khut.wav","0","audio-button-response","133","5321822","0.0-12.0-0.51","","","",""
"3929","","{""P0_Q0"":""ㅋ,ㅜ,ㅅ"",""P0_Q1"":1}","survey","134","5325757","0.0-12.0-1.51","[]","","",""
"1774","TestRecordings/khnothik.wav","0","audio-button-response","135","5327617","0.0-12.0-0.52","","","",""
"10182","","{""P0_Q0"":""ㅋ,ㅡ,ㄴ,ㅗ,ㅌ,ㅣ,ㄱ"",""P0_Q1"":1}","survey","136","5337805","0.0-12.0-1.52","[]","","",""
"959","TestRecordings/mphutam.wav","0","audio-button-response","137","5338788","0.0-12.0-0.53","","","",""
"6421","","{""P0_Q0"":""ㅇ,ㅡ,ㅁ,ㅍ,ㅜ,ㄷ,ㅏ,ㅁ"",""P0_Q1"":1}","survey","138","5345215","0.0-12.0-1.53","[]","","",""
"1259","TestRecordings/sikot.wav","0","audio-button-response","139","5346558","0.0-12.0-0.54","","","",""
"10562","","{""P0_Q0"":""ㅅ,ㅜ,ㅣ,ㄱ,ㅗ,ㅅ"",""P0_Q1"":1}","survey","140","5357128","0.0-12.0-1.54","[]","","",""
"1182","TestRecordings/thwam.wav","0","audio-button-response","141","5358394","0.0-12.0-0.55","","","",""
"4108","","{""P0_Q0"":""ㅌ,ㅗ,ㅏ,ㅁ"",""P0_Q1"":1}","survey","142","5362509","0.0-12.0-1.55","[]","","",""
"1358","TestRecordings/cmoman.wav","0","audio-button-response","143","5363952","0.0-12.0-0.56","","","",""
"7143","","{""P0_Q0"":""ㅅ,ㅡ,ㅁ,ㅗ,ㅁ,ㅏ,ㄴ"",""P0_Q1"":1}","survey","144","5371102","0.0-12.0-1.56","[]","","",""
"1373","TestRecordings/kmamun.wav","0","audio-button-response","145","5372562","0.0-12.0-0.57","","","",""
"6861","","{""P0_Q0"":""ㅋ,ㅡ,ㅁ,ㅏ,ㅁ,ㅜ,ㄴ"",""P0_Q1"":1}","survey","146","5379430","0.0-12.0-1.57","[]","","",""
"1417","TestRecordings/cwam.wav","0","audio-button-response","147","5380933","0.0-12.0-0.58","","","",""
"5732","","{""P0_Q0"":""ㅈ,ㅗ,ㅏ,ㅁ"",""P0_Q1"":1}","survey","148","5386673","0.0-12.0-1.58","[]","","",""
"1415","TestRecordings/thnok.wav","0","audio-button-response","149","5388171","0.0-12.0-0.59","","","",""
"6290","","{""P0_Q0"":""ㅋ,ㅡ,ㄴ,ㅗ,ㄱ"",""P0_Q1"":1}","survey","150","5394468","0.0-12.0-1.59","[]","","",""
"2007",""," ","html-keyboard-response","151","5396476","0.0-13.0","","","",""
"69022","","{""P0_Q0"":""32"",""P0_Q1"":""남"",""P0_Q2"":""12"",""P0_Q3"":""없음"",""P0_Q4"":""일본어"",""P0_Q5"":""중학교1년, 고등학교1년"",""P0_Q6"":""없음""}","survey","152","5465508","0.0-14.0","[]","","",""
"18094","<p style=""font-size:30px"",lang=""ko"">실험이 끝났습니다</p><p style=""font-size:30px"",lang=""ko"">참가해주셔서 고맙습니다</p>"," ","html-keyboard-response","153","5483603","0.0-15.0","","","",""
