"rt","stimulus","response","trial_type","trial_index","time_elapsed","internal_node_id","accuracy","PracticeTest","ConsonantSequence","Grammaticality"
"2811562","<p style=""font-size:30px"",lang=""ko"">실험에 오신 것을 환영합니다</p><p lang=""ko"">스페이스바를 누르면 다음 페이지로 넘어갑니다</p>"," ","html-keyboard-response","0","2811564","0.0-0.0","","","",""
"5249","<p style=""font-size:30px"",lang=""ko"">해드폰을 본인에게 잘 맞게 착용하세요</p><p lang=""ko"">스페이스바를 누르면 다음 페이지로 넘어갑니다</p>"," ","html-keyboard-response","1","2816815","0.0-1.0","","","",""
"2854","<p style=""font-size:30px"",lang=""ko"">이 실험에서는 새로 만든 한국 단어를 들으실 겁니다</p><p style=""font-size:30px"",lang=""ko"">단어를 들리는대로 쓰세요. 그런 다음 그 단어가 한국어 단어로 가능한지 평가하세요</p><p lang=""ko"">스페이스바를 누르면 다음 페이지로 넘어갑니다</p>"," ","html-keyboard-response","2","2819670","0.0-2.0","","","",""
"1669","<p style=""font-size:30px"",lang=""ko"">원래 있는 단어로 예를 들어 봅시다</p><p lang=""ko"">스페이스바를 누르면 다음 페이지로 넘어갑니다</p>"," ","html-keyboard-response","3","2821340","0.0-3.0","","","",""
"14712","PracticeRecordings/kom_bear.wav","0","audio-button-response","4","2836084","0.0-4.0","","","",""
"2425","<p style=""font-size:30px"",lang=""ko"">이제 직접 단어를 듣고 쓰는 연습을 해봅시다. </p><p style=""font-size:30px"",lang=""ko"">스페이스바를 누르면 다음 페이지로 넘어갑니다</p>"," ","html-keyboard-response","5","2838511","0.0-5.0","","","",""
"2619","PracticeRecordings/kirin_giraffe.wav","0","audio-button-response","6","2841154","0.0-6.0-0.0","","","",""
"5717","kirin_giraffe","{""P0_Q0"":""ㄱ,ㅣ""}","survey","7","2846915","0.0-6.0-1.0","[]","practice","NA","TRUE"
"2334","<p style=""font-size:30px"",lang=""ko"">방금 들으신 단어는 ""ㄱ,ㅣ,ㄹ,ㅣ,ㄴ"" 이라고 쓰시면 됩니다</p><p lang=""ko"">스페이스바를 누르면 다음 페이지로 넘어갑니다</p>"," ","html-keyboard-response","8","2849250","0.0-6.0-2.0","","","",""
"1361","PracticeRecordings/saca_lion.wav","0","audio-button-response","9","2850635","0.0-6.0-0.1","","","",""
"2467","saca_lion","{""P0_Q0"":""ㅅ""}","survey","10","2853112","0.0-6.0-1.1","[]","practice","NA","FALSE"
"1026","<p style=""font-size:30px"",lang=""ko"">방금 들으신 단어는 ""ㅅ,ㅏ,ㅈ,ㅏ"" 라고 쓰시면 됩니다</p><p lang=""ko"">스페이스바를 누르면 다음 페이지로 넘어갑니다</p>"," ","html-keyboard-response","11","2854138","0.0-6.0-2.1","","","",""
"1201","PracticeRecordings/saseum_deer.wav","0","audio-button-response","12","2855363","0.0-6.0-0.2","","","",""
"2396","saseum_deer","{""P0_Q0"":""ㅅ""}","survey","13","2857767","0.0-6.0-1.2","[]","practice","NA","FALSE"
"1758","<p style=""font-size:30px"",lang=""ko"">방금 들으신 단어는 ""ㅅ,ㅏ,ㅅ,ㅡ,ㅁ""이라고 쓰시면 됩니다</p><p lang=""ko"">스페이스바를 누르면 다음 페이지로 넘어갑니다</p>"," ","html-keyboard-response","14","2859526","0.0-6.0-2.2","","","",""
"1031","PracticeRecordings/thokki_rabbit.wav","0","audio-button-response","15","2860580","0.0-6.0-0.3","","","",""
"2796","thokki_rabbit","{""P0_Q0"":""ㅌ""}","survey","16","2863385","0.0-6.0-1.3","[]","practice","NA","FALSE"
"2123","<p style=""font-size:30px"",lang=""ko"">방금 들으신 단어는 ""ㅌ,ㅗ,ㄲ,ㅣ"" 라고 쓰시면 됩니다</p><p lang=""ko"">스페이스바를 누르면 다음 페이지로 넘어갑니다</p>"," ","html-keyboard-response","17","2865508","0.0-6.0-2.3","","","",""
"1488","<p style=""font-size:30px"",lang=""ko"">이제 만든 단어로 연습해봅시다.</p><p lang=""ko"">스페이스바를 누르면 다음 페이지로 넘어갑니다</p>"," ","html-keyboard-response","18","2866997","0.0-7.0","","","",""
"1553","PracticeRecordings/snen.wav","0","audio-button-response","19","2868571","0.0-8.0-0.0","","","",""
"3460","snen","{""P0_Q0"":""ㅅ""}","survey","20","2872038","0.0-8.0-1.0","[]","practice","NA","TRUE"
"2610","<p style=""font-size:30px"",lang=""ko"">들으신 단어는 <br> ""ㅅ,ㅡ,ㄴ,ㅐ,ㄴ""  ""ㅅ,ㅡ,ㄴ,ㅐ"" ""ㅅ,ㄴ,ㅐ,ㄴ (""으"" 소리가 안 들리는 경우)"" 등 <br> 사람에 따라 다양하게 들릴 수 있습니다 <br> 본인에게 들리는대로 쓰시면 됩니다.</p><p lang=""ko"">스페이스바를 누르면 다음 페이지로 넘어갑니다</p>"," ","html-keyboard-response","21","2874649","0.0-8.0-2.0","","","",""
"1255","PracticeRecordings/phrak.wav","0","audio-button-response","22","2875927","0.0-8.0-0.1","","","",""
"8879","phrak","{""P0_Q0"":""ㅍ,ㅡ,ㄹ,ㅏ,ㄱ""}","survey","23","2884813","0.0-8.0-1.1","[]","practice","NA","FALSE"
"1805","<p style=""font-size:30px"",lang=""ko"">들으신 단어는 <br> ""ㅍ,ㅡ,ㄹ,ㅏ,ㄱ"" ""ㅍ,ㅡ,ㄹ,ㅏ,ㅅ"" ""ㅋ,ㅡ,ㄹ,ㅏ,ㄱ"" ""ㅍ,ㄹ,ㅏ,ㄱ (""으"" 소리가 안 들리는 경우)"" 등 <br> 사람에 따라 다양하게 들릴 수 있습니다 <br> 본인에게 들리는대로 쓰시면 됩니다.</p><p lang=""ko"">스페이스바를 누르면 다음 페이지로 넘어갑니다</p>"," ","html-keyboard-response","24","2886618","0.0-8.0-2.1","","","",""
"1254","PracticeRecordings/chka.wav","0","audio-button-response","25","2887894","0.0-8.0-0.2","","","",""
"7913","chka","{""P0_Q0"":""ㅅ,ㅡ,ㄱ,ㅏ""}","survey","26","2895814","0.0-8.0-1.2","[]","practice","NA","FALSE"
"1350","<p style=""font-size:30px"",lang=""ko"">들으신 단어는 ""ㅊ,ㅣ,ㄱ,ㅏ"", ""ㅊ,ㅡ,ㄱ,ㅏ"", ""ㅊ,ㄱ,ㅏ"", ""ㅊ,ㅟ,ㄱ,ㅏ"" 등 <br> 사람에 따라 다양하게 들릴 수 있습니다. <br> 본인에게 들리는대로 쓰시면 됩니다.</p><p lang=""ko"">스페이스바를 누르면 다음 페이지로 넘어갑니다</p>"," ","html-keyboard-response","27","2897164","0.0-8.0-2.2","","","",""
"1101",""," ","html-keyboard-response","28","2898265","0.0-9.0","","","",""
"718","<p style=""font-size:30px"",lang=""ko"">이제 실험을 시작하겠습니다.</p><p style=""font-size:30px"",lang=""ko"">실전에서는 각각의 만든 단어를 한 번씩만 들을 수 있습니다.</p>"," ","html-keyboard-response","29","2898984","0.0-10.0","","","",""
"1080","<p style=""font-size:30px"",lang=""ko"">단어를 풀어 쓰신 후에 그 단어가 한국어로 가능한 단어인지 평가해주세요</p><p style=""font-size:30px"",lang=""ko"">1점은 한국어로 완전 불가능한 단어, 7점은 한국어로 완전 가능한 단어를 의미합니다</p><p lang=""ko"">스페이스바를 누르면 다음 페이지로 넘어갑니다</p>"," ","html-keyboard-response","30","2900064","0.0-11.0","","","",""
"1363","TestRecordings/chumik.wav","0","audio-button-response","31","2901449","0.0-12.0-0.0","","","",""
"14531","","{""P0_Q0"":""ㅊ,ㅜ,ㅁ,ㅣ,ㄱ"",""P0_Q1"":3}","survey","32","2915997","0.0-12.0-1.0","[]","","",""
"1368","TestRecordings/twak.wav","0","audio-button-response","33","2917388","0.0-12.0-0.1","","","",""
"8692","","{""P0_Q0"":""ㅂ,ㅡ,ㅇ,ㅏ,ㄱ"",""P0_Q1"":2}","survey","34","2926089","0.0-12.0-1.1","[]","","",""
"1188","TestRecordings/mphuk.wav","0","audio-button-response","35","2927298","0.0-12.0-0.2","","","",""
"9214","","{""P0_Q0"":""ㅇ,ㅡ,ㅁ,ㅍ,ㅜ"",""P0_Q1"":3}","survey","36","2936521","0.0-12.0-1.2","[]","","",""
"1473","TestRecordings/nthimong.wav","0","audio-button-response","37","2938016","0.0-12.0-0.3","","","",""
"8903","","{""P0_Q0"":""ㄴ,ㅣ,ㅌ,ㅣ,ㅁ,ㅗ,ㅇ"",""P0_Q1"":3}","survey","38","2946926","0.0-12.0-1.3","[]","","",""
"1313","TestRecordings/nkat.wav","0","audio-button-response","39","2948261","0.0-12.0-0.4","","","",""
"13476","","{""P0_Q0"":""ㅇ,ㅡ,ㅇ,ㄱ,ㅏ,ㄹ,ㄱ"",""P0_Q1"":2}","survey","40","2961745","0.0-12.0-1.4","[]","","",""
"1329","TestRecordings/twaput.wav","0","audio-button-response","41","2963093","0.0-12.0-0.5","","","",""
"9350","","{""P0_Q0"":""ㄷ,ㅡ,ㅇ,ㅏ,ㅂ,ㅜ,ㅅ"",""P0_Q1"":2}","survey","42","2972451","0.0-12.0-1.5","[]","","",""
"1433","TestRecordings/kmamun.wav","0","audio-button-response","43","2973905","0.0-12.0-0.6","","","",""
"12473","","{""P0_Q0"":""ㅋ,ㅡ,ㅁ,ㅏ,ㅁ,ㅜ,ㄴ"",""P0_Q1"":3}","survey","44","2986386","0.0-12.0-1.6","[]","","",""
"1612","TestRecordings/nthaking.wav","0","audio-button-response","45","2988020","0.0-12.0-0.7","","","",""
"15303","","{""P0_Q0"":""ㅡ,ㅇ,ㅌ,ㅏ,ㄱ,ㅣㅇ"",""P0_Q1"":2}","survey","46","3003330","0.0-12.0-1.7","[]","","",""
"867","TestRecordings/phmiman.wav","0","audio-button-response","47","3004223","0.0-12.0-0.8","","","",""
"9096","","{""P0_Q0"":""ㅍ,ㅜ,ㅁ,ㅣ,ㅁ"",""P0_Q1"":2}","survey","48","3013326","0.0-12.0-1.8","[]","","",""
"1359","TestRecordings/npucap.wav","0","audio-button-response","49","3014706","0.0-12.0-0.9","","","",""
"11438","","{""P0_Q0"":""ㅡ,ㅁ,ㅍ,ㅜ,ㅈ,ㅑ,ㅂ"",""P0_Q1"":2}","survey","50","3026152","0.0-12.0-1.9","[]","","",""
"1339","TestRecordings/nchocip.wav","0","audio-button-response","51","3027513","0.0-12.0-0.10","","","",""
"10410","","{""P0_Q0"":""ㅡ,ㅁ,ㅊ,ㅗ,ㅈ,ㅣㅂ"",""P0_Q1"":2}","survey","52","3037931","0.0-12.0-1.10","[]","","",""
"1548","TestRecordings/thukhat.wav","0","audio-button-response","53","3039499","0.0-12.0-0.11","","","",""
"5870","","{""P0_Q0"":""ㅌ,ㅜ,ㅋ,ㅏ,ㅅ"",""P0_Q1"":3}","survey","54","3045376","0.0-12.0-1.11","[]","","",""
"1369","TestRecordings/thwam.wav","0","audio-button-response","55","3046767","0.0-12.0-0.12","","","",""
"6531","","{""P0_Q0"":""ㅌ,ㅗ,ㅏ,ㅁ"",""P0_Q1"":3}","survey","56","3053304","0.0-12.0-1.12","[]","","",""
"1662","TestRecordings/chwikhong.wav","0","audio-button-response","57","3054989","0.0-12.0-0.13","","","",""
"12441","","{""P0_Q0"":""ㅊ,ㅣ,ㅋ,ㅗ,ㅇ"",""P0_Q1"":3}","survey","58","3067437","0.0-12.0-1.13","[]","","",""
"1132","TestRecordings/thinok.wav","0","audio-button-response","59","3068589","0.0-12.0-0.14","","","",""
"6452","","{""P0_Q0"":""ㅋ,ㅣ,ㄴ,ㅗㄱ"",""P0_Q1"":3}","survey","60","3075049","0.0-12.0-1.14","[]","","",""
"1419","TestRecordings/chakot.wav","0","audio-button-response","61","3076490","0.0-12.0-0.15","","","",""
"12665","","{""P0_Q0"":""ㅊ,ㅏ,ㄱ,ㅗ,ㅅ"",""P0_Q1"":3}","survey","62","3089161","0.0-12.0-1.15","[]","","",""
"1401","TestRecordings/phnokhing.wav","0","audio-button-response","63","3090583","0.0-12.0-0.16","","","",""
"9724","","{""P0_Q0"":""ㅋ,ㅡ,ㄴ,ㅗ,ㅋ,ㅣ,ㅇ"",""P0_Q1"":3}","survey","64","3100314","0.0-12.0-1.16","[]","","",""
"1260","TestRecordings/mup.wav","0","audio-button-response","65","3101594","0.0-12.0-0.17","","","",""
"5633","","{""P0_Q0"":""ㅁ,ㅜ,ㅂ"",""P0_Q1"":3}","survey","66","3107234","0.0-12.0-1.17","[]","","",""
"1312","TestRecordings/thnok.wav","0","audio-button-response","67","3108566","0.0-12.0-0.18","","","",""
"7871","","{""P0_Q0"":""ㅅ,ㅡ,ㄴ,ㅗ,ㄱ"",""P0_Q1"":3}","survey","68","3116444","0.0-12.0-1.18","[]","","",""
"1393","TestRecordings/cmoman.wav","0","audio-button-response","69","3117859","0.0-12.0-0.19","","","",""
"9278","","{""P0_Q0"":""ㅊ,ㅡ,ㅁ,ㅗ,ㅁ,ㅏ,ㄴ"",""P0_Q1"":2}","survey","70","3127144","0.0-12.0-1.19","[]","","",""
"1281","TestRecordings/khwipot.wav","0","audio-button-response","71","3128447","0.0-12.0-0.20","","","",""
"11783","","{""P0_Q0"":""ㅋ,ㅟ,ㅂ,ㅗ,ㅅ"",""P0_Q1"":2}","survey","72","3140236","0.0-12.0-1.20","[]","","",""
"1226","TestRecordings/swikhat.wav","0","audio-button-response","73","3141484","0.0-12.0-0.21","","","",""
"8489","","{""P0_Q0"":""ㅅ,ㅟ,ㅋ,ㅏ,ㅅ"",""P0_Q1"":2}","survey","74","3149981","0.0-12.0-1.21","[]","","",""
"1609","TestRecordings/tin.wav","0","audio-button-response","75","3151611","0.0-12.0-0.22","","","",""
"4413","","{""P0_Q0"":""ㄷ,ㅣ,ㄴ"",""P0_Q1"":3}","survey","76","3156031","0.0-12.0-1.22","[]","","",""
"1532","TestRecordings/thwikhip.wav","0","audio-button-response","77","3157584","0.0-12.0-0.23","","","",""
"7591","","{""P0_Q0"":""ㅌ,ㅜ,ㅣ,ㅋ,ㅣㅂ"",""P0_Q1"":2}","survey","78","3165181","0.0-12.0-1.23","[]","","",""
"1407","TestRecordings/mphutam.wav","0","audio-button-response","79","3166610","0.0-12.0-0.24","","","",""
"15412","","{""P0_Q0"":""ㅁ,ㅡ,ㅍ,ㅡ,ㄷ,ㅏ,ㅁ"",""P0_Q1"":2}","survey","80","3182027","0.0-12.0-1.24","[]","","",""
"1604","TestRecordings/tikut.wav","0","audio-button-response","81","3183656","0.0-12.0-0.25","","","",""
"7157","","{""P0_Q0"":""ㄷ,ㅣ,ㄱ,ㅜ,ㄷ"",""P0_Q1"":2}","survey","82","3190820","0.0-12.0-1.25","[]","","",""
"1471","TestRecordings/mtukin.wav","0","audio-button-response","83","3192312","0.0-12.0-0.26","","","",""
"9439","","{""P0_Q0"":""ㅇ,ㅡ,ㅁ,ㄷ,ㅜ,ㄱ,ㅣ,ㄴ"",""P0_Q1"":3}","survey","84","3201758","0.0-12.0-1.26","[]","","",""
"1751","TestRecordings/khin.wav","0","audio-button-response","85","3203530","0.0-12.0-0.27","","","",""
"5516","","{""P0_Q0"":""ㅋ,ㅣ,ㄴ"",""P0_Q1"":2}","survey","86","3209054","0.0-12.0-1.27","[]","","",""
"1249","TestRecordings/cnaphin.wav","0","audio-button-response","87","3210325","0.0-12.0-0.28","","","",""
"13152","","{""P0_Q0"":""ㅉ,ㅡ,ㄴ,ㅏ,ㅂ,ㅍ,ㅣ,ㅇ"",""P0_Q1"":2}","survey","88","3223485","0.0-12.0-1.28","[]","","",""
"1406","TestRecordings/khithuk.wav","0","audio-button-response","89","3224913","0.0-12.0-0.29","","","",""
"6518","","{""P0_Q0"":""ㅋ,ㅣ,ㅌ,ㅜ,ㄱ"",""P0_Q1"":2}","survey","90","3231438","0.0-12.0-1.29","[]","","",""
"1247","TestRecordings/sikot.wav","0","audio-button-response","91","3232707","0.0-12.0-0.30","","","",""
"7275","","{""P0_Q0"":""ㅅ,ㅜ,ㅣ,ㄱ,ㅗ,ㅅ"",""P0_Q1"":3}","survey","92","3239988","0.0-12.0-1.30","[]","","",""
"1274","TestRecordings/khut.wav","0","audio-button-response","93","3241283","0.0-12.0-0.31","","","",""
"5184","","{""P0_Q0"":""ㅋ,ㅜ,ㄷ"",""P0_Q1"":2}","survey","94","3246475","0.0-12.0-1.31","[]","","",""
"1175","TestRecordings/nwimik.wav","0","audio-button-response","95","3247670","0.0-12.0-0.32","","","",""
"10241","","{""P0_Q0"":""ㄴ,ㅠ,ㅇ,ㅣ,ㅁ,ㅣ,ㄱ"",""P0_Q1"":2}","survey","96","3257917","0.0-12.0-1.32","[]","","",""
"1188","TestRecordings/ntakhip.wav","0","audio-button-response","97","3259126","0.0-12.0-0.33","","","",""
"12477","","{""P0_Q0"":""ㅇ,ㅡ,ㅁ,ㄷ,ㅏ,ㅇ,ㅣ,ㄹ,ㄱ"",""P0_Q1"":2}","survey","98","3271610","0.0-12.0-1.33","[]","","",""
"1183","TestRecordings/tmichut.wav","0","audio-button-response","99","3272814","0.0-12.0-0.34","","","",""
"10505","","{""P0_Q0"":""ㅈ,ㅠ,ㅁ,ㅣ,ㅊ,ㅠ,ㄷ"",""P0_Q1"":2}","survey","100","3283326","0.0-12.0-1.34","[]","","",""
"1070","TestRecordings/twamot.wav","0","audio-button-response","101","3284418","0.0-12.0-0.35","","","",""
"9149","","{""P0_Q0"":""ㄷ,ㅡ,ㅇ,ㅏ,ㅁ,ㅗ,ㅅ"",""P0_Q1"":3}","survey","102","3293575","0.0-12.0-1.35","[]","","",""
"1117","TestRecordings/cwit.wav","0","audio-button-response","103","3294713","0.0-12.0-0.36","","","",""
"6008","","{""P0_Q0"":""ㅈ,ㅟ,ㅌ"",""P0_Q1"":2}","survey","104","3300728","0.0-12.0-1.36","[]","","",""
"1568","TestRecordings/chmop.wav","0","audio-button-response","105","3302317","0.0-12.0-0.37","","","",""
"7403","","{""P0_Q0"":""ㅊ,ㅡ,ㅁ,ㅗ,ㅅ"",""P0_Q1"":2}","survey","106","3309727","0.0-12.0-1.37","[]","","",""
"1319","TestRecordings/cwam.wav","0","audio-button-response","107","3311067","0.0-12.0-0.38","","","",""
"5637","","{""P0_Q0"":""ㅈ,ㅗ,ㅏ,ㅁ"",""P0_Q1"":3}","survey","108","3316710","0.0-12.0-1.38","[]","","",""
"1068","TestRecordings/mkit.wav","0","audio-button-response","109","3317799","0.0-12.0-0.39","","","",""
"6409","","{""P0_Q0"":""ㅡ,ㅁ,ㄱ,ㅣㅅ"",""P0_Q1"":2}","survey","110","3324215","0.0-12.0-1.39","[]","","",""
"1255","TestRecordings/chwiphin.wav","0","audio-button-response","111","3325491","0.0-12.0-0.40","","","",""
"6197","","{""P0_Q0"":""ㅊ,ㅜ,ㅣ,ㅍ,ㅣㄴ"",""P0_Q1"":3}","survey","112","3331695","0.0-12.0-1.40","[]","","",""
"1980","TestRecordings/khnap.wav","0","audio-button-response","113","3333702","0.0-12.0-0.41","","","",""
"7346","","{""P0_Q0"":""ㅋ,ㅡ,ㄴ,ㅏ,ㅂ"",""P0_Q1"":2}","survey","114","3341055","0.0-12.0-1.41","[]","","",""
"1114","TestRecordings/chunak.wav","0","audio-button-response","115","3342191","0.0-12.0-0.42","","","",""
"8755","","{""P0_Q0"":""ㅊ,ㅜ,ㄴ,ㅏ,ㄹ,ㄱ"",""P0_Q1"":3}","survey","116","3350953","0.0-12.0-1.42","[]","","",""
"1487","TestRecordings/khwiphing.wav","0","audio-button-response","117","3352462","0.0-12.0-0.43","","","",""
"6274","","{""P0_Q0"":""ㅋ,ㅟ,ㅍ,ㅣㅇ"",""P0_Q1"":2}","survey","118","3358743","0.0-12.0-1.43","[]","","",""
"1048","TestRecordings/chnuk.wav","0","audio-button-response","119","3359812","0.0-12.0-0.44","","","",""
"6765","","{""P0_Q0"":""ㅅ,ㅡ,ㄴ,ㅜ,ㄱ"",""P0_Q1"":2}","survey","120","3366584","0.0-12.0-1.44","[]","","",""
"1311","TestRecordings/khnothik.wav","0","audio-button-response","121","3367917","0.0-12.0-0.45","","","",""
"7237","","{""P0_Q0"":""ㅋ,ㅡ,ㄴ,ㅗ,ㅌ,ㅣㄱ"",""P0_Q1"":2}","survey","122","3375161","0.0-12.0-1.45","[]","","",""
"1286","TestRecordings/nkhuchom.wav","0","audio-button-response","123","3376468","0.0-12.0-0.46","","","",""
"11817","","{""P0_Q0"":""ㅇ,ㅡ,ㅁ,ㅋ,ㅜ,ㅊ,ㅓ,ㅇ"",""P0_Q1"":2}","survey","124","3388292","0.0-12.0-1.46","[]","","",""
"1053","TestRecordings/knot.wav","0","audio-button-response","125","3389365","0.0-12.0-0.47","","","",""
"6036","","{""P0_Q0"":""ㅋ,ㅡ,ㄴ,ㅗ,ㅅ"",""P0_Q1"":3}","survey","126","3395408","0.0-12.0-1.47","[]","","",""
"1081","TestRecordings/nakhit.wav","0","audio-button-response","127","3396509","0.0-12.0-0.48","","","",""
"9533","","{""P0_Q0"":""ㄴ,ㅏ,ㅋ,ㅣ,ㅅ"",""P0_Q1"":2}","survey","128","3406047","0.0-12.0-1.48","[]","","",""
"1143","TestRecordings/khwichon.wav","0","audio-button-response","129","3407211","0.0-12.0-0.49","","","",""
"8247","","{""P0_Q0"":""ㅋ,ㅜ,ㅣ,ㅊ,ㅗ,ㄴ"",""P0_Q1"":3}","survey","130","3415465","0.0-12.0-1.49","[]","","",""
"1243","TestRecordings/twan.wav","0","audio-button-response","131","3416729","0.0-12.0-0.50","","","",""
"5440","","{""P0_Q0"":""ㄷ,ㅡ,ㅇ,ㅏ,ㄴ"",""P0_Q1"":2}","survey","132","3422176","0.0-12.0-1.50","[]","","",""
"1136","TestRecordings/mphosak.wav","0","audio-button-response","133","3423333","0.0-12.0-0.51","","","",""
"11518","","{""P0_Q0"":""ㅡ,ㅁ,ㅍ,ㅗ,ㅅ,ㅏ,ㄹ,ㄱ"",""P0_Q1"":2}","survey","134","3434859","0.0-12.0-1.51","[]","","",""
"1099","TestRecordings/taphik.wav","0","audio-button-response","135","3435978","0.0-12.0-0.52","","","",""
"8687","","{""P0_Q0"":""ㄷ,ㅏ,ㅍ,ㅣ,ㄱ"",""P0_Q1"":3}","survey","136","3444671","0.0-12.0-1.52","[]","","",""
"1616","TestRecordings/mpukham.wav","0","audio-button-response","137","3446309","0.0-12.0-0.53","","","",""
"10948","","{""P0_Q0"":""ㅇ,ㅡ,ㅁ,ㅂ,ㅜ,ㅋ,ㅏㅁ"",""P0_Q1"":2}","survey","138","3457266","0.0-12.0-1.53","[]","","",""
"1157","TestRecordings/pmochun.wav","0","audio-button-response","139","3458446","0.0-12.0-0.54","","","",""
"8301","","{""P0_Q0"":""ㅂ,ㅜ,ㅁ,ㅜ,ㅊ,ㅜㄴ"",""P0_Q1"":3}","survey","140","3466754","0.0-12.0-1.54","[]","","",""
"1198","TestRecordings/tnunong.wav","0","audio-button-response","141","3467974","0.0-12.0-0.55","","","",""
"12270","","{""P0_Q0"":""ㅋ,ㅡ,ㄴ,ㅜ,ㄴ,ㅗ,ㅇ"",""P0_Q1"":3}","survey","142","3480249","0.0-12.0-1.55","[]","","",""
"1412","TestRecordings/chnupot.wav","0","audio-button-response","143","3481683","0.0-12.0-0.56","","","",""
"11871","","{""P0_Q0"":""ㅊ,ㅡ,ㄴ,ㅜ,ㅂ,ㅗ,ㅅ"",""P0_Q1"":2}","survey","144","3493562","0.0-12.0-1.56","[]","","",""
"987","TestRecordings/tup.wav","0","audio-button-response","145","3494568","0.0-12.0-0.57","","","",""
"4363","","{""P0_Q0"":""ㄷ,ㅜ,ㅂ"",""P0_Q1"":3}","survey","146","3498938","0.0-12.0-1.57","[]","","",""
"1070","TestRecordings/mthik.wav","0","audio-button-response","147","3500028","0.0-12.0-0.58","","","",""
"6788","","{""P0_Q0"":""ㅇ,ㅡ,ㅁ,ㅍ,ㅣㄱ"",""P0_Q1"":3}","survey","148","3506823","0.0-12.0-1.58","[]","","",""
"1122","TestRecordings/nchot.wav","0","audio-button-response","149","3507967","0.0-12.0-0.59","","","",""
"9381","","{""P0_Q0"":""ㅇ,ㅡ,ㅁ,ㅊ,ㅗ,ㅅ"",""P0_Q1"":2}","survey","150","3517354","0.0-12.0-1.59","[]","","",""
"2031",""," ","html-keyboard-response","151","3519386","0.0-13.0","","","",""
"46458","","{""P0_Q0"":""20"",""P0_Q1"":""여자"",""P0_Q2"":""7"",""P0_Q3"":""없음"",""P0_Q4"":""일본어"",""P0_Q5"":""중3 1년 , 고2 1년"",""P0_Q6"":""없음""}","survey","152","3565854","0.0-14.0","[]","","",""
"1822","<p style=""font-size:30px"",lang=""ko"">실험이 끝났습니다</p><p style=""font-size:30px"",lang=""ko"">참가해주셔서 고맙습니다</p>"," ","html-keyboard-response","153","3567677","0.0-15.0","","","",""
