"rt","stimulus","response","trial_type","trial_index","time_elapsed","internal_node_id","accuracy","PracticeTest","ConsonantSequence","Grammaticality"
"3189507","<p style=""font-size:30px"",lang=""ko"">실험에 오신 것을 환영합니다</p><p lang=""ko"">스페이스바를 누르면 다음 페이지로 넘어갑니다</p>"," ","html-keyboard-response","0","3189408","0.0-0.0","","","",""
"1963","<p style=""font-size:30px"",lang=""ko"">해드폰을 본인에게 잘 맞게 착용하세요</p><p lang=""ko"">스페이스바를 누르면 다음 페이지로 넘어갑니다</p>"," ","html-keyboard-response","1","3191371","0.0-1.0","","","",""
"3627","<p style=""font-size:30px"",lang=""ko"">이 실험에서는 새로 만든 한국 단어를 들으실 겁니다</p><p style=""font-size:30px"",lang=""ko"">단어를 들리는대로 쓰세요. 그런 다음 그 단어가 한국어 단어로 가능한지 평가하세요</p><p lang=""ko"">스페이스바를 누르면 다음 페이지로 넘어갑니다</p>"," ","html-keyboard-response","2","3194999","0.0-2.0","","","",""
"2144","<p style=""font-size:30px"",lang=""ko"">원래 있는 단어로 예를 들어 봅시다</p><p lang=""ko"">스페이스바를 누르면 다음 페이지로 넘어갑니다</p>"," ","html-keyboard-response","3","3197144","0.0-3.0","","","",""
"14696","PracticeRecordings/kom_bear.wav","0","audio-button-response","4","3211867","0.0-4.0","","","",""
"3235","<p style=""font-size:30px"",lang=""ko"">이제 직접 단어를 듣고 쓰는 연습을 해봅시다. </p><p style=""font-size:30px"",lang=""ko"">스페이스바를 누르면 다음 페이지로 넘어갑니다</p>"," ","html-keyboard-response","5","3215103","0.0-5.0","","","",""
"3288","PracticeRecordings/kirin_giraffe.wav","0","audio-button-response","6","3218411","0.0-6.0-0.0","","","",""
"14898","kirin_giraffe","{""P0_Q0"":""ㄱ,ㅣ,ㄹ,ㅣ,ㄴ""}","survey","7","3233337","0.0-6.0-1.0","[]","practice","NA","TRUE"
"4263","<p style=""font-size:30px"",lang=""ko"">방금 들으신 단어는 ""ㄱ,ㅣ,ㄹ,ㅣ,ㄴ"" 이라고 쓰시면 됩니다</p><p lang=""ko"">스페이스바를 누르면 다음 페이지로 넘어갑니다</p>"," ","html-keyboard-response","8","3237600","0.0-6.0-2.0","","","",""
"1639","PracticeRecordings/saca_lion.wav","0","audio-button-response","9","3239259","0.0-6.0-0.1","","","",""
"4599","saca_lion","{""P0_Q0"":""ㅅ,ㅏ,ㅈ,ㅏ""}","survey","10","3243865","0.0-6.0-1.1","[]","practice","NA","FALSE"
"1205","<p style=""font-size:30px"",lang=""ko"">방금 들으신 단어는 ""ㅅ,ㅏ,ㅈ,ㅏ"" 라고 쓰시면 됩니다</p><p lang=""ko"">스페이스바를 누르면 다음 페이지로 넘어갑니다</p>"," ","html-keyboard-response","11","3245070","0.0-6.0-2.1","","","",""
"1115","PracticeRecordings/saseum_deer.wav","0","audio-button-response","12","3246204","0.0-6.0-0.2","","","",""
"5259","saseum_deer","{""P0_Q0"":""ㅅ,ㅏ,ㅅ,ㅡ,ㅁ""}","survey","13","3251469","0.0-6.0-1.2","[]","practice","NA","FALSE"
"1214","<p style=""font-size:30px"",lang=""ko"">방금 들으신 단어는 ""ㅅ,ㅏ,ㅅ,ㅡ,ㅁ""이라고 쓰시면 됩니다</p><p lang=""ko"">스페이스바를 누르면 다음 페이지로 넘어갑니다</p>"," ","html-keyboard-response","14","3252683","0.0-6.0-2.2","","","",""
"1215","PracticeRecordings/thokki_rabbit.wav","0","audio-button-response","15","3253916","0.0-6.0-0.3","","","",""
"5934","thokki_rabbit","{""P0_Q0"":""ㅌ,ㅗ,ㄲ,ㅣ""}","survey","16","3259855","0.0-6.0-1.3","[]","practice","NA","FALSE"
"1120","<p style=""font-size:30px"",lang=""ko"">방금 들으신 단어는 ""ㅌ,ㅗ,ㄲ,ㅣ"" 라고 쓰시면 됩니다</p><p lang=""ko"">스페이스바를 누르면 다음 페이지로 넘어갑니다</p>"," ","html-keyboard-response","17","3260976","0.0-6.0-2.3","","","",""
"1071","<p style=""font-size:30px"",lang=""ko"">이제 만든 단어로 연습해봅시다.</p><p lang=""ko"">스페이스바를 누르면 다음 페이지로 넘어갑니다</p>"," ","html-keyboard-response","18","3262048","0.0-7.0","","","",""
"3000","PracticeRecordings/snen.wav","0","audio-button-response","19","3265065","0.0-8.0-0.0","","","",""
"6835","snen","{""P0_Q0"":""ㅅ,ㅡ,ㄴ,ㅔ,ㄴ""}","survey","20","3271905","0.0-8.0-1.0","[]","practice","NA","TRUE"
"6140","<p style=""font-size:30px"",lang=""ko"">들으신 단어는 <br> ""ㅅ,ㅡ,ㄴ,ㅐ,ㄴ""  ""ㅅ,ㅡ,ㄴ,ㅐ"" ""ㅅ,ㄴ,ㅐ,ㄴ (""으"" 소리가 안 들리는 경우)"" 등 <br> 사람에 따라 다양하게 들릴 수 있습니다 <br> 본인에게 들리는대로 쓰시면 됩니다.</p><p lang=""ko"">스페이스바를 누르면 다음 페이지로 넘어갑니다</p>"," ","html-keyboard-response","21","3278046","0.0-8.0-2.0","","","",""
"1654","PracticeRecordings/phrak.wav","0","audio-button-response","22","3279714","0.0-8.0-0.1","","","",""
"8120","phrak","{""P0_Q0"":""ㅍ,ㅡ,ㄹ,ㅏ,ㄱ""}","survey","23","3287839","0.0-8.0-1.1","[]","practice","NA","FALSE"
"1758","<p style=""font-size:30px"",lang=""ko"">들으신 단어는 <br> ""ㅍ,ㅡ,ㄹ,ㅏ,ㄱ"" ""ㅍ,ㅡ,ㄹ,ㅏ,ㅅ"" ""ㅋ,ㅡ,ㄹ,ㅏ,ㄱ"" ""ㅍ,ㄹ,ㅏ,ㄱ (""으"" 소리가 안 들리는 경우)"" 등 <br> 사람에 따라 다양하게 들릴 수 있습니다 <br> 본인에게 들리는대로 쓰시면 됩니다.</p><p lang=""ko"">스페이스바를 누르면 다음 페이지로 넘어갑니다</p>"," ","html-keyboard-response","24","3289598","0.0-8.0-2.1","","","",""
"1717","PracticeRecordings/chka.wav","0","audio-button-response","25","3291331","0.0-8.0-0.2","","","",""
"3934","chka","{""P0_Q0"":""ㅊ,ㅡ,ㅋ,ㅏ""}","survey","26","3295269","0.0-8.0-1.2","[]","practice","NA","FALSE"
"2315","<p style=""font-size:30px"",lang=""ko"">들으신 단어는 ""ㅊ,ㅣ,ㄱ,ㅏ"", ""ㅊ,ㅡ,ㄱ,ㅏ"", ""ㅊ,ㄱ,ㅏ"", ""ㅊ,ㅟ,ㄱ,ㅏ"" 등 <br> 사람에 따라 다양하게 들릴 수 있습니다. <br> 본인에게 들리는대로 쓰시면 됩니다.</p><p lang=""ko"">스페이스바를 누르면 다음 페이지로 넘어갑니다</p>"," ","html-keyboard-response","27","3297585","0.0-8.0-2.2","","","",""
"3507",""," ","html-keyboard-response","28","3301092","0.0-9.0","","","",""
"1642","<p style=""font-size:30px"",lang=""ko"">이제 실험을 시작하겠습니다.</p><p style=""font-size:30px"",lang=""ko"">실전에서는 각각의 만든 단어를 한 번씩만 들을 수 있습니다.</p>"," ","html-keyboard-response","29","3302735","0.0-10.0","","","",""
"7942","<p style=""font-size:30px"",lang=""ko"">단어를 풀어 쓰신 후에 그 단어가 한국어로 가능한 단어인지 평가해주세요</p><p style=""font-size:30px"",lang=""ko"">1점은 한국어로 완전 불가능한 단어, 7점은 한국어로 완전 가능한 단어를 의미합니다</p><p lang=""ko"">스페이스바를 누르면 다음 페이지로 넘어갑니다</p>"," ","html-keyboard-response","30","3310677","0.0-11.0","","","",""
"2548","TestRecordings/chakot.wav","0","audio-button-response","31","3313245","0.0-12.0-0.0","","","",""
"10688","","{""P0_Q0"":""ㅊ,ㅏ,ㄱ,ㅗ,ㅅ"",""P0_Q1"":5}","survey","32","3323947","0.0-12.0-1.0","[]","","",""
"2472","TestRecordings/twan.wav","0","audio-button-response","33","3326435","0.0-12.0-0.1","","","",""
"7566","","{""P0_Q0"":""ㄷ,ㅗ,ㅏ,ㄴ"",""P0_Q1"":3}","survey","34","3334008","0.0-12.0-1.1","[]","","",""
"1750","TestRecordings/chumik.wav","0","audio-button-response","35","3335774","0.0-12.0-0.2","","","",""
"7526","","{""P0_Q0"":""ㅊ,ㅜ,ㅁ,ㅣ,ㄱ"",""P0_Q1"":5}","survey","36","3343305","0.0-12.0-1.2","[]","","",""
"1875","TestRecordings/thwikhip.wav","0","audio-button-response","37","3345196","0.0-12.0-0.3","","","",""
"7856","","{""P0_Q0"":""ㅌ,ㅜ,ㅣ,ㅋ,ㅣ,ㅂ"",""P0_Q1"":3}","survey","38","3353058","0.0-12.0-1.3","[]","","",""
"1187","TestRecordings/tup.wav","0","audio-button-response","39","3354260","0.0-12.0-0.4","","","",""
"4060","","{""P0_Q0"":""ㄷ,ㅜ,ㅂ"",""P0_Q1"":5}","survey","40","3358326","0.0-12.0-1.4","[]","","",""
"2080","TestRecordings/chnuk.wav","0","audio-button-response","41","3360422","0.0-12.0-0.5","","","",""
"7263","","{""P0_Q0"":""ㅊ,ㅡ,ㄴ,ㅜ,ㅂ"",""P0_Q1"":4}","survey","42","3367691","0.0-12.0-1.5","[]","","",""
"1706","TestRecordings/tikut.wav","0","audio-button-response","43","3369412","0.0-12.0-0.6","","","",""
"18926","","{""P0_Q0"":""ㄷ,ㅜ,ㅣ,ㄱ, ㅜ, ㅅ"",""P0_Q1"":3}","survey","44","3388343","0.0-12.0-1.6","[]","","",""
"1915","TestRecordings/cnaphin.wav","0","audio-button-response","45","3390277","0.0-12.0-0.7","","","",""
"9900","","{""P0_Q0"":""ㅊ,ㅡ,ㄴ,ㅏ,ㅍ,ㅣ,ㄴ"",""P0_Q1"":2}","survey","46","3400182","0.0-12.0-1.7","[]","","",""
"2716","TestRecordings/pmochun.wav","0","audio-button-response","47","3402915","0.0-12.0-0.8","","","",""
"10994","","{""P0_Q0"":""ㅂ,ㅡ,ㅁ,ㅗ,ㅊ,ㅠ,ㄴ"",""P0_Q1"":1}","survey","48","3413914","0.0-12.0-1.8","[]","","",""
"1090","TestRecordings/thinok.wav","0","audio-button-response","49","3415019","0.0-12.0-0.9","","","",""
"7904","","{""P0_Q0"":""ㅌ,ㅣ,ㄴ,ㅗ,ㄱ"",""P0_Q1"":5}","survey","50","3422928","0.0-12.0-1.9","[]","","",""
"1658","TestRecordings/mtukin.wav","0","audio-button-response","51","3424603","0.0-12.0-0.10","","","",""
"8463","","{""P0_Q0"":""ㅇ,ㅡ,ㅇ,ㄷ,ㅜ,ㄱ,ㅣ,ㄴ"",""P0_Q1"":2}","survey","52","3433073","0.0-12.0-1.10","[]","","",""
"1365","TestRecordings/kmamun.wav","0","audio-button-response","53","3434454","0.0-12.0-0.11","","","",""
"13413","","{""P0_Q0"":""ㄱ, ㅡ, ㅁ, ㅏ , ㅁ, ㅜ, ㄴ"",""P0_Q1"":4}","survey","54","3447873","0.0-12.0-1.11","[]","","",""
"1158","TestRecordings/cwam.wav","0","audio-button-response","55","3449047","0.0-12.0-0.12","","","",""
"6526","","{""P0_Q0"":""ㅈ,ㅗ,ㅏ,ㅁ"",""P0_Q1"":6}","survey","56","3455578","0.0-12.0-1.12","[]","","",""
"1199","TestRecordings/twamot.wav","0","audio-button-response","57","3456793","0.0-12.0-0.13","","","",""
"7052","","{""P0_Q0"":""ㄷ,ㅗ,ㅏ,ㅁ,ㅗ,ㅅ"",""P0_Q1"":5}","survey","58","3463849","0.0-12.0-1.13","[]","","",""
"1772","TestRecordings/tmichut.wav","0","audio-button-response","59","3465637","0.0-12.0-0.14","","","",""
"8848","","{""P0_Q0"":""ㅁ,ㅣ,ㅌ,ㅊ,ㅜ,ㅅ"",""P0_Q1"":4}","survey","60","3474490","0.0-12.0-1.14","[]","","",""
"1111","TestRecordings/thukhat.wav","0","audio-button-response","61","3475615","0.0-12.0-0.15","","","",""
"4848","","{""P0_Q0"":""ㅌ,ㅜ,ㅋ,ㅏ,ㅅ"",""P0_Q1"":7}","survey","62","3480468","0.0-12.0-1.15","[]","","",""
"3139","TestRecordings/mthik.wav","0","audio-button-response","63","3483622","0.0-12.0-0.16","","","",""
"12231","","{""P0_Q0"":""ㅇ,ㅡ,ㅁ,ㅌ,ㅣ,ㄱ"",""P0_Q1"":4}","survey","64","3495858","0.0-12.0-1.16","[]","","",""
"1218","TestRecordings/khithuk.wav","0","audio-button-response","65","3497091","0.0-12.0-0.17","","","",""
"7770","","{""P0_Q0"":""ㅋ,ㅣ,ㅂ,ㅌ,ㅜ,ㄱ"",""P0_Q1"":4}","survey","66","3504866","0.0-12.0-1.17","[]","","",""
"1117","TestRecordings/sikot.wav","0","audio-button-response","67","3506000","0.0-12.0-0.18","","","",""
"6048","","{""P0_Q0"":""ㅅ,ㅣ,ㄱ,ㅗ,ㅅ"",""P0_Q1"":6}","survey","68","3512053","0.0-12.0-1.18","[]","","",""
"2103","TestRecordings/twak.wav","0","audio-button-response","69","3514174","0.0-12.0-0.19","","","",""
"6310","","{""P0_Q0"":""ㄷ,ㅗ,ㅏ,ㄱ"",""P0_Q1"":5}","survey","70","3520488","0.0-12.0-1.19","[]","","",""
"1398","TestRecordings/chunak.wav","0","audio-button-response","71","3521902","0.0-12.0-0.20","","","",""
"6231","","{""P0_Q0"":""ㅊ,ㅜ,ㄴ,ㅏ,ㅅ"",""P0_Q1"":5}","survey","72","3528139","0.0-12.0-1.20","[]","","",""
"1298","TestRecordings/tin.wav","0","audio-button-response","73","3529454","0.0-12.0-0.21","","","",""
"7304","","{""P0_Q0"":""ㄷ,ㅣ,ㄴ"",""P0_Q1"":7}","survey","74","3536763","0.0-12.0-1.21","[]","","",""
"3481","TestRecordings/khin.wav","0","audio-button-response","75","3540260","0.0-12.0-0.22","","","",""
"3842","","{""P0_Q0"":""ㅌ,ㅣ,ㄴ"",""P0_Q1"":6}","survey","76","3544107","0.0-12.0-1.22","[]","","",""
"1111","TestRecordings/thnok.wav","0","audio-button-response","77","3545233","0.0-12.0-0.23","","","",""
"5155","","{""P0_Q0"":""ㅌ,ㅡ,ㄴ,ㅗ,ㄱ"",""P0_Q1"":4}","survey","78","3550393","0.0-12.0-1.23","[]","","",""
"1278","TestRecordings/khnothik.wav","0","audio-button-response","79","3551686","0.0-12.0-0.24","","","",""
"7696","","{""P0_Q0"":""ㅋ,ㅡ,ㄴ,ㅗ,ㅌ,ㅣ,ㄱ"",""P0_Q1"":6}","survey","80","3559387","0.0-12.0-1.24","[]","","",""
"1316","TestRecordings/npucap.wav","0","audio-button-response","81","3560718","0.0-12.0-0.25","","","",""
"12638","","{""P0_Q0"":""ㅇ,ㅡ,ㅇ,ㅂ,ㅜ,ㅈ,ㅏ,ㅂ"",""P0_Q1"":2}","survey","82","3573361","0.0-12.0-1.25","[]","","",""
"1313","TestRecordings/mpukham.wav","0","audio-button-response","83","3574691","0.0-12.0-0.26","","","",""
"9212","","{""P0_Q0"":""ㅇ,ㅡ,ㅇ,ㅂ,ㅜ,ㅋ,ㅏ,ㅂ"",""P0_Q1"":5}","survey","84","3583908","0.0-12.0-1.26","[]","","",""
"1042","TestRecordings/khwipot.wav","0","audio-button-response","85","3584967","0.0-12.0-0.27","","","",""
"7006","","{""P0_Q0"":""ㅋ,ㅜ,ㅣ,ㅂ,ㅗ,ㅅ"",""P0_Q1"":5}","survey","86","3591979","0.0-12.0-1.27","[]","","",""
"987","TestRecordings/mup.wav","0","audio-button-response","87","3592981","0.0-12.0-0.28","","","",""
"5706","","{""P0_Q0"":""ㅁ,ㅜ,ㅂ"",""P0_Q1"":6}","survey","88","3598692","0.0-12.0-1.28","[]","","",""
"1096","TestRecordings/nthimong.wav","0","audio-button-response","89","3599805","0.0-12.0-0.29","","","",""
"9874","","{""P0_Q0"":""ㅇ,ㅡ,ㅇ,ㅌ,ㅣ,ㅁ,ㅗ,ㅅ"",""P0_Q1"":3}","survey","90","3609684","0.0-12.0-1.29","[]","","",""
"845","TestRecordings/knot.wav","0","audio-button-response","91","3610545","0.0-12.0-0.30","","","",""
"9229","","{""P0_Q0"":""ㅋ,ㅡ,ㄴ,ㅗ,ㅅ"",""P0_Q1"":4}","survey","92","3619779","0.0-12.0-1.30","[]","","",""
"1268","TestRecordings/cmoman.wav","0","audio-button-response","93","3621064","0.0-12.0-0.31","","","",""
"10469","","{""P0_Q0"":""ㅊ,ㅡ,ㅁ,ㅗ,ㅁ,ㅏ,ㄴ"",""P0_Q1"":5}","survey","94","3631539","0.0-12.0-1.31","[]","","",""
"1426","TestRecordings/phmiman.wav","0","audio-button-response","95","3632982","0.0-12.0-0.32","","","",""
"7322","","{""P0_Q0"":""ㅍ,ㅡ,ㅁ,ㅣ,ㅁ,ㅏ,ㄴ"",""P0_Q1"":4}","survey","96","3640309","0.0-12.0-1.32","[]","","",""
"1116","TestRecordings/mphutam.wav","0","audio-button-response","97","3641442","0.0-12.0-0.33","","","",""
"10934","","{""P0_Q0"":""ㅇ,ㅡ,ㅇ,ㅍ,ㅜ,ㄷ,ㅏ,ㄴ"",""P0_Q1"":3}","survey","98","3652381","0.0-12.0-1.33","[]","","",""
"1029","TestRecordings/thwam.wav","0","audio-button-response","99","3653426","0.0-12.0-0.34","","","",""
"23710","","{""P0_Q0"":""ㅌ,ㅗ,ㅏ,ㅁ"",""P0_Q1"":2}","survey","100","3677142","0.0-12.0-1.34","[]","","",""
"1530","TestRecordings/khnap.wav","0","audio-button-response","101","3678692","0.0-12.0-0.35","","","",""
"4410","","{""P0_Q0"":""ㅋ,ㅡ,ㄴ,ㅏ,ㅂ"",""P0_Q1"":6}","survey","102","3683109","0.0-12.0-1.35","[]","","",""
"1091","TestRecordings/nkat.wav","0","audio-button-response","103","3684216","0.0-12.0-0.36","","","",""
"6073","","{""P0_Q0"":""ㅇ,ㅡ,ㅇ,ㄱ,ㅏ,ㅅ"",""P0_Q1"":4}","survey","104","3690295","0.0-12.0-1.36","[]","","",""
"1432","TestRecordings/nkhuchom.wav","0","audio-button-response","105","3691744","0.0-12.0-0.37","","","",""
"10395","","{""P0_Q0"":""ㅇ,ㅡ,ㅇ,ㅋ,ㅜ,ㅊ,ㅗ,ㅅ"",""P0_Q1"":2}","survey","106","3702143","0.0-12.0-1.37","[]","","",""
"2861","TestRecordings/twaput.wav","0","audio-button-response","107","3705018","0.0-12.0-0.38","","","",""
"32447","","{""P0_Q0"":""ㄷ,ㅗ,ㅏ,ㅂ,ㅜ,ㅅ"",""P0_Q1"":3}","survey","108","3737472","0.0-12.0-1.38","[]","","",""
"2204","TestRecordings/chwiphin.wav","0","audio-button-response","109","3739697","0.0-12.0-0.39","","","",""
"11745","","{""P0_Q0"":""ㅊ,ㅜ,ㅣ,ㅍ,ㅣ,ㄴ"",""P0_Q1"":2}","survey","110","3751448","0.0-12.0-1.39","[]","","",""
"955","TestRecordings/chmop.wav","0","audio-button-response","111","3752419","0.0-12.0-0.40","","","",""
"4758","","{""P0_Q0"":""ㅊ,ㅡ,ㅁ,ㅗ,ㅂ"",""P0_Q1"":5}","survey","112","3757182","0.0-12.0-1.40","[]","","",""
"1138","TestRecordings/phnokhing.wav","0","audio-button-response","113","3758337","0.0-12.0-0.41","","","",""
"9905","","{""P0_Q0"":""ㅋ,ㅡ,ㄴ,ㅗ,ㅋ,ㅣ,ㅇ"",""P0_Q1"":3}","survey","114","3768247","0.0-12.0-1.41","[]","","",""
"963","TestRecordings/khut.wav","0","audio-button-response","115","3769226","0.0-12.0-0.42","","","",""
"7391","","{""P0_Q0"":""ㅋ,ㅜ,ㅅ"",""P0_Q1"":4}","survey","116","3776622","0.0-12.0-1.42","[]","","",""
"1341","TestRecordings/chwikhong.wav","0","audio-button-response","117","3777980","0.0-12.0-0.43","","","",""
"8007","","{""P0_Q0"":""ㅊ,ㅜ,ㅣ,ㅋ,ㅗ,ㅇ"",""P0_Q1"":3}","survey","118","3785991","0.0-12.0-1.43","[]","","",""
"1135","TestRecordings/chnupot.wav","0","audio-button-response","119","3787142","0.0-12.0-0.44","","","",""
"7638","","{""P0_Q0"":""ㅊ,ㅡ,ㄴ,ㅡ,ㅂ,ㅗ,ㅅ"",""P0_Q1"":4}","survey","120","3794784","0.0-12.0-1.44","[]","","",""
"996","TestRecordings/nakhit.wav","0","audio-button-response","121","3795795","0.0-12.0-0.45","","","",""
"8006","","{""P0_Q0"":""ㄴ,ㅏ,ㄱ,ㅋ,ㅣ,ㅅ"",""P0_Q1"":2}","survey","122","3803807","0.0-12.0-1.45","[]","","",""
"1154","TestRecordings/nthaking.wav","0","audio-button-response","123","3804978","0.0-12.0-0.46","","","",""
"7832","","{""P0_Q0"":""ㅇ,ㅡ,ㅇ,ㅌ,ㅏ,ㅋ,ㅣ,ㅅ"",""P0_Q1"":3}","survey","124","3812814","0.0-12.0-1.46","[]","","",""
"1123","TestRecordings/nchocip.wav","0","audio-button-response","125","3813954","0.0-12.0-0.47","","","",""
"7689","","{""P0_Q0"":""ㅇ,ㅡ,ㅇ,ㅊ,ㅗ,ㅈ,ㅣ,ㅂ"",""P0_Q1"":4}","survey","126","3821649","0.0-12.0-1.47","[]","","",""
"1027","TestRecordings/swikhat.wav","0","audio-button-response","127","3822690","0.0-12.0-0.48","","","",""
"11705","","{""P0_Q0"":""ㅅ,ㅜ,ㅣ, ㅋ,ㅏ,ㅅ"",""P0_Q1"":3}","survey","128","3834399","0.0-12.0-1.48","[]","","",""
"1030","TestRecordings/cwit.wav","0","audio-button-response","129","3835444","0.0-12.0-0.49","","","",""
"5461","","{""P0_Q0"":""ㅈ,ㅜ,ㅣ,ㅅ"",""P0_Q1"":4}","survey","130","3840911","0.0-12.0-1.49","[]","","",""
"1035","TestRecordings/mphuk.wav","0","audio-button-response","131","3841963","0.0-12.0-0.50","","","",""
"7936","","{""P0_Q0"":""ㅇ,ㅡ,ㅇ,ㅍ,ㅜ,ㅅ"",""P0_Q1"":3}","survey","132","3849903","0.0-12.0-1.50","[]","","",""
"1011","TestRecordings/mkit.wav","0","audio-button-response","133","3850931","0.0-12.0-0.51","","","",""
"6418","","{""P0_Q0"":""ㅇ,ㅡ,ㅇ,ㄱ,ㅣ,ㅅ"",""P0_Q1"":2}","survey","134","3857354","0.0-12.0-1.51","[]","","",""
"1143","TestRecordings/mphosak.wav","0","audio-button-response","135","3858514","0.0-12.0-0.52","","","",""
"9087","","{""P0_Q0"":""ㅇ,ㅡ,ㅇ,ㅍ,ㅗ,ㅅ,ㅏ,ㄱ"",""P0_Q1"":3}","survey","136","3867605","0.0-12.0-1.52","[]","","",""
"1335","TestRecordings/khwiphing.wav","0","audio-button-response","137","3868956","0.0-12.0-0.53","","","",""
"14718","","{""P0_Q0"":""ㅋ,ㅜ,ㅣ,ㅍ,ㅣ,ㅇ"",""P0_Q1"":3}","survey","138","3883679","0.0-12.0-1.53","[]","","",""
"1554","TestRecordings/tnunong.wav","0","audio-button-response","139","3885249","0.0-12.0-0.54","","","",""
"6548","","{""P0_Q0"":""ㄷ,ㅡ,ㄴ,ㅜ,ㄴ,ㅗ,ㅇ"",""P0_Q1"":3}","survey","140","3891801","0.0-12.0-1.54","[]","","",""
"964","TestRecordings/nchot.wav","0","audio-button-response","141","3892781","0.0-12.0-0.55","","","",""
"8880","","{""P0_Q0"":""ㅇ,ㅡ,ㅇ,ㅊ,ㅗ,ㅅ"",""P0_Q1"":3}","survey","142","3901666","0.0-12.0-1.55","[]","","",""
"1012","TestRecordings/ntakhip.wav","0","audio-button-response","143","3902693","0.0-12.0-0.56","","","",""
"8368","","{""P0_Q0"":""ㅇ,ㅡ,ㅇ,ㄷ,ㅏ,ㅅ,ㅋ,ㅣ,ㅂ"",""P0_Q1"":2}","survey","144","3911066","0.0-12.0-1.56","[]","","",""
"925","TestRecordings/taphik.wav","0","audio-button-response","145","3912005","0.0-12.0-0.57","","","",""
"6742","","{""P0_Q0"":""ㄷ,ㅏ,ㅍ,ㅣ,ㄱ"",""P0_Q1"":2}","survey","146","3918752","0.0-12.0-1.57","[]","","",""
"974","TestRecordings/nwimik.wav","0","audio-button-response","147","3919743","0.0-12.0-0.58","","","",""
"7359","","{""P0_Q0"":""ㄴ,ㅜ,ㅣ,ㅁ,ㅣ,ㄱ"",""P0_Q1"":3}","survey","148","3927106","0.0-12.0-1.58","[]","","",""
"1068","TestRecordings/khwichon.wav","0","audio-button-response","149","3928191","0.0-12.0-0.59","","","",""
"5493","","{""P0_Q0"":""ㅋ,ㅜ,ㅣ,ㅊ,ㅗ,ㄴ"",""P0_Q1"":3}","survey","150","3933689","0.0-12.0-1.59","[]","","",""
"3764",""," ","html-keyboard-response","151","3937454","0.0-13.0","","","",""
"55401","","{""P0_Q0"":""26"",""P0_Q1"":""남자"",""P0_Q2"":""10살"",""P0_Q3"":""없음"",""P0_Q4"":""프랑스어"",""P0_Q5"":""6"",""P0_Q6"":""중국어""}","survey","152","3992861","0.0-14.0","[]","","",""
"17864","<p style=""font-size:30px"",lang=""ko"">실험이 끝났습니다</p><p style=""font-size:30px"",lang=""ko"">참가해주셔서 고맙습니다</p>"," ","html-keyboard-response","153","4010726","0.0-15.0","","","",""
