"rt","stimulus","response","trial_type","trial_index","time_elapsed","internal_node_id","accuracy","PracticeTest","ConsonantSequence","Grammaticality"
"434452","<p style=""font-size:30px"",lang=""ko"">실험에 오신 것을 환영합니다</p><p lang=""ko"">스페이스바를 누르면 다음 페이지로 넘어갑니다</p>"," ","html-keyboard-response","0","434461","0.0-0.0","","","",""
"2797","<p style=""font-size:30px"",lang=""ko"">해드폰을 본인에게 잘 맞게 착용하세요</p><p lang=""ko"">스페이스바를 누르면 다음 페이지로 넘어갑니다</p>"," ","html-keyboard-response","1","437278","0.0-1.0","","","",""
"5630","<p style=""font-size:30px"",lang=""ko"">이 실험에서는 새로 만든 한국 단어를 들으실 겁니다</p><p style=""font-size:30px"",lang=""ko"">단어를 들리는대로 쓰세요. 그런 다음 그 단어가 한국어 단어로 가능한지 평가하세요</p><p lang=""ko"">스페이스바를 누르면 다음 페이지로 넘어갑니다</p>"," ","html-keyboard-response","2","442909","0.0-2.0","","","",""
"2605","<p style=""font-size:30px"",lang=""ko"">원래 있는 단어로 예를 들어 봅시다</p><p lang=""ko"">스페이스바를 누르면 다음 페이지로 넘어갑니다</p>"," ","html-keyboard-response","3","445522","0.0-3.0","","","",""
"8656","PracticeRecordings/kom_bear.wav","0","audio-button-response","4","454358","0.0-4.0","","","",""
"15480","<p style=""font-size:30px"",lang=""ko"">이제 직접 단어를 듣고 쓰는 연습을 해봅시다. </p><p style=""font-size:30px"",lang=""ko"">스페이스바를 누르면 다음 페이지로 넘어갑니다</p>"," ","html-keyboard-response","5","469839","0.0-5.0","","","",""
"3002","PracticeRecordings/kirin_giraffe.wav","0","audio-button-response","6","472865","0.0-6.0-0.0","","","",""
"13724","kirin_giraffe","{""P0_Q0"":""ㄱ,ㅣ,ㄹ,ㅣ,ㄴ""}","survey","7","486752","0.0-6.0-1.0","[]","practice","NA","TRUE"
"3870","<p style=""font-size:30px"",lang=""ko"">방금 들으신 단어는 ""ㄱ,ㅣ,ㄹ,ㅣ,ㄴ"" 이라고 쓰시면 됩니다</p><p lang=""ko"">스페이스바를 누르면 다음 페이지로 넘어갑니다</p>"," ","html-keyboard-response","8","490622","0.0-6.0-2.0","","","",""
"3007","PracticeRecordings/saca_lion.wav","0","audio-button-response","9","493671","0.0-6.0-0.1","","","",""
"5366","saca_lion","{""P0_Q0"":""ㅅ,ㅏ,ㅈ,ㅏ""}","survey","10","499045","0.0-6.0-1.1","[]","practice","NA","FALSE"
"1346","<p style=""font-size:30px"",lang=""ko"">방금 들으신 단어는 ""ㅅ,ㅏ,ㅈ,ㅏ"" 라고 쓰시면 됩니다</p><p lang=""ko"">스페이스바를 누르면 다음 페이지로 넘어갑니다</p>"," ","html-keyboard-response","11","500391","0.0-6.0-2.1","","","",""
"1387","PracticeRecordings/saseum_deer.wav","0","audio-button-response","12","501801","0.0-6.0-0.2","","","",""
"8681","saseum_deer","{""P0_Q0"":""ㅅ,ㅏ,ㅅ,ㅡ,ㅁ""}","survey","13","510539","0.0-6.0-1.2","[]","practice","NA","FALSE"
"7365","<p style=""font-size:30px"",lang=""ko"">방금 들으신 단어는 ""ㅅ,ㅏ,ㅅ,ㅡ,ㅁ""이라고 쓰시면 됩니다</p><p lang=""ko"">스페이스바를 누르면 다음 페이지로 넘어갑니다</p>"," ","html-keyboard-response","14","517905","0.0-6.0-2.2","","","",""
"1936","PracticeRecordings/thokki_rabbit.wav","0","audio-button-response","15","519866","0.0-6.0-0.3","","","",""
"5571","thokki_rabbit","{""P0_Q0"":""ㅌ,ㅗ,ㄲ,ㅣ""}","survey","16","525447","0.0-6.0-1.3","[]","practice","NA","FALSE"
"1484","<p style=""font-size:30px"",lang=""ko"">방금 들으신 단어는 ""ㅌ,ㅗ,ㄲ,ㅣ"" 라고 쓰시면 됩니다</p><p lang=""ko"">스페이스바를 누르면 다음 페이지로 넘어갑니다</p>"," ","html-keyboard-response","17","526932","0.0-6.0-2.3","","","",""
"1506","<p style=""font-size:30px"",lang=""ko"">이제 만든 단어로 연습해봅시다.</p><p lang=""ko"">스페이스바를 누르면 다음 페이지로 넘어갑니다</p>"," ","html-keyboard-response","18","528438","0.0-7.0","","","",""
"2395","PracticeRecordings/snen.wav","0","audio-button-response","19","530918","0.0-8.0-0.0","","","",""
"5722","snen","{""P0_Q0"":""ㅅ,ㅡ,ㄴ,ㅐ,ㄴ""}","survey","20","536648","0.0-8.0-1.0","[]","practice","NA","TRUE"
"5150","<p style=""font-size:30px"",lang=""ko"">들으신 단어는 <br> ""ㅅ,ㅡ,ㄴ,ㅐ,ㄴ""  ""ㅅ,ㅡ,ㄴ,ㅐ"" ""ㅅ,ㄴ,ㅐ,ㄴ (""으"" 소리가 안 들리는 경우)"" 등 <br> 사람에 따라 다양하게 들릴 수 있습니다 <br> 본인에게 들리는대로 쓰시면 됩니다.</p><p lang=""ko"">스페이스바를 누르면 다음 페이지로 넘어갑니다</p>"," ","html-keyboard-response","21","541799","0.0-8.0-2.0","","","",""
"1575","PracticeRecordings/phrak.wav","0","audio-button-response","22","543456","0.0-8.0-0.1","","","",""
"9549","phrak","{""P0_Q0"":""ㅍ,ㅡ,ㄹ,ㅏ,ㄱ""}","survey","23","553011","0.0-8.0-1.1","[]","practice","NA","FALSE"
"3459","<p style=""font-size:30px"",lang=""ko"">들으신 단어는 <br> ""ㅍ,ㅡ,ㄹ,ㅏ,ㄱ"" ""ㅍ,ㅡ,ㄹ,ㅏ,ㅅ"" ""ㅋ,ㅡ,ㄹ,ㅏ,ㄱ"" ""ㅍ,ㄹ,ㅏ,ㄱ (""으"" 소리가 안 들리는 경우)"" 등 <br> 사람에 따라 다양하게 들릴 수 있습니다 <br> 본인에게 들리는대로 쓰시면 됩니다.</p><p lang=""ko"">스페이스바를 누르면 다음 페이지로 넘어갑니다</p>"," ","html-keyboard-response","24","556472","0.0-8.0-2.1","","","",""
"1436","PracticeRecordings/chka.wav","0","audio-button-response","25","557980","0.0-8.0-0.2","","","",""
"6821","chka","{""P0_Q0"":""ㅅ,ㅡ,ㅋ,ㅏ""}","survey","26","564807","0.0-8.0-1.2","[]","practice","NA","FALSE"
"4048","<p style=""font-size:30px"",lang=""ko"">들으신 단어는 ""ㅊ,ㅣ,ㄱ,ㅏ"", ""ㅊ,ㅡ,ㄱ,ㅏ"", ""ㅊ,ㄱ,ㅏ"", ""ㅊ,ㅟ,ㄱ,ㅏ"" 등 <br> 사람에 따라 다양하게 들릴 수 있습니다. <br> 본인에게 들리는대로 쓰시면 됩니다.</p><p lang=""ko"">스페이스바를 누르면 다음 페이지로 넘어갑니다</p>"," ","html-keyboard-response","27","568856","0.0-8.0-2.2","","","",""
"3721",""," ","html-keyboard-response","28","572577","0.0-9.0","","","",""
"3901","<p style=""font-size:30px"",lang=""ko"">이제 실험을 시작하겠습니다.</p><p style=""font-size:30px"",lang=""ko"">실전에서는 각각의 만든 단어를 한 번씩만 들을 수 있습니다.</p>"," ","html-keyboard-response","29","576479","0.0-10.0","","","",""
"4103","<p style=""font-size:30px"",lang=""ko"">단어를 풀어 쓰신 후에 그 단어가 한국어로 가능한 단어인지 평가해주세요</p><p style=""font-size:30px"",lang=""ko"">1점은 한국어로 완전 불가능한 단어, 7점은 한국어로 완전 가능한 단어를 의미합니다</p><p lang=""ko"">스페이스바를 누르면 다음 페이지로 넘어갑니다</p>"," ","html-keyboard-response","30","580582","0.0-11.0","","","",""
"2881","TestRecordings/nkhuchom.wav","0","audio-button-response","31","583530","0.0-12.0-0.0","","","",""
"20517","","{""P0_Q0"":""ㅇ,ㅡ,ㅇ,ㅋ,ㅜ,ㅊ,ㅗ,ㅁ"",""P0_Q1"":2}","survey","32","604061","0.0-12.0-1.0","[]","","",""
"2321","TestRecordings/chmop.wav","0","audio-button-response","33","606467","0.0-12.0-0.1","","","",""
"13413","","{""P0_Q0"":""ㅊ,ㅅ,ㅡ,ㅁ,ㅗ,ㅂ"",""P0_Q1"":1}","survey","34","619889","0.0-12.0-1.1","[]","","",""
"2671","TestRecordings/khnothik.wav","0","audio-button-response","35","622641","0.0-12.0-0.2","","","",""
"9242","","{""P0_Q0"":""ㅋ,ㅡ,ㄴ,ㅗ,ㅌ,ㅣ,ㄱ"",""P0_Q1"":5}","survey","36","631891","0.0-12.0-1.2","[]","","",""
"3475","TestRecordings/taphik.wav","0","audio-button-response","37","635387","0.0-12.0-0.3","","","",""
"9235","","{""P0_Q0"":""ㄷ,ㅏ,ㅍ,ㅣ,ㄱ"",""P0_Q1"":4}","survey","38","644629","0.0-12.0-1.3","[]","","",""
"2018","TestRecordings/thwikhip.wav","0","audio-button-response","39","646730","0.0-12.0-0.4","","","",""
"20329","","{""P0_Q0"":""ㅌ,ㅡ,ㅇ,ㅜ,ㅣ,ㅋ,ㅣ,ㅂ"",""P0_Q1"":3}","survey","40","667066","0.0-12.0-1.4","[]","","",""
"3175","TestRecordings/cmoman.wav","0","audio-button-response","41","670264","0.0-12.0-0.5","","","",""
"10529","","{""P0_Q0"":""ㅅ,ㅡ,ㅁ,ㅗ,ㅁ,ㅏ,ㄴ"",""P0_Q1"":3}","survey","42","680799","0.0-12.0-1.5","[]","","",""
"2474","TestRecordings/nchocip.wav","0","audio-button-response","43","683356","0.0-12.0-0.6","","","",""
"9765","","{""P0_Q0"":""ㅇ,ㅡ,ㅇ,ㅊ,ㅗ,ㅈ,ㅣ,ㅂ"",""P0_Q1"":2}","survey","44","693129","0.0-12.0-1.6","[]","","",""
"1357","TestRecordings/knot.wav","0","audio-button-response","45","694507","0.0-12.0-0.7","","","",""
"8008","","{""P0_Q0"":""ㅋ,ㅡ,ㄴ,ㅗ,ㅅ"",""P0_Q1"":5}","survey","46","702521","0.0-12.0-1.7","[]","","",""
"1565","TestRecordings/thwam.wav","0","audio-button-response","47","704107","0.0-12.0-0.8","","","",""
"18415","","{""P0_Q0"":""ㅌ,ㅡ,ㅇ,ㅏ,ㅁ"",""P0_Q1"":1}","survey","48","722528","0.0-12.0-1.8","[]","","",""
"1898","TestRecordings/nkat.wav","0","audio-button-response","49","724456","0.0-12.0-0.9","","","",""
"8185","","{""P0_Q0"":""ㅡ,ㄴ,ㄱ,ㅏ,ㅅ"",""P0_Q1"":1}","survey","50","732647","0.0-12.0-1.9","[]","","",""
"1969","TestRecordings/nthimong.wav","0","audio-button-response","51","734702","0.0-12.0-0.10","","","",""
"10398","","{""P0_Q0"":""ㅡ,ㄴ,ㅌ,ㅣ,ㅁ,ㅗ,ㄴ"",""P0_Q1"":2}","survey","52","745107","0.0-12.0-1.10","[]","","",""
"1455","TestRecordings/nwimik.wav","0","audio-button-response","53","746633","0.0-12.0-0.11","","","",""
"12512","","{""P0_Q0"":""ㄴ,ㅜ,ㅣ,ㅁ,ㅣ,ㄱ"",""P0_Q1"":5}","survey","54","759152","0.0-12.0-1.11","[]","","",""
"1442","TestRecordings/thnok.wav","0","audio-button-response","55","760664","0.0-12.0-0.12","","","",""
"7868","","{""P0_Q0"":""ㅋ,ㅡ,ㄴ,ㅗ,ㅅ"",""P0_Q1"":3}","survey","56","768538","0.0-12.0-1.12","[]","","",""
"1813","TestRecordings/khin.wav","0","audio-button-response","57","770423","0.0-12.0-0.13","","","",""
"5438","","{""P0_Q0"":""ㅋ,ㅣ,ㄴ"",""P0_Q1"":6}","survey","58","775868","0.0-12.0-1.13","[]","","",""
"1781","TestRecordings/chakot.wav","0","audio-button-response","59","777721","0.0-12.0-0.14","","","",""
"6018","","{""P0_Q0"":""ㅊ,ㅏ,ㄱ,ㅗ,ㅅ"",""P0_Q1"":6}","survey","60","783744","0.0-12.0-1.14","[]","","",""
"1562","TestRecordings/tnunong.wav","0","audio-button-response","61","785377","0.0-12.0-0.15","","","",""
"10961","","{""P0_Q0"":""ㄷ,ㅡ,ㄴ,ㅜ,ㄴ,ㅗ,ㅇ"",""P0_Q1"":5}","survey","62","796343","0.0-12.0-1.15","[]","","",""
"1501","TestRecordings/cnaphin.wav","0","audio-button-response","63","797927","0.0-12.0-0.16","","","",""
"13059","","{""P0_Q0"":""ㅊ,ㅡ,ㄴ,ㅏ,ㅍ,ㅣ,ㄴ"",""P0_Q1"":6}","survey","64","810993","0.0-12.0-1.16","[]","","",""
"3085","TestRecordings/mphosak.wav","0","audio-button-response","65","814161","0.0-12.0-0.17","","","",""
"9922","","{""P0_Q0"":""ㅇ,ㅡ,ㄴ,ㅍ,ㅗ,ㅅ,ㅏ,ㄱ"",""P0_Q1"":5}","survey","66","824091","0.0-12.0-1.17","[]","","",""
"1424","TestRecordings/twan.wav","0","audio-button-response","67","825600","0.0-12.0-0.18","","","",""
"7719","","{""P0_Q0"":""ㄷ,ㅗ,ㅏ,ㄴ"",""P0_Q1"":4}","survey","68","833325","0.0-12.0-1.18","[]","","",""
"1347","TestRecordings/twamot.wav","0","audio-button-response","69","834694","0.0-12.0-0.19","","","",""
"8623","","{""P0_Q0"":""ㄷ,ㅗ,ㅏ,ㅁ,ㅗ,ㅅ"",""P0_Q1"":3}","survey","70","843323","0.0-12.0-1.19","[]","","",""
"1549","TestRecordings/twak.wav","0","audio-button-response","71","844891","0.0-12.0-0.20","","","",""
"7356","","{""P0_Q0"":""ㄷ,ㅗ,ㅏ,ㄱ"",""P0_Q1"":6}","survey","72","852252","0.0-12.0-1.20","[]","","",""
"1554","TestRecordings/cwam.wav","0","audio-button-response","73","853887","0.0-12.0-0.21","","","",""
"5329","","{""P0_Q0"":""ㅈ,ㅗ,ㅏ,ㅁ"",""P0_Q1"":6}","survey","74","859222","0.0-12.0-1.21","[]","","",""
"1838","TestRecordings/chwiphin.wav","0","audio-button-response","75","861083","0.0-12.0-0.22","","","",""
"13825","","{""P0_Q0"":""ㅊ,ㅜ,ㅣ,ㅍ,ㅣ,ㄴ"",""P0_Q1"":7}","survey","76","874914","0.0-12.0-1.22","[]","","",""
"3000","TestRecordings/phnokhing.wav","0","audio-button-response","77","877945","0.0-12.0-0.23","","","",""
"9344","","{""P0_Q0"":""ㅋ,ㅡ,ㄴ,ㅗ,ㅋ,ㅣ,ㅇ"",""P0_Q1"":7}","survey","78","887296","0.0-12.0-1.23","[]","","",""
"1182","TestRecordings/mphuk.wav","0","audio-button-response","79","888559","0.0-12.0-0.24","","","",""
"9467","","{""P0_Q0"":""ㅇ,ㅡ,ㅁ,ㅍ,ㅜ,ㄱ"",""P0_Q1"":5}","survey","80","898033","0.0-12.0-1.24","[]","","",""
"2160","TestRecordings/chwikhong.wav","0","audio-button-response","81","900274","0.0-12.0-0.25","","","",""
"6588","","{""P0_Q0"":""ㅊ,ㅜ,ㅣ,ㅋ,ㅗ,ㅇ"",""P0_Q1"":5}","survey","82","906870","0.0-12.0-1.25","[]","","",""
"1923","TestRecordings/khwiphing.wav","0","audio-button-response","83","908874","0.0-12.0-0.26","","","",""
"9177","","{""P0_Q0"":""ㅋ,ㅜ,ㅣ,ㅍ,ㅣ,ㅇ"",""P0_Q1"":6}","survey","84","918055","0.0-12.0-1.26","[]","","",""
"1350","TestRecordings/khut.wav","0","audio-button-response","85","919474","0.0-12.0-0.27","","","",""
"5529","","{""P0_Q0"":""ㅋ,ㅡ,ㅜ,ㅅ"",""P0_Q1"":5}","survey","86","925009","0.0-12.0-1.27","[]","","",""
"1412","TestRecordings/chnuk.wav","0","audio-button-response","87","926504","0.0-12.0-0.28","","","",""
"14478","","{""P0_Q0"":""ㅅ,ㅡ,ㄴ,ㅜ,ㄱ"",""P0_Q1"":5}","survey","88","940987","0.0-12.0-1.28","[]","","",""
"1318","TestRecordings/mup.wav","0","audio-button-response","89","942338","0.0-12.0-0.29","","","",""
"3589","","{""P0_Q0"":""ㅁ,ㅜ,ㄱ"",""P0_Q1"":7}","survey","90","945936","0.0-12.0-1.29","[]","","",""
"2053","TestRecordings/kmamun.wav","0","audio-button-response","91","948017","0.0-12.0-0.30","","","",""
"7943","","{""P0_Q0"":""ㅋ,ㅡ,ㅁ,ㅏ,ㅁ,ㅜ,ㄴ"",""P0_Q1"":6}","survey","92","955966","0.0-12.0-1.30","[]","","",""
"1185","TestRecordings/mkit.wav","0","audio-button-response","93","957227","0.0-12.0-0.31","","","",""
"5965","","{""P0_Q0"":""ㅡ,ㅁ,ㄱ,ㅣ,ㅅ"",""P0_Q1"":3}","survey","94","963198","0.0-12.0-1.31","[]","","",""
"1721","TestRecordings/mtukin.wav","0","audio-button-response","95","965001","0.0-12.0-0.32","","","",""
"8264","","{""P0_Q0"":""ㅡ,ㅁ,ㄷ,ㅜ,ㄱ,ㅣ,ㅅ"",""P0_Q1"":2}","survey","96","973270","0.0-12.0-1.32","[]","","",""
"1195","TestRecordings/khnap.wav","0","audio-button-response","97","974545","0.0-12.0-0.33","","","",""
"5223","","{""P0_Q0"":""ㅋ,ㅡ,ㄴ,ㅏ,ㅂ"",""P0_Q1"":6}","survey","98","979774","0.0-12.0-1.33","[]","","",""
"1581","TestRecordings/phmiman.wav","0","audio-button-response","99","981425","0.0-12.0-0.34","","","",""
"9544","","{""P0_Q0"":""ㅋ,ㅡ,ㅁ,ㅣ,ㅁ,ㅏ,ㄴ"",""P0_Q1"":6}","survey","100","990974","0.0-12.0-1.34","[]","","",""
"1045","TestRecordings/mthik.wav","0","audio-button-response","101","992099","0.0-12.0-0.35","","","",""
"7469","","{""P0_Q0"":""ㅡ,ㅁ,ㅍ,ㅣ,ㄱ"",""P0_Q1"":3}","survey","102","999575","0.0-12.0-1.35","[]","","",""
"1259","TestRecordings/ntakhip.wav","0","audio-button-response","103","1000915","0.0-12.0-0.36","","","",""
"10598","","{""P0_Q0"":""ㅡ,ㅁ,ㄷ,ㅏ,ㅋ,ㅣ,ㅅ"",""P0_Q1"":3}","survey","104","1011519","0.0-12.0-1.36","[]","","",""
"1359","TestRecordings/tin.wav","0","audio-button-response","105","1012950","0.0-12.0-0.37","","","",""
"4320","","{""P0_Q0"":""ㅂ,ㅣ,ㄴ"",""P0_Q1"":7}","survey","106","1017276","0.0-12.0-1.37","[]","","",""
"1215","TestRecordings/khithuk.wav","0","audio-button-response","107","1018556","0.0-12.0-0.38","","","",""
"4856","","{""P0_Q0"":""ㅋ,ㅣ,ㅌ,ㅜ"",""P0_Q1"":6}","survey","108","1023418","0.0-12.0-1.38","[]","","",""
"1153","TestRecordings/thukhat.wav","0","audio-button-response","109","1024628","0.0-12.0-0.39","","","",""
"5293","","{""P0_Q0"":""ㅌ,ㅜ,ㅋ,ㅏ,ㅅ"",""P0_Q1"":6}","survey","110","1029927","0.0-12.0-1.39","[]","","",""
"1737","TestRecordings/npucap.wav","0","audio-button-response","111","1031746","0.0-12.0-0.40","","","",""
"10204","","{""P0_Q0"":""ㅇ,ㅡ,ㄴ,ㅂ,ㅜ,ㅈ,ㅏ,ㅅ"",""P0_Q1"":5}","survey","112","1041958","0.0-12.0-1.40","[]","","",""
"1040","TestRecordings/nchot.wav","0","audio-button-response","113","1043077","0.0-12.0-0.41","","","",""
"6547","","{""P0_Q0"":""ㅡ,ㄴ,ㅊ,ㅗ,ㅅ"",""P0_Q1"":3}","survey","114","1049630","0.0-12.0-1.41","[]","","",""
"1251","TestRecordings/khwipot.wav","0","audio-button-response","115","1050962","0.0-12.0-0.42","","","",""
"14274","","{""P0_Q0"":""ㅋ,ㅜ,ㅣ,ㅂ,ㅗ,ㅅ"",""P0_Q1"":7}","survey","116","1065245","0.0-12.0-1.42","[]","","",""
"1764","TestRecordings/nthaking.wav","0","audio-button-response","117","1067091","0.0-12.0-0.43","","","",""
"6765","","{""P0_Q0"":""ㅡ,ㅇ,ㅌ,ㅏ,ㄱ,ㅣ,ㅅ"",""P0_Q1"":2}","survey","118","1073863","0.0-12.0-1.43","[]","","",""
"1287","TestRecordings/tmichut.wav","0","audio-button-response","119","1075219","0.0-12.0-0.44","","","",""
"13778","","{""P0_Q0"":""ㄷ,ㅡ,ㅁ,ㅣ,ㅅ,ㅊ,ㅜ,ㅅ"",""P0_Q1"":3}","survey","120","1089053","0.0-12.0-1.44","[]","","",""
"1576","TestRecordings/cwit.wav","0","audio-button-response","121","1090710","0.0-12.0-0.45","","","",""
"5605","","{""P0_Q0"":""ㅈ,ㅜ,ㅣ,ㅅ"",""P0_Q1"":7}","survey","122","1096321","0.0-12.0-1.45","[]","","",""
"2966","TestRecordings/tup.wav","0","audio-button-response","123","1099356","0.0-12.0-0.46","","","",""
"6837","","{""P0_Q0"":""ㄷ,ㅜ,ㄱ"",""P0_Q1"":6}","survey","124","1106199","0.0-12.0-1.46","[]","","",""
"1485","TestRecordings/chumik.wav","0","audio-button-response","125","1107766","0.0-12.0-0.47","","","",""
"5857","","{""P0_Q0"":""ㅊ,ㅜ,ㅁ,ㅣ,ㄱ"",""P0_Q1"":5}","survey","126","1113630","0.0-12.0-1.47","[]","","",""
"1293","TestRecordings/chunak.wav","0","audio-button-response","127","1115004","0.0-12.0-0.48","","","",""
"5614","","{""P0_Q0"":""ㅊ,ㅜ,ㄴ,ㅏ,ㅅ"",""P0_Q1"":6}","survey","128","1120624","0.0-12.0-1.48","[]","","",""
"1262","TestRecordings/pmochun.wav","0","audio-button-response","129","1121907","0.0-12.0-0.49","","","",""
"8311","","{""P0_Q0"":""ㄷ,ㅡ,ㅁ,ㅜ,ㅊ,ㅜ,ㄴ"",""P0_Q1"":6}","survey","130","1130224","0.0-12.0-1.49","[]","","",""
"1401","TestRecordings/twaput.wav","0","audio-button-response","131","1131651","0.0-12.0-0.50","","","",""
"7568","","{""P0_Q0"":""ㄷ,ㅗ,ㅏ,ㅂ,ㅜ,ㅅ"",""P0_Q1"":5}","survey","132","1139226","0.0-12.0-1.50","[]","","",""
"1399","TestRecordings/mphutam.wav","0","audio-button-response","133","1140709","0.0-12.0-0.51","","","",""
"12559","","{""P0_Q0"":""ㅡ,ㄴ,ㅍ,ㅜ,ㄷ,ㅏ,ㅁ"",""P0_Q1"":3}","survey","134","1153275","0.0-12.0-1.51","[]","","",""
"1523","TestRecordings/thinok.wav","0","audio-button-response","135","1154815","0.0-12.0-0.52","","","",""
"5026","","{""P0_Q0"":""ㅋ,ㅣ,ㄴ,ㅗ,ㄱ"",""P0_Q1"":7}","survey","136","1159846","0.0-12.0-1.52","[]","","",""
"1397","TestRecordings/khwichon.wav","0","audio-button-response","137","1161326","0.0-12.0-0.53","","","",""
"6948","","{""P0_Q0"":""ㅋ,ㅜ,ㅣ,ㅊ,ㅗ,ㄴ"",""P0_Q1"":6}","survey","138","1168280","0.0-12.0-1.53","[]","","",""
"1131","TestRecordings/chnupot.wav","0","audio-button-response","139","1169430","0.0-12.0-0.54","","","",""
"9164","","{""P0_Q0"":""ㅅ,ㅡ,ㄴ,ㅜ,ㅂ,ㅗ,ㅅ"",""P0_Q1"":7}","survey","140","1178600","0.0-12.0-1.54","[]","","",""
"1179","TestRecordings/mpukham.wav","0","audio-button-response","141","1179801","0.0-12.0-0.55","","","",""
"9525","","{""P0_Q0"":""ㅡ,ㄴ,ㅂ,ㅜ,ㅋ,ㅗ,ㅏ,ㅁ"",""P0_Q1"":2}","survey","142","1189331","0.0-12.0-1.55","[]","","",""
"1290","TestRecordings/tikut.wav","0","audio-button-response","143","1190655","0.0-12.0-0.56","","","",""
"7369","","{""P0_Q0"":""ㄷ,ㅜ,ㅣ,ㄱ,ㅜ,ㅅ"",""P0_Q1"":3}","survey","144","1198032","0.0-12.0-1.56","[]","","",""
"1168","TestRecordings/nakhit.wav","0","audio-button-response","145","1199283","0.0-12.0-0.57","","","",""
"4760","","{""P0_Q0"":""ㄴ,ㅏ,ㅋ,ㅣ,ㅅ"",""P0_Q1"":5}","survey","146","1204048","0.0-12.0-1.57","[]","","",""
"1084","TestRecordings/sikot.wav","0","audio-button-response","147","1205153","0.0-12.0-0.58","","","",""
"5869","","{""P0_Q0"":""ㅅ,ㅣ,ㄱ,ㅗ,ㅅ"",""P0_Q1"":7}","survey","148","1211029","0.0-12.0-1.58","[]","","",""
"1211","TestRecordings/swikhat.wav","0","audio-button-response","149","1212269","0.0-12.0-0.59","","","",""
"5477","","{""P0_Q0"":""ㅅ,ㅜ,ㅣ,ㅋ,ㅏ,ㅅ"",""P0_Q1"":7}","survey","150","1217754","0.0-12.0-1.59","[]","","",""
"2555",""," ","html-keyboard-response","151","1220310","0.0-13.0","","","",""
"69485","","{""P0_Q0"":""24"",""P0_Q1"":""여"",""P0_Q2"":""6"",""P0_Q3"":""없다"",""P0_Q4"":""중국어"",""P0_Q5"":""18살 1년"",""P0_Q6"":""없다""}","survey","152","1289804","0.0-14.0","[]","","",""
"26074","<p style=""font-size:30px"",lang=""ko"">실험이 끝났습니다</p><p style=""font-size:30px"",lang=""ko"">참가해주셔서 고맙습니다</p>"," ","html-keyboard-response","153","1315936","0.0-15.0","","","",""
