"rt","stimulus","response","trial_type","trial_index","time_elapsed","internal_node_id","accuracy","PracticeTest","ConsonantSequence","Grammaticality"
"685206","<p style=""font-size:30px"",lang=""ko"">실험에 오신 것을 환영합니다</p><p lang=""ko"">스페이스바를 누르면 다음 페이지로 넘어갑니다</p>"," ","html-keyboard-response","0","685104","0.0-0.0","","","",""
"1832","<p style=""font-size:30px"",lang=""ko"">해드폰을 본인에게 잘 맞게 착용하세요</p><p lang=""ko"">스페이스바를 누르면 다음 페이지로 넘어갑니다</p>"," ","html-keyboard-response","1","686936","0.0-1.0","","","",""
"5379","<p style=""font-size:30px"",lang=""ko"">이 실험에서는 새로 만든 한국 단어를 들으실 겁니다</p><p style=""font-size:30px"",lang=""ko"">단어를 들리는대로 쓰세요. 그런 다음 그 단어가 한국어 단어로 가능한지 평가하세요</p><p lang=""ko"">스페이스바를 누르면 다음 페이지로 넘어갑니다</p>"," ","html-keyboard-response","2","692316","0.0-2.0","","","",""
"2363","<p style=""font-size:30px"",lang=""ko"">원래 있는 단어로 예를 들어 봅시다</p><p lang=""ko"">스페이스바를 누르면 다음 페이지로 넘어갑니다</p>"," ","html-keyboard-response","3","694679","0.0-3.0","","","",""
"7033","PracticeRecordings/kom_bear.wav","0","audio-button-response","4","701738","0.0-4.0","","","",""
"2478","<p style=""font-size:30px"",lang=""ko"">이제 직접 단어를 듣고 쓰는 연습을 해봅시다. </p><p style=""font-size:30px"",lang=""ko"">스페이스바를 누르면 다음 페이지로 넘어갑니다</p>"," ","html-keyboard-response","5","704217","0.0-5.0","","","",""
"5617","PracticeRecordings/kirin_giraffe.wav","0","audio-button-response","6","709855","0.0-6.0-0.0","","","",""
"17713","kirin_giraffe","{""P0_Q0"":""ㄱ,ㅣ,ㄹ,ㅣ,ㄴ""}","survey","7","727602","0.0-6.0-1.0","[]","practice","NA","TRUE"
"2386","<p style=""font-size:30px"",lang=""ko"">방금 들으신 단어는 ""ㄱ,ㅣ,ㄹ,ㅣ,ㄴ"" 이라고 쓰시면 됩니다</p><p lang=""ko"">스페이스바를 누르면 다음 페이지로 넘어갑니다</p>"," ","html-keyboard-response","8","729988","0.0-6.0-2.0","","","",""
"2916","PracticeRecordings/saca_lion.wav","0","audio-button-response","9","732929","0.0-6.0-0.1","","","",""
"6643","saca_lion","{""P0_Q0"":""ㅅ,ㅏ,ㅈ,ㅏ""}","survey","10","739580","0.0-6.0-1.1","[]","practice","NA","FALSE"
"2071","<p style=""font-size:30px"",lang=""ko"">방금 들으신 단어는 ""ㅅ,ㅏ,ㅈ,ㅏ"" 라고 쓰시면 됩니다</p><p lang=""ko"">스페이스바를 누르면 다음 페이지로 넘어갑니다</p>"," ","html-keyboard-response","11","741652","0.0-6.0-2.1","","","",""
"2043","PracticeRecordings/saseum_deer.wav","0","audio-button-response","12","743713","0.0-6.0-0.2","","","",""
"9518","saseum_deer","{""P0_Q0"":""ㅅ,ㅏ,ㅅ,ㅡ,ㅁ""}","survey","13","753239","0.0-6.0-1.2","[]","practice","NA","FALSE"
"1803","<p style=""font-size:30px"",lang=""ko"">방금 들으신 단어는 ""ㅅ,ㅏ,ㅅ,ㅡ,ㅁ""이라고 쓰시면 됩니다</p><p lang=""ko"">스페이스바를 누르면 다음 페이지로 넘어갑니다</p>"," ","html-keyboard-response","14","755042","0.0-6.0-2.2","","","",""
"3367","PracticeRecordings/thokki_rabbit.wav","0","audio-button-response","15","758428","0.0-6.0-0.3","","","",""
"9507","thokki_rabbit","{""P0_Q0"":""ㅌ,ㅗ,ㄲ,ㅣ""}","survey","16","767943","0.0-6.0-1.3","[]","practice","NA","FALSE"
"1634","<p style=""font-size:30px"",lang=""ko"">방금 들으신 단어는 ""ㅌ,ㅗ,ㄲ,ㅣ"" 라고 쓰시면 됩니다</p><p lang=""ko"">스페이스바를 누르면 다음 페이지로 넘어갑니다</p>"," ","html-keyboard-response","17","769577","0.0-6.0-2.3","","","",""
"1905","<p style=""font-size:30px"",lang=""ko"">이제 만든 단어로 연습해봅시다.</p><p lang=""ko"">스페이스바를 누르면 다음 페이지로 넘어갑니다</p>"," ","html-keyboard-response","18","771483","0.0-7.0","","","",""
"3019","PracticeRecordings/snen.wav","0","audio-button-response","19","774522","0.0-8.0-0.0","","","",""
"10509","snen","{""P0_Q0"":""ㅅ,ㅡ,ㄴ,ㅐ,ㄴ""}","survey","20","785039","0.0-8.0-1.0","[]","practice","NA","TRUE"
"6645","<p style=""font-size:30px"",lang=""ko"">들으신 단어는 <br> ""ㅅ,ㅡ,ㄴ,ㅐ,ㄴ""  ""ㅅ,ㅡ,ㄴ,ㅐ"" ""ㅅ,ㄴ,ㅐ,ㄴ (""으"" 소리가 안 들리는 경우)"" 등 <br> 사람에 따라 다양하게 들릴 수 있습니다 <br> 본인에게 들리는대로 쓰시면 됩니다.</p><p lang=""ko"">스페이스바를 누르면 다음 페이지로 넘어갑니다</p>"," ","html-keyboard-response","21","791685","0.0-8.0-2.0","","","",""
"2572","PracticeRecordings/phrak.wav","0","audio-button-response","22","794277","0.0-8.0-0.1","","","",""
"14908","phrak","{""P0_Q0"":""ㅍ,ㅡ,ㄹ,ㅏ,ㄱ""}","survey","23","809191","0.0-8.0-1.1","[]","practice","NA","FALSE"
"1915","<p style=""font-size:30px"",lang=""ko"">들으신 단어는 <br> ""ㅍ,ㅡ,ㄹ,ㅏ,ㄱ"" ""ㅍ,ㅡ,ㄹ,ㅏ,ㅅ"" ""ㅋ,ㅡ,ㄹ,ㅏ,ㄱ"" ""ㅍ,ㄹ,ㅏ,ㄱ (""으"" 소리가 안 들리는 경우)"" 등 <br> 사람에 따라 다양하게 들릴 수 있습니다 <br> 본인에게 들리는대로 쓰시면 됩니다.</p><p lang=""ko"">스페이스바를 누르면 다음 페이지로 넘어갑니다</p>"," ","html-keyboard-response","24","811107","0.0-8.0-2.1","","","",""
"2427","PracticeRecordings/chka.wav","0","audio-button-response","25","813555","0.0-8.0-0.2","","","",""
"6919","chka","{""P0_Q0"":""ㅅ,ㅡ,ㄲ,ㅏ""}","survey","26","820479","0.0-8.0-1.2","[]","practice","NA","FALSE"
"3600","<p style=""font-size:30px"",lang=""ko"">들으신 단어는 ""ㅊ,ㅣ,ㄱ,ㅏ"", ""ㅊ,ㅡ,ㄱ,ㅏ"", ""ㅊ,ㄱ,ㅏ"", ""ㅊ,ㅟ,ㄱ,ㅏ"" 등 <br> 사람에 따라 다양하게 들릴 수 있습니다. <br> 본인에게 들리는대로 쓰시면 됩니다.</p><p lang=""ko"">스페이스바를 누르면 다음 페이지로 넘어갑니다</p>"," ","html-keyboard-response","27","824081","0.0-8.0-2.2","","","",""
"3951",""," ","html-keyboard-response","28","828033","0.0-9.0","","","",""
"3990","<p style=""font-size:30px"",lang=""ko"">이제 실험을 시작하겠습니다.</p><p style=""font-size:30px"",lang=""ko"">실전에서는 각각의 만든 단어를 한 번씩만 들을 수 있습니다.</p>"," ","html-keyboard-response","29","832023","0.0-10.0","","","",""
"18632","<p style=""font-size:30px"",lang=""ko"">단어를 풀어 쓰신 후에 그 단어가 한국어로 가능한 단어인지 평가해주세요</p><p style=""font-size:30px"",lang=""ko"">1점은 한국어로 완전 불가능한 단어, 7점은 한국어로 완전 가능한 단어를 의미합니다</p><p lang=""ko"">스페이스바를 누르면 다음 페이지로 넘어갑니다</p>"," ","html-keyboard-response","30","850654","0.0-11.0","","","",""
"3460","TestRecordings/cwit.wav","0","audio-button-response","31","854137","0.0-12.0-0.0","","","",""
"15276","","{""P0_Q0"":""쥣"",""P0_Q1"":6}","survey","32","869430","0.0-12.0-1.0","[]","","",""
"1904","TestRecordings/nwimik.wav","0","audio-button-response","33","871354","0.0-12.0-0.1","","","",""
"33816","","{""P0_Q0"":""ㄴ,ㅜ,ㅣ,ㅁ,ㅣ,ㄱ"",""P0_Q1"":5}","survey","34","905179","0.0-12.0-1.1","[]","","",""
"4016","TestRecordings/mphuk.wav","0","audio-button-response","35","909218","0.0-12.0-0.2","","","",""
"19775","","{""P0_Q0"":""ㅇ,ㅡ,ㅍ,ㅜ,ㄱ"",""P0_Q1"":5}","survey","36","929002","0.0-12.0-1.2","[]","","",""
"2749","TestRecordings/mpukham.wav","0","audio-button-response","37","931774","0.0-12.0-0.3","","","",""
"16654","","{""P0_Q0"":""ㅇ,ㅡ,ㅁ,ㅂ,ㅜ,ㅋ,ㅏ,ㅁ"",""P0_Q1"":4}","survey","38","948435","0.0-12.0-1.3","[]","","",""
"3106","TestRecordings/twamot.wav","0","audio-button-response","39","951568","0.0-12.0-0.4","","","",""
"25194","","{""P0_Q0"":""ㄷ,ㅗ,ㅏ,ㅁ,ㅗ,ㅅ"",""P0_Q1"":6}","survey","40","976770","0.0-12.0-1.4","[]","","",""
"2044","TestRecordings/khnap.wav","0","audio-button-response","41","978838","0.0-12.0-0.5","","","",""
"13870","","{""P0_Q0"":""ㅋ,ㅡ,ㄴ,ㅏ,ㅂ"",""P0_Q1"":4}","survey","42","992716","0.0-12.0-1.5","[]","","",""
"3114","TestRecordings/nchocip.wav","0","audio-button-response","43","995851","0.0-12.0-0.6","","","",""
"18147","","{""P0_Q0"":""ㅇ,ㅡ,ㅁ,ㅊ,ㅗ,ㅈ,ㅣ,ㅂ"",""P0_Q1"":5}","survey","44","1014005","0.0-12.0-1.6","[]","","",""
"2497","TestRecordings/thukhat.wav","0","audio-button-response","45","1016521","0.0-12.0-0.7","","","",""
"20030","","{""P0_Q0"":""ㅌ,ㅜ,ㅋ,ㅏ,ㅅ"",""P0_Q1"":4}","survey","46","1036560","0.0-12.0-1.7","[]","","",""
"3806","TestRecordings/mtukin.wav","0","audio-button-response","47","1040390","0.0-12.0-0.8","","","",""
"27977","","{""P0_Q0"":""ㅇ,ㅡ,ㄴ,ㄷ,ㅜ,ㄱ,ㅣ,ㄴ"",""P0_Q1"":5}","survey","48","1068375","0.0-12.0-1.8","[]","","",""
"3449","TestRecordings/tnunong.wav","0","audio-button-response","49","1071847","0.0-12.0-0.9","","","",""
"12398","","{""P0_Q0"":""ㄷ,ㅜ,ㄴ,ㅗ,ㅇ"",""P0_Q1"":2}","survey","50","1084253","0.0-12.0-1.9","[]","","",""
"1471","TestRecordings/knot.wav","0","audio-button-response","51","1085744","0.0-12.0-0.10","","","",""
"11595","","{""P0_Q0"":""ㅋ,ㅡ,ㄴ,ㅗ,ㅅ"",""P0_Q1"":3}","survey","52","1097347","0.0-12.0-1.10","[]","","",""
"2395","TestRecordings/ntakhip.wav","0","audio-button-response","53","1099762","0.0-12.0-0.11","","","",""
"9895","","{""P0_Q0"":""ㄷ,ㅏ,ㅋ,ㅣ,ㅂ"",""P0_Q1"":3}","survey","54","1109663","0.0-12.0-1.11","[]","","",""
"2535","TestRecordings/pmochun.wav","0","audio-button-response","55","1112218","0.0-12.0-0.12","","","",""
"13276","","{""P0_Q0"":""ㅂ,ㅡ,ㄴ,ㅗ,ㅊ,ㅜ,ㄴ"",""P0_Q1"":3}","survey","56","1125502","0.0-12.0-1.12","[]","","",""
"3432","TestRecordings/cmoman.wav","0","audio-button-response","57","1128954","0.0-12.0-0.13","","","",""
"16805","","{""P0_Q0"":""ㅊ,ㅡ,ㄴ,ㅗ,ㅁ,ㅏ,ㄴ"",""P0_Q1"":2}","survey","58","1145766","0.0-12.0-1.13","[]","","",""
"2175","TestRecordings/tup.wav","0","audio-button-response","59","1147961","0.0-12.0-0.14","","","",""
"6500","","{""P0_Q0"":""ㅌ,ㅜ,ㅂ"",""P0_Q1"":6}","survey","60","1154469","0.0-12.0-1.14","[]","","",""
"1442","TestRecordings/twaput.wav","0","audio-button-response","61","1155931","0.0-12.0-0.15","","","",""
"9983","","{""P0_Q0"":""ㄷ,ㅗ,ㅏ,ㅂ,ㅜ,ㅅ"",""P0_Q1"":6}","survey","62","1165921","0.0-12.0-1.15","[]","","",""
"3616","TestRecordings/phnokhing.wav","0","audio-button-response","63","1169557","0.0-12.0-0.16","","","",""
"15835","","{""P0_Q0"":""ㅍ,ㅡ,ㄴ,ㅗ,ㅋ,ㅣ,ㅇ"",""P0_Q1"":3}","survey","64","1185401","0.0-12.0-1.16","[]","","",""
"2045","TestRecordings/mphosak.wav","0","audio-button-response","65","1187466","0.0-12.0-0.17","","","",""
"16009","","{""P0_Q0"":""ㅇ,ㅡ,ㅁ,ㅍ,ㅗ,ㅅ,ㅏ,ㄱ"",""P0_Q1"":3}","survey","66","1203484","0.0-12.0-1.17","[]","","",""
"1829","TestRecordings/taphik.wav","0","audio-button-response","67","1205332","0.0-12.0-0.18","","","",""
"10225","","{""P0_Q0"":""ㄷ,ㅏ,ㅍ,ㅣ,ㄱ"",""P0_Q1"":5}","survey","68","1215564","0.0-12.0-1.18","[]","","",""
"1735","TestRecordings/chnuk.wav","0","audio-button-response","69","1217319","0.0-12.0-0.19","","","",""
"8795","","{""P0_Q0"":""ㅊ,ㅡ,ㄴ,ㅜ"",""P0_Q1"":4}","survey","70","1226122","0.0-12.0-1.19","[]","","",""
"1869","TestRecordings/twan.wav","0","audio-button-response","71","1228015","0.0-12.0-0.20","","","",""
"10353","","{""P0_Q0"":""ㄷ,ㅗ,ㅏ,ㄴ"",""P0_Q1"":4}","survey","72","1238375","0.0-12.0-1.20","[]","","",""
"1816","TestRecordings/npucap.wav","0","audio-button-response","73","1240211","0.0-12.0-0.21","","","",""
"11797","","{""P0_Q0"":""ㅇ,ㅡ,ㄴ,ㅂ,ㅜ,ㅈ,ㅏ,ㅂ"",""P0_Q1"":2}","survey","74","1252015","0.0-12.0-1.21","[]","","",""
"1534","TestRecordings/cnaphin.wav","0","audio-button-response","75","1253569","0.0-12.0-0.22","","","",""
"12066","","{""P0_Q0"":""ㅊ,ㅡ,ㄴ,ㅏ,ㅍ,ㅣ,ㄴ"",""P0_Q1"":2}","survey","76","1265643","0.0-12.0-1.22","[]","","",""
"1573","TestRecordings/sikot.wav","0","audio-button-response","77","1267235","0.0-12.0-0.23","","","",""
"15849","","{""P0_Q0"":""ㅅ,ㅣ,ㄱ,ㅗ,ㅅ"",""P0_Q1"":6}","survey","78","1283090","0.0-12.0-1.23","[]","","",""
"1847","TestRecordings/khnothik.wav","0","audio-button-response","79","1284958","0.0-12.0-0.24","","","",""
"15836","","{""P0_Q0"":""ㅋ,ㅡ,ㄴ,ㅗ,ㅌ,ㅣ,ㄱ"",""P0_Q1"":4}","survey","80","1300800","0.0-12.0-1.24","[]","","",""
"1818","TestRecordings/nakhit.wav","0","audio-button-response","81","1302639","0.0-12.0-0.25","","","",""
"12084","","{""P0_Q0"":""ㄹ,ㅏ,ㅋ,ㅣ,ㅅ"",""P0_Q1"":5}","survey","82","1314731","0.0-12.0-1.25","[]","","",""
"2623","TestRecordings/nchot.wav","0","audio-button-response","83","1317373","0.0-12.0-0.26","","","",""
"12681","","{""P0_Q0"":""ㅇ,ㅡ,ㄴ,ㅊ,ㅗ,ㅅ"",""P0_Q1"":2}","survey","84","1330061","0.0-12.0-1.26","[]","","",""
"1993","TestRecordings/khwiphing.wav","0","audio-button-response","85","1332076","0.0-12.0-0.27","","","",""
"8853","","{""P0_Q0"":""ㅋ,ㅜ,ㅣ,ㅍ,ㅣ,ㅇ"",""P0_Q1"":5}","survey","86","1340935","0.0-12.0-1.27","[]","","",""
"2138","TestRecordings/tmichut.wav","0","audio-button-response","87","1343096","0.0-12.0-0.28","","","",""
"14847","","{""P0_Q0"":""ㄸ,ㅡ,ㅁ,ㅣ,ㅊ,ㅜ,ㅅ"",""P0_Q1"":2}","survey","88","1357950","0.0-12.0-1.28","[]","","",""
"2104","TestRecordings/chwikhong.wav","0","audio-button-response","89","1360074","0.0-12.0-0.29","","","",""
"18207","","{""P0_Q0"":""ㅊ,ㅜ,ㅣ,ㅋ,ㅗ,ㅇ"",""P0_Q1"":5}","survey","90","1378288","0.0-12.0-1.29","[]","","",""
"1605","TestRecordings/khut.wav","0","audio-button-response","91","1379913","0.0-12.0-0.30","","","",""
"9947","","{""P0_Q0"":""ㅋ,ㅜ,ㅅ"",""P0_Q1"":5}","survey","92","1389867","0.0-12.0-1.30","[]","","",""
"1497","TestRecordings/khwipot.wav","0","audio-button-response","93","1391383","0.0-12.0-0.31","","","",""
"9514","","{""P0_Q0"":""ㅋ,ㅜ,ㅣ,ㅂ,ㅗ,ㅅ"",""P0_Q1"":4}","survey","94","1400905","0.0-12.0-1.31","[]","","",""
"2142","TestRecordings/nkhuchom.wav","0","audio-button-response","95","1403068","0.0-12.0-0.32","","","",""
"17317","","{""P0_Q0"":""ㅇ,ㅡ,ㄴ,ㅋ,ㅜ,ㅊ,ㅛ,ㄴ"",""P0_Q1"":1}","survey","96","1420392","0.0-12.0-1.32","[]","","",""
"1424","TestRecordings/thwam.wav","0","audio-button-response","97","1421836","0.0-12.0-0.33","","","",""
"10410","","{""P0_Q0"":""ㅌ,ㅗ,ㅏ,ㅁ"",""P0_Q1"":4}","survey","98","1432254","0.0-12.0-1.33","[]","","",""
"1109","TestRecordings/nkat.wav","0","audio-button-response","99","1433382","0.0-12.0-0.34","","","",""
"7991","","{""P0_Q0"":""ㅇ,ㅡ,ㄴ,ㄱ,ㅏ,ㅅ"",""P0_Q1"":3}","survey","100","1441380","0.0-12.0-1.34","[]","","",""
"1053","TestRecordings/phmiman.wav","0","audio-button-response","101","1442454","0.0-12.0-0.35","","","",""
"11204","","{""P0_Q0"":""ㅍ,ㅡ,ㅁ,ㅣ,ㅁ,ㅏ,ㄴ"",""P0_Q1"":4}","survey","102","1453666","0.0-12.0-1.35","[]","","",""
"1828","TestRecordings/khin.wav","0","audio-button-response","103","1455515","0.0-12.0-0.36","","","",""
"5000","","{""P0_Q0"":""ㅋ,ㅣ,ㄴ"",""P0_Q1"":4}","survey","104","1460522","0.0-12.0-1.36","[]","","",""
"1571","TestRecordings/mup.wav","0","audio-button-response","105","1462113","0.0-12.0-0.37","","","",""
"11059","","{""P0_Q0"":""ㅁ,ㅜ,ㅂ"",""P0_Q1"":4}","survey","106","1473179","0.0-12.0-1.37","[]","","",""
"1615","TestRecordings/chmop.wav","0","audio-button-response","107","1474813","0.0-12.0-0.38","","","",""
"6879","","{""P0_Q0"":""ㅊ,ㅡ,ㅁ,ㅗ,ㅂ"",""P0_Q1"":3}","survey","108","1481699","0.0-12.0-1.38","[]","","",""
"1376","TestRecordings/chumik.wav","0","audio-button-response","109","1483096","0.0-12.0-0.39","","","",""
"11579","","{""P0_Q0"":""ㅊ,ㅠ,ㅁ,ㅣ,ㄱ"",""P0_Q1"":3}","survey","110","1494681","0.0-12.0-1.39","[]","","",""
"1940","TestRecordings/cwam.wav","0","audio-button-response","111","1496642","0.0-12.0-0.40","","","",""
"8503","","{""P0_Q0"":""ㅈ,ㅗ,ㅏ,ㅁ"",""P0_Q1"":4}","survey","112","1505152","0.0-12.0-1.40","[]","","",""
"1768","TestRecordings/chnupot.wav","0","audio-button-response","113","1506940","0.0-12.0-0.41","","","",""
"9539","","{""P0_Q0"":""ㅊ,ㅡ,ㄴ,ㅜ,ㅂ,ㅗ,ㅅ"",""P0_Q1"":3}","survey","114","1516486","0.0-12.0-1.41","[]","","",""
"1236","TestRecordings/thinok.wav","0","audio-button-response","115","1517743","0.0-12.0-0.42","","","",""
"10987","","{""P0_Q0"":""ㅋ,ㅣ,ㄴ,ㅗ,ㄱ"",""P0_Q1"":3}","survey","116","1528736","0.0-12.0-1.42","[]","","",""
"1566","TestRecordings/swikhat.wav","0","audio-button-response","117","1530323","0.0-12.0-0.43","","","",""
"9783","","{""P0_Q0"":""ㅅ,ㅜ,ㅣ,ㅋ,ㅏ,ㅅ"",""P0_Q1"":3}","survey","118","1540113","0.0-12.0-1.43","[]","","",""
"1495","TestRecordings/mkit.wav","0","audio-button-response","119","1541628","0.0-12.0-0.44","","","",""
"10194","","{""P0_Q0"":""ㅇ,ㅡ,ㅇ,ㄱ,ㅣ,ㅅ"",""P0_Q1"":2}","survey","120","1551829","0.0-12.0-1.44","[]","","",""
"1267","TestRecordings/twak.wav","0","audio-button-response","121","1553117","0.0-12.0-0.45","","","",""
"7875","","{""P0_Q0"":""ㄷ,ㅗ,ㅏ,ㄱ"",""P0_Q1"":5}","survey","122","1560999","0.0-12.0-1.45","[]","","",""
"1505","TestRecordings/tin.wav","0","audio-button-response","123","1562525","0.0-12.0-0.46","","","",""
"6063","","{""P0_Q0"":""ㄷ,ㅣ,ㄴ"",""P0_Q1"":5}","survey","124","1568595","0.0-12.0-1.46","[]","","",""
"1604","TestRecordings/kmamun.wav","0","audio-button-response","125","1570220","0.0-12.0-0.47","","","",""
"20341","","{""P0_Q0"":""ㅋ,ㅡ,ㅁ,ㅏ,ㅁ,ㅜ,ㄴ"",""P0_Q1"":2}","survey","126","1590566","0.0-12.0-1.47","[]","","",""
"2047","TestRecordings/khithuk.wav","0","audio-button-response","127","1592637","0.0-12.0-0.48","","","",""
"25380","","{""P0_Q0"":""ㅋ,ㅜ,ㅣ,ㅌ,ㅜ"",""P0_Q1"":2}","survey","128","1618024","0.0-12.0-1.48","[]","","",""
"978","TestRecordings/mthik.wav","0","audio-button-response","129","1619022","0.0-12.0-0.49","","","",""
"10469","","{""P0_Q0"":""ㅇ,ㅡ,ㅁ,ㅍ,ㅣ,ㄱ"",""P0_Q1"":3}","survey","130","1629498","0.0-12.0-1.49","[]","","",""
"2261","TestRecordings/chakot.wav","0","audio-button-response","131","1631780","0.0-12.0-0.50","","","",""
"10685","","{""P0_Q0"":""ㅊ,ㅏ,ㄱ,ㅗ,ㅅ"",""P0_Q1"":6}","survey","132","1642472","0.0-12.0-1.50","[]","","",""
"1928","TestRecordings/thwikhip.wav","0","audio-button-response","133","1644421","0.0-12.0-0.51","","","",""
"9867","","{""P0_Q0"":""ㅌ,ㅜ,ㅣ,ㅋ,ㅣ,ㅂ"",""P0_Q1"":2}","survey","134","1654294","0.0-12.0-1.51","[]","","",""
"1339","TestRecordings/chunak.wav","0","audio-button-response","135","1655652","0.0-12.0-0.52","","","",""
"6576","","{""P0_Q0"":""ㅊ,ㅜ,ㄴ,ㅏ,ㄱ"",""P0_Q1"":4}","survey","136","1662235","0.0-12.0-1.52","[]","","",""
"1565","TestRecordings/chwiphin.wav","0","audio-button-response","137","1663821","0.0-12.0-0.53","","","",""
"20694","","{""P0_Q0"":""ㅊ,ㅜ,ㅣ,ㅍ,ㅣ,ㄴ"",""P0_Q1"":3}","survey","138","1684524","0.0-12.0-1.53","[]","","",""
"2474","TestRecordings/nthimong.wav","0","audio-button-response","139","1687021","0.0-12.0-0.54","","","",""
"15758","","{""P0_Q0"":""ㅇ,ㅡ,ㅇ,ㅌ,ㅣ,ㅁ,ㅗ,ㅇ"",""P0_Q1"":2}","survey","140","1702787","0.0-12.0-1.54","[]","","",""
"2220","TestRecordings/nthaking.wav","0","audio-button-response","141","1705029","0.0-12.0-0.55","","","",""
"12618","","{""P0_Q0"":""ㅇ,ㅡ,ㅇ,ㅌ,ㅏ,ㄱ,ㅣ,ㅇ"",""P0_Q1"":1}","survey","142","1717653","0.0-12.0-1.55","[]","","",""
"1792","TestRecordings/tikut.wav","0","audio-button-response","143","1719465","0.0-12.0-0.56","","","",""
"7740","","{""P0_Q0"":""ㄷ,ㅜ,ㅣ,ㄱ,ㅜ,ㅅ"",""P0_Q1"":3}","survey","144","1727213","0.0-12.0-1.56","[]","","",""
"1141","TestRecordings/thnok.wav","0","audio-button-response","145","1728375","0.0-12.0-0.57","","","",""
"5936","","{""P0_Q0"":""ㅌ,ㅡ,ㄴ,ㅗ,ㄱ"",""P0_Q1"":4}","survey","146","1734317","0.0-12.0-1.57","[]","","",""
"1666","TestRecordings/mphutam.wav","0","audio-button-response","147","1736006","0.0-12.0-0.58","","","",""
"16769","","{""P0_Q0"":""ㅇ,ㅡ,ㄴ,ㅍ,ㅜ,ㄷ,ㅏ,ㅁ"",""P0_Q1"":2}","survey","148","1752781","0.0-12.0-1.58","[]","","",""
"2669","TestRecordings/khwichon.wav","0","audio-button-response","149","1755474","0.0-12.0-0.59","","","",""
"17877","","{""P0_Q0"":""ㅋ,ㅜ,ㅣ,ㅊ,ㅛ,ㄴ"",""P0_Q1"":3}","survey","150","1773358","0.0-12.0-1.59","[]","","",""
"5899",""," ","html-keyboard-response","151","1779257","0.0-13.0","","","",""
"81090","","{""P0_Q0"":""21"",""P0_Q1"":""남"",""P0_Q2"":""10"",""P0_Q3"":""-"",""P0_Q4"":""-"",""P0_Q5"":""-"",""P0_Q6"":""-""}","survey","152","1860358","0.0-14.0","[]","","",""
"2073","<p style=""font-size:30px"",lang=""ko"">실험이 끝났습니다</p><p style=""font-size:30px"",lang=""ko"">참가해주셔서 고맙습니다</p>"," ","html-keyboard-response","153","1862432","0.0-15.0","","","",""
