"rt","stimulus","response","trial_type","trial_index","time_elapsed","internal_node_id","accuracy","PracticeTest","ConsonantSequence","Grammaticality"
"180032","<p style=""font-size:30px"",lang=""ko"">실험에 오신 것을 환영합니다</p><p lang=""ko"">스페이스바를 누르면 다음 페이지로 넘어갑니다</p>"," ","html-keyboard-response","0","180046","0.0-0.0","","","",""
"1599","<p style=""font-size:30px"",lang=""ko"">해드폰을 본인에게 잘 맞게 착용하세요</p><p lang=""ko"">스페이스바를 누르면 다음 페이지로 넘어갑니다</p>"," ","html-keyboard-response","1","181645","0.0-1.0","","","",""
"2216","<p style=""font-size:30px"",lang=""ko"">이 실험에서는 새로 만든 한국 단어를 들으실 겁니다</p><p style=""font-size:30px"",lang=""ko"">단어를 들리는대로 쓰세요. 그런 다음 그 단어가 한국어 단어로 가능한지 평가하세요</p><p lang=""ko"">스페이스바를 누르면 다음 페이지로 넘어갑니다</p>"," ","html-keyboard-response","2","183862","0.0-2.0","","","",""
"1575","<p style=""font-size:30px"",lang=""ko"">원래 있는 단어로 예를 들어 봅시다</p><p lang=""ko"">스페이스바를 누르면 다음 페이지로 넘어갑니다</p>"," ","html-keyboard-response","3","185438","0.0-3.0","","","",""
"10746","PracticeRecordings/kom_bear.wav","0","audio-button-response","4","196215","0.0-4.0","","","",""
"2434","<p style=""font-size:30px"",lang=""ko"">이제 직접 단어를 듣고 쓰는 연습을 해봅시다. </p><p style=""font-size:30px"",lang=""ko"">스페이스바를 누르면 다음 페이지로 넘어갑니다</p>"," ","html-keyboard-response","5","198649","0.0-5.0","","","",""
"8172","PracticeRecordings/kirin_giraffe.wav","0","audio-button-response","6","206843","0.0-6.0-0.0","","","",""
"9677","kirin_giraffe","{""P0_Q0"":""ㄱ,ㅣ,ㄹ,ㅣ,ㄴ""}","survey","7","216565","0.0-6.0-1.0","[]","practice","NA","TRUE"
"1571","<p style=""font-size:30px"",lang=""ko"">방금 들으신 단어는 ""ㄱ,ㅣ,ㄹ,ㅣ,ㄴ"" 이라고 쓰시면 됩니다</p><p lang=""ko"">스페이스바를 누르면 다음 페이지로 넘어갑니다</p>"," ","html-keyboard-response","8","218136","0.0-6.0-2.0","","","",""
"1937","PracticeRecordings/saca_lion.wav","0","audio-button-response","9","220100","0.0-6.0-0.1","","","",""
"7933","saca_lion","{""P0_Q0"":""ㅅ,ㅏ,ㅈ,ㅏ""}","survey","10","228043","0.0-6.0-1.1","[]","practice","NA","FALSE"
"1099","<p style=""font-size:30px"",lang=""ko"">방금 들으신 단어는 ""ㅅ,ㅏ,ㅈ,ㅏ"" 라고 쓰시면 됩니다</p><p lang=""ko"">스페이스바를 누르면 다음 페이지로 넘어갑니다</p>"," ","html-keyboard-response","11","229143","0.0-6.0-2.1","","","",""
"3619","PracticeRecordings/saseum_deer.wav","0","audio-button-response","12","232782","0.0-6.0-0.2","","","",""
"6915","saseum_deer","{""P0_Q0"":""ㅅ,ㅏ,ㅅ,ㅡ,ㅁ""}","survey","13","239707","0.0-6.0-1.2","[]","practice","NA","FALSE"
"641","<p style=""font-size:30px"",lang=""ko"">방금 들으신 단어는 ""ㅅ,ㅏ,ㅅ,ㅡ,ㅁ""이라고 쓰시면 됩니다</p><p lang=""ko"">스페이스바를 누르면 다음 페이지로 넘어갑니다</p>"," ","html-keyboard-response","14","240349","0.0-6.0-2.2","","","",""
"2041","PracticeRecordings/thokki_rabbit.wav","0","audio-button-response","15","242412","0.0-6.0-0.3","","","",""
"5159","thokki_rabbit","{""P0_Q0"":""ㅌ,ㅗ,ㄲ,ㅣ""}","survey","16","247579","0.0-6.0-1.3","[]","practice","NA","FALSE"
"718","<p style=""font-size:30px"",lang=""ko"">방금 들으신 단어는 ""ㅌ,ㅗ,ㄲ,ㅣ"" 라고 쓰시면 됩니다</p><p lang=""ko"">스페이스바를 누르면 다음 페이지로 넘어갑니다</p>"," ","html-keyboard-response","17","248298","0.0-6.0-2.3","","","",""
"1325","<p style=""font-size:30px"",lang=""ko"">이제 만든 단어로 연습해봅시다.</p><p lang=""ko"">스페이스바를 누르면 다음 페이지로 넘어갑니다</p>"," ","html-keyboard-response","18","249623","0.0-7.0","","","",""
"2452","PracticeRecordings/snen.wav","0","audio-button-response","19","252099","0.0-8.0-0.0","","","",""
"6671","snen","{""P0_Q0"":""ㅅ,ㅡ,ㄴ,ㅐ,ㄴ""}","survey","20","258778","0.0-8.0-1.0","[]","practice","NA","TRUE"
"2998","<p style=""font-size:30px"",lang=""ko"">들으신 단어는 <br> ""ㅅ,ㅡ,ㄴ,ㅐ,ㄴ""  ""ㅅ,ㅡ,ㄴ,ㅐ"" ""ㅅ,ㄴ,ㅐ,ㄴ (""으"" 소리가 안 들리는 경우)"" 등 <br> 사람에 따라 다양하게 들릴 수 있습니다 <br> 본인에게 들리는대로 쓰시면 됩니다.</p><p lang=""ko"">스페이스바를 누르면 다음 페이지로 넘어갑니다</p>"," ","html-keyboard-response","21","261777","0.0-8.0-2.0","","","",""
"1531","PracticeRecordings/phrak.wav","0","audio-button-response","22","263328","0.0-8.0-0.1","","","",""
"9548","phrak","{""P0_Q0"":""ㅍ,ㅡ,ㄹ,ㅏ,ㄱ""}","survey","23","272882","0.0-8.0-1.1","[]","practice","NA","FALSE"
"1465","<p style=""font-size:30px"",lang=""ko"">들으신 단어는 <br> ""ㅍ,ㅡ,ㄹ,ㅏ,ㄱ"" ""ㅍ,ㅡ,ㄹ,ㅏ,ㅅ"" ""ㅋ,ㅡ,ㄹ,ㅏ,ㄱ"" ""ㅍ,ㄹ,ㅏ,ㄱ (""으"" 소리가 안 들리는 경우)"" 등 <br> 사람에 따라 다양하게 들릴 수 있습니다 <br> 본인에게 들리는대로 쓰시면 됩니다.</p><p lang=""ko"">스페이스바를 누르면 다음 페이지로 넘어갑니다</p>"," ","html-keyboard-response","24","274348","0.0-8.0-2.1","","","",""
"1679","PracticeRecordings/chka.wav","0","audio-button-response","25","276047","0.0-8.0-0.2","","","",""
"5267","chka","{""P0_Q0"":""ㅅ,ㅡ,ㅋ,ㅏ""}","survey","26","281322","0.0-8.0-1.2","[]","practice","NA","FALSE"
"1387","<p style=""font-size:30px"",lang=""ko"">들으신 단어는 ""ㅊ,ㅣ,ㄱ,ㅏ"", ""ㅊ,ㅡ,ㄱ,ㅏ"", ""ㅊ,ㄱ,ㅏ"", ""ㅊ,ㅟ,ㄱ,ㅏ"" 등 <br> 사람에 따라 다양하게 들릴 수 있습니다. <br> 본인에게 들리는대로 쓰시면 됩니다.</p><p lang=""ko"">스페이스바를 누르면 다음 페이지로 넘어갑니다</p>"," ","html-keyboard-response","27","282710","0.0-8.0-2.2","","","",""
"3427",""," ","html-keyboard-response","28","286137","0.0-9.0","","","",""
"1781","<p style=""font-size:30px"",lang=""ko"">이제 실험을 시작하겠습니다.</p><p style=""font-size:30px"",lang=""ko"">실전에서는 각각의 만든 단어를 한 번씩만 들을 수 있습니다.</p>"," ","html-keyboard-response","29","287919","0.0-10.0","","","",""
"4288","<p style=""font-size:30px"",lang=""ko"">단어를 풀어 쓰신 후에 그 단어가 한국어로 가능한 단어인지 평가해주세요</p><p style=""font-size:30px"",lang=""ko"">1점은 한국어로 완전 불가능한 단어, 7점은 한국어로 완전 가능한 단어를 의미합니다</p><p lang=""ko"">스페이스바를 누르면 다음 페이지로 넘어갑니다</p>"," ","html-keyboard-response","30","292208","0.0-11.0","","","",""
"2414","TestRecordings/thukhat.wav","0","audio-button-response","31","294643","0.0-12.0-0.0","","","",""
"40609","","{""P0_Q0"":""ㅌ,ㅜ,ㅋ,ㅏ,ㅅ"",""P0_Q1"":2}","survey","32","335267","0.0-12.0-1.0","[]","","",""
"3102","TestRecordings/chnupot.wav","0","audio-button-response","33","338394","0.0-12.0-0.1","","","",""
"9091","","{""P0_Q0"":""ㅅ,ㅡ,ㄴ,ㅜ,ㅂ,ㅗ,ㅅ"",""P0_Q1"":6}","survey","34","347494","0.0-12.0-1.1","[]","","",""
"2727","TestRecordings/mphosak.wav","0","audio-button-response","35","350242","0.0-12.0-0.2","","","",""
"9882","","{""P0_Q0"":""ㅇ,ㅡ,ㅁ,ㅍ,ㅗ,ㅅ,ㅏ,ㄱ"",""P0_Q1"":7}","survey","36","360132","0.0-12.0-1.2","[]","","",""
"2055","TestRecordings/cwit.wav","0","audio-button-response","37","362208","0.0-12.0-0.3","","","",""
"8570","","{""P0_Q0"":""ㅈ,ㅟ,ㅅ"",""P0_Q1"":6}","survey","38","370785","0.0-12.0-1.3","[]","","",""
"3565","TestRecordings/mphutam.wav","0","audio-button-response","39","374373","0.0-12.0-0.4","","","",""
"12185","","{""P0_Q0"":""ㅇ,ㅡ,ㅁ,ㅍ,ㅡ,ㄷ,ㅏ,ㅁ"",""P0_Q1"":3}","survey","40","386565","0.0-12.0-1.4","[]","","",""
"2319","TestRecordings/thwam.wav","0","audio-button-response","41","388905","0.0-12.0-0.5","","","",""
"6652","","{""P0_Q0"":""ㅌ,ㅗ,ㅏ,ㅁ"",""P0_Q1"":1}","survey","42","395565","0.0-12.0-1.5","[]","","",""
"3182","TestRecordings/chwikhong.wav","0","audio-button-response","43","398768","0.0-12.0-0.6","","","",""
"6438","","{""P0_Q0"":""ㅊ,ㅜ,ㅣ,ㅋ,ㅗ,ㅇ"",""P0_Q1"":7}","survey","44","405212","0.0-12.0-1.6","[]","","",""
"1900","TestRecordings/chmop.wav","0","audio-button-response","45","407134","0.0-12.0-0.7","","","",""
"6375","","{""P0_Q0"":""ㅅ,ㅡ,ㄴ,ㅗ,ㅂ"",""P0_Q1"":2}","survey","46","413517","0.0-12.0-1.7","[]","","",""
"1839","TestRecordings/twan.wav","0","audio-button-response","47","415378","0.0-12.0-0.8","","","",""
"9205","","{""P0_Q0"":""ㄷ,ㅗ,ㅏ,ㄴ"",""P0_Q1"":5}","survey","48","424590","0.0-12.0-1.8","[]","","",""
"1871","TestRecordings/twamot.wav","0","audio-button-response","49","426482","0.0-12.0-0.9","","","",""
"9035","","{""P0_Q0"":""ㄷ,ㅗ,ㅏ,ㅁ,ㅗ,ㅅ"",""P0_Q1"":7}","survey","50","435525","0.0-12.0-1.9","[]","","",""
"2038","TestRecordings/khwiphing.wav","0","audio-button-response","51","437586","0.0-12.0-0.10","","","",""
"8916","","{""P0_Q0"":""ㅎ,ㅜ,ㅣ,ㅍ,ㅣ,ㅇ"",""P0_Q1"":1}","survey","52","446510","0.0-12.0-1.10","[]","","",""
"1410","TestRecordings/swikhat.wav","0","audio-button-response","53","447942","0.0-12.0-0.11","","","",""
"6337","","{""P0_Q0"":""ㅅ,ㅜ,ㅣ,ㅋ,ㅏ,ㅅ"",""P0_Q1"":1}","survey","54","454286","0.0-12.0-1.11","[]","","",""
"2465","TestRecordings/phmiman.wav","0","audio-button-response","55","456772","0.0-12.0-0.12","","","",""
"7114","","{""P0_Q0"":""ㅍ,ㅜ,ㄴ,ㅣ,ㅁ,ㅏ,ㄴ"",""P0_Q1"":1}","survey","56","463894","0.0-12.0-1.12","[]","","",""
"2709","TestRecordings/knot.wav","0","audio-button-response","57","466624","0.0-12.0-0.13","","","",""
"6353","","{""P0_Q0"":""ㄱ,ㅡ,ㄴ,ㅗ,ㅅ"",""P0_Q1"":6}","survey","58","472984","0.0-12.0-1.13","[]","","",""
"2445","TestRecordings/cmoman.wav","0","audio-button-response","59","475453","0.0-12.0-0.14","","","",""
"9331","","{""P0_Q0"":""ㅅ,ㅁ,ㅗ,ㅁ,ㅏ,ㄴ"",""P0_Q1"":2}","survey","60","484791","0.0-12.0-1.14","[]","","",""
"1349","TestRecordings/sikot.wav","0","audio-button-response","61","486161","0.0-12.0-0.15","","","",""
"6103","","{""P0_Q0"":""ㅅ,ㅜ,ㅣ,ㄱ,ㅗ,ㅅ"",""P0_Q1"":7}","survey","62","492271","0.0-12.0-1.15","[]","","",""
"2128","TestRecordings/khin.wav","0","audio-button-response","63","494421","0.0-12.0-0.16","","","",""
"6746","","{""P0_Q0"":""ㅋ,ㅡ,ㅣ,ㄴ"",""P0_Q1"":5}","survey","64","501175","0.0-12.0-1.16","[]","","",""
"2520","TestRecordings/mkit.wav","0","audio-button-response","65","503716","0.0-12.0-0.17","","","",""
"9445","","{""P0_Q0"":""ㅇ,ㅡ,ㅇ,ㄱ,ㅣ,ㅅ"",""P0_Q1"":7}","survey","66","513168","0.0-12.0-1.17","[]","","",""
"2166","TestRecordings/thnok.wav","0","audio-button-response","67","515354","0.0-12.0-0.18","","","",""
"8796","","{""P0_Q0"":""ㅌ,ㅜ,ㄴ,ㅗ,ㄱ"",""P0_Q1"":6}","survey","68","524157","0.0-12.0-1.18","[]","","",""
"2470","TestRecordings/tmichut.wav","0","audio-button-response","69","526650","0.0-12.0-0.19","","","",""
"10070","","{""P0_Q0"":""ㅁ,ㅣ,ㅅ,ㅊ,ㅜ,ㄱ"",""P0_Q1"":7}","survey","70","536727","0.0-12.0-1.19","[]","","",""
"2824","TestRecordings/nkat.wav","0","audio-button-response","71","539572","0.0-12.0-0.20","","","",""
"8379","","{""P0_Q0"":""ㅇ,ㅡ,ㅇ,ㄱ,ㅏ,ㅅ"",""P0_Q1"":7}","survey","72","547959","0.0-12.0-1.20","[]","","",""
"1854","TestRecordings/khnap.wav","0","audio-button-response","73","549834","0.0-12.0-0.21","","","",""
"10078","","{""P0_Q0"":""ㅋ,ㅡ,ㄴ,ㅏ,ㅅ"",""P0_Q1"":1}","survey","74","559920","0.0-12.0-1.21","[]","","",""
"2500","TestRecordings/khwipot.wav","0","audio-button-response","75","562442","0.0-12.0-0.22","","","",""
"12293","","{""P0_Q0"":""ㅋ,ㅜ,ㅣ,ㅂ,ㅗ,ㅅ"",""P0_Q1"":1}","survey","76","574742","0.0-12.0-1.22","[]","","",""
"1912","TestRecordings/khnothik.wav","0","audio-button-response","77","576677","0.0-12.0-0.23","","","",""
"8075","","{""P0_Q0"":""ㅋ,ㅡ,ㄴ,ㅗ,ㅌ,ㅣ,ㄱ"",""P0_Q1"":1}","survey","78","584759","0.0-12.0-1.23","[]","","",""
"1605","TestRecordings/tikut.wav","0","audio-button-response","79","586385","0.0-12.0-0.24","","","",""
"8313","","{""P0_Q0"":""ㄷ,ㅜ,ㅣ,ㄱ,ㅜ,ㅅ"",""P0_Q1"":7}","survey","80","594705","0.0-12.0-1.24","[]","","",""
"2235","TestRecordings/khwichon.wav","0","audio-button-response","81","596962","0.0-12.0-0.25","","","",""
"16967","","{""P0_Q0"":""ㅋ,ㅜ,ㅣ,ㅊ,ㅗ,ㄴ"",""P0_Q1"":3}","survey","82","613936","0.0-12.0-1.25","[]","","",""
"2520","TestRecordings/twak.wav","0","audio-button-response","83","616476","0.0-12.0-0.26","","","",""
"5390","","{""P0_Q0"":""ㄷ,ㅗ,ㅏ,ㄱ"",""P0_Q1"":4}","survey","84","621874","0.0-12.0-1.26","[]","","",""
"1889","TestRecordings/khithuk.wav","0","audio-button-response","85","623784","0.0-12.0-0.27","","","",""
"5800","","{""P0_Q0"":""ㅊ,ㅜ,ㅣ,ㅌ,ㅜ"",""P0_Q1"":7}","survey","86","629592","0.0-12.0-1.27","[]","","",""
"2373","TestRecordings/chumik.wav","0","audio-button-response","87","631986","0.0-12.0-0.28","","","",""
"7002","","{""P0_Q0"":""ㅊ,ㅜ,ㅁ,ㅣ,ㄱ"",""P0_Q1"":4}","survey","88","638994","0.0-12.0-1.28","[]","","",""
"1734","TestRecordings/thwikhip.wav","0","audio-button-response","89","640749","0.0-12.0-0.29","","","",""
"8694","","{""P0_Q0"":""ㅌ,ㅜ,ㅣ,ㅋ,ㅣ,ㅂ"",""P0_Q1"":1}","survey","90","649451","0.0-12.0-1.29","[]","","",""
"2100","TestRecordings/phnokhing.wav","0","audio-button-response","91","651573","0.0-12.0-0.30","","","",""
"7255","","{""P0_Q0"":""ㅌ,ㅡ,ㄴ,ㅗ,ㅋ,ㅣ,ㅇ"",""P0_Q1"":1}","survey","92","658834","0.0-12.0-1.30","[]","","",""
"1859","TestRecordings/tin.wav","0","audio-button-response","93","660716","0.0-12.0-0.31","","","",""
"4975","","{""P0_Q0"":""ㄷ,ㅡ,ㅣ,ㄹ"",""P0_Q1"":5}","survey","94","665697","0.0-12.0-1.31","[]","","",""
"1797","TestRecordings/nwimik.wav","0","audio-button-response","95","667514","0.0-12.0-0.32","","","",""
"7634","","{""P0_Q0"":""ㄴ,ㅡ,ㅣ,ㅁ,ㅣ,ㄱ"",""P0_Q1"":2}","survey","96","675154","0.0-12.0-1.32","[]","","",""
"2100","TestRecordings/cnaphin.wav","0","audio-button-response","97","677276","0.0-12.0-0.33","","","",""
"7695","","{""P0_Q0"":""ㅊ,ㅡ,ㄴ,ㅏ,ㅍ,ㅣ,ㄴ"",""P0_Q1"":1}","survey","98","684978","0.0-12.0-1.33","[]","","",""
"2128","TestRecordings/mtukin.wav","0","audio-button-response","99","687127","0.0-12.0-0.34","","","",""
"11060","","{""P0_Q0"":""ㅇ,ㅡ,ㅁ,ㄷ,ㅜ,ㄱ,ㅣ,ㄴ"",""P0_Q1"":4}","survey","100","698194","0.0-12.0-1.34","[]","","",""
"1541","TestRecordings/ntakhip.wav","0","audio-button-response","101","699757","0.0-12.0-0.35","","","",""
"14088","","{""P0_Q0"":""ㅇ,ㅡ,ㅇ,ㄷ,ㅏ,ㅅ,ㅋ,ㅣ,ㅅ"",""P0_Q1"":1}","survey","102","713851","0.0-12.0-1.35","[]","","",""
"2494","TestRecordings/mpukham.wav","0","audio-button-response","103","716376","0.0-12.0-0.36","","","",""
"11381","","{""P0_Q0"":""ㅇ,ㅡ,ㅁ,ㅂ,ㅜ,ㅋ,ㅏ,ㅂ"",""P0_Q1"":2}","survey","104","727764","0.0-12.0-1.36","[]","","",""
"1371","TestRecordings/mphuk.wav","0","audio-button-response","105","729156","0.0-12.0-0.37","","","",""
"10730","","{""P0_Q0"":""ㅇ,ㅡ,ㅁ,ㅍ,ㅜ"",""P0_Q1"":2}","survey","106","739892","0.0-12.0-1.37","[]","","",""
"1719","TestRecordings/cwam.wav","0","audio-button-response","107","741633","0.0-12.0-0.38","","","",""
"9757","","{""P0_Q0"":""ㅈ,ㅗ,ㅏ,ㅇ,ㅏ,ㅁ"",""P0_Q1"":6}","survey","108","751397","0.0-12.0-1.38","[]","","",""
"1524","TestRecordings/nchocip.wav","0","audio-button-response","109","752945","0.0-12.0-0.39","","","",""
"7450","","{""P0_Q0"":""ㅇ,ㅡ,ㅁ,ㅊ,ㅗ,ㅈ,ㅣ,ㅂ"",""P0_Q1"":7}","survey","110","760402","0.0-12.0-1.39","[]","","",""
"1696","TestRecordings/chakot.wav","0","audio-button-response","111","762127","0.0-12.0-0.40","","","",""
"13277","","{""P0_Q0"":""ㅊ,ㅗ,ㅏ,ㄱ,ㅗ,ㅅ"",""P0_Q1"":7}","survey","112","775411","0.0-12.0-1.40","[]","","",""
"1333","TestRecordings/pmochun.wav","0","audio-button-response","113","776766","0.0-12.0-0.41","","","",""
"5936","","{""P0_Q0"":""ㅁ,ㅜ,ㅊ,ㅜ,ㄴ"",""P0_Q1"":7}","survey","114","782709","0.0-12.0-1.41","[]","","",""
"1176","TestRecordings/mup.wav","0","audio-button-response","115","783906","0.0-12.0-0.42","","","",""
"5946","","{""P0_Q0"":""ㅁ,ㅜ,ㅂ"",""P0_Q1"":4}","survey","116","789859","0.0-12.0-1.42","[]","","",""
"1169","TestRecordings/chnuk.wav","0","audio-button-response","117","791050","0.0-12.0-0.43","","","",""
"8629","","{""P0_Q0"":""ㅅ,ㅡ,ㄴ,ㅜ,ㄱ"",""P0_Q1"":6}","survey","118","799685","0.0-12.0-1.43","[]","","",""
"1381","TestRecordings/npucap.wav","0","audio-button-response","119","801088","0.0-12.0-0.44","","","",""
"7894","","{""P0_Q0"":""ㅇ,ㅡ,ㅁ,ㅂ,ㅜ,ㅈ,ㅏ,ㅂ"",""P0_Q1"":7}","survey","120","808989","0.0-12.0-1.44","[]","","",""
"1678","TestRecordings/nkhuchom.wav","0","audio-button-response","121","810689","0.0-12.0-0.45","","","",""
"7253","","{""P0_Q0"":""ㅇ,ㅡ,ㅁ,ㅋ,ㅜ,ㅊ,ㅗ,ㅁ"",""P0_Q1"":1}","survey","122","817948","0.0-12.0-1.45","[]","","",""
"1287","TestRecordings/nakhit.wav","0","audio-button-response","123","819254","0.0-12.0-0.46","","","",""
"8402","","{""P0_Q0"":""ㄹ,ㅏ,ㅋ,ㅣ,ㅅ"",""P0_Q1"":1}","survey","124","827662","0.0-12.0-1.46","[]","","",""
"1734","TestRecordings/nthimong.wav","0","audio-button-response","125","829419","0.0-12.0-0.47","","","",""
"6267","","{""P0_Q0"":""ㅇ,ㅡ,ㅁ,ㅌ,ㅣ,ㅁ,ㅗ,ㅇ"",""P0_Q1"":1}","survey","126","835692","0.0-12.0-1.47","[]","","",""
"1085","TestRecordings/nchot.wav","0","audio-button-response","127","836799","0.0-12.0-0.48","","","",""
"6833","","{""P0_Q0"":""ㅇ,ㅡ,ㅁ,ㅊ,ㅜ,ㅅ"",""P0_Q1"":6}","survey","128","843639","0.0-12.0-1.48","[]","","",""
"1122","TestRecordings/tup.wav","0","audio-button-response","129","844783","0.0-12.0-0.49","","","",""
"3504","","{""P0_Q0"":""ㄷ,ㅜ,ㅂ"",""P0_Q1"":7}","survey","130","848295","0.0-12.0-1.49","[]","","",""
"1388","TestRecordings/tnunong.wav","0","audio-button-response","131","849705","0.0-12.0-0.50","","","",""
"16030","","{""P0_Q0"":""ㄷ,ㅜ,ㄴ,ㅗ,ㅇ"",""P0_Q1"":7}","survey","132","865741","0.0-12.0-1.50","[]","","",""
"2159","TestRecordings/nthaking.wav","0","audio-button-response","133","867921","0.0-12.0-0.51","","","",""
"6326","","{""P0_Q0"":""ㅇ,ㅡ,ㅇ,ㅌ,ㅏ,ㄱ,ㅣㅇ"",""P0_Q1"":5}","survey","134","874254","0.0-12.0-1.51","[]","","",""
"1534","TestRecordings/chwiphin.wav","0","audio-button-response","135","875810","0.0-12.0-0.52","","","",""
"8620","","{""P0_Q0"":""ㅊ,ㅜ,ㅣ,ㅍ,ㅣㄴ"",""P0_Q1"":1}","survey","136","884438","0.0-12.0-1.52","[]","","",""
"1046","TestRecordings/twaput.wav","0","audio-button-response","137","885506","0.0-12.0-0.53","","","",""
"6493","","{""P0_Q0"":""ㄷ,ㅗ,ㅏ,ㅂ,ㅜㅅ"",""P0_Q1"":5}","survey","138","892005","0.0-12.0-1.53","[]","","",""
"1232","TestRecordings/thinok.wav","0","audio-button-response","139","893258","0.0-12.0-0.54","","","",""
"4845","","{""P0_Q0"":""ㅋ,ㅜ,ㅣ,ㄴ,ㅗㄱ"",""P0_Q1"":2}","survey","140","898109","0.0-12.0-1.54","[]","","",""
"1230","TestRecordings/mthik.wav","0","audio-button-response","141","899360","0.0-12.0-0.55","","","",""
"9658","","{""P0_Q0"":""ㅇ,ㅡ,ㅁ,ㅍ,ㅣ,ㄱ"",""P0_Q1"":1}","survey","142","909025","0.0-12.0-1.55","[]","","",""
"921","TestRecordings/khut.wav","0","audio-button-response","143","909969","0.0-12.0-0.56","","","",""
"5071","","{""P0_Q0"":""ㅋ,ㅜ,ㅅ"",""P0_Q1"":1}","survey","144","915048","0.0-12.0-1.56","[]","","",""
"1158","TestRecordings/taphik.wav","0","audio-button-response","145","916227","0.0-12.0-0.57","","","",""
"4238","","{""P0_Q0"":""ㄷ,ㅏ,ㅍ,ㅣㄱ"",""P0_Q1"":1}","survey","146","920472","0.0-12.0-1.57","[]","","",""
"1421","TestRecordings/kmamun.wav","0","audio-button-response","147","921915","0.0-12.0-0.58","","","",""
"7502","","{""P0_Q0"":""ㅋ,ㅡ,ㅁ,ㅏ,ㅁ,ㅜ,ㄴ"",""P0_Q1"":1}","survey","148","929424","0.0-12.0-1.58","[]","","",""
"1183","TestRecordings/chunak.wav","0","audio-button-response","149","930629","0.0-12.0-0.59","","","",""
"5542","","{""P0_Q0"":""ㅊ,ㅜ,ㄴ,ㅏ,ㅌ"",""P0_Q1"":7}","survey","150","936177","0.0-12.0-1.59","[]","","",""
"2481",""," ","html-keyboard-response","151","938659","0.0-13.0","","","",""
"40660","","{""P0_Q0"":""23"",""P0_Q1"":""남"",""P0_Q2"":""8"",""P0_Q3"":""없음"",""P0_Q4"":""일본어"",""P0_Q5"":""정식으로 배우지 않음"",""P0_Q6"":""없음""}","survey","152","979327","0.0-14.0","[]","","",""
"1928","<p style=""font-size:30px"",lang=""ko"">실험이 끝났습니다</p><p style=""font-size:30px"",lang=""ko"">참가해주셔서 고맙습니다</p>"," ","html-keyboard-response","153","981256","0.0-15.0","","","",""
