"rt","stimulus","response","trial_type","trial_index","time_elapsed","internal_node_id","accuracy","PracticeTest","ConsonantSequence","Grammaticality"
"2011029","<p style=""font-size:30px"",lang=""ko"">실험에 오신 것을 환영합니다</p><p lang=""ko"">스페이스바를 누르면 다음 페이지로 넘어갑니다</p>"," ","html-keyboard-response","0","2010927","0.0-0.0","","","",""
"1434","<p style=""font-size:30px"",lang=""ko"">해드폰을 본인에게 잘 맞게 착용하세요</p><p lang=""ko"">스페이스바를 누르면 다음 페이지로 넘어갑니다</p>"," ","html-keyboard-response","1","2012362","0.0-1.0","","","",""
"4412","<p style=""font-size:30px"",lang=""ko"">이 실험에서는 새로 만든 한국 단어를 들으실 겁니다</p><p style=""font-size:30px"",lang=""ko"">단어를 들리는대로 쓰세요. 그런 다음 그 단어가 한국어 단어로 가능한지 평가하세요</p><p lang=""ko"">스페이스바를 누르면 다음 페이지로 넘어갑니다</p>"," ","html-keyboard-response","2","2016774","0.0-2.0","","","",""
"9081","<p style=""font-size:30px"",lang=""ko"">원래 있는 단어로 예를 들어 봅시다</p><p lang=""ko"">스페이스바를 누르면 다음 페이지로 넘어갑니다</p>"," ","html-keyboard-response","3","2025856","0.0-3.0","","","",""
"3406","PracticeRecordings/kom_bear.wav","0","audio-button-response","4","2029315","0.0-4.0","","","",""
"1399","<p style=""font-size:30px"",lang=""ko"">이제 직접 단어를 듣고 쓰는 연습을 해봅시다. </p><p style=""font-size:30px"",lang=""ko"">스페이스바를 누르면 다음 페이지로 넘어갑니다</p>"," ","html-keyboard-response","5","2030715","0.0-5.0","","","",""
"5931","PracticeRecordings/kirin_giraffe.wav","0","audio-button-response","6","2036732","0.0-6.0-0.0","","","",""
"11532","kirin_giraffe","{""P0_Q0"":""ㄱ,ㅣ,ㄹ,ㅣ,ㄴ""}","survey","7","2048306","0.0-6.0-1.0","[]","practice","NA","TRUE"
"5184","<p style=""font-size:30px"",lang=""ko"">방금 들으신 단어는 ""ㄱ,ㅣ,ㄹ,ㅣ,ㄴ"" 이라고 쓰시면 됩니다</p><p lang=""ko"">스페이스바를 누르면 다음 페이지로 넘어갑니다</p>"," ","html-keyboard-response","8","2053490","0.0-6.0-2.0","","","",""
"1804","PracticeRecordings/saca_lion.wav","0","audio-button-response","9","2055324","0.0-6.0-0.1","","","",""
"5880","saca_lion","{""P0_Q0"":""ㅅ,ㅏ,ㅈ,ㅏ""}","survey","10","2061214","0.0-6.0-1.1","[]","practice","NA","FALSE"
"4158","<p style=""font-size:30px"",lang=""ko"">방금 들으신 단어는 ""ㅅ,ㅏ,ㅈ,ㅏ"" 라고 쓰시면 됩니다</p><p lang=""ko"">스페이스바를 누르면 다음 페이지로 넘어갑니다</p>"," ","html-keyboard-response","11","2065372","0.0-6.0-2.1","","","",""
"1176","PracticeRecordings/saseum_deer.wav","0","audio-button-response","12","2066632","0.0-6.0-0.2","","","",""
"7432","saseum_deer","{""P0_Q0"":""ㅅ,ㅏ,ㅅ,ㅡ,ㅁ""}","survey","13","2074072","0.0-6.0-1.2","[]","practice","NA","FALSE"
"1739","<p style=""font-size:30px"",lang=""ko"">방금 들으신 단어는 ""ㅅ,ㅏ,ㅅ,ㅡ,ㅁ""이라고 쓰시면 됩니다</p><p lang=""ko"">스페이스바를 누르면 다음 페이지로 넘어갑니다</p>"," ","html-keyboard-response","14","2075811","0.0-6.0-2.2","","","",""
"1232","PracticeRecordings/thokki_rabbit.wav","0","audio-button-response","15","2077129","0.0-6.0-0.3","","","",""
"7325","thokki_rabbit","{""P0_Q0"":""ㅌ,ㅗ,ㄲ,ㅣ""}","survey","16","2084462","0.0-6.0-1.3","[]","practice","NA","FALSE"
"1229","<p style=""font-size:30px"",lang=""ko"">방금 들으신 단어는 ""ㅌ,ㅗ,ㄲ,ㅣ"" 라고 쓰시면 됩니다</p><p lang=""ko"">스페이스바를 누르면 다음 페이지로 넘어갑니다</p>"," ","html-keyboard-response","17","2085692","0.0-6.0-2.3","","","",""
"1378","<p style=""font-size:30px"",lang=""ko"">이제 만든 단어로 연습해봅시다.</p><p lang=""ko"">스페이스바를 누르면 다음 페이지로 넘어갑니다</p>"," ","html-keyboard-response","18","2087070","0.0-7.0","","","",""
"3414","PracticeRecordings/snen.wav","0","audio-button-response","19","2090570","0.0-8.0-0.0","","","",""
"5678","snen","{""P0_Q0"":""ㅅ,ㅡ,ㄴ,ㅐ,ㄴ""}","survey","20","2096256","0.0-8.0-1.0","[]","practice","NA","TRUE"
"3493","<p style=""font-size:30px"",lang=""ko"">들으신 단어는 <br> ""ㅅ,ㅡ,ㄴ,ㅐ,ㄴ""  ""ㅅ,ㅡ,ㄴ,ㅐ"" ""ㅅ,ㄴ,ㅐ,ㄴ (""으"" 소리가 안 들리는 경우)"" 등 <br> 사람에 따라 다양하게 들릴 수 있습니다 <br> 본인에게 들리는대로 쓰시면 됩니다.</p><p lang=""ko"">스페이스바를 누르면 다음 페이지로 넘어갑니다</p>"," ","html-keyboard-response","21","2099750","0.0-8.0-2.0","","","",""
"2097","PracticeRecordings/phrak.wav","0","audio-button-response","22","2101930","0.0-8.0-0.1","","","",""
"5293","phrak","{""P0_Q0"":""ㅍ,ㅡ,ㄹ,ㅏ,ㄱ""}","survey","23","2107229","0.0-8.0-1.1","[]","practice","NA","FALSE"
"2816","<p style=""font-size:30px"",lang=""ko"">들으신 단어는 <br> ""ㅍ,ㅡ,ㄹ,ㅏ,ㄱ"" ""ㅍ,ㅡ,ㄹ,ㅏ,ㅅ"" ""ㅋ,ㅡ,ㄹ,ㅏ,ㄱ"" ""ㅍ,ㄹ,ㅏ,ㄱ (""으"" 소리가 안 들리는 경우)"" 등 <br> 사람에 따라 다양하게 들릴 수 있습니다 <br> 본인에게 들리는대로 쓰시면 됩니다.</p><p lang=""ko"">스페이스바를 누르면 다음 페이지로 넘어갑니다</p>"," ","html-keyboard-response","24","2110046","0.0-8.0-2.1","","","",""
"1598","PracticeRecordings/chka.wav","0","audio-button-response","25","2111731","0.0-8.0-0.2","","","",""
"4166","chka","{""P0_Q0"":""ㅊ,ㅡ,ㄱ,ㅏ""}","survey","26","2115904","0.0-8.0-1.2","[]","practice","NA","FALSE"
"2942","<p style=""font-size:30px"",lang=""ko"">들으신 단어는 ""ㅊ,ㅣ,ㄱ,ㅏ"", ""ㅊ,ㅡ,ㄱ,ㅏ"", ""ㅊ,ㄱ,ㅏ"", ""ㅊ,ㅟ,ㄱ,ㅏ"" 등 <br> 사람에 따라 다양하게 들릴 수 있습니다. <br> 본인에게 들리는대로 쓰시면 됩니다.</p><p lang=""ko"">스페이스바를 누르면 다음 페이지로 넘어갑니다</p>"," ","html-keyboard-response","27","2118846","0.0-8.0-2.2","","","",""
"1668",""," ","html-keyboard-response","28","2120515","0.0-9.0","","","",""
"1858","<p style=""font-size:30px"",lang=""ko"">이제 실험을 시작하겠습니다.</p><p style=""font-size:30px"",lang=""ko"">실전에서는 각각의 만든 단어를 한 번씩만 들을 수 있습니다.</p>"," ","html-keyboard-response","29","2122374","0.0-10.0","","","",""
"4505","<p style=""font-size:30px"",lang=""ko"">단어를 풀어 쓰신 후에 그 단어가 한국어로 가능한 단어인지 평가해주세요</p><p style=""font-size:30px"",lang=""ko"">1점은 한국어로 완전 불가능한 단어, 7점은 한국어로 완전 가능한 단어를 의미합니다</p><p lang=""ko"">스페이스바를 누르면 다음 페이지로 넘어갑니다</p>"," ","html-keyboard-response","30","2126880","0.0-11.0","","","",""
"1501","TestRecordings/knot.wav","0","audio-button-response","31","2128469","0.0-12.0-0.0","","","",""
"11557","","{""P0_Q0"":""ㅋ,ㄴ,ㅗ,ㅌ"",""P0_Q1"":3}","survey","32","2140040","0.0-12.0-1.0","[]","","",""
"1100","TestRecordings/chumik.wav","0","audio-button-response","33","2141227","0.0-12.0-0.1","","","",""
"6218","","{""P0_Q0"":""ㅊ,ㅜ,ㅁ,ㅣ,ㄱ"",""P0_Q1"":5}","survey","34","2147455","0.0-12.0-1.1","[]","","",""
"1857","TestRecordings/nkhuchom.wav","0","audio-button-response","35","2149397","0.0-12.0-0.2","","","",""
"10114","","{""P0_Q0"":""ㅁ,ㅋ,ㅜ,ㅊ,ㅗ,ㅁ"",""P0_Q1"":1}","survey","36","2159519","0.0-12.0-1.2","[]","","",""
"1356","TestRecordings/khnothik.wav","0","audio-button-response","37","2160899","0.0-12.0-0.3","","","",""
"11374","","{""P0_Q0"":""ㅋ,ㅡ,ㄴ,ㅗ,ㅌ,ㅣ,ㄱ"",""P0_Q1"":5}","survey","38","2172281","0.0-12.0-1.3","[]","","",""
"2341","TestRecordings/mphosak.wav","0","audio-button-response","39","2174645","0.0-12.0-0.4","","","",""
"9449","","{""P0_Q0"":""ㅁ,ㅍ,ㅗ,ㅅ,ㅏ,ㄱ"",""P0_Q1"":2}","survey","40","2184103","0.0-12.0-1.4","[]","","",""
"1011","TestRecordings/thnok.wav","0","audio-button-response","41","2185200","0.0-12.0-0.5","","","",""
"8800","","{""P0_Q0"":""ㅋ,ㅡ,ㄴ,ㅗ,ㅋ"",""P0_Q1"":3}","survey","42","2194009","0.0-12.0-1.5","[]","","",""
"1621","TestRecordings/ntakhip.wav","0","audio-button-response","43","2195714","0.0-12.0-0.6","","","",""
"13072","","{""P0_Q0"":""ㅇ,ㅡ,ㅁ,ㄷ,ㅏ,ㅋ,ㅣ,ㄱ"",""P0_Q1"":2}","survey","44","2208793","0.0-12.0-1.6","[]","","",""
"1532","TestRecordings/phnokhing.wav","0","audio-button-response","45","2210413","0.0-12.0-0.7","","","",""
"11558","","{""P0_Q0"":""ㅋ,ㅡ,ㄴ,ㅗ,ㅋ,ㅣ,ㅇ"",""P0_Q1"":3}","survey","46","2221980","0.0-12.0-1.7","[]","","",""
"1684","TestRecordings/phmiman.wav","0","audio-button-response","47","2223749","0.0-12.0-0.8","","","",""
"8788","","{""P0_Q0"":""ㅍ,ㅜ,ㅁ,ㅣ,ㅁ,ㅏ,ㄴ"",""P0_Q1"":3}","survey","48","2232547","0.0-12.0-1.8","[]","","",""
"1091","TestRecordings/chmop.wav","0","audio-button-response","49","2233722","0.0-12.0-0.9","","","",""
"7489","","{""P0_Q0"":""ㅊ,ㅡ,ㅁ,ㅗ,ㅂ"",""P0_Q1"":4}","survey","50","2241220","0.0-12.0-1.9","[]","","",""
"1308","TestRecordings/cwam.wav","0","audio-button-response","51","2242614","0.0-12.0-0.10","","","",""
"5878","","{""P0_Q0"":""ㅈ,ㅘ,ㅁ"",""P0_Q1"":5}","survey","52","2248499","0.0-12.0-1.10","[]","","",""
"1166","TestRecordings/mtukin.wav","0","audio-button-response","53","2249748","0.0-12.0-0.11","","","",""
"9448","","{""P0_Q0"":""ㅇ,ㅡ,ㅁ,ㄷ,ㅜ,ㄱ,ㅣ,ㄴ"",""P0_Q1"":5}","survey","54","2259203","0.0-12.0-1.11","[]","","",""
"1143","TestRecordings/tikut.wav","0","audio-button-response","55","2260374","0.0-12.0-0.12","","","",""
"6438","","{""P0_Q0"":""ㄷ,ㅣ,ㄱ,ㅜ,ㄷ"",""P0_Q1"":6}","survey","56","2266818","0.0-12.0-1.12","[]","","",""
"1666","TestRecordings/thukhat.wav","0","audio-button-response","57","2268561","0.0-12.0-0.13","","","",""
"5482","","{""P0_Q0"":""ㅌ,ㅜ,ㅋ,ㅏ,ㅅ"",""P0_Q1"":3}","survey","58","2274050","0.0-12.0-1.13","[]","","",""
"1912","TestRecordings/thwikhip.wav","0","audio-button-response","59","2276047","0.0-12.0-0.14","","","",""
"8751","","{""P0_Q0"":""ㅌ,ㅢ,ㅅ,ㅋ,ㅢ,ㅅ"",""P0_Q1"":1}","survey","60","2284804","0.0-12.0-1.14","[]","","",""
"1209","TestRecordings/mpukham.wav","0","audio-button-response","61","2286102","0.0-12.0-0.15","","","",""
"13171","","{""P0_Q0"":""ㅇ,ㅡ,ㅁ,ㅂ,ㅜ,ㅋ,ㅏ,ㅁ"",""P0_Q1"":5}","survey","62","2299281","0.0-12.0-1.15","[]","","",""
"1241","TestRecordings/khwiphing.wav","0","audio-button-response","63","2300607","0.0-12.0-0.16","","","",""
"12592","","{""P0_Q0"":""ㅋ,ㅟ,ㅍ,ㅣ,ㅇ"",""P0_Q1"":3}","survey","64","2313208","0.0-12.0-1.16","[]","","",""
"1404","TestRecordings/khwipot.wav","0","audio-button-response","65","2314698","0.0-12.0-0.17","","","",""
"10625","","{""P0_Q0"":""ㅋ,ㅟ,ㅂ,ㅗ,ㅅ"",""P0_Q1"":3}","survey","66","2325332","0.0-12.0-1.17","[]","","",""
"1399","TestRecordings/chunak.wav","0","audio-button-response","67","2326753","0.0-12.0-0.18","","","",""
"6108","","{""P0_Q0"":""ㅊ,ㅜ,ㄴ,ㅏ,ㅅ"",""P0_Q1"":5}","survey","68","2332868","0.0-12.0-1.18","[]","","",""
"1101","TestRecordings/twamot.wav","0","audio-button-response","69","2334059","0.0-12.0-0.19","","","",""
"12149","","{""P0_Q0"":""ㄷ,ㅘ,ㅁ,ㅗ,ㅅ"",""P0_Q1"":3}","survey","70","2346215","0.0-12.0-1.19","[]","","",""
"1119","TestRecordings/pmochun.wav","0","audio-button-response","71","2347419","0.0-12.0-0.20","","","",""
"8730","","{""P0_Q0"":""ㅁ,ㅗ,ㅊ,ㅜ,ㄴ"",""P0_Q1"":5}","survey","72","2356156","0.0-12.0-1.20","[]","","",""
"1358","TestRecordings/kmamun.wav","0","audio-button-response","73","2357537","0.0-12.0-0.21","","","",""
"6591","","{""P0_Q0"":""ㅋ,ㅁ,ㅏ,ㅁ,ㅜ,ㄴ"",""P0_Q1"":2}","survey","74","2364135","0.0-12.0-1.21","[]","","",""
"1531","TestRecordings/sikot.wav","0","audio-button-response","75","2365689","0.0-12.0-0.22","","","",""
"7486","","{""P0_Q0"":""ㅅ,ㅣ,ㄱ,ㅗ,ㅅ"",""P0_Q1"":6}","survey","76","2373181","0.0-12.0-1.22","[]","","",""
"1168","TestRecordings/chnupot.wav","0","audio-button-response","77","2374433","0.0-12.0-0.23","","","",""
"14130","","{""P0_Q0"":""ㅅ,ㄴ,ㅜ,ㅂ,ㅗ,ㅅ"",""P0_Q1"":5}","survey","78","2388572","0.0-12.0-1.23","[]","","",""
"1290","TestRecordings/nakhit.wav","0","audio-button-response","79","2389946","0.0-12.0-0.24","","","",""
"6701","","{""P0_Q0"":""ㄴ,ㅏ,ㅋ,ㅣ,ㅅ"",""P0_Q1"":5}","survey","80","2396654","0.0-12.0-1.24","[]","","",""
"1145","TestRecordings/mup.wav","0","audio-button-response","81","2397882","0.0-12.0-0.25","","","",""
"6243","","{""P0_Q0"":""ㅁ,ㅜ,ㅂ"",""P0_Q1"":5}","survey","82","2404132","0.0-12.0-1.25","[]","","",""
"1432","TestRecordings/chnuk.wav","0","audio-button-response","83","2405586","0.0-12.0-0.26","","","",""
"6662","","{""P0_Q0"":""ㅅ,ㅡ,ㄴ,ㅜ"",""P0_Q1"":3}","survey","84","2412254","0.0-12.0-1.26","[]","","",""
"1135","TestRecordings/npucap.wav","0","audio-button-response","85","2413474","0.0-12.0-0.27","","","",""
"7956","","{""P0_Q0"":""ㅁ,ㅂ,ㅜ,ㅈ,ㅏ,ㅂ"",""P0_Q1"":5}","survey","86","2421438","0.0-12.0-1.27","[]","","",""
"1023","TestRecordings/mphutam.wav","0","audio-button-response","87","2422545","0.0-12.0-0.28","","","",""
"8344","","{""P0_Q0"":""ㅁ,ㅍ,ㅡ,ㄷ,ㅏ,ㅁ"",""P0_Q1"":5}","survey","88","2430896","0.0-12.0-1.28","[]","","",""
"1398","TestRecordings/mthik.wav","0","audio-button-response","89","2432317","0.0-12.0-0.29","","","",""
"5106","","{""P0_Q0"":""ㅁ,ㅌ,ㅣ,ㄱ"",""P0_Q1"":2}","survey","90","2437430","0.0-12.0-1.29","[]","","",""
"4091","TestRecordings/cmoman.wav","0","audio-button-response","91","2441545","0.0-12.0-0.30","","","",""
"11215","","{""P0_Q0"":""ㅊ,ㅡ,ㅁ,ㅗ,ㅁ,ㅏ,ㄴ"",""P0_Q1"":3}","survey","92","2452767","0.0-12.0-1.30","[]","","",""
"1592","TestRecordings/swikhat.wav","0","audio-button-response","93","2454443","0.0-12.0-0.31","","","",""
"7773","","{""P0_Q0"":""ㅅ,ㅣ,ㅋ,ㅏ,ㅅ"",""P0_Q1"":3}","survey","94","2462222","0.0-12.0-1.31","[]","","",""
"946","TestRecordings/tup.wav","0","audio-button-response","95","2463251","0.0-12.0-0.32","","","",""
"11681","","{""P0_Q0"":""ㄷ,ㅜ,ㅂ"",""P0_Q1"":4}","survey","96","2474939","0.0-12.0-1.32","[]","","",""
"989","TestRecordings/thinok.wav","0","audio-button-response","97","2476012","0.0-12.0-0.33","","","",""
"7458","","{""P0_Q0"":""ㅋ,ㅣ,ㄴ,ㅗ"",""P0_Q1"":5}","survey","98","2483478","0.0-12.0-1.33","[]","","",""
"1538","TestRecordings/nchocip.wav","0","audio-button-response","99","2485100","0.0-12.0-0.34","","","",""
"10173","","{""P0_Q0"":""ㅇ,ㅡ,ㅁ,ㅊ,ㅗ,ㅈ,ㅣ,ㅂ"",""P0_Q1"":5}","survey","100","2495280","0.0-12.0-1.34","[]","","",""
"1231","TestRecordings/twan.wav","0","audio-button-response","101","2496595","0.0-12.0-0.35","","","",""
"4477","","{""P0_Q0"":""ㄷ,ㅘ,ㄴ"",""P0_Q1"":4}","survey","102","2501079","0.0-12.0-1.35","[]","","",""
"1142","TestRecordings/twak.wav","0","audio-button-response","103","2502306","0.0-12.0-0.36","","","",""
"5421","","{""P0_Q0"":""ㄷ,ㅘ,ㄱ"",""P0_Q1"":3}","survey","104","2507734","0.0-12.0-1.36","[]","","",""
"1098","TestRecordings/chwikhong.wav","0","audio-button-response","105","2508916","0.0-12.0-0.37","","","",""
"9077","","{""P0_Q0"":""ㅊ,ㅣ,ㅋ,ㅗ,ㅇ"",""P0_Q1"":4}","survey","106","2518000","0.0-12.0-1.37","[]","","",""
"835","TestRecordings/tnunong.wav","0","audio-button-response","107","2518918","0.0-12.0-0.38","","","",""
"7016","","{""P0_Q0"":""ㄴ,ㅜ,ㄴ,ㅗ,ㅇ"",""P0_Q1"":5}","survey","108","2525942","0.0-12.0-1.38","[]","","",""
"1144","TestRecordings/khwichon.wav","0","audio-button-response","109","2527173","0.0-12.0-0.39","","","",""
"5666","","{""P0_Q0"":""ㅋ,ㅟ,ㅊ,ㅗ,ㄴ"",""P0_Q1"":5}","survey","110","2532846","0.0-12.0-1.39","[]","","",""
"1600","TestRecordings/khin.wav","0","audio-button-response","111","2534531","0.0-12.0-0.40","","","",""
"6967","","{""P0_Q0"":""ㅋ,ㅣ,ㄴ"",""P0_Q1"":4}","survey","112","2541505","0.0-12.0-1.40","[]","","",""
"938","TestRecordings/twaput.wav","0","audio-button-response","113","2542533","0.0-12.0-0.41","","","",""
"8237","","{""P0_Q0"":""ㄷ,ㅘ,ㅂ,ㅜ,ㅅ"",""P0_Q1"":3}","survey","114","2550777","0.0-12.0-1.41","[]","","",""
"1153","TestRecordings/thwam.wav","0","audio-button-response","115","2552014","0.0-12.0-0.42","","","",""
"5562","","{""P0_Q0"":""ㅌ,ㅗ,ㅏ,ㅁ"",""P0_Q1"":3}","survey","116","2557583","0.0-12.0-1.42","[]","","",""
"873","TestRecordings/mkit.wav","0","audio-button-response","117","2558540","0.0-12.0-0.43","","","",""
"8425","","{""P0_Q0"":""ㅁ,ㄱ,ㅣ,ㅅ"",""P0_Q1"":1}","survey","118","2566972","0.0-12.0-1.43","[]","","",""
"1305","TestRecordings/cnaphin.wav","0","audio-button-response","119","2568300","0.0-12.0-0.44","","","",""
"9285","","{""P0_Q0"":""ㅊ,ㅡ,ㄴ,ㅏ,ㅍ,ㅣ,ㄴ"",""P0_Q1"":2}","survey","120","2577592","0.0-12.0-1.44","[]","","",""
"935","TestRecordings/nkat.wav","0","audio-button-response","121","2578551","0.0-12.0-0.45","","","",""
"6052","","{""P0_Q0"":""ㅁ,ㄱ,ㅡ,ㄷ"",""P0_Q1"":1}","survey","122","2584609","0.0-12.0-1.45","[]","","",""
"1828","TestRecordings/khithuk.wav","0","audio-button-response","123","2586461","0.0-12.0-0.46","","","",""
"5150","","{""P0_Q0"":""ㅋ,ㅣ,ㅌ,ㅜ"",""P0_Q1"":6}","survey","124","2591618","0.0-12.0-1.46","[]","","",""
"1487","TestRecordings/chakot.wav","0","audio-button-response","125","2593129","0.0-12.0-0.47","","","",""
"7224","","{""P0_Q0"":""ㅊ,ㅏ,ㄱ,ㅗ,ㅅ"",""P0_Q1"":6}","survey","126","2600361","0.0-12.0-1.47","[]","","",""
"1415","TestRecordings/khnap.wav","0","audio-button-response","127","2601859","0.0-12.0-0.48","","","",""
"9583","","{""P0_Q0"":""ㅋ,ㅡ,ㄴ,ㅏ,ㅅ"",""P0_Q1"":4}","survey","128","2611449","0.0-12.0-1.48","[]","","",""
"701","TestRecordings/tmichut.wav","0","audio-button-response","129","2612235","0.0-12.0-0.49","","","",""
"6863","","{""P0_Q0"":""ㅁ,ㅣ,ㅊ,ㅜ,ㄷ"",""P0_Q1"":3}","survey","130","2619107","0.0-12.0-1.49","[]","","",""
"1131","TestRecordings/khut.wav","0","audio-button-response","131","2620321","0.0-12.0-0.50","","","",""
"4257","","{""P0_Q0"":""ㅋ,ㅜ,ㅅ"",""P0_Q1"":5}","survey","132","2624585","0.0-12.0-1.50","[]","","",""
"1205","TestRecordings/taphik.wav","0","audio-button-response","133","2625816","0.0-12.0-0.51","","","",""
"5325","","{""P0_Q0"":""ㄷ,ㅏ,ㅍ,ㅣ,ㄱ"",""P0_Q1"":5}","survey","134","2631147","0.0-12.0-1.51","[]","","",""
"887","TestRecordings/mphuk.wav","0","audio-button-response","135","2632107","0.0-12.0-0.52","","","",""
"9921","","{""P0_Q0"":""ㅁ,ㅍ,ㅜ,ㅋ"",""P0_Q1"":3}","survey","136","2642035","0.0-12.0-1.52","[]","","",""
"2464","TestRecordings/nwimik.wav","0","audio-button-response","137","2644584","0.0-12.0-0.53","","","",""
"6740","","{""P0_Q0"":""ㄴ,ㅜ,ㅣ,ㅁ,ㅣ,ㄱ"",""P0_Q1"":3}","survey","138","2651331","0.0-12.0-1.53","[]","","",""
"1041","TestRecordings/nthimong.wav","0","audio-button-response","139","2652459","0.0-12.0-0.54","","","",""
"6673","","{""P0_Q0"":""ㅁ,ㅌ,ㅣ,ㅁ,ㅗ,ㅇ"",""P0_Q1"":2}","survey","140","2659139","0.0-12.0-1.54","[]","","",""
"1468","TestRecordings/chwiphin.wav","0","audio-button-response","141","2660631","0.0-12.0-0.55","","","",""
"6317","","{""P0_Q0"":""ㅊ,ㅣ,ㅍ,ㅣ,ㄴ"",""P0_Q1"":6}","survey","142","2666954","0.0-12.0-1.55","[]","","",""
"1945","TestRecordings/cwit.wav","0","audio-button-response","143","2668984","0.0-12.0-0.56","","","",""
"4308","","{""P0_Q0"":""ㅈ,ㅟ,ㅅ"",""P0_Q1"":6}","survey","144","2673299","0.0-12.0-1.56","[]","","",""
"1330","TestRecordings/nthaking.wav","0","audio-button-response","145","2674654","0.0-12.0-0.57","","","",""
"6726","","{""P0_Q0"":""ㅁ,ㅌ,ㅏ,ㄱ,ㅣ,ㅇ"",""P0_Q1"":2}","survey","146","2681386","0.0-12.0-1.57","[]","","",""
"1228","TestRecordings/tin.wav","0","audio-button-response","147","2682639","0.0-12.0-0.58","","","",""
"6499","","{""P0_Q0"":""ㄷ,ㅣ,ㄴ"",""P0_Q1"":6}","survey","148","2689146","0.0-12.0-1.58","[]","","",""
"978","TestRecordings/nchot.wav","0","audio-button-response","149","2690209","0.0-12.0-0.59","","","",""
"8099","","{""P0_Q0"":""ㅁ,ㅊ,ㅗ,ㅅ"",""P0_Q1"":3}","survey","150","2698315","0.0-12.0-1.59","[]","","",""
"1467",""," ","html-keyboard-response","151","2699783","0.0-13.0","","","",""
"38544","","{""P0_Q0"":""23"",""P0_Q1"":""여자"",""P0_Q2"":""9살"",""P0_Q3"":""아니요"",""P0_Q4"":""중국어"",""P0_Q5"":""18살 1년"",""P0_Q6"":""일본어 1년""}","survey","152","2738335","0.0-14.0","[]","","",""
"20974","<p style=""font-size:30px"",lang=""ko"">실험이 끝났습니다</p><p style=""font-size:30px"",lang=""ko"">참가해주셔서 고맙습니다</p>"," ","html-keyboard-response","153","2759309","0.0-15.0","","","",""
