"rt","stimulus","response","trial_type","trial_index","time_elapsed","internal_node_id","accuracy","PracticeTest","ConsonantSequence","Grammaticality"
"1805801","<p style=""font-size:30px"",lang=""ko"">실험에 오신 것을 환영합니다</p><p lang=""ko"">스페이스바를 누르면 다음 페이지로 넘어갑니다</p>"," ","html-keyboard-response","0","1805804","0.0-0.0","","","",""
"5388","<p style=""font-size:30px"",lang=""ko"">해드폰을 본인에게 잘 맞게 착용하세요</p><p lang=""ko"">스페이스바를 누르면 다음 페이지로 넘어갑니다</p>"," ","html-keyboard-response","1","1811194","0.0-1.0","","","",""
"3022","<p style=""font-size:30px"",lang=""ko"">이 실험에서는 새로 만든 한국 단어를 들으실 겁니다</p><p style=""font-size:30px"",lang=""ko"">단어를 들리는대로 쓰세요. 그런 다음 그 단어가 한국어 단어로 가능한지 평가하세요</p><p lang=""ko"">스페이스바를 누르면 다음 페이지로 넘어갑니다</p>"," ","html-keyboard-response","2","1814217","0.0-2.0","","","",""
"2358","<p style=""font-size:30px"",lang=""ko"">원래 있는 단어로 예를 들어 봅시다</p><p lang=""ko"">스페이스바를 누르면 다음 페이지로 넘어갑니다</p>"," ","html-keyboard-response","3","1816576","0.0-3.0","","","",""
"6296","PracticeRecordings/kom_bear.wav","0","audio-button-response","4","1822909","0.0-4.0","","","",""
"3061","<p style=""font-size:30px"",lang=""ko"">이제 직접 단어를 듣고 쓰는 연습을 해봅시다. </p><p style=""font-size:30px"",lang=""ko"">스페이스바를 누르면 다음 페이지로 넘어갑니다</p>"," ","html-keyboard-response","5","1825971","0.0-5.0","","","",""
"2003","PracticeRecordings/kirin_giraffe.wav","0","audio-button-response","6","1827997","0.0-6.0-0.0","","","",""
"12080","kirin_giraffe","{""P0_Q0"":""ㄱ,ㅣ,ㄹ,ㅣ,ㄴ""}","survey","7","1840118","0.0-6.0-1.0","[]","practice","NA","TRUE"
"8477","<p style=""font-size:30px"",lang=""ko"">방금 들으신 단어는 ""ㄱ,ㅣ,ㄹ,ㅣ,ㄴ"" 이라고 쓰시면 됩니다</p><p lang=""ko"">스페이스바를 누르면 다음 페이지로 넘어갑니다</p>"," ","html-keyboard-response","8","1848596","0.0-6.0-2.0","","","",""
"2944","PracticeRecordings/saca_lion.wav","0","audio-button-response","9","1851565","0.0-6.0-0.1","","","",""
"4769","saca_lion","{""P0_Q0"":""ㅅ,ㅏ,ㅈ,ㅏ""}","survey","10","1856343","0.0-6.0-1.1","[]","practice","NA","FALSE"
"3950","<p style=""font-size:30px"",lang=""ko"">방금 들으신 단어는 ""ㅅ,ㅏ,ㅈ,ㅏ"" 라고 쓰시면 됩니다</p><p lang=""ko"">스페이스바를 누르면 다음 페이지로 넘어갑니다</p>"," ","html-keyboard-response","11","1860294","0.0-6.0-2.1","","","",""
"1474","PracticeRecordings/saseum_deer.wav","0","audio-button-response","12","1861791","0.0-6.0-0.2","","","",""
"5795","saseum_deer","{""P0_Q0"":""ㅅ,ㅏ,ㅅ,ㅡ,ㅁ""}","survey","13","1867595","0.0-6.0-1.2","[]","practice","NA","FALSE"
"783","<p style=""font-size:30px"",lang=""ko"">방금 들으신 단어는 ""ㅅ,ㅏ,ㅅ,ㅡ,ㅁ""이라고 쓰시면 됩니다</p><p lang=""ko"">스페이스바를 누르면 다음 페이지로 넘어갑니다</p>"," ","html-keyboard-response","14","1868379","0.0-6.0-2.2","","","",""
"1325","PracticeRecordings/thokki_rabbit.wav","0","audio-button-response","15","1869727","0.0-6.0-0.3","","","",""
"5489","thokki_rabbit","{""P0_Q0"":""ㅌ,ㅗ,ㄲ,ㅣ""}","survey","16","1875224","0.0-6.0-1.3","[]","practice","NA","FALSE"
"1418","<p style=""font-size:30px"",lang=""ko"">방금 들으신 단어는 ""ㅌ,ㅗ,ㄲ,ㅣ"" 라고 쓰시면 됩니다</p><p lang=""ko"">스페이스바를 누르면 다음 페이지로 넘어갑니다</p>"," ","html-keyboard-response","17","1876642","0.0-6.0-2.3","","","",""
"1720","<p style=""font-size:30px"",lang=""ko"">이제 만든 단어로 연습해봅시다.</p><p lang=""ko"">스페이스바를 누르면 다음 페이지로 넘어갑니다</p>"," ","html-keyboard-response","18","1878363","0.0-7.0","","","",""
"1998","PracticeRecordings/snen.wav","0","audio-button-response","19","1880384","0.0-8.0-0.0","","","",""
"6567","snen","{""P0_Q0"":""ㅅ,ㅡ,ㄴ,ㅐ,ㄴ""}","survey","20","1886958","0.0-8.0-1.0","[]","practice","NA","TRUE"
"7880","<p style=""font-size:30px"",lang=""ko"">들으신 단어는 <br> ""ㅅ,ㅡ,ㄴ,ㅐ,ㄴ""  ""ㅅ,ㅡ,ㄴ,ㅐ"" ""ㅅ,ㄴ,ㅐ,ㄴ (""으"" 소리가 안 들리는 경우)"" 등 <br> 사람에 따라 다양하게 들릴 수 있습니다 <br> 본인에게 들리는대로 쓰시면 됩니다.</p><p lang=""ko"">스페이스바를 누르면 다음 페이지로 넘어갑니다</p>"," ","html-keyboard-response","21","1894839","0.0-8.0-2.0","","","",""
"1564","PracticeRecordings/phrak.wav","0","audio-button-response","22","1896424","0.0-8.0-0.1","","","",""
"4520","phrak","{""P0_Q0"":""ㅍ,ㅡ,ㄹ,ㅏ,ㄱ""}","survey","23","1900951","0.0-8.0-1.1","[]","practice","NA","FALSE"
"1835","<p style=""font-size:30px"",lang=""ko"">들으신 단어는 <br> ""ㅍ,ㅡ,ㄹ,ㅏ,ㄱ"" ""ㅍ,ㅡ,ㄹ,ㅏ,ㅅ"" ""ㅋ,ㅡ,ㄹ,ㅏ,ㄱ"" ""ㅍ,ㄹ,ㅏ,ㄱ (""으"" 소리가 안 들리는 경우)"" 등 <br> 사람에 따라 다양하게 들릴 수 있습니다 <br> 본인에게 들리는대로 쓰시면 됩니다.</p><p lang=""ko"">스페이스바를 누르면 다음 페이지로 넘어갑니다</p>"," ","html-keyboard-response","24","1902787","0.0-8.0-2.1","","","",""
"1787","PracticeRecordings/chka.wav","0","audio-button-response","25","1904596","0.0-8.0-0.2","","","",""
"8426","chka","{""P0_Q0"":""ㅊ,ㅡ,ㄱ,ㅏ""}","survey","26","1913029","0.0-8.0-1.2","[]","practice","NA","FALSE"
"2897","<p style=""font-size:30px"",lang=""ko"">들으신 단어는 ""ㅊ,ㅣ,ㄱ,ㅏ"", ""ㅊ,ㅡ,ㄱ,ㅏ"", ""ㅊ,ㄱ,ㅏ"", ""ㅊ,ㅟ,ㄱ,ㅏ"" 등 <br> 사람에 따라 다양하게 들릴 수 있습니다. <br> 본인에게 들리는대로 쓰시면 됩니다.</p><p lang=""ko"">스페이스바를 누르면 다음 페이지로 넘어갑니다</p>"," ","html-keyboard-response","27","1915926","0.0-8.0-2.2","","","",""
"3163",""," ","html-keyboard-response","28","1919090","0.0-9.0","","","",""
"3122","<p style=""font-size:30px"",lang=""ko"">이제 실험을 시작하겠습니다.</p><p style=""font-size:30px"",lang=""ko"">실전에서는 각각의 만든 단어를 한 번씩만 들을 수 있습니다.</p>"," ","html-keyboard-response","29","1922212","0.0-10.0","","","",""
"4376","<p style=""font-size:30px"",lang=""ko"">단어를 풀어 쓰신 후에 그 단어가 한국어로 가능한 단어인지 평가해주세요</p><p style=""font-size:30px"",lang=""ko"">1점은 한국어로 완전 불가능한 단어, 7점은 한국어로 완전 가능한 단어를 의미합니다</p><p lang=""ko"">스페이스바를 누르면 다음 페이지로 넘어갑니다</p>"," ","html-keyboard-response","30","1926588","0.0-11.0","","","",""
"2704","TestRecordings/chunak.wav","0","audio-button-response","31","1929316","0.0-12.0-0.0","","","",""
"57380","","{""P0_Q0"":""ㅊ,ㅜ,ㄴ,ㅇ,ㅏ,ㄱ"",""P0_Q1"":4}","survey","32","1986713","0.0-12.0-1.0","[]","","",""
"1954","TestRecordings/thwam.wav","0","audio-button-response","33","1988694","0.0-12.0-0.1","","","",""
"8514","","{""P0_Q0"":""ㅌ,ㅗ,ㅏ,ㅁ"",""P0_Q1"":5}","survey","34","1997217","0.0-12.0-1.1","[]","","",""
"4072","TestRecordings/mphuk.wav","0","audio-button-response","35","2001310","0.0-12.0-0.2","","","",""
"7845","","{""P0_Q0"":""ㅇ,ㅣ,ㄴ,ㅍ,ㅜ"",""P0_Q1"":3}","survey","36","2009164","0.0-12.0-1.2","[]","","",""
"1660","TestRecordings/chwiphin.wav","0","audio-button-response","37","2010847","0.0-12.0-0.3","","","",""
"9047","","{""P0_Q0"":""ㅊ,ㅣ,ㅍ,ㅣ,ㄴ"",""P0_Q1"":5}","survey","38","2019900","0.0-12.0-1.3","[]","","",""
"2687","TestRecordings/nthimong.wav","0","audio-button-response","39","2022611","0.0-12.0-0.4","","","",""
"9146","","{""P0_Q0"":""ㅌ,ㅣ,ㅁ,ㅗ,ㅇ"",""P0_Q1"":5}","survey","40","2031764","0.0-12.0-1.4","[]","","",""
"1905","TestRecordings/nkat.wav","0","audio-button-response","41","2033689","0.0-12.0-0.5","","","",""
"8234","","{""P0_Q0"":""ㅇ,ㅣ,ㄴ,ㄱ,ㅏ,ㅅ"",""P0_Q1"":3}","survey","42","2041931","0.0-12.0-1.5","[]","","",""
"2820","TestRecordings/mtukin.wav","0","audio-button-response","43","2044774","0.0-12.0-0.6","","","",""
"13134","","{""P0_Q0"":""ㅇ,ㅣ,ㄴ,ㄷ,ㅜ,ㄱ,ㅣ,ㄴ"",""P0_Q1"":3}","survey","44","2057915","0.0-12.0-1.6","[]","","",""
"1700","TestRecordings/khithuk.wav","0","audio-button-response","45","2059637","0.0-12.0-0.7","","","",""
"5775","","{""P0_Q0"":""ㅊ,ㅣ,ㅌ,ㅜ"",""P0_Q1"":6}","survey","46","2065419","0.0-12.0-1.7","[]","","",""
"1772","TestRecordings/twan.wav","0","audio-button-response","47","2067218","0.0-12.0-0.8","","","",""
"6450","","{""P0_Q0"":""ㄷ,ㅗ,ㅏ,ㄴ"",""P0_Q1"":5}","survey","48","2073675","0.0-12.0-1.8","[]","","",""
"1726","TestRecordings/chwikhong.wav","0","audio-button-response","49","2075424","0.0-12.0-0.9","","","",""
"6136","","{""P0_Q0"":""ㅊ,ㅣ,ㅋ,ㅗ,ㅇ"",""P0_Q1"":6}","survey","50","2081568","0.0-12.0-1.9","[]","","",""
"2109","TestRecordings/ntakhip.wav","0","audio-button-response","51","2083698","0.0-12.0-0.10","","","",""
"9900","","{""P0_Q0"":""ㄷ,ㅏ,ㅋ,ㅣ,ㅂ"",""P0_Q1"":4}","survey","52","2093606","0.0-12.0-1.10","[]","","",""
"1765","TestRecordings/nkhuchom.wav","0","audio-button-response","53","2095394","0.0-12.0-0.11","","","",""
"9647","","{""P0_Q0"":""ㅋ,ㅜ,ㅊ,ㅛ,ㅁ"",""P0_Q1"":4}","survey","54","2105048","0.0-12.0-1.11","[]","","",""
"3674","TestRecordings/cmoman.wav","0","audio-button-response","55","2108745","0.0-12.0-0.12","","","",""
"10496","","{""P0_Q0"":""ㅅ,ㅡ,ㅁ,ㅗ,ㅁ,ㅏ,ㅇ"",""P0_Q1"":3}","survey","56","2119249","0.0-12.0-1.12","[]","","",""
"1519","TestRecordings/sikot.wav","0","audio-button-response","57","2120793","0.0-12.0-0.13","","","",""
"7224","","{""P0_Q0"":""ㅅ,ㅣ,ㄱ,ㅗ,ㅅ"",""P0_Q1"":6}","survey","58","2128025","0.0-12.0-1.13","[]","","",""
"1761","TestRecordings/chakot.wav","0","audio-button-response","59","2129809","0.0-12.0-0.14","","","",""
"10263","","{""P0_Q0"":""ㅊ,ㅏ,ㄱ,ㅗ,ㅅ"",""P0_Q1"":6}","survey","60","2140079","0.0-12.0-1.14","[]","","",""
"1831","TestRecordings/twamot.wav","0","audio-button-response","61","2141931","0.0-12.0-0.15","","","",""
"12413","","{""P0_Q0"":""ㄷ,ㅗ,ㅏ,ㅁ,ㅗ,ㅅ"",""P0_Q1"":5}","survey","62","2154353","0.0-12.0-1.15","[]","","",""
"1627","TestRecordings/thinok.wav","0","audio-button-response","63","2156002","0.0-12.0-0.16","","","",""
"8212","","{""P0_Q0"":""ㅌ,ㅣ,ㄴ,ㅗ,ㅅ"",""P0_Q1"":5}","survey","64","2164221","0.0-12.0-1.16","[]","","",""
"1919","TestRecordings/cwam.wav","0","audio-button-response","65","2166166","0.0-12.0-0.17","","","",""
"5398","","{""P0_Q0"":""ㅈ,ㅗ,ㅏ,ㅁ"",""P0_Q1"":6}","survey","66","2171571","0.0-12.0-1.17","[]","","",""
"1816","TestRecordings/tin.wav","0","audio-button-response","67","2173410","0.0-12.0-0.18","","","",""
"8655","","{""P0_Q0"":""ㄷ,ㅣ,ㄴ"",""P0_Q1"":4}","survey","68","2182072","0.0-12.0-1.18","[]","","",""
"1635","TestRecordings/khnap.wav","0","audio-button-response","69","2183730","0.0-12.0-0.19","","","",""
"10728","","{""P0_Q0"":""ㅋ,ㅡ,ㄴ,ㅏ,ㅂ"",""P0_Q1"":6}","survey","70","2194465","0.0-12.0-1.19","[]","","",""
"2013","TestRecordings/mphutam.wav","0","audio-button-response","71","2196500","0.0-12.0-0.20","","","",""
"7192","","{""P0_Q0"":""ㅍ,ㅜ,ㄷ,ㅏ,ㅁ"",""P0_Q1"":5}","survey","72","2203700","0.0-12.0-1.20","[]","","",""
"1978","TestRecordings/khwiphing.wav","0","audio-button-response","73","2205701","0.0-12.0-0.21","","","",""
"14466","","{""P0_Q0"":""ㅋ,ㅟ,ㅍ,ㅣ,ㅇ"",""P0_Q1"":6}","survey","74","2220175","0.0-12.0-1.21","[]","","",""
"1598","TestRecordings/nakhit.wav","0","audio-button-response","75","2221794","0.0-12.0-0.22","","","",""
"6013","","{""P0_Q0"":""ㄴ,ㅏ,ㅋ,ㅣ,ㅅ"",""P0_Q1"":6}","survey","76","2227813","0.0-12.0-1.22","[]","","",""
"1515","TestRecordings/khut.wav","0","audio-button-response","77","2229349","0.0-12.0-0.23","","","",""
"4611","","{""P0_Q0"":""ㅋ,ㅜ,ㅅ"",""P0_Q1"":6}","survey","78","2233968","0.0-12.0-1.23","[]","","",""
"2765","TestRecordings/nthaking.wav","0","audio-button-response","79","2236755","0.0-12.0-0.24","","","",""
"8748","","{""P0_Q0"":""ㅌ,ㅏ,ㄱ,ㅣ,ㅇ"",""P0_Q1"":4}","survey","80","2245510","0.0-12.0-1.24","[]","","",""
"1557","TestRecordings/kmamun.wav","0","audio-button-response","81","2247090","0.0-12.0-0.25","","","",""
"12559","","{""P0_Q0"":""ㅋ,ㅡ,ㅁ,ㅏ,ㅁ,ㅜ,ㅇ"",""P0_Q1"":5}","survey","82","2259655","0.0-12.0-1.25","[]","","",""
"2245","TestRecordings/phmiman.wav","0","audio-button-response","83","2261925","0.0-12.0-0.26","","","",""
"8108","","{""P0_Q0"":""ㅍ,ㅡ,ㅁ,ㅣ,ㅁ,ㅏ,ㅇ"",""P0_Q1"":5}","survey","84","2270040","0.0-12.0-1.26","[]","","",""
"1492","TestRecordings/twak.wav","0","audio-button-response","85","2271556","0.0-12.0-0.27","","","",""
"10557","","{""P0_Q0"":""ㄷ,ㅘ,ㄱ"",""P0_Q1"":5}","survey","86","2282120","0.0-12.0-1.27","[]","","",""
"1582","TestRecordings/swikhat.wav","0","audio-button-response","87","2283725","0.0-12.0-0.28","","","",""
"8307","","{""P0_Q0"":""ㅅ,ㅟ,ㅋ,ㅏ,ㅅ"",""P0_Q1"":5}","survey","88","2292038","0.0-12.0-1.28","[]","","",""
"2401","TestRecordings/nwimik.wav","0","audio-button-response","89","2294461","0.0-12.0-0.29","","","",""
"10482","","{""P0_Q0"":""ㄴ,ㅟ,ㅁ,ㅣ,ㅅ"",""P0_Q1"":4}","survey","90","2304951","0.0-12.0-1.29","[]","","",""
"2000","TestRecordings/npucap.wav","0","audio-button-response","91","2306973","0.0-12.0-0.30","","","",""
"8310","","{""P0_Q0"":""ㅂ,ㅜ,ㅈ,ㅏ,ㅂ"",""P0_Q1"":4}","survey","92","2315289","0.0-12.0-1.30","[]","","",""
"3357","TestRecordings/chnuk.wav","0","audio-button-response","93","2318669","0.0-12.0-0.31","","","",""
"10779","","{""P0_Q0"":""ㅊ,ㅡ,ㄴ,ㅜ,ㄱ"",""P0_Q1"":3}","survey","94","2329456","0.0-12.0-1.31","[]","","",""
"1793","TestRecordings/khnothik.wav","0","audio-button-response","95","2331270","0.0-12.0-0.32","","","",""
"11336","","{""P0_Q0"":""ㅋ,ㅡ,ㄴ,ㅗ,ㅌ,ㅣ"",""P0_Q1"":5}","survey","96","2342614","0.0-12.0-1.32","[]","","",""
"2052","TestRecordings/nchot.wav","0","audio-button-response","97","2344687","0.0-12.0-0.33","","","",""
"6061","","{""P0_Q0"":""ㅇ,ㅣ,ㄴ,ㅊ,ㅗ,ㅅ"",""P0_Q1"":3}","survey","98","2350755","0.0-12.0-1.33","[]","","",""
"4109","TestRecordings/tnunong.wav","0","audio-button-response","99","2354886","0.0-12.0-0.34","","","",""
"10774","","{""P0_Q0"":""ㅋ,ㅡ,ㄴ,ㅜ,ㄴ,ㅗ,ㅇ"",""P0_Q1"":3}","survey","100","2365666","0.0-12.0-1.34","[]","","",""
"1600","TestRecordings/knot.wav","0","audio-button-response","101","2367287","0.0-12.0-0.35","","","",""
"8524","","{""P0_Q0"":""ㅋ,ㅡ,ㄴ,ㅗ,ㅅ"",""P0_Q1"":6}","survey","102","2375819","0.0-12.0-1.35","[]","","",""
"1554","TestRecordings/cnaphin.wav","0","audio-button-response","103","2377396","0.0-12.0-0.36","","","",""
"11337","","{""P0_Q0"":""ㅊ,ㅡ,ㄴ,ㅏ,ㅍ,ㅣㄴ"",""P0_Q1"":5}","survey","104","2388739","0.0-12.0-1.36","[]","","",""
"2456","TestRecordings/mphosak.wav","0","audio-button-response","105","2391216","0.0-12.0-0.37","","","",""
"8602","","{""P0_Q0"":""ㅍ,ㅗ,ㅅ,ㅏ,ㄱ"",""P0_Q1"":6}","survey","106","2399825","0.0-12.0-1.37","[]","","",""
"1450","TestRecordings/chnupot.wav","0","audio-button-response","107","2401296","0.0-12.0-0.38","","","",""
"18069","","{""P0_Q0"":""ㅊ,ㅡ,ㄴ,ㅜ,ㅂ,ㅗ,ㅅ"",""P0_Q1"":6}","survey","108","2419372","0.0-12.0-1.38","[]","","",""
"1832","TestRecordings/tup.wav","0","audio-button-response","109","2421225","0.0-12.0-0.39","","","",""
"4532","","{""P0_Q0"":""ㄷ,ㅜ,ㅂ"",""P0_Q1"":7}","survey","110","2425764","0.0-12.0-1.39","[]","","",""
"1844","TestRecordings/thwikhip.wav","0","audio-button-response","111","2427631","0.0-12.0-0.40","","","",""
"7877","","{""P0_Q0"":""ㅌ,ㅟ,ㅋ,ㅣ,ㅂ"",""P0_Q1"":6}","survey","112","2435515","0.0-12.0-1.40","[]","","",""
"2025","TestRecordings/cwit.wav","0","audio-button-response","113","2437562","0.0-12.0-0.41","","","",""
"8233","","{""P0_Q0"":""ㅈ,ㅣ,ㅅ"",""P0_Q1"":3}","survey","114","2445803","0.0-12.0-1.41","[]","","",""
"1264","TestRecordings/thukhat.wav","0","audio-button-response","115","2447087","0.0-12.0-0.42","","","",""
"20165","","{""P0_Q0"":""ㅌ,ㅜ,ㅋ,ㅏ,ㅋ"",""P0_Q1"":3}","survey","116","2467259","0.0-12.0-1.42","[]","","",""
"1400","TestRecordings/taphik.wav","0","audio-button-response","117","2468680","0.0-12.0-0.43","","","",""
"5590","","{""P0_Q0"":""ㄷ,ㅏ,ㅍ,ㅣ,ㄱ"",""P0_Q1"":6}","survey","118","2474277","0.0-12.0-1.43","[]","","",""
"1734","TestRecordings/tmichut.wav","0","audio-button-response","119","2476033","0.0-12.0-0.44","","","",""
"5748","","{""P0_Q0"":""ㅁ,ㅣ,ㅊ,ㅜ,ㅅ"",""P0_Q1"":6}","survey","120","2481789","0.0-12.0-1.44","[]","","",""
"1872","TestRecordings/khin.wav","0","audio-button-response","121","2483687","0.0-12.0-0.45","","","",""
"5359","","{""P0_Q0"":""ㅋ,ㅟ,ㄴ"",""P0_Q1"":7}","survey","122","2489053","0.0-12.0-1.45","[]","","",""
"2334","TestRecordings/nchocip.wav","0","audio-button-response","123","2491409","0.0-12.0-0.46","","","",""
"10268","","{""P0_Q0"":""ㅊ,ㅗ,ㅈ,ㅣ,ㅂ"",""P0_Q1"":5}","survey","124","2501684","0.0-12.0-1.46","[]","","",""
"1487","TestRecordings/khwipot.wav","0","audio-button-response","125","2503194","0.0-12.0-0.47","","","",""
"11155","","{""P0_Q0"":""ㅋ,ㅟ,ㅂ,ㅗ,ㅅ"",""P0_Q1"":6}","survey","126","2514356","0.0-12.0-1.47","[]","","",""
"1328","TestRecordings/chmop.wav","0","audio-button-response","127","2515706","0.0-12.0-0.48","","","",""
"6853","","{""P0_Q0"":""ㅊ,ㅡ,ㅁ,ㅗ,ㄱ"",""P0_Q1"":4}","survey","128","2522566","0.0-12.0-1.48","[]","","",""
"2583","TestRecordings/mkit.wav","0","audio-button-response","129","2525170","0.0-12.0-0.49","","","",""
"5603","","{""P0_Q0"":""ㄱ,ㅣ,ㅅ"",""P0_Q1"":3}","survey","130","2530776","0.0-12.0-1.49","[]","","",""
"1783","TestRecordings/pmochun.wav","0","audio-button-response","131","2532582","0.0-12.0-0.50","","","",""
"7738","","{""P0_Q0"":""ㅁ,ㅗ,ㅊ,ㅜ,ㄴ"",""P0_Q1"":5}","survey","132","2540327","0.0-12.0-1.50","[]","","",""
"1310","TestRecordings/thnok.wav","0","audio-button-response","133","2541659","0.0-12.0-0.51","","","",""
"8606","","{""P0_Q0"":""ㅌ,ㅡ,ㄴ,ㅗ,ㅅ"",""P0_Q1"":4}","survey","134","2550272","0.0-12.0-1.51","[]","","",""
"1906","TestRecordings/mthik.wav","0","audio-button-response","135","2552198","0.0-12.0-0.52","","","",""
"10913","","{""P0_Q0"":""ㅇ,ㅣ,ㄴ,ㅍ,ㅣ,ㄱ"",""P0_Q1"":5}","survey","136","2563118","0.0-12.0-1.52","[]","","",""
"1601","TestRecordings/khwichon.wav","0","audio-button-response","137","2564741","0.0-12.0-0.53","","","",""
"8689","","{""P0_Q0"":""ㅋ,ㅟ,ㅊ,ㅗ,ㄴ"",""P0_Q1"":6}","survey","138","2573437","0.0-12.0-1.53","[]","","",""
"1467","TestRecordings/tikut.wav","0","audio-button-response","139","2574925","0.0-12.0-0.54","","","",""
"6283","","{""P0_Q0"":""ㄷ,ㅣ,ㄱ,ㅜ,ㅅ"",""P0_Q1"":6}","survey","140","2581215","0.0-12.0-1.54","[]","","",""
"1387","TestRecordings/twaput.wav","0","audio-button-response","141","2582623","0.0-12.0-0.55","","","",""
"8804","","{""P0_Q0"":""ㄷ,ㅘ,ㅂ,ㅜ,ㅅ"",""P0_Q1"":4}","survey","142","2591438","0.0-12.0-1.55","[]","","",""
"1310","TestRecordings/chumik.wav","0","audio-button-response","143","2592772","0.0-12.0-0.56","","","",""
"5004","","{""P0_Q0"":""ㅊ,ㅠ,ㅁ,ㅣ,ㄱ"",""P0_Q1"":5}","survey","144","2597782","0.0-12.0-1.56","[]","","",""
"1919","TestRecordings/mpukham.wav","0","audio-button-response","145","2599723","0.0-12.0-0.57","","","",""
"7134","","{""P0_Q0"":""ㅂ,ㅜ,ㅋ,ㅏ,ㅁ"",""P0_Q1"":5}","survey","146","2606863","0.0-12.0-1.57","[]","","",""
"1094","TestRecordings/mup.wav","0","audio-button-response","147","2607978","0.0-12.0-0.58","","","",""
"3879","","{""P0_Q0"":""ㅁ,ㅜ,ㅅ"",""P0_Q1"":6}","survey","148","2611864","0.0-12.0-1.58","[]","","",""
"1526","TestRecordings/phnokhing.wav","0","audio-button-response","149","2613413","0.0-12.0-0.59","","","",""
"7874","","{""P0_Q0"":""ㅋ,ㅡ,ㄴ,ㅗ,ㅋ,ㅣ,ㅇ"",""P0_Q1"":6}","survey","150","2621293","0.0-12.0-1.59","[]","","",""
"2050",""," ","html-keyboard-response","151","2623344","0.0-13.0","","","",""
"62256","","{""P0_Q0"":""19"",""P0_Q1"":""여자"",""P0_Q2"":""5"",""P0_Q3"":""없다"",""P0_Q4"":""일본어"",""P0_Q5"":""17세 1년"",""P0_Q6"":""없다""}","survey","152","2685610","0.0-14.0","[]","","",""
"8462","<p style=""font-size:30px"",lang=""ko"">실험이 끝났습니다</p><p style=""font-size:30px"",lang=""ko"">참가해주셔서 고맙습니다</p>","tab","html-keyboard-response","153","2694073","0.0-15.0","","","",""
