"rt","stimulus","response","trial_type","trial_index","time_elapsed","internal_node_id","accuracy","PracticeTest","ConsonantSequence","Grammaticality"
"317677","<p style=""font-size:30px"",lang=""ko"">실험에 오신 것을 환영합니다</p><p lang=""ko"">스페이스바를 누르면 다음 페이지로 넘어갑니다</p>"," ","html-keyboard-response","0","317680","0.0-0.0","","","",""
"2218","<p style=""font-size:30px"",lang=""ko"">해드폰을 본인에게 잘 맞게 착용하세요</p><p lang=""ko"">스페이스바를 누르면 다음 페이지로 넘어갑니다</p>"," ","html-keyboard-response","1","319899","0.0-1.0","","","",""
"9234","<p style=""font-size:30px"",lang=""ko"">이 실험에서는 새로 만든 한국 단어를 들으실 겁니다</p><p style=""font-size:30px"",lang=""ko"">단어를 들리는대로 쓰세요. 그런 다음 그 단어가 한국어 단어로 가능한지 평가하세요</p><p lang=""ko"">스페이스바를 누르면 다음 페이지로 넘어갑니다</p>"," ","html-keyboard-response","2","329133","0.0-2.0","","","",""
"2054","<p style=""font-size:30px"",lang=""ko"">원래 있는 단어로 예를 들어 봅시다</p><p lang=""ko"">스페이스바를 누르면 다음 페이지로 넘어갑니다</p>"," ","html-keyboard-response","3","331188","0.0-3.0","","","",""
"13568","PracticeRecordings/kom_bear.wav","0","audio-button-response","4","344793","0.0-4.0","","","",""
"5648","<p style=""font-size:30px"",lang=""ko"">이제 직접 단어를 듣고 쓰는 연습을 해봅시다. </p><p style=""font-size:30px"",lang=""ko"">스페이스바를 누르면 다음 페이지로 넘어갑니다</p>"," ","html-keyboard-response","5","350441","0.0-5.0","","","",""
"45980","PracticeRecordings/kirin_giraffe.wav","0","audio-button-response","6","396445","0.0-6.0-0.0","","","",""
"18708","kirin_giraffe","{""P0_Q0"":""ㄱ,ㅣ,ㄹ,ㅣ,ㄴ""}","survey","7","415195","0.0-6.0-1.0","[]","practice","NA","TRUE"
"3320","<p style=""font-size:30px"",lang=""ko"">방금 들으신 단어는 ""ㄱ,ㅣ,ㄹ,ㅣ,ㄴ"" 이라고 쓰시면 됩니다</p><p lang=""ko"">스페이스바를 누르면 다음 페이지로 넘어갑니다</p>"," ","html-keyboard-response","8","418515","0.0-6.0-2.0","","","",""
"2179","PracticeRecordings/saca_lion.wav","0","audio-button-response","9","420719","0.0-6.0-0.1","","","",""
"6219","saca_lion","{""P0_Q0"":""ㅅ,ㅏ,ㅈ,ㅏ""}","survey","10","426948","0.0-6.0-1.1","[]","practice","NA","FALSE"
"1697","<p style=""font-size:30px"",lang=""ko"">방금 들으신 단어는 ""ㅅ,ㅏ,ㅈ,ㅏ"" 라고 쓰시면 됩니다</p><p lang=""ko"">스페이스바를 누르면 다음 페이지로 넘어갑니다</p>"," ","html-keyboard-response","11","428646","0.0-6.0-2.1","","","",""
"1911","PracticeRecordings/saseum_deer.wav","0","audio-button-response","12","430579","0.0-6.0-0.2","","","",""
"10458","saseum_deer","{""P0_Q0"":""ㅅ,ㅏ,ㅅ,ㅡ,ㅁ""}","survey","13","441046","0.0-6.0-1.2","[]","practice","NA","FALSE"
"1746","<p style=""font-size:30px"",lang=""ko"">방금 들으신 단어는 ""ㅅ,ㅏ,ㅅ,ㅡ,ㅁ""이라고 쓰시면 됩니다</p><p lang=""ko"">스페이스바를 누르면 다음 페이지로 넘어갑니다</p>"," ","html-keyboard-response","14","442793","0.0-6.0-2.2","","","",""
"1552","PracticeRecordings/thokki_rabbit.wav","0","audio-button-response","15","444366","0.0-6.0-0.3","","","",""
"6619","thokki_rabbit","{""P0_Q0"":""ㅌ,ㅗ,ㄲ,ㅣ""}","survey","16","450993","0.0-6.0-1.3","[]","practice","NA","FALSE"
"1851","<p style=""font-size:30px"",lang=""ko"">방금 들으신 단어는 ""ㅌ,ㅗ,ㄲ,ㅣ"" 라고 쓰시면 됩니다</p><p lang=""ko"">스페이스바를 누르면 다음 페이지로 넘어갑니다</p>"," ","html-keyboard-response","17","452844","0.0-6.0-2.3","","","",""
"2810","<p style=""font-size:30px"",lang=""ko"">이제 만든 단어로 연습해봅시다.</p><p lang=""ko"">스페이스바를 누르면 다음 페이지로 넘어갑니다</p>"," ","html-keyboard-response","18","455656","0.0-7.0","","","",""
"3740","PracticeRecordings/snen.wav","0","audio-button-response","19","459416","0.0-8.0-0.0","","","",""
"20623","snen","{""P0_Q0"":""5""}","survey","20","480048","0.0-8.0-1.0","[]","practice","NA","TRUE"
"5381","<p style=""font-size:30px"",lang=""ko"">들으신 단어는 <br> ""ㅅ,ㅡ,ㄴ,ㅐ,ㄴ""  ""ㅅ,ㅡ,ㄴ,ㅐ"" ""ㅅ,ㄴ,ㅐ,ㄴ (""으"" 소리가 안 들리는 경우)"" 등 <br> 사람에 따라 다양하게 들릴 수 있습니다 <br> 본인에게 들리는대로 쓰시면 됩니다.</p><p lang=""ko"">스페이스바를 누르면 다음 페이지로 넘어갑니다</p>"," ","html-keyboard-response","21","485430","0.0-8.0-2.0","","","",""
"2078","PracticeRecordings/phrak.wav","0","audio-button-response","22","487529","0.0-8.0-0.1","","","",""
"6435","phrak","{""P0_Q0"":""ㅍ,ㅡ,ㄹ,ㅏ,ㄱ""}","survey","23","493970","0.0-8.0-1.1","[]","practice","NA","FALSE"
"1704","<p style=""font-size:30px"",lang=""ko"">들으신 단어는 <br> ""ㅍ,ㅡ,ㄹ,ㅏ,ㄱ"" ""ㅍ,ㅡ,ㄹ,ㅏ,ㅅ"" ""ㅋ,ㅡ,ㄹ,ㅏ,ㄱ"" ""ㅍ,ㄹ,ㅏ,ㄱ (""으"" 소리가 안 들리는 경우)"" 등 <br> 사람에 따라 다양하게 들릴 수 있습니다 <br> 본인에게 들리는대로 쓰시면 됩니다.</p><p lang=""ko"">스페이스바를 누르면 다음 페이지로 넘어갑니다</p>"," ","html-keyboard-response","24","495675","0.0-8.0-2.1","","","",""
"2402","PracticeRecordings/chka.wav","0","audio-button-response","25","498099","0.0-8.0-0.2","","","",""
"5984","chka","{""P0_Q0"":""ㅅ,ㅡ,ㄲ,ㅏ""}","survey","26","504089","0.0-8.0-1.2","[]","practice","NA","FALSE"
"2899","<p style=""font-size:30px"",lang=""ko"">들으신 단어는 ""ㅊ,ㅣ,ㄱ,ㅏ"", ""ㅊ,ㅡ,ㄱ,ㅏ"", ""ㅊ,ㄱ,ㅏ"", ""ㅊ,ㅟ,ㄱ,ㅏ"" 등 <br> 사람에 따라 다양하게 들릴 수 있습니다. <br> 본인에게 들리는대로 쓰시면 됩니다.</p><p lang=""ko"">스페이스바를 누르면 다음 페이지로 넘어갑니다</p>"," ","html-keyboard-response","27","506989","0.0-8.0-2.2","","","",""
"2088",""," ","html-keyboard-response","28","509078","0.0-9.0","","","",""
"2812","<p style=""font-size:30px"",lang=""ko"">이제 실험을 시작하겠습니다.</p><p style=""font-size:30px"",lang=""ko"">실전에서는 각각의 만든 단어를 한 번씩만 들을 수 있습니다.</p>"," ","html-keyboard-response","29","511890","0.0-10.0","","","",""
"5595","<p style=""font-size:30px"",lang=""ko"">단어를 풀어 쓰신 후에 그 단어가 한국어로 가능한 단어인지 평가해주세요</p><p style=""font-size:30px"",lang=""ko"">1점은 한국어로 완전 불가능한 단어, 7점은 한국어로 완전 가능한 단어를 의미합니다</p><p lang=""ko"">스페이스바를 누르면 다음 페이지로 넘어갑니다</p>"," ","html-keyboard-response","30","517486","0.0-11.0","","","",""
"4634","TestRecordings/nkat.wav","0","audio-button-response","31","522143","0.0-12.0-0.0","","","",""
"19054","","{""P0_Q0"":""ㅇ,ㅡ,ㅁ,ㄱ,ㅏ,ㅅ"",""P0_Q1"":4}","survey","32","541213","0.0-12.0-1.0","[]","","",""
"2702","TestRecordings/khithuk.wav","0","audio-button-response","33","543940","0.0-12.0-0.1","","","",""
"8518","","{""P0_Q0"":""ㅊ,ㅣ,ㅌ,ㅜ"",""P0_Q1"":7}","survey","34","552468","0.0-12.0-1.1","[]","","",""
"3088","TestRecordings/chmop.wav","0","audio-button-response","35","555577","0.0-12.0-0.2","","","",""
"12577","","{""P0_Q0"":""ㅅ,ㅡ,ㅁ,ㅗ,ㅋ"",""P0_Q1"":7}","survey","36","568162","0.0-12.0-1.2","[]","","",""
"2589","TestRecordings/nchocip.wav","0","audio-button-response","37","570772","0.0-12.0-0.3","","","",""
"15301","","{""P0_Q0"":""ㅇ,ㅡ,ㅇ,ㅊ,ㅗ,ㅈ,ㅣ,ㅂ"",""P0_Q1"":7}","survey","38","586080","0.0-12.0-1.3","[]","","",""
"3249","TestRecordings/chumik.wav","0","audio-button-response","39","589353","0.0-12.0-0.4","","","",""
"7293","","{""P0_Q0"":""ㅊ,ㅜ,ㅁ,ㅣ"",""P0_Q1"":7}","survey","40","596654","0.0-12.0-1.4","[]","","",""
"2041","TestRecordings/swikhat.wav","0","audio-button-response","41","598717","0.0-12.0-0.5","","","",""
"24563","","{""P0_Q0"":""ㅅ,ㅜ,ㅣ,ㅋ,ㅏ,ㄹ"",""P0_Q1"":7}","survey","42","623287","0.0-12.0-1.5","[]","","",""
"2009","TestRecordings/thukhat.wav","0","audio-button-response","43","625317","0.0-12.0-0.6","","","",""
"8525","","{""P0_Q0"":""ㅌ,ㅜ,ㅋ,ㅏ,ㅅ"",""P0_Q1"":7}","survey","44","633849","0.0-12.0-1.6","[]","","",""
"2876","TestRecordings/nkhuchom.wav","0","audio-button-response","45","636747","0.0-12.0-0.7","","","",""
"19814","","{""P0_Q0"":""ㅁ,ㅜ,ㄴ,ㄱ,ㅜ,ㅈ,ㅓ,ㅁ"",""P0_Q1"":7}","survey","46","656569","0.0-12.0-1.7","[]","","",""
"2729","TestRecordings/mphutam.wav","0","audio-button-response","47","659323","0.0-12.0-0.8","","","",""
"14802","","{""P0_Q0"":""ㅇ,ㅏ,ㅍ,ㅡ,ㄷ,ㅏ,ㅁ"",""P0_Q1"":6}","survey","48","674132","0.0-12.0-1.8","[]","","",""
"2494","TestRecordings/sikot.wav","0","audio-button-response","49","676648","0.0-12.0-0.9","","","",""
"6611","","{""P0_Q0"":""ㅅ,ㅣ,ㄱ,ㅗ,ㅅ"",""P0_Q1"":6}","survey","50","683268","0.0-12.0-1.9","[]","","",""
"2574","TestRecordings/ntakhip.wav","0","audio-button-response","51","685863","0.0-12.0-0.10","","","",""
"14095","","{""P0_Q0"":""ㅇ.ㅡ,ㅁ.ㅂ,ㅏ,ㅋ,ㅟ"",""P0_Q1"":5}","survey","52","699964","0.0-12.0-1.10","[]","","",""
"2818","TestRecordings/chnuk.wav","0","audio-button-response","53","702805","0.0-12.0-0.11","","","",""
"5964","","{""P0_Q0"":""ㅅ,ㅡ,ㄴ,ㅜ"",""P0_Q1"":5}","survey","54","708777","0.0-12.0-1.11","[]","","",""
"2655","TestRecordings/mpukham.wav","0","audio-button-response","55","711453","0.0-12.0-0.12","","","",""
"9217","","{""P0_Q0"":""ㅇ,ㅡ,ㅁ,ㅂ,ㅜ,ㅋ,ㅏ,ㅁ"",""P0_Q1"":3}","survey","56","720677","0.0-12.0-1.12","[]","","",""
"1647","TestRecordings/taphik.wav","0","audio-button-response","57","722343","0.0-12.0-0.13","","","",""
"10466","","{""P0_Q0"":""ㄷ,ㅏ,ㅍ,ㅣ"",""P0_Q1"":5}","survey","58","732817","0.0-12.0-1.13","[]","","",""
"1700","TestRecordings/twak.wav","0","audio-button-response","59","734538","0.0-12.0-0.14","","","",""
"5330","","{""P0_Q0"":""ㄷ,ㅘ,ㄱ"",""P0_Q1"":7}","survey","60","739875","0.0-12.0-1.14","[]","","",""
"1886","TestRecordings/mtukin.wav","0","audio-button-response","61","741782","0.0-12.0-0.15","","","",""
"9564","","{""P0_Q0"":""ㅇ,ㅡ,ㅁ,ㄷ,ㅜ,ㄱ,ㅣ,ㄴ"",""P0_Q1"":6}","survey","62","751353","0.0-12.0-1.15","[]","","",""
"2204","TestRecordings/nthaking.wav","0","audio-button-response","63","753578","0.0-12.0-0.16","","","",""
"16972","","{""P0_Q0"":""ㅇ,ㅡ,ㅁ,ㅍ,ㅏ,ㄱ,ㅣ,ㅇ"",""P0_Q1"":7}","survey","64","770558","0.0-12.0-1.16","[]","","",""
"2448","TestRecordings/tnunong.wav","0","audio-button-response","65","773031","0.0-12.0-0.17","","","",""
"11045","","{""P0_Q0"":""ㄷ,ㅡ,ㄴ,ㅜ,ㄴ,ㅗ,ㅇ"",""P0_Q1"":7}","survey","66","784082","0.0-12.0-1.17","[]","","",""
"1485","TestRecordings/thnok.wav","0","audio-button-response","67","785589","0.0-12.0-0.18","","","",""
"21066","","{""P0_Q0"":""ㅅ,ㅡ,ㄴ,ㅗ,ㅂ"",""P0_Q1"":7}","survey","68","806661","0.0-12.0-1.18","[]","","",""
"2058","TestRecordings/mphuk.wav","0","audio-button-response","69","808742","0.0-12.0-0.19","","","",""
"7228","","{""P0_Q0"":""ㅇ,ㅡ,ㅁ,ㅍ,ㅜ,ㄱ"",""P0_Q1"":7}","survey","70","815977","0.0-12.0-1.19","[]","","",""
"1749","TestRecordings/mup.wav","0","audio-button-response","71","817746","0.0-12.0-0.20","","","",""
"10363","","{""P0_Q0"":""ㅁ,ㅜ,ㅇ,ㅜ,ㅂ"",""P0_Q1"":7}","survey","72","828116","0.0-12.0-1.20","[]","","",""
"2817","TestRecordings/nthimong.wav","0","audio-button-response","73","830954","0.0-12.0-0.21","","","",""
"9899","","{""P0_Q0"":""ㅇ,ㅡ,ㅁ,ㅍ,ㅣ,ㅁ,ㅗ,ㅇ"",""P0_Q1"":7}","survey","74","840860","0.0-12.0-1.21","[]","","",""
"2231","TestRecordings/phmiman.wav","0","audio-button-response","75","843113","0.0-12.0-0.22","","","",""
"9947","","{""P0_Q0"":""ㅍ,ㅡ,ㄹ,ㅣ,ㅁ,ㅔ,ㄴ"",""P0_Q1"":7}","survey","76","853066","0.0-12.0-1.22","[]","","",""
"2193","TestRecordings/tmichut.wav","0","audio-button-response","77","855281","0.0-12.0-0.23","","","",""
"7335","","{""P0_Q0"":""ㅁ,ㅣ,ㅊ,ㅠ,ㅅ"",""P0_Q1"":7}","survey","78","862625","0.0-12.0-1.23","[]","","",""
"2427","TestRecordings/cmoman.wav","0","audio-button-response","79","865073","0.0-12.0-0.24","","","",""
"20027","","{""P0_Q0"":""ㅅ,ㅡ,ㅁ,ㅗ,ㅁ,ㅓ,ㄴ"",""P0_Q1"":7}","survey","80","885107","0.0-12.0-1.24","[]","","",""
"2221","TestRecordings/nakhit.wav","0","audio-button-response","81","887351","0.0-12.0-0.25","","","",""
"11006","","{""P0_Q0"":""ㄴ,ㅏ,ㅅ,ㅋ,ㅣ,ㅅ"",""P0_Q1"":7}","survey","82","898364","0.0-12.0-1.25","[]","","",""
"2578","TestRecordings/thwikhip.wav","0","audio-button-response","83","900962","0.0-12.0-0.26","","","",""
"8586","","{""P0_Q0"":""ㅌ,ㅟ,ㅅ,ㅋ,ㅣ,ㅅ"",""P0_Q1"":7}","survey","84","909556","0.0-12.0-1.26","[]","","",""
"3053","TestRecordings/cwam.wav","0","audio-button-response","85","912631","0.0-12.0-0.27","","","",""
"8530","","{""P0_Q0"":""ㄷ,ㅡ,ㄹ,ㅘ,ㅁ"",""P0_Q1"":7}","survey","86","921167","0.0-12.0-1.27","[]","","",""
"1797","TestRecordings/mphosak.wav","0","audio-button-response","87","922983","0.0-12.0-0.28","","","",""
"10944","","{""P0_Q0"":""ㅇ,ㅡ,ㅁ,ㅍ,ㅗ,ㅅ,ㅏ,ㅅ"",""P0_Q1"":7}","survey","88","933935","0.0-12.0-1.28","[]","","",""
"1850","TestRecordings/thinok.wav","0","audio-button-response","89","935805","0.0-12.0-0.29","","","",""
"6223","","{""P0_Q0"":""ㅋ,ㅣ,ㄴ,ㅗ"",""P0_Q1"":7}","survey","90","942035","0.0-12.0-1.29","[]","","",""
"1745","TestRecordings/khnap.wav","0","audio-button-response","91","943800","0.0-12.0-0.30","","","",""
"7056","","{""P0_Q0"":""ㅋ,ㅡ,ㄴ,ㅏ,ㅂ"",""P0_Q1"":7}","survey","92","950863","0.0-12.0-1.30","[]","","",""
"2272","TestRecordings/pmochun.wav","0","audio-button-response","93","953156","0.0-12.0-0.31","","","",""
"8080","","{""P0_Q0"":""ㅁ,ㅗ,ㅊ,ㅜ,ㄴ"",""P0_Q1"":7}","survey","94","961244","0.0-12.0-1.31","[]","","",""
"2021","TestRecordings/cnaphin.wav","0","audio-button-response","95","963286","0.0-12.0-0.32","","","",""
"22071","","{""P0_Q0"":""ㅅ,ㅡ,ㄴ,ㅐ,ㅍ,ㅣ,ㄴ"",""P0_Q1"":7}","survey","96","985365","0.0-12.0-1.32","[]","","",""
"2071","TestRecordings/cwit.wav","0","audio-button-response","97","987460","0.0-12.0-0.33","","","",""
"18007","","{""P0_Q0"":""ㅉ,ㅜ,ㅇ,ㅟ,ㅅ"",""P0_Q1"":7}","survey","98","1005474","0.0-12.0-1.33","[]","","",""
"2274","TestRecordings/khwichon.wav","0","audio-button-response","99","1007772","0.0-12.0-0.34","","","",""
"8927","","{""P0_Q0"":""ㅋ,ㅟ,ㅊ,ㅗ,ㄴ"",""P0_Q1"":7}","survey","100","1016706","0.0-12.0-1.34","[]","","",""
"1641","TestRecordings/nwimik.wav","0","audio-button-response","101","1018367","0.0-12.0-0.35","","","",""
"11164","","{""P0_Q0"":""ㄴ,ㅟ,ㅁ,ㅣ,ㅅ"",""P0_Q1"":7}","survey","102","1029539","0.0-12.0-1.35","[]","","",""
"2080","TestRecordings/khwiphing.wav","0","audio-button-response","103","1031641","0.0-12.0-0.36","","","",""
"10115","","{""P0_Q0"":""ㅋ,ㅟ,ㅍ,ㅣ,ㅇ"",""P0_Q1"":7}","survey","104","1041763","0.0-12.0-1.36","[]","","",""
"2385","TestRecordings/npucap.wav","0","audio-button-response","105","1044169","0.0-12.0-0.37","","","",""
"9873","","{""P0_Q0"":""ㅇ,ㅡ,ㅁ,ㅂ,ㅜ,ㅈ,ㅏ,ㅂ"",""P0_Q1"":7}","survey","106","1054049","0.0-12.0-1.37","[]","","",""
"1610","TestRecordings/mkit.wav","0","audio-button-response","107","1055678","0.0-12.0-0.38","","","",""
"7303","","{""P0_Q0"":""ㅇ,ㅡ,ㅁ,ㄱ,ㅣ,ㅅ"",""P0_Q1"":7}","survey","108","1062987","0.0-12.0-1.38","[]","","",""
"1650","TestRecordings/khut.wav","0","audio-button-response","109","1064658","0.0-12.0-0.39","","","",""
"5943","","{""P0_Q0"":""ㅋ,ㅜ,ㅅ"",""P0_Q1"":7}","survey","110","1070608","0.0-12.0-1.39","[]","","",""
"1757","TestRecordings/twan.wav","0","audio-button-response","111","1072386","0.0-12.0-0.40","","","",""
"6275","","{""P0_Q0"":""ㅌ,ㅘ,ㄴ"",""P0_Q1"":7}","survey","112","1078667","0.0-12.0-1.40","[]","","",""
"1852","TestRecordings/mthik.wav","0","audio-button-response","113","1080540","0.0-12.0-0.41","","","",""
"6388","","{""P0_Q0"":""ㅇ,ㅡ,ㅁ,ㅍ,ㅣ"",""P0_Q1"":7}","survey","114","1086934","0.0-12.0-1.41","[]","","",""
"1444","TestRecordings/twaput.wav","0","audio-button-response","115","1088398","0.0-12.0-0.42","","","",""
"5621","","{""P0_Q0"":""ㄷ,ㅘ,ㅂ,ㅜ,ㅅ"",""P0_Q1"":7}","survey","116","1094026","0.0-12.0-1.42","[]","","",""
"2199","TestRecordings/chakot.wav","0","audio-button-response","117","1096246","0.0-12.0-0.43","","","",""
"6092","","{""P0_Q0"":""ㅊ,ㅏ,ㄱ,ㅗ,ㅅ"",""P0_Q1"":7}","survey","118","1102346","0.0-12.0-1.43","[]","","",""
"1221","TestRecordings/tup.wav","0","audio-button-response","119","1103586","0.0-12.0-0.44","","","",""
"5351","","{""P0_Q0"":""ㄷ,ㅜ,ㅂ"",""P0_Q1"":7}","survey","120","1108944","0.0-12.0-1.44","[]","","",""
"1829","TestRecordings/chwiphin.wav","0","audio-button-response","121","1110795","0.0-12.0-0.45","","","",""
"5841","","{""P0_Q0"":""ㅊ,ㅣ,ㅍ,ㅣ,ㄴ"",""P0_Q1"":7}","survey","122","1116643","0.0-12.0-1.45","[]","","",""
"1728","TestRecordings/chwikhong.wav","0","audio-button-response","123","1118394","0.0-12.0-0.46","","","",""
"5655","","{""P0_Q0"":""ㅊ,ㅣ,ㅋ,ㅗ,ㅇ"",""P0_Q1"":7}","survey","124","1124056","0.0-12.0-1.46","[]","","",""
"1782","TestRecordings/chnupot.wav","0","audio-button-response","125","1125867","0.0-12.0-0.47","","","",""
"8895","","{""P0_Q0"":""ㅅ,ㅡ,ㄴ,ㅜ,ㅂ,ㅗ,ㅅ"",""P0_Q1"":7}","survey","126","1134769","0.0-12.0-1.47","[]","","",""
"1704","TestRecordings/chunak.wav","0","audio-button-response","127","1136493","0.0-12.0-0.48","","","",""
"5297","","{""P0_Q0"":""ㅊ,ㅜ,ㄴ,ㅏ"",""P0_Q1"":7}","survey","128","1141797","0.0-12.0-1.48","[]","","",""
"1855","TestRecordings/kmamun.wav","0","audio-button-response","129","1143673","0.0-12.0-0.49","","","",""
"10156","","{""P0_Q0"":""ㄱ,ㅡ,ㅁ,ㅏ,ㅁ,ㅜ,ㄴ"",""P0_Q1"":7}","survey","130","1153835","0.0-12.0-1.49","[]","","",""
"1789","TestRecordings/nchot.wav","0","audio-button-response","131","1155643","0.0-12.0-0.50","","","",""
"12059","","{""P0_Q0"":""ㅇ,ㅡ,ㅁ,ㅊ,ㅝ,ㅅ"",""P0_Q1"":4}","survey","132","1167709","0.0-12.0-1.50","[]","","",""
"1318","TestRecordings/thwam.wav","0","audio-button-response","133","1169048","0.0-12.0-0.51","","","",""
"4562","","{""P0_Q0"":""ㅌ,ㅘ,ㅁ"",""P0_Q1"":7}","survey","134","1173617","0.0-12.0-1.51","[]","","",""
"1744","TestRecordings/twamot.wav","0","audio-button-response","135","1175382","0.0-12.0-0.52","","","",""
"6815","","{""P0_Q0"":""ㄷ,ㅘ,ㅁ,ㅇ,ㅗ,ㅅ"",""P0_Q1"":6}","survey","136","1182203","0.0-12.0-1.52","[]","","",""
"1986","TestRecordings/phnokhing.wav","0","audio-button-response","137","1184211","0.0-12.0-0.53","","","",""
"7463","","{""P0_Q0"":""ㅍ,ㅡ,ㄴ,ㅗ,ㅋ,ㅣ,ㅇ"",""P0_Q1"":6}","survey","138","1191680","0.0-12.0-1.53","[]","","",""
"1401","TestRecordings/knot.wav","0","audio-button-response","139","1193103","0.0-12.0-0.54","","","",""
"6659","","{""P0_Q0"":""ㅋ,ㅡ,ㄴ,ㅗ,ㅅ"",""P0_Q1"":6}","survey","140","1199768","0.0-12.0-1.54","[]","","",""
"2097","TestRecordings/khin.wav","0","audio-button-response","141","1201887","0.0-12.0-0.55","","","",""
"5539","","{""P0_Q0"":""ㅋ,ㅣ,ㄴ"",""P0_Q1"":7}","survey","142","1207432","0.0-12.0-1.55","[]","","",""
"1574","TestRecordings/khwipot.wav","0","audio-button-response","143","1209027","0.0-12.0-0.56","","","",""
"5364","","{""P0_Q0"":""ㅋ,ㅟ,ㅂ,ㅗ,ㅅ"",""P0_Q1"":7}","survey","144","1214398","0.0-12.0-1.56","[]","","",""
"1602","TestRecordings/tin.wav","0","audio-button-response","145","1216021","0.0-12.0-0.57","","","",""
"5531","","{""P0_Q0"":""ㅂ,ㅣ,ㄴ"",""P0_Q1"":5}","survey","146","1221559","0.0-12.0-1.57","[]","","",""
"1462","TestRecordings/tikut.wav","0","audio-button-response","147","1223041","0.0-12.0-0.58","","","",""
"8853","","{""P0_Q0"":""ㄷ,ㅣ,ㄱ,ㅜ,ㅅ"",""P0_Q1"":5}","survey","148","1231901","0.0-12.0-1.58","[]","","",""
"1851","TestRecordings/khnothik.wav","0","audio-button-response","149","1233773","0.0-12.0-0.59","","","",""
"7776","","{""P0_Q0"":""ㅋ,ㅡ,ㄴ,ㅗ,ㅍ,ㅣ,ㅅ"",""P0_Q1"":6}","survey","150","1241555","0.0-12.0-1.59","[]","","",""
"4438",""," ","html-keyboard-response","151","1245994","0.0-13.0","","","",""
"90761","","{""P0_Q0"":""19"",""P0_Q1"":""여"",""P0_Q2"":""5"",""P0_Q3"":""없음"",""P0_Q4"":""중국어"",""P0_Q5"":""14살, 18살 2년"",""P0_Q6"":""없음""}","survey","152","1336764","0.0-14.0","[]","","",""
"13554","<p style=""font-size:30px"",lang=""ko"">실험이 끝났습니다</p><p style=""font-size:30px"",lang=""ko"">참가해주셔서 고맙습니다</p>"," ","html-keyboard-response","153","1350319","0.0-15.0","","","",""
