"rt","stimulus","response","trial_type","trial_index","time_elapsed","internal_node_id","accuracy","PracticeTest","ConsonantSequence","Grammaticality"
"1977105","<p style=""font-size:30px"",lang=""ko"">실험에 오신 것을 환영합니다</p><p lang=""ko"">스페이스바를 누르면 다음 페이지로 넘어갑니다</p>"," ","html-keyboard-response","0","1977107","0.0-0.0","","","",""
"990","<p style=""font-size:30px"",lang=""ko"">해드폰을 본인에게 잘 맞게 착용하세요</p><p lang=""ko"">스페이스바를 누르면 다음 페이지로 넘어갑니다</p>"," ","html-keyboard-response","1","1978099","0.0-1.0","","","",""
"3327","<p style=""font-size:30px"",lang=""ko"">이 실험에서는 새로 만든 한국 단어를 들으실 겁니다</p><p style=""font-size:30px"",lang=""ko"">단어를 들리는대로 쓰세요. 그런 다음 그 단어가 한국어 단어로 가능한지 평가하세요</p><p lang=""ko"">스페이스바를 누르면 다음 페이지로 넘어갑니다</p>"," ","html-keyboard-response","2","1981427","0.0-2.0","","","",""
"1443","<p style=""font-size:30px"",lang=""ko"">원래 있는 단어로 예를 들어 봅시다</p><p lang=""ko"">스페이스바를 누르면 다음 페이지로 넘어갑니다</p>"," ","html-keyboard-response","3","1982871","0.0-3.0","","","",""
"11654","PracticeRecordings/kom_bear.wav","0","audio-button-response","4","1994632","0.0-4.0","","","",""
"2596","<p style=""font-size:30px"",lang=""ko"">이제 직접 단어를 듣고 쓰는 연습을 해봅시다. </p><p style=""font-size:30px"",lang=""ko"">스페이스바를 누르면 다음 페이지로 넘어갑니다</p>"," ","html-keyboard-response","5","1997229","0.0-5.0","","","",""
"3056","PracticeRecordings/kirin_giraffe.wav","0","audio-button-response","6","2000370","0.0-6.0-0.0","","","",""
"11919","kirin_giraffe","{""P0_Q0"":""ㄱ,ㅣ,ㄹ,ㅣ,ㄴ""}","survey","7","2012332","0.0-6.0-1.0","[]","practice","NA","TRUE"
"2020","<p style=""font-size:30px"",lang=""ko"">방금 들으신 단어는 ""ㄱ,ㅣ,ㄹ,ㅣ,ㄴ"" 이라고 쓰시면 됩니다</p><p lang=""ko"">스페이스바를 누르면 다음 페이지로 넘어갑니다</p>"," ","html-keyboard-response","8","2014352","0.0-6.0-2.0","","","",""
"2819","PracticeRecordings/saca_lion.wav","0","audio-button-response","9","2017259","0.0-6.0-0.1","","","",""
"4609","saca_lion","{""P0_Q0"":""ㅅ,ㅏ,ㅈ,ㅏ""}","survey","10","2021878","0.0-6.0-1.1","[]","practice","NA","FALSE"
"1054","<p style=""font-size:30px"",lang=""ko"">방금 들으신 단어는 ""ㅅ,ㅏ,ㅈ,ㅏ"" 라고 쓰시면 됩니다</p><p lang=""ko"">스페이스바를 누르면 다음 페이지로 넘어갑니다</p>"," ","html-keyboard-response","11","2022933","0.0-6.0-2.1","","","",""
"1447","PracticeRecordings/saseum_deer.wav","0","audio-button-response","12","2024464","0.0-6.0-0.2","","","",""
"5272","saseum_deer","{""P0_Q0"":""ㅅ,ㅏ,ㅅ,ㅡ,ㅁ""}","survey","13","2029745","0.0-6.0-1.2","[]","practice","NA","FALSE"
"1108","<p style=""font-size:30px"",lang=""ko"">방금 들으신 단어는 ""ㅅ,ㅏ,ㅅ,ㅡ,ㅁ""이라고 쓰시면 됩니다</p><p lang=""ko"">스페이스바를 누르면 다음 페이지로 넘어갑니다</p>"," ","html-keyboard-response","14","2030854","0.0-6.0-2.2","","","",""
"1556","PracticeRecordings/thokki_rabbit.wav","0","audio-button-response","15","2032495","0.0-6.0-0.3","","","",""
"5407","thokki_rabbit","{""P0_Q0"":""ㅌ,ㅗ,ㄲ,ㅣ""}","survey","16","2037910","0.0-6.0-1.3","[]","practice","NA","FALSE"
"901","<p style=""font-size:30px"",lang=""ko"">방금 들으신 단어는 ""ㅌ,ㅗ,ㄲ,ㅣ"" 라고 쓰시면 됩니다</p><p lang=""ko"">스페이스바를 누르면 다음 페이지로 넘어갑니다</p>"," ","html-keyboard-response","17","2038812","0.0-6.0-2.3","","","",""
"1119","<p style=""font-size:30px"",lang=""ko"">이제 만든 단어로 연습해봅시다.</p><p lang=""ko"">스페이스바를 누르면 다음 페이지로 넘어갑니다</p>"," ","html-keyboard-response","18","2039931","0.0-7.0","","","",""
"1830","PracticeRecordings/snen.wav","0","audio-button-response","19","2041847","0.0-8.0-0.0","","","",""
"8039","snen","{""P0_Q0"":""ㅅ,ㅡ,ㄴ,ㅐ,ㄴ""}","survey","20","2049895","0.0-8.0-1.0","[]","practice","NA","TRUE"
"3329","<p style=""font-size:30px"",lang=""ko"">들으신 단어는 <br> ""ㅅ,ㅡ,ㄴ,ㅐ,ㄴ""  ""ㅅ,ㅡ,ㄴ,ㅐ"" ""ㅅ,ㄴ,ㅐ,ㄴ (""으"" 소리가 안 들리는 경우)"" 등 <br> 사람에 따라 다양하게 들릴 수 있습니다 <br> 본인에게 들리는대로 쓰시면 됩니다.</p><p lang=""ko"">스페이스바를 누르면 다음 페이지로 넘어갑니다</p>"," ","html-keyboard-response","21","2053225","0.0-8.0-2.0","","","",""
"2221","PracticeRecordings/phrak.wav","0","audio-button-response","22","2055531","0.0-8.0-0.1","","","",""
"6452","phrak","{""P0_Q0"":""ㅍ,ㅜ,ㄹ,ㅏ,ㄱ""}","survey","23","2061990","0.0-8.0-1.1","[]","practice","NA","FALSE"
"5577","<p style=""font-size:30px"",lang=""ko"">들으신 단어는 <br> ""ㅍ,ㅡ,ㄹ,ㅏ,ㄱ"" ""ㅍ,ㅡ,ㄹ,ㅏ,ㅅ"" ""ㅋ,ㅡ,ㄹ,ㅏ,ㄱ"" ""ㅍ,ㄹ,ㅏ,ㄱ (""으"" 소리가 안 들리는 경우)"" 등 <br> 사람에 따라 다양하게 들릴 수 있습니다 <br> 본인에게 들리는대로 쓰시면 됩니다.</p><p lang=""ko"">스페이스바를 누르면 다음 페이지로 넘어갑니다</p>"," ","html-keyboard-response","24","2067568","0.0-8.0-2.1","","","",""
"1382","PracticeRecordings/chka.wav","0","audio-button-response","25","2068984","0.0-8.0-0.2","","","",""
"6342","chka","{""P0_Q0"":""ㅅ,ㅡ,ㄱ,ㅏ""}","survey","26","2075332","0.0-8.0-1.2","[]","practice","NA","FALSE"
"2932","<p style=""font-size:30px"",lang=""ko"">들으신 단어는 ""ㅊ,ㅣ,ㄱ,ㅏ"", ""ㅊ,ㅡ,ㄱ,ㅏ"", ""ㅊ,ㄱ,ㅏ"", ""ㅊ,ㅟ,ㄱ,ㅏ"" 등 <br> 사람에 따라 다양하게 들릴 수 있습니다. <br> 본인에게 들리는대로 쓰시면 됩니다.</p><p lang=""ko"">스페이스바를 누르면 다음 페이지로 넘어갑니다</p>"," ","html-keyboard-response","27","2078265","0.0-8.0-2.2","","","",""
"1693",""," ","html-keyboard-response","28","2079958","0.0-9.0","","","",""
"4104","<p style=""font-size:30px"",lang=""ko"">이제 실험을 시작하겠습니다.</p><p style=""font-size:30px"",lang=""ko"">실전에서는 각각의 만든 단어를 한 번씩만 들을 수 있습니다.</p>"," ","html-keyboard-response","29","2084063","0.0-10.0","","","",""
"3519","<p style=""font-size:30px"",lang=""ko"">단어를 풀어 쓰신 후에 그 단어가 한국어로 가능한 단어인지 평가해주세요</p><p style=""font-size:30px"",lang=""ko"">1점은 한국어로 완전 불가능한 단어, 7점은 한국어로 완전 가능한 단어를 의미합니다</p><p lang=""ko"">스페이스바를 누르면 다음 페이지로 넘어갑니다</p>"," ","html-keyboard-response","30","2087583","0.0-11.0","","","",""
"3985","TestRecordings/chnupot.wav","0","audio-button-response","31","2091659","0.0-12.0-0.0","","","",""
"23708","","{""P0_Q0"":""ㅅ,ㅡ,ㄴ,ㅜ,ㅂ,ㅗ,ㅅ"",""P0_Q1"":3}","survey","32","2115383","0.0-12.0-1.0","[]","","",""
"2151","TestRecordings/mphutam.wav","0","audio-button-response","33","2117621","0.0-12.0-0.1","","","",""
"12419","","{""P0_Q0"":""ㅇ,ㅜ,ㅍ,ㅡ,ㄷ,ㅏ,ㅁ"",""P0_Q1"":1}","survey","34","2130050","0.0-12.0-1.1","[]","","",""
"1478","TestRecordings/khithuk.wav","0","audio-button-response","35","2131614","0.0-12.0-0.2","","","",""
"10083","","{""P0_Q0"":""ㅋ,ㅣ,ㅌ,ㅜ"",""P0_Q1"":2}","survey","36","2141706","0.0-12.0-1.2","[]","","",""
"2646","TestRecordings/khwichon.wav","0","audio-button-response","37","2144436","0.0-12.0-0.3","","","",""
"17638","","{""P0_Q0"":""ㅋ,ㅡ,ㅇ,ㅣ,ㅊ,ㅗ,ㄴ"",""P0_Q1"":2}","survey","38","2162082","0.0-12.0-1.3","[]","","",""
"2653","TestRecordings/mphuk.wav","0","audio-button-response","39","2164820","0.0-12.0-0.4","","","",""
"11594","","{""P0_Q0"":""ㅜ,ㅍ,ㅡ"",""P0_Q1"":1}","survey","40","2176422","0.0-12.0-1.4","[]","","",""
"1719","TestRecordings/ntakhip.wav","0","audio-button-response","41","2178165","0.0-12.0-0.5","","","",""
"18449","","{""P0_Q0"":""ㅇ,ㅡ,ㅁ,ㄷ,ㅏ,ㅋ,ㅣ,ㅅ"",""P0_Q1"":1}","survey","42","2196623","0.0-12.0-1.5","[]","","",""
"2320","TestRecordings/tmichut.wav","0","audio-button-response","43","2199030","0.0-12.0-0.6","","","",""
"11250","","{""P0_Q0"":""ㄴ,ㅣ,ㅊ,ㅜ,ㅅ"",""P0_Q1"":1}","survey","44","2210287","0.0-12.0-1.6","[]","","",""
"1445","TestRecordings/sikot.wav","0","audio-button-response","45","2211815","0.0-12.0-0.7","","","",""
"11546","","{""P0_Q0"":""ㅅ,ㅣ,ㄱ,ㅗ,ㄷ"",""P0_Q1"":3}","survey","46","2223370","0.0-12.0-1.7","[]","","",""
"1049","TestRecordings/tup.wav","0","audio-button-response","47","2224501","0.0-12.0-0.8","","","",""
"7185","","{""P0_Q0"":""ㄷ,ㅜ,ㅂ"",""P0_Q1"":3}","survey","48","2231694","0.0-12.0-1.8","[]","","",""
"1430","TestRecordings/nchocip.wav","0","audio-button-response","49","2233208","0.0-12.0-0.9","","","",""
"14361","","{""P0_Q0"":""ㅊ,ㅗ,ㅈ,ㅣ,ㅂ"",""P0_Q1"":4}","survey","50","2247578","0.0-12.0-1.9","[]","","",""
"1508","TestRecordings/kmamun.wav","0","audio-button-response","51","2249174","0.0-12.0-0.10","","","",""
"11317","","{""P0_Q0"":""ㄱ,ㅡ,ㅁ,ㅏ,ㅁ,ㅜ,ㄴ"",""P0_Q1"":3}","survey","52","2260498","0.0-12.0-1.10","[]","","",""
"1196","TestRecordings/cwit.wav","0","audio-button-response","53","2261778","0.0-12.0-0.11","","","",""
"9718","","{""P0_Q0"":""ㅈ,ㅜ,ㅇ,ㅣ,ㅅ"",""P0_Q1"":3}","survey","54","2271507","0.0-12.0-1.11","[]","","",""
"1041","TestRecordings/khwipot.wav","0","audio-button-response","55","2272633","0.0-12.0-0.12","","","",""
"9171","","{""P0_Q0"":""ㅋ,ㅟ,ㅂ,ㅗ,ㅅ"",""P0_Q1"":3}","survey","56","2281811","0.0-12.0-1.12","[]","","",""
"1497","TestRecordings/chwiphin.wav","0","audio-button-response","57","2283393","0.0-12.0-0.13","","","",""
"8231","","{""P0_Q0"":""ㅊ,ㅟ,ㅍ,ㅣ,ㄴ"",""P0_Q1"":2}","survey","58","2291631","0.0-12.0-1.13","[]","","",""
"1002","TestRecordings/knot.wav","0","audio-button-response","59","2292719","0.0-12.0-0.14","","","",""
"9081","","{""P0_Q0"":""ㄱ,ㅡ,ㄴ,ㅗ,ㅅ"",""P0_Q1"":2}","survey","60","2301807","0.0-12.0-1.14","[]","","",""
"1699","TestRecordings/mphosak.wav","0","audio-button-response","61","2303591","0.0-12.0-0.15","","","",""
"11536","","{""P0_Q0"":""ㅇ,ㅜ,ㅁ,ㅍ,ㅗ,ㅅ,ㅏ,ㄱ"",""P0_Q1"":2}","survey","62","2315135","0.0-12.0-1.15","[]","","",""
"1387","TestRecordings/twan.wav","0","audio-button-response","63","2316607","0.0-12.0-0.16","","","",""
"8778","","{""P0_Q0"":""ㄷ,ㅘ,ㄴ"",""P0_Q1"":3}","survey","64","2325393","0.0-12.0-1.16","[]","","",""
"1288","TestRecordings/mtukin.wav","0","audio-button-response","65","2326766","0.0-12.0-0.17","","","",""
"10089","","{""P0_Q0"":""ㅇ,ㅡ,ㅁ,ㄷ,ㅜ,ㄱ,ㅣ,ㄴ"",""P0_Q1"":2}","survey","66","2336861","0.0-12.0-1.17","[]","","",""
"1094","TestRecordings/taphik.wav","0","audio-button-response","67","2338040","0.0-12.0-0.18","","","",""
"6509","","{""P0_Q0"":""ㄷ,ㅏ,ㅍ,ㅣㄱ"",""P0_Q1"":3}","survey","68","2344556","0.0-12.0-1.18","[]","","",""
"1383","TestRecordings/pmochun.wav","0","audio-button-response","69","2346024","0.0-12.0-0.19","","","",""
"10422","","{""P0_Q0"":""ㄱ,ㅡ,ㅁ,ㅗ,ㅊ,ㅜ,ㄴ"",""P0_Q1"":2}","survey","70","2356452","0.0-12.0-1.19","[]","","",""
"968","TestRecordings/thnok.wav","0","audio-button-response","71","2357505","0.0-12.0-0.20","","","",""
"7165","","{""P0_Q0"":""ㅅ,ㅡ,ㄴ,ㅗ,ㄱ"",""P0_Q1"":2}","survey","72","2364676","0.0-12.0-1.20","[]","","",""
"927","TestRecordings/khut.wav","0","audio-button-response","73","2365687","0.0-12.0-0.21","","","",""
"7510","","{""P0_Q0"":""ㅋ,ㅜ,ㅅ"",""P0_Q1"":3}","survey","74","2373205","0.0-12.0-1.21","[]","","",""
"1156","TestRecordings/npucap.wav","0","audio-button-response","75","2374447","0.0-12.0-0.22","","","",""
"10542","","{""P0_Q0"":""ㅇ,ㅜ,ㅁ,ㅂ,ㅜ,ㅈ,ㅑ,ㅂ"",""P0_Q1"":2}","survey","76","2384996","0.0-12.0-1.22","[]","","",""
"1345","TestRecordings/phnokhing.wav","0","audio-button-response","77","2386425","0.0-12.0-0.23","","","",""
"9866","","{""P0_Q0"":""ㅋ,ㅡ,ㄴ,ㅗ,ㅋ,ㅣ,ㅇ"",""P0_Q1"":2}","survey","78","2396299","0.0-12.0-1.23","[]","","",""
"1312","TestRecordings/chmop.wav","0","audio-button-response","79","2397700","0.0-12.0-0.24","","","",""
"9296","","{""P0_Q0"":""ㅊ,ㅡ,ㅁ,ㅗ,ㅂ"",""P0_Q1"":3}","survey","80","2407003","0.0-12.0-1.24","[]","","",""
"1097","TestRecordings/mpukham.wav","0","audio-button-response","81","2408186","0.0-12.0-0.25","","","",""
"10270","","{""P0_Q0"":""ㅇ,ㅡ,ㅁ,ㅂ,ㅜ,ㅋ,ㅏ,ㅁ"",""P0_Q1"":2}","survey","82","2418463","0.0-12.0-1.25","[]","","",""
"964","TestRecordings/khin.wav","0","audio-button-response","83","2419514","0.0-12.0-0.26","","","",""
"5243","","{""P0_Q0"":""ㅋ,ㅣ,ㄴ"",""P0_Q1"":4}","survey","84","2424764","0.0-12.0-1.26","[]","","",""
"1265","TestRecordings/nthaking.wav","0","audio-button-response","85","2426114","0.0-12.0-0.27","","","",""
"12011","","{""P0_Q0"":""ㅇ,ㅡ,ㅁ,ㅌ,ㅏ,ㄱ,ㅣ,ㅇ"",""P0_Q1"":2}","survey","86","2438134","0.0-12.0-1.27","[]","","",""
"973","TestRecordings/mthik.wav","0","audio-button-response","87","2439192","0.0-12.0-0.28","","","",""
"6657","","{""P0_Q0"":""ㅇ,ㅜ,ㅁ,ㅌ,ㅣ,ㄱ"",""P0_Q1"":2}","survey","88","2445857","0.0-12.0-1.28","[]","","",""
"1074","TestRecordings/nthimong.wav","0","audio-button-response","89","2447015","0.0-12.0-0.29","","","",""
"10536","","{""P0_Q0"":""ㅇ,ㅡ,ㅁ,ㅌ,ㅣ,ㅁ,ㅗ,ㅇ"",""P0_Q1"":1}","survey","90","2457558","0.0-12.0-1.29","[]","","",""
"1006","TestRecordings/twaput.wav","0","audio-button-response","91","2458587","0.0-12.0-0.30","","","",""
"7420","","{""P0_Q0"":""ㄷ,ㅘ,ㅂ,ㅜ,ㅅ"",""P0_Q1"":1}","survey","92","2466014","0.0-12.0-1.30","[]","","",""
"1388","TestRecordings/nkhuchom.wav","0","audio-button-response","93","2467489","0.0-12.0-0.31","","","",""
"10938","","{""P0_Q0"":""ㅇ,ㅜ,ㅁ,ㅋ,ㅡ,ㅊ,ㅗ,ㅁ"",""P0_Q1"":2}","survey","94","2478434","0.0-12.0-1.31","[]","","",""
"1236","TestRecordings/cwam.wav","0","audio-button-response","95","2479760","0.0-12.0-0.32","","","",""
"8041","","{""P0_Q0"":""ㅈ,ㅘ,ㅁ"",""P0_Q1"":4}","survey","96","2487808","0.0-12.0-1.32","[]","","",""
"1047","TestRecordings/thukhat.wav","0","audio-button-response","97","2488939","0.0-12.0-0.33","","","",""
"5341","","{""P0_Q0"":""ㅌ,ㅜ,ㅋ,ㅏ,ㅅ"",""P0_Q1"":2}","survey","98","2494288","0.0-12.0-1.33","[]","","",""
"1086","TestRecordings/twak.wav","0","audio-button-response","99","2495458","0.0-12.0-0.34","","","",""
"6583","","{""P0_Q0"":""ㄷ,ㅘ,ㄱ"",""P0_Q1"":4}","survey","100","2502048","0.0-12.0-1.34","[]","","",""
"919","TestRecordings/chnuk.wav","0","audio-button-response","101","2503053","0.0-12.0-0.35","","","",""
"7858","","{""P0_Q0"":""ㅅ,ㅡ,ㄴ,ㅜ,ㄱ"",""P0_Q1"":1}","survey","102","2510918","0.0-12.0-1.35","[]","","",""
"923","TestRecordings/thwam.wav","0","audio-button-response","103","2511925","0.0-12.0-0.36","","","",""
"4377","","{""P0_Q0"":""ㅌ,ㅘ,ㅁ"",""P0_Q1"":2}","survey","104","2516309","0.0-12.0-1.36","[]","","",""
"1464","TestRecordings/khwiphing.wav","0","audio-button-response","105","2517859","0.0-12.0-0.37","","","",""
"7216","","{""P0_Q0"":""ㅋ,ㅟ,ㅍ,ㅣ,ㅇ"",""P0_Q1"":2}","survey","106","2525083","0.0-12.0-1.37","[]","","",""
"1422","TestRecordings/mkit.wav","0","audio-button-response","107","2526590","0.0-12.0-0.38","","","",""
"10662","","{""P0_Q0"":""ㅇ,ㅡ,ㅁ,ㄱ,ㅣ,ㅅ"",""P0_Q1"":1}","survey","108","2537259","0.0-12.0-1.38","[]","","",""
"1137","TestRecordings/phmiman.wav","0","audio-button-response","109","2538482","0.0-12.0-0.39","","","",""
"10123","","{""P0_Q0"":""ㅋ,ㅡ,ㅁ,ㅣ,ㅁ,ㅏ,ㄴ"",""P0_Q1"":2}","survey","110","2548613","0.0-12.0-1.39","[]","","",""
"963","TestRecordings/khnap.wav","0","audio-button-response","111","2549660","0.0-12.0-0.40","","","",""
"6503","","{""P0_Q0"":""ㅋ,ㅡ,ㄴ,ㅏ,ㅂ"",""P0_Q1"":2}","survey","112","2556169","0.0-12.0-1.40","[]","","",""
"1175","TestRecordings/cnaphin.wav","0","audio-button-response","113","2557430","0.0-12.0-0.41","","","",""
"9180","","{""P0_Q0"":""ㅅ,ㅡ,ㄴ,ㅏ,ㅍ,ㅣ,ㄴ"",""P0_Q1"":3}","survey","114","2566618","0.0-12.0-1.41","[]","","",""
"905","TestRecordings/nkat.wav","0","audio-button-response","115","2567606","0.0-12.0-0.42","","","",""
"10603","","{""P0_Q0"":""ㅇ,ㅡ,ㅁ,ㄱ,ㅏ,ㅅ"",""P0_Q1"":2}","survey","116","2578216","0.0-12.0-1.42","[]","","",""
"1182","TestRecordings/tin.wav","0","audio-button-response","117","2579484","0.0-12.0-0.43","","","",""
"4373","","{""P0_Q0"":""ㅂ,ㅣ,ㄴ"",""P0_Q1"":5}","survey","118","2583864","0.0-12.0-1.43","[]","","",""
"1336","TestRecordings/chwikhong.wav","0","audio-button-response","119","2585285","0.0-12.0-0.44","","","",""
"6327","","{""P0_Q0"":""ㅊ,ㅟ,ㅋ,ㅗ,ㅇ"",""P0_Q1"":4}","survey","120","2591619","0.0-12.0-1.44","[]","","",""
"1262","TestRecordings/thwikhip.wav","0","audio-button-response","121","2592965","0.0-12.0-0.45","","","",""
"5923","","{""P0_Q0"":""ㅌ,ㅟ,ㅋ,ㅣ,ㅂ"",""P0_Q1"":2}","survey","122","2598896","0.0-12.0-1.45","[]","","",""
"1026","TestRecordings/thinok.wav","0","audio-button-response","123","2600005","0.0-12.0-0.46","","","",""
"6775","","{""P0_Q0"":""ㅋ,ㅣ,ㄴ,ㅗ,ㄱ"",""P0_Q1"":3}","survey","124","2606787","0.0-12.0-1.46","[]","","",""
"1073","TestRecordings/nwimik.wav","0","audio-button-response","125","2607943","0.0-12.0-0.47","","","",""
"7383","","{""P0_Q0"":""ㄴ,ㅜ,ㅇ,ㅣ,ㅁ,ㅣ,ㄱ"",""P0_Q1"":2}","survey","126","2615334","0.0-12.0-1.47","[]","","",""
"1051","TestRecordings/twamot.wav","0","audio-button-response","127","2616470","0.0-12.0-0.48","","","",""
"7781","","{""P0_Q0"":""ㄷ,ㅘ,ㅁ,ㅗ,ㅅ"",""P0_Q1"":1}","survey","128","2624257","0.0-12.0-1.48","[]","","",""
"1120","TestRecordings/tnunong.wav","0","audio-button-response","129","2625462","0.0-12.0-0.49","","","",""
"9348","","{""P0_Q0"":""ㄱ,ㅡ,ㄴ,ㅜ,ㄴ,ㅗ,ㅇ"",""P0_Q1"":1}","survey","130","2634818","0.0-12.0-1.49","[]","","",""
"937","TestRecordings/swikhat.wav","0","audio-button-response","131","2635776","0.0-12.0-0.50","","","",""
"7642","","{""P0_Q0"":""ㅅ,ㅟ,ㅋ,ㅏ,ㅅ"",""P0_Q1"":1}","survey","132","2643425","0.0-12.0-1.50","[]","","",""
"997","TestRecordings/tikut.wav","0","audio-button-response","133","2644506","0.0-12.0-0.51","","","",""
"9610","","{""P0_Q0"":""ㄷ,ㅣ,ㄱ,ㅜ,ㅅ"",""P0_Q1"":3}","survey","134","2654123","0.0-12.0-1.51","[]","","",""
"1190","TestRecordings/chakot.wav","0","audio-button-response","135","2655337","0.0-12.0-0.52","","","",""
"6625","","{""P0_Q0"":""ㅊ,ㅏ,ㄱ,ㅗ,ㄷ"",""P0_Q1"":4}","survey","136","2661968","0.0-12.0-1.52","[]","","",""
"1601","TestRecordings/chumik.wav","0","audio-button-response","137","2663654","0.0-12.0-0.53","","","",""
"6646","","{""P0_Q0"":""ㅊ,ㅜ,ㅁ,ㅣㄱ"",""P0_Q1"":1}","survey","138","2670309","0.0-12.0-1.53","[]","","",""
"929","TestRecordings/nchot.wav","0","audio-button-response","139","2671324","0.0-12.0-0.54","","","",""
"9924","","{""P0_Q0"":""ㅇ,ㅡ,ㅁ,ㅊ,ㅗ,ㄷ"",""P0_Q1"":2}","survey","140","2681258","0.0-12.0-1.54","[]","","",""
"972","TestRecordings/chunak.wav","0","audio-button-response","141","2682315","0.0-12.0-0.55","","","",""
"9641","","{""P0_Q0"":""ㅊ,ㅜ,ㄴ,ㅏ,ㄱ"",""P0_Q1"":2}","survey","142","2691963","0.0-12.0-1.55","[]","","",""
"1077","TestRecordings/cmoman.wav","0","audio-button-response","143","2693124","0.0-12.0-0.56","","","",""
"8384","","{""P0_Q0"":""ㅊ,ㅡ,ㅁ,ㅗ,ㅁ,ㅏ,ㄴ"",""P0_Q1"":2}","survey","144","2701515","0.0-12.0-1.56","[]","","",""
"831","TestRecordings/mup.wav","0","audio-button-response","145","2702428","0.0-12.0-0.57","","","",""
"5299","","{""P0_Q0"":""ㅁ,ㅜ,ㅂ"",""P0_Q1"":4}","survey","146","2707733","0.0-12.0-1.57","[]","","",""
"845","TestRecordings/khnothik.wav","0","audio-button-response","147","2708662","0.0-12.0-0.58","","","",""
"9423","","{""P0_Q0"":""ㅋ,ㅡ,ㄴ,ㅗ,ㅌ,ㅣ,ㄱ"",""P0_Q1"":1}","survey","148","2718092","0.0-12.0-1.58","[]","","",""
"967","TestRecordings/nakhit.wav","0","audio-button-response","149","2719142","0.0-12.0-0.59","","","",""
"7134","","{""P0_Q0"":""ㄴ,ㅏ,ㅋ,ㅣ,ㅅ"",""P0_Q1"":1}","survey","150","2726282","0.0-12.0-1.59","[]","","",""
"3885",""," ","html-keyboard-response","151","2730168","0.0-13.0","","","",""
"36235","","{""P0_Q0"":""20살"",""P0_Q1"":""여"",""P0_Q2"":""8살"",""P0_Q3"":""없음"",""P0_Q4"":""중국어"",""P0_Q5"":""17살, 1년"",""P0_Q6"":""없음""}","survey","152","2766411","0.0-14.0","[]","","",""
"1525","<p style=""font-size:30px"",lang=""ko"">실험이 끝났습니다</p><p style=""font-size:30px"",lang=""ko"">참가해주셔서 고맙습니다</p>","enter","html-keyboard-response","153","2767937","0.0-15.0","","","",""
