"rt","stimulus","response","trial_type","trial_index","time_elapsed","internal_node_id","accuracy","PracticeTest","ConsonantSequence","Grammaticality"
"2804868","<p style=""font-size:30px"",lang=""ko"">실험에 오신 것을 환영합니다</p><p lang=""ko"">스페이스바를 누르면 다음 페이지로 넘어갑니다</p>"," ","html-keyboard-response","0","2804661","0.0-0.0","","","",""
"1312","<p style=""font-size:30px"",lang=""ko"">해드폰을 본인에게 잘 맞게 착용하세요</p><p lang=""ko"">스페이스바를 누르면 다음 페이지로 넘어갑니다</p>"," ","html-keyboard-response","1","2805974","0.0-1.0","","","",""
"6364","<p style=""font-size:30px"",lang=""ko"">이 실험에서는 새로 만든 한국 단어를 들으실 겁니다</p><p style=""font-size:30px"",lang=""ko"">단어를 들리는대로 쓰세요. 그런 다음 그 단어가 한국어 단어로 가능한지 평가하세요</p><p lang=""ko"">스페이스바를 누르면 다음 페이지로 넘어갑니다</p>"," ","html-keyboard-response","2","2812339","0.0-2.0","","","",""
"8826","<p style=""font-size:30px"",lang=""ko"">원래 있는 단어로 예를 들어 봅시다</p><p lang=""ko"">스페이스바를 누르면 다음 페이지로 넘어갑니다</p>"," ","html-keyboard-response","3","2821165","0.0-3.0","","","",""
"10836","PracticeRecordings/kom_bear.wav","0","audio-button-response","4","2832120","0.0-4.0","","","",""
"2126","<p style=""font-size:30px"",lang=""ko"">이제 직접 단어를 듣고 쓰는 연습을 해봅시다. </p><p style=""font-size:30px"",lang=""ko"">스페이스바를 누르면 다음 페이지로 넘어갑니다</p>"," ","html-keyboard-response","5","2834247","0.0-5.0","","","",""
"3199","PracticeRecordings/kirin_giraffe.wav","0","audio-button-response","6","2837527","0.0-6.0-0.0","","","",""
"7462","kirin_giraffe","{""P0_Q0"":""ㄱ""}","survey","7","2845022","0.0-6.0-1.0","[]","practice","NA","TRUE"
"2290","<p style=""font-size:30px"",lang=""ko"">방금 들으신 단어는 ""ㄱ,ㅣ,ㄹ,ㅣ,ㄴ"" 이라고 쓰시면 됩니다</p><p lang=""ko"">스페이스바를 누르면 다음 페이지로 넘어갑니다</p>"," ","html-keyboard-response","8","2847312","0.0-6.0-2.0","","","",""
"2418","PracticeRecordings/saca_lion.wav","0","audio-button-response","9","2849811","0.0-6.0-0.1","","","",""
"3773","saca_lion","{""P0_Q0"":""ㅅ""}","survey","10","2853592","0.0-6.0-1.1","[]","practice","NA","FALSE"
"1467","<p style=""font-size:30px"",lang=""ko"">방금 들으신 단어는 ""ㅅ,ㅏ,ㅈ,ㅏ"" 라고 쓰시면 됩니다</p><p lang=""ko"">스페이스바를 누르면 다음 페이지로 넘어갑니다</p>"," ","html-keyboard-response","11","2855060","0.0-6.0-2.1","","","",""
"1793","PracticeRecordings/saseum_deer.wav","0","audio-button-response","12","2856932","0.0-6.0-0.2","","","",""
"6547","saseum_deer","{""P0_Q0"":""ㅅ,ㅏ,ㅅ,ㅡ,ㅁ""}","survey","13","2863486","0.0-6.0-1.2","[]","practice","NA","FALSE"
"1910","<p style=""font-size:30px"",lang=""ko"">방금 들으신 단어는 ""ㅅ,ㅏ,ㅅ,ㅡ,ㅁ""이라고 쓰시면 됩니다</p><p lang=""ko"">스페이스바를 누르면 다음 페이지로 넘어갑니다</p>"," ","html-keyboard-response","14","2865397","0.0-6.0-2.2","","","",""
"4463","PracticeRecordings/thokki_rabbit.wav","0","audio-button-response","15","2869883","0.0-6.0-0.3","","","",""
"6539","thokki_rabbit","{""P0_Q0"":""ㅌ,ㅗ,ㄲ,ㅣ""}","survey","16","2876432","0.0-6.0-1.3","[]","practice","NA","FALSE"
"2013","<p style=""font-size:30px"",lang=""ko"">방금 들으신 단어는 ""ㅌ,ㅗ,ㄲ,ㅣ"" 라고 쓰시면 됩니다</p><p lang=""ko"">스페이스바를 누르면 다음 페이지로 넘어갑니다</p>"," ","html-keyboard-response","17","2878446","0.0-6.0-2.3","","","",""
"1311","<p style=""font-size:30px"",lang=""ko"">이제 만든 단어로 연습해봅시다.</p><p lang=""ko"">스페이스바를 누르면 다음 페이지로 넘어갑니다</p>"," ","html-keyboard-response","18","2879758","0.0-7.0","","","",""
"2502","PracticeRecordings/snen.wav","0","audio-button-response","19","2882307","0.0-8.0-0.0","","","",""
"9767","snen","{""P0_Q0"":""ㅅ,ㅡ,ㄴ,ㅐ,ㄴ""}","survey","20","2892082","0.0-8.0-1.0","[]","practice","NA","TRUE"
"3580","<p style=""font-size:30px"",lang=""ko"">들으신 단어는 <br> ""ㅅ,ㅡ,ㄴ,ㅐ,ㄴ""  ""ㅅ,ㅡ,ㄴ,ㅐ"" ""ㅅ,ㄴ,ㅐ,ㄴ (""으"" 소리가 안 들리는 경우)"" 등 <br> 사람에 따라 다양하게 들릴 수 있습니다 <br> 본인에게 들리는대로 쓰시면 됩니다.</p><p lang=""ko"">스페이스바를 누르면 다음 페이지로 넘어갑니다</p>"," ","html-keyboard-response","21","2895663","0.0-8.0-2.0","","","",""
"2188","PracticeRecordings/phrak.wav","0","audio-button-response","22","2897873","0.0-8.0-0.1","","","",""
"7482","phrak","{""P0_Q0"":""ㅍ,ㅡ,ㄹ,ㅏ,ㄱ""}","survey","23","2905363","0.0-8.0-1.1","[]","practice","NA","FALSE"
"1818","<p style=""font-size:30px"",lang=""ko"">들으신 단어는 <br> ""ㅍ,ㅡ,ㄹ,ㅏ,ㄱ"" ""ㅍ,ㅡ,ㄹ,ㅏ,ㅅ"" ""ㅋ,ㅡ,ㄹ,ㅏ,ㄱ"" ""ㅍ,ㄹ,ㅏ,ㄱ (""으"" 소리가 안 들리는 경우)"" 등 <br> 사람에 따라 다양하게 들릴 수 있습니다 <br> 본인에게 들리는대로 쓰시면 됩니다.</p><p lang=""ko"">스페이스바를 누르면 다음 페이지로 넘어갑니다</p>"," ","html-keyboard-response","24","2907181","0.0-8.0-2.1","","","",""
"2292","PracticeRecordings/chka.wav","0","audio-button-response","25","2909557","0.0-8.0-0.2","","","",""
"9056","chka","{""P0_Q0"":""ㅊ,ㅡ,ㄲ,ㅏ""}","survey","26","2918619","0.0-8.0-1.2","[]","practice","NA","FALSE"
"1909","<p style=""font-size:30px"",lang=""ko"">들으신 단어는 ""ㅊ,ㅣ,ㄱ,ㅏ"", ""ㅊ,ㅡ,ㄱ,ㅏ"", ""ㅊ,ㄱ,ㅏ"", ""ㅊ,ㅟ,ㄱ,ㅏ"" 등 <br> 사람에 따라 다양하게 들릴 수 있습니다. <br> 본인에게 들리는대로 쓰시면 됩니다.</p><p lang=""ko"">스페이스바를 누르면 다음 페이지로 넘어갑니다</p>"," ","html-keyboard-response","27","2920529","0.0-8.0-2.2","","","",""
"1971",""," ","html-keyboard-response","28","2922500","0.0-9.0","","","",""
"2177","<p style=""font-size:30px"",lang=""ko"">이제 실험을 시작하겠습니다.</p><p style=""font-size:30px"",lang=""ko"">실전에서는 각각의 만든 단어를 한 번씩만 들을 수 있습니다.</p>"," ","html-keyboard-response","29","2924678","0.0-10.0","","","",""
"5490","<p style=""font-size:30px"",lang=""ko"">단어를 풀어 쓰신 후에 그 단어가 한국어로 가능한 단어인지 평가해주세요</p><p style=""font-size:30px"",lang=""ko"">1점은 한국어로 완전 불가능한 단어, 7점은 한국어로 완전 가능한 단어를 의미합니다</p><p lang=""ko"">스페이스바를 누르면 다음 페이지로 넘어갑니다</p>"," ","html-keyboard-response","30","2930169","0.0-11.0","","","",""
"2842","TestRecordings/tmichut.wav","0","audio-button-response","31","2933101","0.0-12.0-0.0","","","",""
"23233","","{""P0_Q0"":""ㄷ,ㅡ,ㅁ,ㅣ,ㅊ,ㅜ,ㄷ"",""P0_Q1"":4}","survey","32","2956349","0.0-12.0-1.0","[]","","",""
"2649","TestRecordings/nwimik.wav","0","audio-button-response","33","2959024","0.0-12.0-0.1","","","",""
"12219","","{""P0_Q0"":""ㄴ,ㅟ,ㅁ,ㅣ,ㄱ"",""P0_Q1"":5}","survey","34","2971253","0.0-12.0-1.1","[]","","",""
"2777","TestRecordings/nchot.wav","0","audio-button-response","35","2974115","0.0-12.0-0.2","","","",""
"12035","","{""P0_Q0"":""ㅇ,ㅡ,ㄴ,ㅊ,ㅗ,ㄷ"",""P0_Q1"":2}","survey","36","2986160","0.0-12.0-1.2","[]","","",""
"1481","TestRecordings/khut.wav","0","audio-button-response","37","2987724","0.0-12.0-0.3","","","",""
"9441","","{""P0_Q0"":""ㅋ,ㅜ,ㄷ"",""P0_Q1"":6}","survey","38","2997172","0.0-12.0-1.3","[]","","",""
"1673","TestRecordings/knot.wav","0","audio-button-response","39","2998929","0.0-12.0-0.4","","","",""
"8266","","{""P0_Q0"":""ㄱ,ㅡ,ㄴ,ㅗ,ㄷ"",""P0_Q1"":5}","survey","40","3007202","0.0-12.0-1.4","[]","","",""
"1688","TestRecordings/swikhat.wav","0","audio-button-response","41","3008975","0.0-12.0-0.5","","","",""
"9707","","{""P0_Q0"":""ㅅ,ㅟ,ㅋ,ㅏ,ㄷ"",""P0_Q1"":5}","survey","42","3018690","0.0-12.0-1.5","[]","","",""
"1969","TestRecordings/mphutam.wav","0","audio-button-response","43","3020684","0.0-12.0-0.6","","","",""
"14392","","{""P0_Q0"":""ㅇ,ㅡ,ㅁ,ㅍ,ㅜ,ㄷ,ㅏ,ㅁ"",""P0_Q1"":3}","survey","44","3035085","0.0-12.0-1.6","[]","","",""
"2517","TestRecordings/phnokhing.wav","0","audio-button-response","45","3037685","0.0-12.0-0.7","","","",""
"10803","","{""P0_Q0"":""ㅍ,ㅡ,ㄴ,ㅗ,ㅋ,ㅣ,ㅇ"",""P0_Q1"":5}","survey","46","3048496","0.0-12.0-1.7","[]","","",""
"2231","TestRecordings/chakot.wav","0","audio-button-response","47","3050812","0.0-12.0-0.8","","","",""
"10767","","{""P0_Q0"":""ㅊ,ㅏ,ㄱ,ㅗ,ㄷ"",""P0_Q1"":4}","survey","48","3061587","0.0-12.0-1.8","[]","","",""
"1994","TestRecordings/khwichon.wav","0","audio-button-response","49","3063665","0.0-12.0-0.9","","","",""
"10629","","{""P0_Q0"":""ㅋ,ㅟ,ㅊ,ㅗ,ㄴ"",""P0_Q1"":4}","survey","50","3074302","0.0-12.0-1.9","[]","","",""
"1903","TestRecordings/phmiman.wav","0","audio-button-response","51","3076237","0.0-12.0-0.10","","","",""
"11298","","{""P0_Q0"":""ㅍ,ㅡ,ㅁ,ㅣ,ㅁ,ㅏ,ㄴ"",""P0_Q1"":2}","survey","52","3087542","0.0-12.0-1.10","[]","","",""
"1953","TestRecordings/tikut.wav","0","audio-button-response","53","3089578","0.0-12.0-0.11","","","",""
"7157","","{""P0_Q0"":""ㄷ,ㅣ,ㄱ,ㅜ,ㄷ"",""P0_Q1"":3}","survey","54","3096743","0.0-12.0-1.11","[]","","",""
"1735","TestRecordings/khnothik.wav","0","audio-button-response","55","3098567","0.0-12.0-0.12","","","",""
"14043","","{""P0_Q0"":""ㅋ,ㅡ,ㄴ,ㅗ,ㅌ,ㅣ,ㄱ"",""P0_Q1"":3}","survey","56","3112617","0.0-12.0-1.12","[]","","",""
"2122","TestRecordings/thukhat.wav","0","audio-button-response","57","3114825","0.0-12.0-0.13","","","",""
"10951","","{""P0_Q0"":""ㅌ,ㅜ,ㅋ,ㅏ,ㅅ"",""P0_Q1"":4}","survey","58","3125783","0.0-12.0-1.13","[]","","",""
"1888","TestRecordings/khwipot.wav","0","audio-button-response","59","3127755","0.0-12.0-0.14","","","",""
"10959","","{""P0_Q0"":""ㅋ,ㅟ,ㅂ,ㅗ,ㅅ"",""P0_Q1"":5}","survey","60","3138721","0.0-12.0-1.14","[]","","",""
"1509","TestRecordings/twamot.wav","0","audio-button-response","61","3140311","0.0-12.0-0.15","","","",""
"8703","","{""P0_Q0"":""ㄷ,ㅜ,ㅇ,ㅏ,ㅁ,ㅗ,ㅅ"",""P0_Q1"":4}","survey","62","3149022","0.0-12.0-1.15","[]","","",""
"1659","TestRecordings/khithuk.wav","0","audio-button-response","63","3150766","0.0-12.0-0.16","","","",""
"9415","","{""P0_Q0"":""ㅊ,ㅣ,ㅌ,ㅜ"",""P0_Q1"":2}","survey","64","3160187","0.0-12.0-1.16","[]","","",""
"2111","TestRecordings/mphuk.wav","0","audio-button-response","65","3162383","0.0-12.0-0.17","","","",""
"11273","","{""P0_Q0"":""ㅇ,ㅡ,ㅁ,ㅍ,ㅜ"",""P0_Q1"":2}","survey","66","3173663","0.0-12.0-1.17","[]","","",""
"1846","TestRecordings/chnupot.wav","0","audio-button-response","67","3175592","0.0-12.0-0.18","","","",""
"12665","","{""P0_Q0"":""ㅊ,ㅡ,ㄴ,ㅜ,ㅂ,ㅗ,ㄷ"",""P0_Q1"":2}","survey","68","3188264","0.0-12.0-1.18","[]","","",""
"2866","TestRecordings/nkat.wav","0","audio-button-response","69","3191212","0.0-12.0-0.19","","","",""
"11705","","{""P0_Q0"":""ㅇ,ㅡ,ㅁ,ㄱ,ㅏ,ㄷ"",""P0_Q1"":1}","survey","70","3202925","0.0-12.0-1.19","[]","","",""
"1587","TestRecordings/twaput.wav","0","audio-button-response","71","3204595","0.0-12.0-0.20","","","",""
"13157","","{""P0_Q0"":""ㄷ,ㅜ,ㅇ,ㅏ,ㅂ,ㅜ,ㄷ"",""P0_Q1"":3}","survey","72","3217759","0.0-12.0-1.20","[]","","",""
"1949","TestRecordings/khin.wav","0","audio-button-response","73","3219794","0.0-12.0-0.21","","","",""
"7947","","{""P0_Q0"":""ㅋ,ㅣ,ㄴ"",""P0_Q1"":2}","survey","74","3227748","0.0-12.0-1.21","[]","","",""
"1856","TestRecordings/chwikhong.wav","0","audio-button-response","75","3229690","0.0-12.0-0.22","","","",""
"8200","","{""P0_Q0"":""ㅊ,ㅟ,ㅋ,ㅗ,ㅇ"",""P0_Q1"":6}","survey","76","3237897","0.0-12.0-1.22","[]","","",""
"1573","TestRecordings/twak.wav","0","audio-button-response","77","3239555","0.0-12.0-0.23","","","",""
"9155","","{""P0_Q0"":""ㄷ,ㅜ,ㅇ,ㅏ,ㄱ"",""P0_Q1"":5}","survey","78","3248718","0.0-12.0-1.23","[]","","",""
"2206","TestRecordings/nchocip.wav","0","audio-button-response","79","3251009","0.0-12.0-0.24","","","",""
"12127","","{""P0_Q0"":""ㅇ,ㅡ,ㅁ,ㅊ,ㅗ,ㅈ,ㅣ,ㅂ"",""P0_Q1"":2}","survey","80","3263144","0.0-12.0-1.24","[]","","",""
"2088","TestRecordings/thwam.wav","0","audio-button-response","81","3265318","0.0-12.0-0.25","","","",""
"10821","","{""P0_Q0"":""ㅌ,ㅘ,ㅁ"",""P0_Q1"":3}","survey","82","3276146","0.0-12.0-1.25","[]","","",""
"1574","TestRecordings/kmamun.wav","0","audio-button-response","83","3277805","0.0-12.0-0.26","","","",""
"17444","","{""P0_Q0"":""ㅋ,ㅡ,ㅁ,ㅏ,ㅁ,ㅜ,ㄴ"",""P0_Q1"":4}","survey","84","3295257","0.0-12.0-1.26","[]","","",""
"1626","TestRecordings/mphosak.wav","0","audio-button-response","85","3296969","0.0-12.0-0.27","","","",""
"15736","","{""P0_Q0"":""ㅇ,ㅡ,ㅁ,ㅍ,ㅗ,ㅅ,ㅏ,ㄱ"",""P0_Q1"":3}","survey","86","3312713","0.0-12.0-1.27","[]","","",""
"1872","TestRecordings/mpukham.wav","0","audio-button-response","87","3314668","0.0-12.0-0.28","","","",""
"16402","","{""P0_Q0"":""ㅇ,ㅡ,ㅁ,ㅂ,ㅜ,ㅋ,ㅏ,ㅁ"",""P0_Q1"":3}","survey","88","3331077","0.0-12.0-1.28","[]","","",""
"1526","TestRecordings/thnok.wav","0","audio-button-response","89","3332687","0.0-12.0-0.29","","","",""
"9792","","{""P0_Q0"":""ㅌ,ㅡ,ㄴ,ㅗ,ㄱ"",""P0_Q1"":3}","survey","90","3342486","0.0-12.0-1.29","[]","","",""
"1585","TestRecordings/mup.wav","0","audio-button-response","91","3344114","0.0-12.0-0.30","","","",""
"10897","","{""P0_Q0"":""ㅁ,ㅜ"",""P0_Q1"":2}","survey","92","3355017","0.0-12.0-1.30","[]","","",""
"1661","TestRecordings/nthimong.wav","0","audio-button-response","93","3356762","0.0-12.0-0.31","","","",""
"8863","","{""P0_Q0"":""ㅇ,ㅡ,ㄴ,ㅌ,ㅣ,ㅁ,ㅗ,ㅇ"",""P0_Q1"":2}","survey","94","3365633","0.0-12.0-1.31","[]","","",""
"1608","TestRecordings/mkit.wav","0","audio-button-response","95","3367323","0.0-12.0-0.32","","","",""
"9150","","{""P0_Q0"":""ㅇ,ㅡ,ㅁ,ㄱ,ㅣ,ㅅ"",""P0_Q1"":1}","survey","96","3376480","0.0-12.0-1.32","[]","","",""
"1609","TestRecordings/khnap.wav","0","audio-button-response","97","3378121","0.0-12.0-0.33","","","",""
"11958","","{""P0_Q0"":""ㅋ,ㅡ,ㄴ,ㅏ,ㅂ"",""P0_Q1"":5}","survey","98","3390088","0.0-12.0-1.33","[]","","",""
"1843","TestRecordings/chwiphin.wav","0","audio-button-response","99","3392016","0.0-12.0-0.34","","","",""
"7338","","{""P0_Q0"":""ㅊ,ㅟ,ㅍ,ㅣ,ㄴ"",""P0_Q1"":7}","survey","100","3399361","0.0-12.0-1.34","[]","","",""
"1677","TestRecordings/nthaking.wav","0","audio-button-response","101","3401124","0.0-12.0-0.35","","","",""
"9164","","{""P0_Q0"":""ㅇ,ㅡ,ㄴ,ㅌ,ㅏ,ㄱ,ㅣ,ㅇ"",""P0_Q1"":2}","survey","102","3410296","0.0-12.0-1.35","[]","","",""
"1784","TestRecordings/tin.wav","0","audio-button-response","103","3412153","0.0-12.0-0.36","","","",""
"5836","","{""P0_Q0"":""ㄷ,ㅣ,ㄴ"",""P0_Q1"":5}","survey","104","3417996","0.0-12.0-1.36","[]","","",""
"1912","TestRecordings/chumik.wav","0","audio-button-response","105","3419931","0.0-12.0-0.37","","","",""
"6784","","{""P0_Q0"":""ㅊ,ㅜ,ㅁ,ㅣ,ㄱ"",""P0_Q1"":6}","survey","106","3426727","0.0-12.0-1.37","[]","","",""
"1830","TestRecordings/chnuk.wav","0","audio-button-response","107","3428633","0.0-12.0-0.38","","","",""
"7404","","{""P0_Q0"":""ㅊ,ㅡ,ㄴ,ㅜ,ㄱ"",""P0_Q1"":4}","survey","108","3436043","0.0-12.0-1.38","[]","","",""
"1430","TestRecordings/chunak.wav","0","audio-button-response","109","3437556","0.0-12.0-0.39","","","",""
"7405","","{""P0_Q0"":""ㅊ,ㅜ,ㄴ,ㅏ,ㄱ"",""P0_Q1"":4}","survey","110","3444967","0.0-12.0-1.39","[]","","",""
"1713","TestRecordings/taphik.wav","0","audio-button-response","111","3446765","0.0-12.0-0.40","","","",""
"5690","","{""P0_Q0"":""ㄷ,ㅏ,ㅍ,ㅣ,ㄱ"",""P0_Q1"":5}","survey","112","3452462","0.0-12.0-1.40","[]","","",""
"1585","TestRecordings/cwit.wav","0","audio-button-response","113","3454130","0.0-12.0-0.41","","","",""
"8726","","{""P0_Q0"":""ㅈ,ㅟ,ㄷ"",""P0_Q1"":4}","survey","114","3462862","0.0-12.0-1.41","[]","","",""
"1830","TestRecordings/sikot.wav","0","audio-button-response","115","3464716","0.0-12.0-0.42","","","",""
"7853","","{""P0_Q0"":""ㅅ,ㅣ,ㄱ,ㅗ,ㄷ"",""P0_Q1"":5}","survey","116","3472578","0.0-12.0-1.42","[]","","",""
"1677","TestRecordings/npucap.wav","0","audio-button-response","117","3474341","0.0-12.0-0.43","","","",""
"12094","","{""P0_Q0"":""ㅇ,ㅡ,ㄴ,ㅍ,ㅜ,ㅈ,ㅏ,ㅂ"",""P0_Q1"":3}","survey","118","3486442","0.0-12.0-1.43","[]","","",""
"1727","TestRecordings/tnunong.wav","0","audio-button-response","119","3488253","0.0-12.0-0.44","","","",""
"16885","","{""P0_Q0"":""ㄷ,ㅡ,ㄴ,ㅜ,ㄴ,ㅗ,ㅇ"",""P0_Q1"":5}","survey","120","3505146","0.0-12.0-1.44","[]","","",""
"1505","TestRecordings/thinok.wav","0","audio-button-response","121","3506673","0.0-12.0-0.45","","","",""
"9106","","{""P0_Q0"":""ㅌ,ㅣ,ㄴ,ㅗ,ㄱ"",""P0_Q1"":4}","survey","122","3515787","0.0-12.0-1.45","[]","","",""
"1607","TestRecordings/ntakhip.wav","0","audio-button-response","123","3517479","0.0-12.0-0.46","","","",""
"10559","","{""P0_Q0"":""ㅇ,ㅡ,ㄴ,ㄷ,ㅏ,ㅋ,ㅣ,ㅂ"",""P0_Q1"":3}","survey","124","3528044","0.0-12.0-1.46","[]","","",""
"1779","TestRecordings/cmoman.wav","0","audio-button-response","125","3529909","0.0-12.0-0.47","","","",""
"9243","","{""P0_Q0"":""ㅊ,ㅡ,ㅁ,ㅗ,ㅁ,ㅏ,ㄴ"",""P0_Q1"":4}","survey","126","3539161","0.0-12.0-1.47","[]","","",""
"1540","TestRecordings/cwam.wav","0","audio-button-response","127","3540785","0.0-12.0-0.48","","","",""
"6849","","{""P0_Q0"":""ㅈ,ㅘ,ㅁ"",""P0_Q1"":4}","survey","128","3547642","0.0-12.0-1.48","[]","","",""
"1954","TestRecordings/thwikhip.wav","0","audio-button-response","129","3549679","0.0-12.0-0.49","","","",""
"8358","","{""P0_Q0"":""ㅌ,ㅟ,ㅋ,ㅣ,ㅂ"",""P0_Q1"":4}","survey","130","3558043","0.0-12.0-1.49","[]","","",""
"1668","TestRecordings/khwiphing.wav","0","audio-button-response","131","3559797","0.0-12.0-0.50","","","",""
"9551","","{""P0_Q0"":""ㅋ,ㅟ,ㅍ,ㅣ,ㅇ"",""P0_Q1"":5}","survey","132","3569355","0.0-12.0-1.50","[]","","",""
"1539","TestRecordings/chmop.wav","0","audio-button-response","133","3570979","0.0-12.0-0.51","","","",""
"6757","","{""P0_Q0"":""ㅊ,ㅡ,ㅁ,ㅗ,ㅂ"",""P0_Q1"":4}","survey","134","3577743","0.0-12.0-1.51","[]","","",""
"1719","TestRecordings/twan.wav","0","audio-button-response","135","3579548","0.0-12.0-0.52","","","",""
"8581","","{""P0_Q0"":""ㄷ,ㅘ,ㄴ"",""P0_Q1"":4}","survey","136","3588136","0.0-12.0-1.52","[]","","",""
"2627","TestRecordings/cnaphin.wav","0","audio-button-response","137","3590848","0.0-12.0-0.53","","","",""
"14294","","{""P0_Q0"":""ㅉ,ㅡ,ㄴ,ㅏ,ㅍ,ㅣ,ㄴ"",""P0_Q1"":5}","survey","138","3605149","0.0-12.0-1.53","[]","","",""
"1874","TestRecordings/nkhuchom.wav","0","audio-button-response","139","3607106","0.0-12.0-0.54","","","",""
"8954","","{""P0_Q0"":""ㅇ,ㅡ,ㅁ,ㅋ,ㅜ,ㅊ,ㅗ,ㅁ"",""P0_Q1"":3}","survey","140","3616067","0.0-12.0-1.54","[]","","",""
"1547","TestRecordings/mthik.wav","0","audio-button-response","141","3617700","0.0-12.0-0.55","","","",""
"7858","","{""P0_Q0"":""ㅇ,ㅡ,ㅁ,ㅌ,ㅣ,ㄱ"",""P0_Q1"":3}","survey","142","3625565","0.0-12.0-1.55","[]","","",""
"1414","TestRecordings/pmochun.wav","0","audio-button-response","143","3627062","0.0-12.0-0.56","","","",""
"8590","","{""P0_Q0"":""ㅂ,ㅡ,ㅁ,ㅜ,ㅊ,ㅜ,ㄴ"",""P0_Q1"":4}","survey","144","3635659","0.0-12.0-1.56","[]","","",""
"4501","TestRecordings/nakhit.wav","0","audio-button-response","145","3640243","0.0-12.0-0.57","","","",""
"6560","","{""P0_Q0"":""ㄴ,ㅏ,ㅋ,ㅣ,ㄷ"",""P0_Q1"":4}","survey","146","3646810","0.0-12.0-1.57","[]","","",""
"1269","TestRecordings/mtukin.wav","0","audio-button-response","147","3648164","0.0-12.0-0.58","","","",""
"16131","","{""P0_Q0"":""ㅇ,ㅡ,ㅁ,ㄷ,ㅜ,ㄱ,ㅣ,ㄴ"",""P0_Q1"":3}","survey","148","3664303","0.0-12.0-1.58","[]","","",""
"1846","TestRecordings/tup.wav","0","audio-button-response","149","3666211","0.0-12.0-0.59","","","",""
"10375","","{""P0_Q0"":""ㄷ,ㅜ,ㅇ,ㅜ,ㅂ"",""P0_Q1"":4}","survey","150","3676592","0.0-12.0-1.59","[]","","",""
"4776",""," ","html-keyboard-response","151","3681369","0.0-13.0","","","",""
"39448","","{""P0_Q0"":""20"",""P0_Q1"":""여"",""P0_Q2"":""6"",""P0_Q3"":""없음"",""P0_Q4"":""중국어"",""P0_Q5"":""16살, 2년"",""P0_Q6"":""없음""}","survey","152","3720826","0.0-14.0","[]","","",""
"1762","<p style=""font-size:30px"",lang=""ko"">실험이 끝났습니다</p><p style=""font-size:30px"",lang=""ko"">참가해주셔서 고맙습니다</p>"," ","html-keyboard-response","153","3722589","0.0-15.0","","","",""
