"rt","stimulus","response","trial_type","trial_index","time_elapsed","internal_node_id","accuracy","PracticeTest","ConsonantSequence","Grammaticality"
"675837","<p style=""font-size:30px"",lang=""ko"">실험에 오신 것을 환영합니다</p><p lang=""ko"">스페이스바를 누르면 다음 페이지로 넘어갑니다</p>"," ","html-keyboard-response","0","675839","0.0-0.0","","","",""
"3429","<p style=""font-size:30px"",lang=""ko"">해드폰을 본인에게 잘 맞게 착용하세요</p><p lang=""ko"">스페이스바를 누르면 다음 페이지로 넘어갑니다</p>"," ","html-keyboard-response","1","679270","0.0-1.0","","","",""
"3266","<p style=""font-size:30px"",lang=""ko"">이 실험에서는 새로 만든 한국 단어를 들으실 겁니다</p><p style=""font-size:30px"",lang=""ko"">단어를 들리는대로 쓰세요. 그런 다음 그 단어가 한국어 단어로 가능한지 평가하세요</p><p lang=""ko"">스페이스바를 누르면 다음 페이지로 넘어갑니다</p>"," ","html-keyboard-response","2","682536","0.0-2.0","","","",""
"3244","<p style=""font-size:30px"",lang=""ko"">원래 있는 단어로 예를 들어 봅시다</p><p lang=""ko"">스페이스바를 누르면 다음 페이지로 넘어갑니다</p>"," ","html-keyboard-response","3","685781","0.0-3.0","","","",""
"17037","PracticeRecordings/kom_bear.wav","0","audio-button-response","4","702922","0.0-4.0","","","",""
"3067","<p style=""font-size:30px"",lang=""ko"">이제 직접 단어를 듣고 쓰는 연습을 해봅시다. </p><p style=""font-size:30px"",lang=""ko"">스페이스바를 누르면 다음 페이지로 넘어갑니다</p>"," ","html-keyboard-response","5","705990","0.0-5.0","","","",""
"26933","PracticeRecordings/kirin_giraffe.wav","0","audio-button-response","6","733012","0.0-6.0-0.0","","","",""
"13266","kirin_giraffe","{""P0_Q0"":""ㄱ,ㅣ,ㄹ,ㅣ,ㄴ ""}","survey","7","746320","0.0-6.0-1.0","[]","practice","NA","TRUE"
"2619","<p style=""font-size:30px"",lang=""ko"">방금 들으신 단어는 ""ㄱ,ㅣ,ㄹ,ㅣ,ㄴ"" 이라고 쓰시면 됩니다</p><p lang=""ko"">스페이스바를 누르면 다음 페이지로 넘어갑니다</p>"," ","html-keyboard-response","8","748940","0.0-6.0-2.0","","","",""
"2602","PracticeRecordings/saca_lion.wav","0","audio-button-response","9","751631","0.0-6.0-0.1","","","",""
"5714","saca_lion","{""P0_Q0"":""ㅅ,ㅏ,ㅈ,ㅏ ""}","survey","10","757354","0.0-6.0-1.1","[]","practice","NA","FALSE"
"2099","<p style=""font-size:30px"",lang=""ko"">방금 들으신 단어는 ""ㅅ,ㅏ,ㅈ,ㅏ"" 라고 쓰시면 됩니다</p><p lang=""ko"">스페이스바를 누르면 다음 페이지로 넘어갑니다</p>"," ","html-keyboard-response","11","759454","0.0-6.0-2.1","","","",""
"2070","PracticeRecordings/saseum_deer.wav","0","audio-button-response","12","761609","0.0-6.0-0.2","","","",""
"10461","saseum_deer","{""P0_Q0"":""ㅅ,ㅏ,ㅅ,ㅡ,ㅁ""}","survey","13","772080","0.0-6.0-1.2","[]","practice","NA","FALSE"
"1523","<p style=""font-size:30px"",lang=""ko"">방금 들으신 단어는 ""ㅅ,ㅏ,ㅅ,ㅡ,ㅁ""이라고 쓰시면 됩니다</p><p lang=""ko"">스페이스바를 누르면 다음 페이지로 넘어갑니다</p>"," ","html-keyboard-response","14","773603","0.0-6.0-2.2","","","",""
"2031","PracticeRecordings/thokki_rabbit.wav","0","audio-button-response","15","775720","0.0-6.0-0.3","","","",""
"7050","thokki_rabbit","{""P0_Q0"":""ㅌ,ㅗ,ㄲ,ㅣ ""}","survey","16","782778","0.0-6.0-1.3","[]","practice","NA","FALSE"
"1199","<p style=""font-size:30px"",lang=""ko"">방금 들으신 단어는 ""ㅌ,ㅗ,ㄲ,ㅣ"" 라고 쓰시면 됩니다</p><p lang=""ko"">스페이스바를 누르면 다음 페이지로 넘어갑니다</p>"," ","html-keyboard-response","17","783978","0.0-6.0-2.3","","","",""
"2037","<p style=""font-size:30px"",lang=""ko"">이제 만든 단어로 연습해봅시다.</p><p lang=""ko"">스페이스바를 누르면 다음 페이지로 넘어갑니다</p>"," ","html-keyboard-response","18","786016","0.0-7.0","","","",""
"2689","PracticeRecordings/snen.wav","0","audio-button-response","19","788788","0.0-8.0-0.0","","","",""
"8771","snen","{""P0_Q0"":""ㅅ,ㅡ,ㄴ,ㅔ,ㄴ""}","survey","20","797567","0.0-8.0-1.0","[]","practice","NA","TRUE"
"11264","<p style=""font-size:30px"",lang=""ko"">들으신 단어는 <br> ""ㅅ,ㅡ,ㄴ,ㅐ,ㄴ""  ""ㅅ,ㅡ,ㄴ,ㅐ"" ""ㅅ,ㄴ,ㅐ,ㄴ (""으"" 소리가 안 들리는 경우)"" 등 <br> 사람에 따라 다양하게 들릴 수 있습니다 <br> 본인에게 들리는대로 쓰시면 됩니다.</p><p lang=""ko"">스페이스바를 누르면 다음 페이지로 넘어갑니다</p>"," ","html-keyboard-response","21","808832","0.0-8.0-2.0","","","",""
"2667","PracticeRecordings/phrak.wav","0","audio-button-response","22","811586","0.0-8.0-0.1","","","",""
"8042","phrak","{""P0_Q0"":""ㅍ,ㅡ,ㄹ,ㅏ,ㄱ""}","survey","23","819635","0.0-8.0-1.1","[]","practice","NA","FALSE"
"3688","<p style=""font-size:30px"",lang=""ko"">들으신 단어는 <br> ""ㅍ,ㅡ,ㄹ,ㅏ,ㄱ"" ""ㅍ,ㅡ,ㄹ,ㅏ,ㅅ"" ""ㅋ,ㅡ,ㄹ,ㅏ,ㄱ"" ""ㅍ,ㄹ,ㅏ,ㄱ (""으"" 소리가 안 들리는 경우)"" 등 <br> 사람에 따라 다양하게 들릴 수 있습니다 <br> 본인에게 들리는대로 쓰시면 됩니다.</p><p lang=""ko"">스페이스바를 누르면 다음 페이지로 넘어갑니다</p>"," ","html-keyboard-response","24","823324","0.0-8.0-2.1","","","",""
"2877","PracticeRecordings/chka.wav","0","audio-button-response","25","826289","0.0-8.0-0.2","","","",""
"5837","chka","{""P0_Q0"":""ㅅ,ㅡ,ㄱ,ㅏ""}","survey","26","832134","0.0-8.0-1.2","[]","practice","NA","FALSE"
"2691","<p style=""font-size:30px"",lang=""ko"">들으신 단어는 ""ㅊ,ㅣ,ㄱ,ㅏ"", ""ㅊ,ㅡ,ㄱ,ㅏ"", ""ㅊ,ㄱ,ㅏ"", ""ㅊ,ㅟ,ㄱ,ㅏ"" 등 <br> 사람에 따라 다양하게 들릴 수 있습니다. <br> 본인에게 들리는대로 쓰시면 됩니다.</p><p lang=""ko"">스페이스바를 누르면 다음 페이지로 넘어갑니다</p>"," ","html-keyboard-response","27","834826","0.0-8.0-2.2","","","",""
"2761",""," ","html-keyboard-response","28","837587","0.0-9.0","","","",""
"4678","<p style=""font-size:30px"",lang=""ko"">이제 실험을 시작하겠습니다.</p><p style=""font-size:30px"",lang=""ko"">실전에서는 각각의 만든 단어를 한 번씩만 들을 수 있습니다.</p>"," ","html-keyboard-response","29","842266","0.0-10.0","","","",""
"6279","<p style=""font-size:30px"",lang=""ko"">단어를 풀어 쓰신 후에 그 단어가 한국어로 가능한 단어인지 평가해주세요</p><p style=""font-size:30px"",lang=""ko"">1점은 한국어로 완전 불가능한 단어, 7점은 한국어로 완전 가능한 단어를 의미합니다</p><p lang=""ko"">스페이스바를 누르면 다음 페이지로 넘어갑니다</p>"," ","html-keyboard-response","30","848546","0.0-11.0","","","",""
"2698","TestRecordings/khnap.wav","0","audio-button-response","31","851333","0.0-12.0-0.0","","","",""
"18546","","{""P0_Q0"":""ㅋ,ㅡ,ㄴ,ㅏ,ㅂ"",""P0_Q1"":5}","survey","32","869894","0.0-12.0-1.0","[]","","",""
"4491","TestRecordings/cwam.wav","0","audio-button-response","33","874472","0.0-12.0-0.1","","","",""
"13993","","{""P0_Q0"":""ㄷ,ㅡ,ㄹ,ㅏ,ㅁ"",""P0_Q1"":6}","survey","34","888474","0.0-12.0-1.1","[]","","",""
"2996","TestRecordings/khwipot.wav","0","audio-button-response","35","891536","0.0-12.0-0.2","","","",""
"23464","","{""P0_Q0"":""ㅋ,ㅜ,ㅣ,ㅂ,ㅗ,ㅌ"",""P0_Q1"":5}","survey","36","915008","0.0-12.0-1.2","[]","","",""
"2485","TestRecordings/mphosak.wav","0","audio-button-response","37","917579","0.0-12.0-0.3","","","",""
"25523","","{""P0_Q0"":""ㅇ,ㅡ,ㅁ,ㅍ,ㅗ,ㅅ,ㅏ,ㄳ"",""P0_Q1"":4}","survey","38","943109","0.0-12.0-1.3","[]","","",""
"2075","TestRecordings/chnuk.wav","0","audio-button-response","39","945269","0.0-12.0-0.4","","","",""
"8800","","{""P0_Q0"":""ㅅ,ㅡ,ㄴ,ㅜ,ㄱ"",""P0_Q1"":6}","survey","40","954078","0.0-12.0-1.4","[]","","",""
"1514","TestRecordings/thnok.wav","0","audio-button-response","41","955676","0.0-12.0-0.5","","","",""
"13779","","{""P0_Q0"":""ㅅ,ㅡ,ㄴ,ㅗ,ㄱ"",""P0_Q1"":5}","survey","42","969462","0.0-12.0-1.5","[]","","",""
"2547","TestRecordings/khin.wav","0","audio-button-response","43","972095","0.0-12.0-0.6","","","",""
"6096","","{""P0_Q0"":""ㅊ,ㅣ,ㄴ"",""P0_Q1"":5}","survey","44","978198","0.0-12.0-1.6","[]","","",""
"2867","TestRecordings/cnaphin.wav","0","audio-button-response","45","981150","0.0-12.0-0.7","","","",""
"15484","","{""P0_Q0"":""ㅊ,ㅡ,ㄴ,ㅏ,ㅍ,ㅣ,ㅇ"",""P0_Q1"":5}","survey","46","996640","0.0-12.0-1.7","[]","","",""
"1612","TestRecordings/mkit.wav","0","audio-button-response","47","998339","0.0-12.0-0.8","","","",""
"11524","","{""P0_Q0"":""ㅇ,ㅡ,ㅁ,ㄱ,ㅣ,ㅅ"",""P0_Q1"":4}","survey","48","1009871","0.0-12.0-1.8","[]","","",""
"1493","TestRecordings/nthaking.wav","0","audio-button-response","49","1011451","0.0-12.0-0.9","","","",""
"9800","","{""P0_Q0"":""ㅇ,ㅡ,ㅁ,ㅌ,ㅏ,ㄱ,ㅣ,ㅇ"",""P0_Q1"":4}","survey","50","1021259","0.0-12.0-1.9","[]","","",""
"1370","TestRecordings/thukhat.wav","0","audio-button-response","51","1022654","0.0-12.0-0.10","","","",""
"8452","","{""P0_Q0"":""ㅌ,ㅜ,ㅋ,ㅏ,ㅅ"",""P0_Q1"":6}","survey","52","1031113","0.0-12.0-1.10","[]","","",""
"1315","TestRecordings/nthimong.wav","0","audio-button-response","53","1032452","0.0-12.0-0.11","","","",""
"9089","","{""P0_Q0"":""ㅇ,ㅡ,ㅁ,ㅌ,ㅣ,ㅁ,ㅗ,ㅇ"",""P0_Q1"":5}","survey","54","1041548","0.0-12.0-1.11","[]","","",""
"1030","TestRecordings/mthik.wav","0","audio-button-response","55","1042662","0.0-12.0-0.12","","","",""
"12692","","{""P0_Q0"":""ㅇ,ㅡ,ㅁ,ㅌ,ㅣ,ㄱ"",""P0_Q1"":5}","survey","56","1055362","0.0-12.0-1.12","[]","","",""
"1646","TestRecordings/pmochun.wav","0","audio-button-response","57","1057092","0.0-12.0-0.13","","","",""
"13771","","{""P0_Q0"":""ㅂ,ㅜ,ㅇ,ㅇ,ㅜ,ㅊ,ㅜ,ㄴ"",""P0_Q1"":5}","survey","58","1070870","0.0-12.0-1.13","[]","","",""
"1501","TestRecordings/chmop.wav","0","audio-button-response","59","1072455","0.0-12.0-0.14","","","",""
"11314","","{""P0_Q0"":""ㅊ,ㅡ,ㅁ,ㅗ,ㅂ"",""P0_Q1"":7}","survey","60","1083777","0.0-12.0-1.14","[]","","",""
"1038","TestRecordings/twamot.wav","0","audio-button-response","61","1084901","0.0-12.0-0.15","","","",""
"11263","","{""P0_Q0"":""ㄷ,ㅡ,ㅇ,ㅏ,ㅁ,ㅗ,ㅅ"",""P0_Q1"":6}","survey","62","1096173","0.0-12.0-1.15","[]","","",""
"1003","TestRecordings/taphik.wav","0","audio-button-response","63","1097261","0.0-12.0-0.16","","","",""
"6092","","{""P0_Q0"":""ㄷ,ㅏ,ㅍ,ㅣ,ㄱ"",""P0_Q1"":6}","survey","64","1103360","0.0-12.0-1.16","[]","","",""
"1052","TestRecordings/khut.wav","0","audio-button-response","65","1104497","0.0-12.0-0.17","","","",""
"8392","","{""P0_Q0"":""ㅋ,ㅜ,ㅌ"",""P0_Q1"":6}","survey","66","1112896","0.0-12.0-1.17","[]","","",""
"1377","TestRecordings/tnunong.wav","0","audio-button-response","67","1114357","0.0-12.0-0.18","","","",""
"10052","","{""P0_Q0"":""ㄷ,ㅡ,ㄴ,ㅜ,ㄴ,ㅗ,ㅇ"",""P0_Q1"":6}","survey","68","1124416","0.0-12.0-1.18","[]","","",""
"1526","TestRecordings/chwikhong.wav","0","audio-button-response","69","1126027","0.0-12.0-0.19","","","",""
"8575","","{""P0_Q0"":""ㅊ,ㅜ,ㅣ,ㅋ,ㅗ,ㅇ"",""P0_Q1"":7}","survey","70","1134611","0.0-12.0-1.19","[]","","",""
"1150","TestRecordings/khnothik.wav","0","audio-button-response","71","1135848","0.0-12.0-0.20","","","",""
"11906","","{""P0_Q0"":""ㅋ,ㅡ,ㄴ,ㅗ,ㅌ,ㅣ,ㄱ"",""P0_Q1"":7}","survey","72","1147760","0.0-12.0-1.20","[]","","",""
"1282","TestRecordings/thwikhip.wav","0","audio-button-response","73","1149126","0.0-12.0-0.21","","","",""
"9981","","{""P0_Q0"":""ㅌ,ㅜ,ㅣ,ㅋ,ㅣ,ㅍ"",""P0_Q1"":6}","survey","74","1159115","0.0-12.0-1.21","[]","","",""
"943","TestRecordings/nwimik.wav","0","audio-button-response","75","1160128","0.0-12.0-0.22","","","",""
"14590","","{""P0_Q0"":""ㄴ,ㅜ,ㅣ,ㅁ,ㅣ,ㄱ"",""P0_Q1"":6}","survey","76","1174725","0.0-12.0-1.22","[]","","",""
"1249","TestRecordings/tmichut.wav","0","audio-button-response","77","1176060","0.0-12.0-0.23","","","",""
"11409","","{""P0_Q0"":""ㄷ,ㅡ,ㅁ,ㅣ,ㅊ,ㅜ,ㅅ"",""P0_Q1"":6}","survey","78","1187475","0.0-12.0-1.23","[]","","",""
"1078","TestRecordings/nchocip.wav","0","audio-button-response","79","1188639","0.0-12.0-0.24","","","",""
"8616","","{""P0_Q0"":""ㅇ,ㅡ,ㅁ,ㅊ,ㅗ,ㅈ,ㅣ,ㅂ"",""P0_Q1"":5}","survey","80","1197264","0.0-12.0-1.24","[]","","",""
"1634","TestRecordings/twak.wav","0","audio-button-response","81","1198982","0.0-12.0-0.25","","","",""
"7968","","{""P0_Q0"":""ㄷ,ㅡ,ㄹ,ㅏ,ㄱ"",""P0_Q1"":6}","survey","82","1206956","0.0-12.0-1.25","[]","","",""
"833","TestRecordings/chnupot.wav","0","audio-button-response","83","1207874","0.0-12.0-0.26","","","",""
"13925","","{""P0_Q0"":""ㅊ,ㅡ,ㄴ,ㅜ,ㅂ,ㅗ,ㅅ"",""P0_Q1"":5}","survey","84","1221806","0.0-12.0-1.26","[]","","",""
"1107","TestRecordings/nkat.wav","0","audio-button-response","85","1222998","0.0-12.0-0.27","","","",""
"8480","","{""P0_Q0"":""ㅇ,ㅡ,ㅁ,ㄱ,ㅏ,ㅅ"",""P0_Q1"":4}","survey","86","1231486","0.0-12.0-1.27","[]","","",""
"995","TestRecordings/phmiman.wav","0","audio-button-response","87","1232567","0.0-12.0-0.28","","","",""
"11017","","{""P0_Q0"":""ㅍ,ㅡ,ㅁ,ㅣ,ㅁ,ㅏ,ㄴ"",""P0_Q1"":5}","survey","88","1243590","0.0-12.0-1.28","[]","","",""
"2117","TestRecordings/cwit.wav","0","audio-button-response","89","1245791","0.0-12.0-0.29","","","",""
"14846","","{""P0_Q0"":""ㅈ,ㅜ,ㅇ,ㅣ,ㅅ"",""P0_Q1"":6}","survey","90","1260643","0.0-12.0-1.29","[]","","",""
"2052","TestRecordings/khwichon.wav","0","audio-button-response","91","1262723","0.0-12.0-0.30","","","",""
"17243","","{""P0_Q0"":""ㅋ,ㅜ,ㅣ,ㅊ,ㅗ,ㄴ"",""P0_Q1"":6}","survey","92","1279973","0.0-12.0-1.30","[]","","",""
"2237","TestRecordings/ntakhip.wav","0","audio-button-response","93","1282295","0.0-12.0-0.31","","","",""
"12743","","{""P0_Q0"":""ㅇ,ㅡ,ㅁ,ㄷ,ㅏ,ㅋ,ㅣ,ㅂ"",""P0_Q1"":5}","survey","94","1295044","0.0-12.0-1.31","[]","","",""
"1161","TestRecordings/thinok.wav","0","audio-button-response","95","1296289","0.0-12.0-0.32","","","",""
"5461","","{""P0_Q0"":""ㅌ,ㅣ,ㄴ,ㅗ,ㄱ"",""P0_Q1"":6}","survey","96","1301757","0.0-12.0-1.32","[]","","",""
"1079","TestRecordings/sikot.wav","0","audio-button-response","97","1302919","0.0-12.0-0.33","","","",""
"5766","","{""P0_Q0"":""ㅅ,ㅣ,ㄱ,ㅗ,ㅅ"",""P0_Q1"":6}","survey","98","1308693","0.0-12.0-1.33","[]","","",""
"1184","TestRecordings/nkhuchom.wav","0","audio-button-response","99","1309964","0.0-12.0-0.34","","","",""
"8586","","{""P0_Q0"":""ㅇ,ㅡ,ㅁ,ㅋ,ㅜ,ㅊ,ㅗ,ㅁ"",""P0_Q1"":5}","survey","100","1318557","0.0-12.0-1.34","[]","","",""
"1226","TestRecordings/chumik.wav","0","audio-button-response","101","1319808","0.0-12.0-0.35","","","",""
"5407","","{""P0_Q0"":""ㅊ,ㅜ,ㅁ,ㅣ,ㄱ"",""P0_Q1"":6}","survey","102","1325222","0.0-12.0-1.35","[]","","",""
"1418","TestRecordings/twan.wav","0","audio-button-response","103","1326724","0.0-12.0-0.36","","","",""
"5947","","{""P0_Q0"":""ㄷ,ㅗ,ㅏ,ㄴ"",""P0_Q1"":5}","survey","104","1332678","0.0-12.0-1.36","[]","","",""
"1160","TestRecordings/thwam.wav","0","audio-button-response","105","1333923","0.0-12.0-0.37","","","",""
"6965","","{""P0_Q0"":""ㅌ,ㅗ,ㅏ,ㅁ"",""P0_Q1"":5}","survey","106","1340895","0.0-12.0-1.37","[]","","",""
"1154","TestRecordings/npucap.wav","0","audio-button-response","107","1342135","0.0-12.0-0.38","","","",""
"8247","","{""P0_Q0"":""ㅇ,ㅡ,ㅇ,ㅂ,ㅜ,ㅈ,ㅏ,ㅂ"",""P0_Q1"":5}","survey","108","1350390","0.0-12.0-1.38","[]","","",""
"1199","TestRecordings/swikhat.wav","0","audio-button-response","109","1351674","0.0-12.0-0.39","","","",""
"7845","","{""P0_Q0"":""ㅅ,ㅣ,ㅋ,ㅏ,ㅅ"",""P0_Q1"":5}","survey","110","1359525","0.0-12.0-1.39","[]","","",""
"1019","TestRecordings/mphutam.wav","0","audio-button-response","111","1360630","0.0-12.0-0.40","","","",""
"8046","","{""P0_Q0"":""ㅇ,ㅡ,ㅇ,ㅍ,ㅜ,ㄷ,ㅏ,ㅁ"",""P0_Q1"":6}","survey","112","1368683","0.0-12.0-1.40","[]","","",""
"1196","TestRecordings/tin.wav","0","audio-button-response","113","1369956","0.0-12.0-0.41","","","",""
"3944","","{""P0_Q0"":""ㄷ,ㅣ,ㄴ"",""P0_Q1"":7}","survey","114","1373907","0.0-12.0-1.41","[]","","",""
"1277","TestRecordings/mtukin.wav","0","audio-button-response","115","1375249","0.0-12.0-0.42","","","",""
"7217","","{""P0_Q0"":""ㅇ,ㅡ,ㅁ,ㄷ,ㅜ,ㄱ,ㅣ,ㄴ"",""P0_Q1"":6}","survey","116","1382472","0.0-12.0-1.42","[]","","",""
"1358","TestRecordings/phnokhing.wav","0","audio-button-response","117","1383916","0.0-12.0-0.43","","","",""
"6659","","{""P0_Q0"":""ㅍ,ㅡ,ㄴ,ㅗ,ㅋ,ㅣ,ㅇ"",""P0_Q1"":6}","survey","118","1390582","0.0-12.0-1.43","[]","","",""
"1399","TestRecordings/khwiphing.wav","0","audio-button-response","119","1392067","0.0-12.0-0.44","","","",""
"13192","","{""P0_Q0"":""ㅋ,ㅜ,ㅣ,ㅍ,ㅣ,ㅇ"",""P0_Q1"":6}","survey","120","1405265","0.0-12.0-1.44","[]","","",""
"1239","TestRecordings/mpukham.wav","0","audio-button-response","121","1406587","0.0-12.0-0.45","","","",""
"9668","","{""P0_Q0"":""ㅇ,ㅡ,ㅇ,ㅂ,ㅜ,ㅋ,ㅏ,ㅁ"",""P0_Q1"":6}","survey","122","1416262","0.0-12.0-1.45","[]","","",""
"997","TestRecordings/nchot.wav","0","audio-button-response","123","1417342","0.0-12.0-0.46","","","",""
"6610","","{""P0_Q0"":""ㅇ,ㅡ,ㅇ,ㅊ,ㅗ,ㅅ"",""P0_Q1"":6}","survey","124","1423960","0.0-12.0-1.46","[]","","",""
"979","TestRecordings/khithuk.wav","0","audio-button-response","125","1425025","0.0-12.0-0.47","","","",""
"6631","","{""P0_Q0"":""ㅋ,ㅣ,ㅌ,ㅜ"",""P0_Q1"":6}","survey","126","1431662","0.0-12.0-1.47","[]","","",""
"1047","TestRecordings/nakhit.wav","0","audio-button-response","127","1432795","0.0-12.0-0.48","","","",""
"5519","","{""P0_Q0"":""ㄴ,ㅏ,ㅋ,ㅣ,ㅅ"",""P0_Q1"":6}","survey","128","1438320","0.0-12.0-1.48","[]","","",""
"759","TestRecordings/knot.wav","0","audio-button-response","129","1439102","0.0-12.0-0.49","","","",""
"8822","","{""P0_Q0"":""ㅂ,ㅡ,ㄴ,ㅗ,ㅅ"",""P0_Q1"":4}","survey","130","1447929","0.0-12.0-1.49","[]","","",""
"956","TestRecordings/mup.wav","0","audio-button-response","131","1448969","0.0-12.0-0.50","","","",""
"7488","","{""P0_Q0"":""ㅁ,ㅜ,ㅇ,ㅜ,ㅂ"",""P0_Q1"":4}","survey","132","1456465","0.0-12.0-1.50","[]","","",""
"847","TestRecordings/tup.wav","0","audio-button-response","133","1457396","0.0-12.0-0.51","","","",""
"3968","","{""P0_Q0"":""ㄷ,ㅜ,ㅂ"",""P0_Q1"":5}","survey","134","1461369","0.0-12.0-1.51","[]","","",""
"786","TestRecordings/chwiphin.wav","0","audio-button-response","135","1462241","0.0-12.0-0.52","","","",""
"8681","","{""P0_Q0"":""ㅊ,ㅣ,ㅍ,ㅣ,ㄴ"",""P0_Q1"":6}","survey","136","1470929","0.0-12.0-1.52","[]","","",""
"1539","TestRecordings/kmamun.wav","0","audio-button-response","137","1472553","0.0-12.0-0.53","","","",""
"10648","","{""P0_Q0"":""ㄱ,ㅡ,ㅁ,ㅏ,ㅁ,ㅜ,ㄴ"",""P0_Q1"":5}","survey","138","1483207","0.0-12.0-1.53","[]","","",""
"915","TestRecordings/mphuk.wav","0","audio-button-response","139","1484199","0.0-12.0-0.54","","","",""
"8148","","{""P0_Q0"":""ㅇ,ㅡ,ㅁ,ㅍ,ㅜ,ㄱ"",""P0_Q1"":3}","survey","140","1492354","0.0-12.0-1.54","[]","","",""
"1414","TestRecordings/cmoman.wav","0","audio-button-response","141","1493852","0.0-12.0-0.55","","","",""
"10460","","{""P0_Q0"":""ㅈ,ㅡ,ㅁ,ㅗ,ㅁ,ㅏ,ㄴ"",""P0_Q1"":4}","survey","142","1504319","0.0-12.0-1.55","[]","","",""
"1030","TestRecordings/chunak.wav","0","audio-button-response","143","1505433","0.0-12.0-0.56","","","",""
"8609","","{""P0_Q0"":""ㅊ,ㅜ,ㄴ,ㅏ,ㄱ"",""P0_Q1"":6}","survey","144","1514049","0.0-12.0-1.56","[]","","",""
"1063","TestRecordings/twaput.wav","0","audio-button-response","145","1515196","0.0-12.0-0.57","","","",""
"6564","","{""P0_Q0"":""ㄷ,ㅗ,ㅏ,ㅂ,ㅜ,ㅅ"",""P0_Q1"":4}","survey","146","1521768","0.0-12.0-1.57","[]","","",""
"1397","TestRecordings/chakot.wav","0","audio-button-response","147","1523254","0.0-12.0-0.58","","","",""
"6751","","{""P0_Q0"":""ㅊ,ㅏ,ㄱ,ㅗ,ㅅ"",""P0_Q1"":4}","survey","148","1530011","0.0-12.0-1.58","[]","","",""
"1092","TestRecordings/tikut.wav","0","audio-button-response","149","1531190","0.0-12.0-0.59","","","",""
"10119","","{""P0_Q0"":""ㄷ,ㅣ,ㄱ,ㅜ,ㅅ"",""P0_Q1"":5}","survey","150","1541315","0.0-12.0-1.59","[]","","",""
"2490",""," ","html-keyboard-response","151","1543806","0.0-13.0","","","",""
"28646","","{""P0_Q0"":""22"",""P0_Q1"":""여"",""P0_Q2"":""5살"",""P0_Q3"":""아니오"",""P0_Q4"":""없음"",""P0_Q5"":""없음"",""P0_Q6"":""없음""}","survey","152","1572462","0.0-14.0","[]","","",""
"1577","<p style=""font-size:30px"",lang=""ko"">실험이 끝났습니다</p><p style=""font-size:30px"",lang=""ko"">참가해주셔서 고맙습니다</p>"," ","html-keyboard-response","153","1574040","0.0-15.0","","","",""
