"rt","stimulus","response","trial_type","trial_index","time_elapsed","internal_node_id","accuracy","PracticeTest","ConsonantSequence","Grammaticality"
"470215","<p style=""font-size:30px"",lang=""ko"">실험에 오신 것을 환영합니다</p><p lang=""ko"">스페이스바를 누르면 다음 페이지로 넘어갑니다</p>"," ","html-keyboard-response","0","470225","0.0-0.0","","","",""
"1608","<p style=""font-size:30px"",lang=""ko"">해드폰을 본인에게 잘 맞게 착용하세요</p><p lang=""ko"">스페이스바를 누르면 다음 페이지로 넘어갑니다</p>"," ","html-keyboard-response","1","471833","0.0-1.0","","","",""
"6619","<p style=""font-size:30px"",lang=""ko"">이 실험에서는 새로 만든 한국 단어를 들으실 겁니다</p><p style=""font-size:30px"",lang=""ko"">단어를 들리는대로 쓰세요. 그런 다음 그 단어가 한국어 단어로 가능한지 평가하세요</p><p lang=""ko"">스페이스바를 누르면 다음 페이지로 넘어갑니다</p>"," ","html-keyboard-response","2","478453","0.0-2.0","","","",""
"2644","<p style=""font-size:30px"",lang=""ko"">원래 있는 단어로 예를 들어 봅시다</p><p lang=""ko"">스페이스바를 누르면 다음 페이지로 넘어갑니다</p>"," ","html-keyboard-response","3","481097","0.0-3.0","","","",""
"10299","PracticeRecordings/kom_bear.wav","0","audio-button-response","4","491497","0.0-4.0","","","",""
"1921","<p style=""font-size:30px"",lang=""ko"">이제 직접 단어를 듣고 쓰는 연습을 해봅시다. </p><p style=""font-size:30px"",lang=""ko"">스페이스바를 누르면 다음 페이지로 넘어갑니다</p>"," ","html-keyboard-response","5","493418","0.0-5.0","","","",""
"7950","PracticeRecordings/kirin_giraffe.wav","0","audio-button-response","6","501386","0.0-6.0-0.0","","","",""
"9377","kirin_giraffe","{""P0_Q0"":""ㄱㅗㅁ""}","survey","7","510811","0.0-6.0-1.0","[]","practice","NA","TRUE"
"5330","<p style=""font-size:30px"",lang=""ko"">방금 들으신 단어는 ""ㄱ,ㅣ,ㄹ,ㅣ,ㄴ"" 이라고 쓰시면 됩니다</p><p lang=""ko"">스페이스바를 누르면 다음 페이지로 넘어갑니다</p>"," ","html-keyboard-response","8","516141","0.0-6.0-2.0","","","",""
"2225","PracticeRecordings/saca_lion.wav","0","audio-button-response","9","518389","0.0-6.0-0.1","","","",""
"13140","saca_lion","{""P0_Q0"":""ㅅ,ㅏ,ㅈ,ㅏ""}","survey","10","531538","0.0-6.0-1.1","[]","practice","NA","FALSE"
"3429","<p style=""font-size:30px"",lang=""ko"">방금 들으신 단어는 ""ㅅ,ㅏ,ㅈ,ㅏ"" 라고 쓰시면 됩니다</p><p lang=""ko"">스페이스바를 누르면 다음 페이지로 넘어갑니다</p>"," ","html-keyboard-response","11","534968","0.0-6.0-2.1","","","",""
"2659","PracticeRecordings/saseum_deer.wav","0","audio-button-response","12","537645","0.0-6.0-0.2","","","",""
"5719","saseum_deer","{""P0_Q0"":""ㅅ,ㅏ,ㅅ,ㅡ,ㅁ""}","survey","13","543371","0.0-6.0-1.2","[]","practice","NA","FALSE"
"1533","<p style=""font-size:30px"",lang=""ko"">방금 들으신 단어는 ""ㅅ,ㅏ,ㅅ,ㅡ,ㅁ""이라고 쓰시면 됩니다</p><p lang=""ko"">스페이스바를 누르면 다음 페이지로 넘어갑니다</p>"," ","html-keyboard-response","14","544905","0.0-6.0-2.2","","","",""
"1607","PracticeRecordings/thokki_rabbit.wav","0","audio-button-response","15","546542","0.0-6.0-0.3","","","",""
"8778","thokki_rabbit","{""P0_Q0"":""ㅌ,ㅗ,ㄲ,ㅣ""}","survey","16","555330","0.0-6.0-1.3","[]","practice","NA","FALSE"
"956","<p style=""font-size:30px"",lang=""ko"">방금 들으신 단어는 ""ㅌ,ㅗ,ㄲ,ㅣ"" 라고 쓰시면 됩니다</p><p lang=""ko"">스페이스바를 누르면 다음 페이지로 넘어갑니다</p>"," ","html-keyboard-response","17","556287","0.0-6.0-2.3","","","",""
"799","<p style=""font-size:30px"",lang=""ko"">이제 만든 단어로 연습해봅시다.</p><p lang=""ko"">스페이스바를 누르면 다음 페이지로 넘어갑니다</p>"," ","html-keyboard-response","18","557086","0.0-7.0","","","",""
"4026","PracticeRecordings/snen.wav","0","audio-button-response","19","561138","0.0-8.0-0.0","","","",""
"7221","snen","{""P0_Q0"":""ㅅ,ㅡ,ㄴ,ㅐ,ㅇ""}","survey","20","568366","0.0-8.0-1.0","[]","practice","NA","TRUE"
"3732","<p style=""font-size:30px"",lang=""ko"">들으신 단어는 <br> ""ㅅ,ㅡ,ㄴ,ㅐ,ㄴ""  ""ㅅ,ㅡ,ㄴ,ㅐ"" ""ㅅ,ㄴ,ㅐ,ㄴ (""으"" 소리가 안 들리는 경우)"" 등 <br> 사람에 따라 다양하게 들릴 수 있습니다 <br> 본인에게 들리는대로 쓰시면 됩니다.</p><p lang=""ko"">스페이스바를 누르면 다음 페이지로 넘어갑니다</p>"," ","html-keyboard-response","21","572098","0.0-8.0-2.0","","","",""
"1733","PracticeRecordings/phrak.wav","0","audio-button-response","22","573851","0.0-8.0-0.1","","","",""
"5726","phrak","{""P0_Q0"":""ㅍ,ㅡ,ㄹ,ㅏ,ㄱ""}","survey","23","579582","0.0-8.0-1.1","[]","practice","NA","FALSE"
"1801","<p style=""font-size:30px"",lang=""ko"">들으신 단어는 <br> ""ㅍ,ㅡ,ㄹ,ㅏ,ㄱ"" ""ㅍ,ㅡ,ㄹ,ㅏ,ㅅ"" ""ㅋ,ㅡ,ㄹ,ㅏ,ㄱ"" ""ㅍ,ㄹ,ㅏ,ㄱ (""으"" 소리가 안 들리는 경우)"" 등 <br> 사람에 따라 다양하게 들릴 수 있습니다 <br> 본인에게 들리는대로 쓰시면 됩니다.</p><p lang=""ko"">스페이스바를 누르면 다음 페이지로 넘어갑니다</p>"," ","html-keyboard-response","24","581383","0.0-8.0-2.1","","","",""
"1555","PracticeRecordings/chka.wav","0","audio-button-response","25","582958","0.0-8.0-0.2","","","",""
"4640","chka","{""P0_Q0"":""ㅊ,ㅡ,ㄱ,ㅏ""}","survey","26","587604","0.0-8.0-1.2","[]","practice","NA","FALSE"
"810","<p style=""font-size:30px"",lang=""ko"">들으신 단어는 ""ㅊ,ㅣ,ㄱ,ㅏ"", ""ㅊ,ㅡ,ㄱ,ㅏ"", ""ㅊ,ㄱ,ㅏ"", ""ㅊ,ㅟ,ㄱ,ㅏ"" 등 <br> 사람에 따라 다양하게 들릴 수 있습니다. <br> 본인에게 들리는대로 쓰시면 됩니다.</p><p lang=""ko"">스페이스바를 누르면 다음 페이지로 넘어갑니다</p>"," ","html-keyboard-response","27","588414","0.0-8.0-2.2","","","",""
"2722",""," ","html-keyboard-response","28","591137","0.0-9.0","","","",""
"3725","<p style=""font-size:30px"",lang=""ko"">이제 실험을 시작하겠습니다.</p><p style=""font-size:30px"",lang=""ko"">실전에서는 각각의 만든 단어를 한 번씩만 들을 수 있습니다.</p>"," ","html-keyboard-response","29","594862","0.0-10.0","","","",""
"19041","<p style=""font-size:30px"",lang=""ko"">단어를 풀어 쓰신 후에 그 단어가 한국어로 가능한 단어인지 평가해주세요</p><p lang=""ko"">스페이스바를 누르면 다음 페이지로 넘어갑니다</p>"," ","html-keyboard-response","30","613904","0.0-11.0","","","",""
"3178","TestRecordings/mthik.wav","0","audio-button-response","31","617104","0.0-12.0-0.0","","","",""
"16248","","{""P0_Q0"":""ㅇ,ㅡ,ㅁ,ㅌ,ㅣ,ㄱ"",""P0_Q1"":""(불가능)""}","survey","32","633363","0.0-12.0-1.0","[]","","",""
"2064","TestRecordings/khnap.wav","0","audio-button-response","33","635447","0.0-12.0-0.1","","","",""
"15818","","{""P0_Q0"":""ㅋ,ㅡ,ㄴ,ㅏ,ㅂ"",""P0_Q1"":""(불가능)""}","survey","34","651274","0.0-12.0-1.1","[]","","",""
"2183","TestRecordings/pmochun.wav","0","audio-button-response","35","653482","0.0-12.0-0.2","","","",""
"11635","","{""P0_Q0"":""ㅁ,ㅜ,ㅊ,ㅜ,ㄴ"",""P0_Q1"":""(불가능)""}","survey","36","665127","0.0-12.0-1.2","[]","","",""
"1836","TestRecordings/nchocip.wav","0","audio-button-response","37","667023","0.0-12.0-0.3","","","",""
"13599","","{""P0_Q0"":""ㅇ,ㅡ,ㅇ,ㅊ,ㅗ,ㅈ,ㅣ,ㅂ"",""P0_Q1"":""(불가능)""}","survey","38","680629","0.0-12.0-1.3","[]","","",""
"3159","TestRecordings/khithuk.wav","0","audio-button-response","39","683836","0.0-12.0-0.4","","","",""
"7868","","{""P0_Q0"":""ㅋ,ㅣ,ㅌ,ㅜ"",""P0_Q1"":""(불가능)""}","survey","40","691710","0.0-12.0-1.4","[]","","",""
"1691","TestRecordings/ntakhip.wav","0","audio-button-response","41","693422","0.0-12.0-0.5","","","",""
"5973","","{""P0_Q0"":""ㄷ,ㅏ,ㅋ,ㅣ,ㅂ"",""P0_Q1"":""(불가능)""}","survey","42","699401","0.0-12.0-1.5","[]","","",""
"2500","TestRecordings/chakot.wav","0","audio-button-response","43","701954","0.0-12.0-0.6","","","",""
"13380","","{""P0_Q0"":""ㅊ,ㅏ,ㅇ,ㅗ,ㅅ"",""P0_Q1"":""(가능)""}","survey","44","715339","0.0-12.0-1.6","[]","","",""
"2075","TestRecordings/swikhat.wav","0","audio-button-response","45","717430","0.0-12.0-0.7","","","",""
"11484","","{""P0_Q0"":""ㅅ,ㅜ,ㅣ,ㅅ,ㄱ,ㅏ,ㅅ"",""P0_Q1"":""(불가능)""}","survey","46","728921","0.0-12.0-1.7","[]","","",""
"1939","TestRecordings/twamot.wav","0","audio-button-response","47","730917","0.0-12.0-0.8","","","",""
"9943","","{""P0_Q0"":""ㄷ,ㅜ,ㅇ,ㅏ,ㅁ,ㅗ,ㅇ,ㅜ"",""P0_Q1"":""(불가능)""}","survey","48","740867","0.0-12.0-1.8","[]","","",""
"1803","TestRecordings/mkit.wav","0","audio-button-response","49","742724","0.0-12.0-0.9","","","",""
"10048","","{""P0_Q0"":""ㅇ,ㅡ,ㅇ,ㄱ,ㅣ,ㅅ"",""P0_Q1"":""(불가능)""}","survey","50","752778","0.0-12.0-1.9","[]","","",""
"1797","TestRecordings/mphuk.wav","0","audio-button-response","51","754679","0.0-12.0-0.10","","","",""
"14841","","{""P0_Q0"":""ㅇ,ㅡ,ㅇ,ㅍ,ㅜ,ㅇ,ㅜ,ㅅ"",""P0_Q1"":""(불가능)""}","survey","52","769527","0.0-12.0-1.10","[]","","",""
"1928","TestRecordings/knot.wav","0","audio-button-response","53","771509","0.0-12.0-0.11","","","",""
"9255","","{""P0_Q0"":""ㅋ,ㅡ,ㄴ,ㅜ,ㅅ"",""P0_Q1"":""(불가능)""}","survey","54","780773","0.0-12.0-1.11","[]","","",""
"1550","TestRecordings/twaput.wav","0","audio-button-response","55","782346","0.0-12.0-0.12","","","",""
"15650","","{""P0_Q0"":""ㄸ,ㅜ,ㅇ,ㅏ,ㅂ,ㅜ,ㅇ,ㅜ,ㅅ"",""P0_Q1"":""(불가능)""}","survey","56","798003","0.0-12.0-1.12","[]","","",""
"3349","TestRecordings/tin.wav","0","audio-button-response","57","801375","0.0-12.0-0.13","","","",""
"6245","","{""P0_Q0"":""ㅌ,ㅣ,ㅇ,ㅔ,ㄴ"",""P0_Q1"":""(불가능)""}","survey","58","807627","0.0-12.0-1.13","[]","","",""
"2692","TestRecordings/thwikhip.wav","0","audio-button-response","59","810374","0.0-12.0-0.14","","","",""
"12782","","{""P0_Q0"":""ㅌ,ㅟ,ㅋ,ㅣ,ㅂ"",""P0_Q1"":""(불가능)""}","survey","60","823165","0.0-12.0-1.14","[]","","",""
"1918","TestRecordings/mpukham.wav","0","audio-button-response","61","825144","0.0-12.0-0.15","","","",""
"13354","","{""P0_Q0"":""ㅇ,ㅡ,ㅇ,ㅂ,ㅜ,ㅋ,ㅏ,ㅂ"",""P0_Q1"":""(불가능)""}","survey","62","838504","0.0-12.0-1.15","[]","","",""
"1456","TestRecordings/tikut.wav","0","audio-button-response","63","840015","0.0-12.0-0.16","","","",""
"7947","","{""P0_Q0"":""ㅌ,ㅣ,ㄱ,ㅜ,ㅅ"",""P0_Q1"":""(불가능)""}","survey","64","847968","0.0-12.0-1.16","[]","","",""
"1534","TestRecordings/tnunong.wav","0","audio-button-response","65","849528","0.0-12.0-0.17","","","",""
"9045","","{""P0_Q0"":""ㅌ,ㅡ,ㄴ,ㅜ,ㄴ,ㅗ,ㅇ"",""P0_Q1"":""(불가능)""}","survey","66","858580","0.0-12.0-1.17","[]","","",""
"1454","TestRecordings/nkhuchom.wav","0","audio-button-response","67","860092","0.0-12.0-0.18","","","",""
"8790","","{""P0_Q0"":""ㅇ,ㅡ,ㅇ,ㅋ,ㅜ,ㅊ,ㅗ,ㅁ"",""P0_Q1"":""(불가능)""}","survey","68","868890","0.0-12.0-1.18","[]","","",""
"1607","TestRecordings/thukhat.wav","0","audio-button-response","69","870553","0.0-12.0-0.19","","","",""
"9478","","{""P0_Q0"":""ㅌ,ㅜ,ㅋ,ㅏ,ㅌ"",""P0_Q1"":""(가능)""}","survey","70","880038","0.0-12.0-1.19","[]","","",""
"1472","TestRecordings/mphosak.wav","0","audio-button-response","71","881533","0.0-12.0-0.20","","","",""
"14082","","{""P0_Q0"":""ㅇ,ㅡ,ㅇ,ㅍ,ㅗ,ㅅ,ㅏ,ㅅ"",""P0_Q1"":""(불가능)""}","survey","72","895621","0.0-12.0-1.20","[]","","",""
"1483","TestRecordings/chmop.wav","0","audio-button-response","73","897161","0.0-12.0-0.21","","","",""
"5687","","{""P0_Q0"":""ㅊ,ㅡ,ㅁ,ㅗ"",""P0_Q1"":""(가능)""}","survey","74","902856","0.0-12.0-1.21","[]","","",""
"1399","TestRecordings/npucap.wav","0","audio-button-response","75","904279","0.0-12.0-0.22","","","",""
"10750","","{""P0_Q0"":""ㅇ,ㅡ,ㅇ,ㅂ,ㅜ,ㅊ,ㅏ,ㅂ"",""P0_Q1"":""(불가능)""}","survey","76","915036","0.0-12.0-1.22","[]","","",""
"1419","TestRecordings/cmoman.wav","0","audio-button-response","77","916511","0.0-12.0-0.23","","","",""
"10306","","{""P0_Q0"":""ㅊ,ㅡ,ㅁ,ㅗ,ㅁ,ㅓ,ㄴ"",""P0_Q1"":""(불가능)""}","survey","78","926823","0.0-12.0-1.23","[]","","",""
"986","TestRecordings/nwimik.wav","0","audio-button-response","79","927865","0.0-12.0-0.24","","","",""
"10678","","{""P0_Q0"":""ㄴ,ㅜ,ㅇ,ㅣ,ㅁ,ㅣ,ㄱ"",""P0_Q1"":""(불가능)""}","survey","80","938549","0.0-12.0-1.24","[]","","",""
"1227","TestRecordings/phnokhing.wav","0","audio-button-response","81","939833","0.0-12.0-0.25","","","",""
"10621","","{""P0_Q0"":""ㅍ,ㅡ,ㄴ,ㅗ,ㅋ,ㅣ,ㅇ,ㅣ,ㅇ"",""P0_Q1"":""(불가능)""}","survey","82","950461","0.0-12.0-1.25","[]","","",""
"3029","TestRecordings/khwichon.wav","0","audio-button-response","83","953547","0.0-12.0-0.26","","","",""
"8529","","{""P0_Q0"":""ㅋ,ㅟ,ㅊ,ㅗ,ㄴ"",""P0_Q1"":""(가능)""}","survey","84","962083","0.0-12.0-1.26","[]","","",""
"1369","TestRecordings/taphik.wav","0","audio-button-response","85","963487","0.0-12.0-0.27","","","",""
"6800","","{""P0_Q0"":""ㄷ,ㅏ,ㅍ,ㅣ,ㄱ"",""P0_Q1"":""(가능)""}","survey","86","970294","0.0-12.0-1.27","[]","","",""
"1646","TestRecordings/nchot.wav","0","audio-button-response","87","971998","0.0-12.0-0.28","","","",""
"7113","","{""P0_Q0"":""ㅇ,ㅡ,ㅇ,ㅊ,ㅗ,ㅅ"",""P0_Q1"":""(불가능)""}","survey","88","979117","0.0-12.0-1.28","[]","","",""
"1915","TestRecordings/mup.wav","0","audio-button-response","89","981088","0.0-12.0-0.29","","","",""
"8484","","{""P0_Q0"":""ㅁ,ㅜ,ㅇ,ㅜ,ㄱ"",""P0_Q1"":""(불가능)""}","survey","90","989580","0.0-12.0-1.29","[]","","",""
"1299","TestRecordings/thinok.wav","0","audio-button-response","91","990935","0.0-12.0-0.30","","","",""
"5413","","{""P0_Q0"":""ㅌ,ㅣ,ㄴ,ㅗ,ㄱ"",""P0_Q1"":""(가능)""}","survey","92","996355","0.0-12.0-1.30","[]","","",""
"1850","TestRecordings/twan.wav","0","audio-button-response","93","998264","0.0-12.0-0.31","","","",""
"8123","","{""P0_Q0"":""ㄷ,ㅜ,ㅇ,ㅏ,ㄴ"",""P0_Q1"":""(불가능)""}","survey","94","1006393","0.0-12.0-1.31","[]","","",""
"1186","TestRecordings/nkat.wav","0","audio-button-response","95","1007634","0.0-12.0-0.32","","","",""
"8049","","{""P0_Q0"":""ㅇ,ㅡ,ㅇ,ㄱ,ㅏ,ㅅ"",""P0_Q1"":""(불가능)""}","survey","96","1015690","0.0-12.0-1.32","[]","","",""
"1172","TestRecordings/tup.wav","0","audio-button-response","97","1016917","0.0-12.0-0.33","","","",""
"4926","","{""P0_Q0"":""ㄷ,ㅜ,ㅂ"",""P0_Q1"":""(가능)""}","survey","98","1021849","0.0-12.0-1.33","[]","","",""
"2323","TestRecordings/chnupot.wav","0","audio-button-response","99","1024228","0.0-12.0-0.34","","","",""
"7333","","{""P0_Q0"":""ㅊ,ㅡ,ㄴ,ㅜ,ㅂ,ㅗ,ㅅ"",""P0_Q1"":""(가능)""}","survey","100","1031567","0.0-12.0-1.34","[]","","",""
"1522","TestRecordings/cwam.wav","0","audio-button-response","101","1033145","0.0-12.0-0.35","","","",""
"7498","","{""P0_Q0"":""ㅊ,ㅜ,ㅇ,ㅏ,ㅁ"",""P0_Q1"":""(불가능)""}","survey","102","1040649","0.0-12.0-1.35","[]","","",""
"1504","TestRecordings/chwiphin.wav","0","audio-button-response","103","1042208","0.0-12.0-0.36","","","",""
"10718","","{""P0_Q0"":""ㅊ,ㅟ,ㅍ,ㅣ,ㄴ"",""P0_Q1"":""(가능)""}","survey","104","1052934","0.0-12.0-1.36","[]","","",""
"1282","TestRecordings/thwam.wav","0","audio-button-response","105","1054272","0.0-12.0-0.37","","","",""
"5971","","{""P0_Q0"":""ㅌ,ㅘ,ㅁ"",""P0_Q1"":""(불가능)""}","survey","106","1060249","0.0-12.0-1.37","[]","","",""
"1554","TestRecordings/chwikhong.wav","0","audio-button-response","107","1061858","0.0-12.0-0.38","","","",""
"6482","","{""P0_Q0"":""ㅊ,ㅟ,ㅋ,ㅗ,ㅇ"",""P0_Q1"":""(가능)""}","survey","108","1068347","0.0-12.0-1.38","[]","","",""
"2597","TestRecordings/tmichut.wav","0","audio-button-response","109","1071000","0.0-12.0-0.39","","","",""
"9902","","{""P0_Q0"":""ㅌ,ㅡ,ㅁ,ㅣ,ㅊ,ㅜ,ㅅ"",""P0_Q1"":""(불가능)""}","survey","110","1080909","0.0-12.0-1.39","[]","","",""
"1482","TestRecordings/chumik.wav","0","audio-button-response","111","1082414","0.0-12.0-0.40","","","",""
"6926","","{""P0_Q0"":""ㅊ,ㅜ,ㅁ,ㅣ,ㄱ"",""P0_Q1"":""(가능)""}","survey","112","1089348","0.0-12.0-1.40","[]","","",""
"1392","TestRecordings/sikot.wav","0","audio-button-response","113","1090796","0.0-12.0-0.41","","","",""
"7785","","{""P0_Q0"":""ㅅ,ㅣ,ㄱ,ㅗ,ㅅ"",""P0_Q1"":""(가능)""}","survey","114","1098588","0.0-12.0-1.41","[]","","",""
"1001","TestRecordings/thnok.wav","0","audio-button-response","115","1099645","0.0-12.0-0.42","","","",""
"11634","","{""P0_Q0"":""ㅌ,ㅡ,ㄴ,ㅗ,ㄱ"",""P0_Q1"":""(불가능)""}","survey","116","1111285","0.0-12.0-1.42","[]","","",""
"1418","TestRecordings/khwipot.wav","0","audio-button-response","117","1112760","0.0-12.0-0.43","","","",""
"9735","","{""P0_Q0"":""ㅋ,ㅟ,ㅂ,ㅗ,ㅅ"",""P0_Q1"":""(가능)""}","survey","118","1122503","0.0-12.0-1.43","[]","","",""
"1395","TestRecordings/twak.wav","0","audio-button-response","119","1123955","0.0-12.0-0.44","","","",""
"7121","","{""P0_Q0"":""ㄷ,ㅘ,ㄺ"",""P0_Q1"":""(불가능)""}","survey","120","1131082","0.0-12.0-1.44","[]","","",""
"1620","TestRecordings/nthaking.wav","0","audio-button-response","121","1132759","0.0-12.0-0.45","","","",""
"16934","","{""P0_Q0"":""ㅇ,ㅡ,ㅇ,ㅌ,ㅏ,ㄱ,ㅟ,ㅇ"",""P0_Q1"":""(불가능)""}","survey","122","1149699","0.0-12.0-1.45","[]","","",""
"1817","TestRecordings/khin.wav","0","audio-button-response","123","1151573","0.0-12.0-0.46","","","",""
"9895","","{""P0_Q0"":""ㅋ,ㅣ,ㅇ,ㅣ,ㄴ"",""P0_Q1"":""(불가능)""}","survey","124","1161474","0.0-12.0-1.46","[]","","",""
"1668","TestRecordings/nakhit.wav","0","audio-button-response","125","1163169","0.0-12.0-0.47","","","",""
"9455","","{""P0_Q0"":""ㄴ,ㅏ,ㅋ,ㅣ,ㅅ"",""P0_Q1"":""(불가능)""}","survey","126","1172632","0.0-12.0-1.47","[]","","",""
"1276","TestRecordings/mphutam.wav","0","audio-button-response","127","1173933","0.0-12.0-0.48","","","",""
"9569","","{""P0_Q0"":""ㅇ,ㅡ,ㅇ,ㅍ,ㅜ,ㄷ,ㅏ,ㅁ"",""P0_Q1"":""(불가능)""}","survey","128","1183508","0.0-12.0-1.48","[]","","",""
"1339","TestRecordings/phmiman.wav","0","audio-button-response","129","1184904","0.0-12.0-0.49","","","",""
"8906","","{""P0_Q0"":""ㅍ,ㅜ,ㅁ,ㅣ,ㅁ,ㅏ,ㄴ"",""P0_Q1"":""(불가능)""}","survey","130","1193818","0.0-12.0-1.49","[]","","",""
"1263","TestRecordings/nthimong.wav","0","audio-button-response","131","1195137","0.0-12.0-0.50","","","",""
"11793","","{""P0_Q0"":""ㅇ,ㅡ,ㅇ,ㅌ,ㅣ,ㅁ,ㅗ,ㄴ"",""P0_Q1"":""(불가능)""}","survey","132","1206938","0.0-12.0-1.50","[]","","",""
"1426","TestRecordings/khut.wav","0","audio-button-response","133","1208420","0.0-12.0-0.51","","","",""
"6179","","{""P0_Q0"":""ㅋ,ㅡ,ㅇ,ㅜ,ㅅ"",""P0_Q1"":""(불가능)""}","survey","134","1214606","0.0-12.0-1.51","[]","","",""
"1451","TestRecordings/mtukin.wav","0","audio-button-response","135","1216114","0.0-12.0-0.52","","","",""
"13163","","{""P0_Q0"":""ㅇ,ㅡ,ㅇ,ㄷ,ㅜ,ㄱ,ㅣ,ㄴ"",""P0_Q1"":""(불가능)""}","survey","136","1229284","0.0-12.0-1.52","[]","","",""
"1485","TestRecordings/khnothik.wav","0","audio-button-response","137","1230823","0.0-12.0-0.53","","","",""
"11057","","{""P0_Q0"":""ㅋ,ㅡ,ㄴ,ㅗ,ㅌ,ㅣ,ㄱ"",""P0_Q1"":""(불가능)""}","survey","138","1241888","0.0-12.0-1.53","[]","","",""
"1500","TestRecordings/cnaphin.wav","0","audio-button-response","139","1243443","0.0-12.0-0.54","","","",""
"10553","","{""P0_Q0"":""ㅊ,ㅡ,ㄴ,ㅏ,ㅍ,ㅣ,ㄴ"",""P0_Q1"":""(불가능)""}","survey","140","1254003","0.0-12.0-1.54","[]","","",""
"1605","TestRecordings/khwiphing.wav","0","audio-button-response","141","1255663","0.0-12.0-0.55","","","",""
"7441","","{""P0_Q0"":""ㅋ,ㅟ,ㅍ,ㅣ,ㅇ"",""P0_Q1"":""(불가능)""}","survey","142","1263111","0.0-12.0-1.55","[]","","",""
"1357","TestRecordings/kmamun.wav","0","audio-button-response","143","1264493","0.0-12.0-0.56","","","",""
"11464","","{""P0_Q0"":""ㅋ,ㅡ,ㅁ,ㅏ,ㅁ,ㅜ,ㄴ"",""P0_Q1"":""(가능)""}","survey","144","1275963","0.0-12.0-1.56","[]","","",""
"1758","TestRecordings/chunak.wav","0","audio-button-response","145","1277776","0.0-12.0-0.57","","","",""
"5809","","{""P0_Q0"":""ㅊ,ㅜ,ㄴ,ㅏ,ㅅ"",""P0_Q1"":""(가능)""}","survey","146","1283593","0.0-12.0-1.57","[]","","",""
"1255","TestRecordings/chnuk.wav","0","audio-button-response","147","1284872","0.0-12.0-0.58","","","",""
"9061","","{""P0_Q0"":""ㅊ,ㅡ,ㄴ,ㅜ,ㅅ"",""P0_Q1"":""(불가능)""}","survey","148","1293940","0.0-12.0-1.58","[]","","",""
"2385","TestRecordings/cwit.wav","0","audio-button-response","149","1296383","0.0-12.0-0.59","","","",""
"4708","","{""P0_Q0"":""ㅈ,ㅜ,ㅇ,ㅣ,ㅅ"",""P0_Q1"":""(불가능)""}","survey","150","1301096","0.0-12.0-1.59","[]","","",""
"2046",""," ","html-keyboard-response","151","1303142","0.0-13.0","","","",""
"61389","","{""P0_Q0"":""21"",""P0_Q1"":""여성"",""P0_Q2"":""10세"",""P0_Q3"":""없습니다."",""P0_Q4"":""일본어"",""P0_Q5"":""18살부터 3년"",""P0_Q6"":""없음""}","survey","152","1364540","0.0-14.0","[]","","",""
"77020","<p style=""font-size:30px"",lang=""ko"">실험이 끝났습니다</p><p style=""font-size:30px"",lang=""ko"">참가해주셔서 고맙습니다</p>"," ","html-keyboard-response","153","1441560","0.0-15.0","","","",""
,