"rt","stimulus","response","trial_type","trial_index","time_elapsed","internal_node_id","accuracy","PracticeTest","ConsonantSequence","Grammaticality"
"558753","<p style=""font-size:30px"",lang=""ko"">실험에 오신 것을 환영합니다</p><p lang=""ko"">스페이스바를 누르면 다음 페이지로 넘어갑니다</p>"," ","html-keyboard-response","0","562159","0.0-0.0","","","",""
"1059","<p style=""font-size:30px"",lang=""ko"">해드폰을 본인에게 잘 맞게 착용하세요</p><p lang=""ko"">스페이스바를 누르면 다음 페이지로 넘어갑니다</p>"," ","html-keyboard-response","1","563219","0.0-1.0","","","",""
"2071","<p style=""font-size:30px"",lang=""ko"">이 실험에서는 새로 만든 한국 단어를 들으실 겁니다</p><p style=""font-size:30px"",lang=""ko"">단어를 들리는대로 쓰세요. 그런 다음 그 단어가 한국어 단어로 가능한지 평가하세요</p><p lang=""ko"">스페이스바를 누르면 다음 페이지로 넘어갑니다</p>"," ","html-keyboard-response","2","565290","0.0-2.0","","","",""
"1639","<p style=""font-size:30px"",lang=""ko"">원래 있는 단어로 예를 들어 봅시다</p><p lang=""ko"">스페이스바를 누르면 다음 페이지로 넘어갑니다</p>"," ","html-keyboard-response","3","566930","0.0-3.0","","","",""
"7661","PracticeRecordings/kom_bear.wav","0","audio-button-response","4","574680","0.0-4.0","","","",""
"2763","<p style=""font-size:30px"",lang=""ko"">이제 직접 단어를 듣고 쓰는 연습을 해봅시다. </p><p style=""font-size:30px"",lang=""ko"">스페이스바를 누르면 다음 페이지로 넘어갑니다</p>"," ","html-keyboard-response","5","577443","0.0-5.0","","","",""
"3224","PracticeRecordings/kirin_giraffe.wav","0","audio-button-response","6","580684","0.0-6.0-0.0","","","",""
"9716","kirin_giraffe","{""P0_Q0"":""ㄱ,ㅣ,ㄹ,ㅣ,ㄴ""}","survey","7","590425","0.0-6.0-1.0","[]","practice","NA","TRUE"
"4547","<p style=""font-size:30px"",lang=""ko"">방금 들으신 단어는 ""ㄱ,ㅣ,ㄹ,ㅣ,ㄴ"" 이라고 쓰시면 됩니다</p><p lang=""ko"">스페이스바를 누르면 다음 페이지로 넘어갑니다</p>"," ","html-keyboard-response","8","594973","0.0-6.0-2.0","","","",""
"1891","PracticeRecordings/saca_lion.wav","0","audio-button-response","9","596881","0.0-6.0-0.1","","","",""
"5391","saca_lion","{""P0_Q0"":""ㅅ,ㅏ,ㅈ,ㅏ""}","survey","10","602278","0.0-6.0-1.1","[]","practice","NA","FALSE"
"1971","<p style=""font-size:30px"",lang=""ko"">방금 들으신 단어는 ""ㅅ,ㅏ,ㅈ,ㅏ"" 라고 쓰시면 됩니다</p><p lang=""ko"">스페이스바를 누르면 다음 페이지로 넘어갑니다</p>"," ","html-keyboard-response","11","604249","0.0-6.0-2.1","","","",""
"1739","PracticeRecordings/saseum_deer.wav","0","audio-button-response","12","606003","0.0-6.0-0.2","","","",""
"4814","saseum_deer","{""P0_Q0"":""ㅅ,ㅏ,ㅅ,ㅡ,ㅁ""}","survey","13","610822","0.0-6.0-1.2","[]","practice","NA","FALSE"
"1009","<p style=""font-size:30px"",lang=""ko"">방금 들으신 단어는 ""ㅅ,ㅏ,ㅅ,ㅡ,ㅁ""이라고 쓰시면 됩니다</p><p lang=""ko"">스페이스바를 누르면 다음 페이지로 넘어갑니다</p>"," ","html-keyboard-response","14","611832","0.0-6.0-2.2","","","",""
"1740","PracticeRecordings/thokki_rabbit.wav","0","audio-button-response","15","613589","0.0-6.0-0.3","","","",""
"5576","thokki_rabbit","{""P0_Q0"":""ㅌ,ㅗ,ㄲ,ㅣ""}","survey","16","619170","0.0-6.0-1.3","[]","practice","NA","FALSE"
"2751","<p style=""font-size:30px"",lang=""ko"">방금 들으신 단어는 ""ㅌ,ㅗ,ㄲ,ㅣ"" 라고 쓰시면 됩니다</p><p lang=""ko"">스페이스바를 누르면 다음 페이지로 넘어갑니다</p>"," ","html-keyboard-response","17","621922","0.0-6.0-2.3","","","",""
"1312","<p style=""font-size:30px"",lang=""ko"">이제 만든 단어로 연습해봅시다.</p><p lang=""ko"">스페이스바를 누르면 다음 페이지로 넘어갑니다</p>"," ","html-keyboard-response","18","623234","0.0-7.0","","","",""
"3717","PracticeRecordings/snen.wav","0","audio-button-response","19","626968","0.0-8.0-0.0","","","",""
"7237","snen","{""P0_Q0"":""ㅅ,ㅡ,ㄴ,ㅐ,ㄴ""}","survey","20","634210","0.0-8.0-1.0","[]","practice","NA","TRUE"
"6674","<p style=""font-size:30px"",lang=""ko"">들으신 단어는 <br> ""ㅅ,ㅡ,ㄴ,ㅐ,ㄴ""  ""ㅅ,ㅡ,ㄴ,ㅐ"" ""ㅅ,ㄴ,ㅐ,ㄴ (""으"" 소리가 안 들리는 경우)"" 등 <br> 사람에 따라 다양하게 들릴 수 있습니다 <br> 본인에게 들리는대로 쓰시면 됩니다.</p><p lang=""ko"">스페이스바를 누르면 다음 페이지로 넘어갑니다</p>"," ","html-keyboard-response","21","640884","0.0-8.0-2.0","","","",""
"1913","PracticeRecordings/phrak.wav","0","audio-button-response","22","642814","0.0-8.0-0.1","","","",""
"4467","phrak","{""P0_Q0"":""ㅍ,ㅡ,ㄹ,ㅏ,ㄱ""}","survey","23","647285","0.0-8.0-1.1","[]","practice","NA","FALSE"
"3913","<p style=""font-size:30px"",lang=""ko"">들으신 단어는 <br> ""ㅍ,ㅡ,ㄹ,ㅏ,ㄱ"" ""ㅍ,ㅡ,ㄹ,ㅏ,ㅅ"" ""ㅋ,ㅡ,ㄹ,ㅏ,ㄱ"" ""ㅍ,ㄹ,ㅏ,ㄱ (""으"" 소리가 안 들리는 경우)"" 등 <br> 사람에 따라 다양하게 들릴 수 있습니다 <br> 본인에게 들리는대로 쓰시면 됩니다.</p><p lang=""ko"">스페이스바를 누르면 다음 페이지로 넘어갑니다</p>"," ","html-keyboard-response","24","651198","0.0-8.0-2.1","","","",""
"1743","PracticeRecordings/chka.wav","0","audio-button-response","25","653016","0.0-8.0-0.2","","","",""
"4227","chka","{""P0_Q0"":""ㅊ,ㅡ,ㄱ,ㅏ""}","survey","26","657247","0.0-8.0-1.2","[]","practice","NA","FALSE"
"2274","<p style=""font-size:30px"",lang=""ko"">들으신 단어는 ""ㅊ,ㅣ,ㄱ,ㅏ"", ""ㅊ,ㅡ,ㄱ,ㅏ"", ""ㅊ,ㄱ,ㅏ"", ""ㅊ,ㅟ,ㄱ,ㅏ"" 등 <br> 사람에 따라 다양하게 들릴 수 있습니다. <br> 본인에게 들리는대로 쓰시면 됩니다.</p><p lang=""ko"">스페이스바를 누르면 다음 페이지로 넘어갑니다</p>"," ","html-keyboard-response","27","659522","0.0-8.0-2.2","","","",""
"2721",""," ","html-keyboard-response","28","662243","0.0-9.0","","","",""
"3871","<p style=""font-size:30px"",lang=""ko"">이제 실험을 시작하겠습니다.</p><p style=""font-size:30px"",lang=""ko"">실전에서는 각각의 만든 단어를 한 번씩만 들을 수 있습니다.</p>"," ","html-keyboard-response","29","666114","0.0-10.0","","","",""
"21998","<p style=""font-size:30px"",lang=""ko"">단어를 풀어 쓰신 후에 그 단어가 한국어로 가능한 단어인지 평가해주세요</p><p lang=""ko"">스페이스바를 누르면 다음 페이지로 넘어갑니다</p>"," ","html-keyboard-response","30","688112","0.0-11.0","","","",""
"2474","TestRecordings/taphik.wav","0","audio-button-response","31","690664","0.0-12.0-0.0","","","",""
"13460","","{""P0_Q0"":""ㄷ,ㅏ,ㅍ,ㅣ,ㄱ"",""P0_Q1"":""(불가능)""}","survey","32","704133","0.0-12.0-1.0","[]","","",""
"1772","TestRecordings/nthimong.wav","0","audio-button-response","33","705922","0.0-12.0-0.1","","","",""
"14245","","{""P0_Q0"":""ㅡ,ㅌ,ㅣ,ㅁ,ㅗ,ㅇ"",""P0_Q1"":""(불가능)""}","survey","34","720173","0.0-12.0-1.1","[]","","",""
"1551","TestRecordings/tmichut.wav","0","audio-button-response","35","721739","0.0-12.0-0.2","","","",""
"6389","","{""P0_Q0"":""ㅁ,ㅣ,ㅊ,ㅠ,ㅅ"",""P0_Q1"":""(불가능)""}","survey","36","728134","0.0-12.0-1.2","[]","","",""
"1431","TestRecordings/khwichon.wav","0","audio-button-response","37","729581","0.0-12.0-0.3","","","",""
"7495","","{""P0_Q0"":""ㅋ,ㅜ,ㅣ,ㅊ,ㅗ,ㄴ"",""P0_Q1"":""(불가능)""}","survey","38","737081","0.0-12.0-1.3","[]","","",""
"1872","TestRecordings/nchot.wav","0","audio-button-response","39","738968","0.0-12.0-0.4","","","",""
"5533","","{""P0_Q0"":""ㅡ,ㅇ,ㅊ,ㅗ,ㅅ"",""P0_Q1"":""(불가능)""}","survey","40","744506","0.0-12.0-1.4","[]","","",""
"1355","TestRecordings/chnuk.wav","0","audio-button-response","41","745876","0.0-12.0-0.5","","","",""
"5459","","{""P0_Q0"":""ㅊ,ㅡ,ㄴ,ㅜ,ㄱ"",""P0_Q1"":""(불가능)""}","survey","42","751334","0.0-12.0-1.5","[]","","",""
"1594","TestRecordings/cnaphin.wav","0","audio-button-response","43","752944","0.0-12.0-0.6","","","",""
"6815","","{""P0_Q0"":""ㅊ,ㄴ,ㅏ,ㅍ,ㅣ,ㄴ"",""P0_Q1"":""(불가능)""}","survey","44","759763","0.0-12.0-1.6","[]","","",""
"1463","TestRecordings/thukhat.wav","0","audio-button-response","45","761242","0.0-12.0-0.7","","","",""
"6061","","{""P0_Q0"":""ㅌ,ㅜ,ㅋ,ㅏ,ㅅ"",""P0_Q1"":""(불가능)""}","survey","46","767308","0.0-12.0-1.7","[]","","",""
"1405","TestRecordings/nkat.wav","0","audio-button-response","47","768727","0.0-12.0-0.8","","","",""
"4825","","{""P0_Q0"":""ㅡ,ㅇ,ㄱ,ㅏ,ㅅ"",""P0_Q1"":""(불가능)""}","survey","48","773558","0.0-12.0-1.8","[]","","",""
"2266","TestRecordings/knot.wav","0","audio-button-response","49","775839","0.0-12.0-0.9","","","",""
"5648","","{""P0_Q0"":""ㄱ,ㄴ,ㅗ,ㅅ"",""P0_Q1"":""(불가능)""}","survey","50","781492","0.0-12.0-1.9","[]","","",""
"1462","TestRecordings/nkhuchom.wav","0","audio-button-response","51","782970","0.0-12.0-0.10","","","",""
"7623","","{""P0_Q0"":""ㅡ,ㅇ,ㅋ,ㅜ,ㅊ,ㅗ,ㅁ"",""P0_Q1"":""(불가능)""}","survey","52","790598","0.0-12.0-1.10","[]","","",""
"1991","TestRecordings/kmamun.wav","0","audio-button-response","53","792606","0.0-12.0-0.11","","","",""
"8200","","{""P0_Q0"":""ㄱ,ㅁ,ㅏ,ㅁ,ㅜ,ㅁ"",""P0_Q1"":""(불가능)""}","survey","54","800810","0.0-12.0-1.11","[]","","",""
"1366","TestRecordings/tikut.wav","0","audio-button-response","55","802192","0.0-12.0-0.12","","","",""
"10992","","{""P0_Q0"":""ㄷ,ㅣ,ㄱ,ㅜ,ㄷ"",""P0_Q1"":""(불가능)""}","survey","56","813195","0.0-12.0-1.12","[]","","",""
"1529","TestRecordings/khwiphing.wav","0","audio-button-response","57","814739","0.0-12.0-0.13","","","",""
"10044","","{""P0_Q0"":""ㅋ,ㅜ,ㅣ,ㅍ,ㅣ,ㅇ"",""P0_Q1"":""(가능)""}","survey","58","824787","0.0-12.0-1.13","[]","","",""
"1452","TestRecordings/tup.wav","0","audio-button-response","59","826254","0.0-12.0-0.14","","","",""
"3799","","{""P0_Q0"":""ㄷ,ㅜ,ㅂ"",""P0_Q1"":""(불가능)""}","survey","60","830058","0.0-12.0-1.14","[]","","",""
"1230","TestRecordings/mphosak.wav","0","audio-button-response","61","831305","0.0-12.0-0.15","","","",""
"9635","","{""P0_Q0"":""ㅡ,ㅇ,ㅍ,ㅗ,ㅅ,ㅏ,ㄱ"",""P0_Q1"":""(불가능)""}","survey","62","840945","0.0-12.0-1.15","[]","","",""
"1607","TestRecordings/chunak.wav","0","audio-button-response","63","842567","0.0-12.0-0.16","","","",""
"5221","","{""P0_Q0"":""ㅊ,ㅜ,ㄴ,ㅏ,ㄱ"",""P0_Q1"":""(불가능)""}","survey","64","847794","0.0-12.0-1.16","[]","","",""
"1212","TestRecordings/pmochun.wav","0","audio-button-response","65","849022","0.0-12.0-0.17","","","",""
"9645","","{""P0_Q0"":""ㄱ,ㅁ,ㅜ,ㅊ,ㅜ,ㄴ"",""P0_Q1"":""(불가능)""}","survey","66","858671","0.0-12.0-1.17","[]","","",""
"1533","TestRecordings/cwam.wav","0","audio-button-response","67","860220","0.0-12.0-0.18","","","",""
"6625","","{""P0_Q0"":""ㅈ,ㅗ,ㅏ,ㅁ"",""P0_Q1"":""(불가능)""}","survey","68","866850","0.0-12.0-1.18","[]","","",""
"1416","TestRecordings/chwikhong.wav","0","audio-button-response","69","868283","0.0-12.0-0.19","","","",""
"6744","","{""P0_Q0"":""ㅊ,ㅜ,ㅣ,ㅋ,ㅗ,ㅇ"",""P0_Q1"":""(불가능)""}","survey","70","875031","0.0-12.0-1.19","[]","","",""
"1455","TestRecordings/phmiman.wav","0","audio-button-response","71","876503","0.0-12.0-0.20","","","",""
"6278","","{""P0_Q0"":""ㅍ,ㅁ,ㅣ,ㅁ,ㅏ,ㄴ"",""P0_Q1"":""(불가능)""}","survey","72","882785","0.0-12.0-1.20","[]","","",""
"1294","TestRecordings/nakhit.wav","0","audio-button-response","73","884096","0.0-12.0-0.21","","","",""
"7577","","{""P0_Q0"":""ㄴ,ㅏ,ㅋ,ㅣ,ㅅ"",""P0_Q1"":""(불가능)""}","survey","74","891677","0.0-12.0-1.21","[]","","",""
"1240","TestRecordings/phnokhing.wav","0","audio-button-response","75","892932","0.0-12.0-0.22","","","",""
"6069","","{""P0_Q0"":""ㅍ,ㅡ,ㄴ,ㅗ,ㅋ,ㅣ,ㅇ"",""P0_Q1"":""(불가능)""}","survey","76","899005","0.0-12.0-1.22","[]","","",""
"1428","TestRecordings/nchocip.wav","0","audio-button-response","77","900447","0.0-12.0-0.23","","","",""
"7856","","{""P0_Q0"":""ㅡ,ㅇ,ㅊ,ㅗ,ㅈ,ㅣ,ㅅ"",""P0_Q1"":""(불가능)""}","survey","78","908307","0.0-12.0-1.23","[]","","",""
"1369","TestRecordings/nthaking.wav","0","audio-button-response","79","909692","0.0-12.0-0.24","","","",""
"12009","","{""P0_Q0"":""ㅇ,ㅡ,ㅇ,ㅌ,ㅏ,ㄱ,ㅣ,ㅅ"",""P0_Q1"":""(불가능)""}","survey","80","921706","0.0-12.0-1.24","[]","","",""
"2092","TestRecordings/nwimik.wav","0","audio-button-response","81","923812","0.0-12.0-0.25","","","",""
"7419","","{""P0_Q0"":""ㄴ,ㅜ,ㅣ,ㅁ,ㅣ,ㄱ"",""P0_Q1"":""(불가능)""}","survey","82","931235","0.0-12.0-1.25","[]","","",""
"1464","TestRecordings/sikot.wav","0","audio-button-response","83","932712","0.0-12.0-0.26","","","",""
"5867","","{""P0_Q0"":""ㅅ,ㅣ,ㄱ,ㅗ,ㅅ"",""P0_Q1"":""(불가능)""}","survey","84","938584","0.0-12.0-1.26","[]","","",""
"1316","TestRecordings/khin.wav","0","audio-button-response","85","939916","0.0-12.0-0.27","","","",""
"5305","","{""P0_Q0"":""ㅋ,ㅣ,ㄴ"",""P0_Q1"":""(불가능)""}","survey","86","945224","0.0-12.0-1.27","[]","","",""
"1489","TestRecordings/twamot.wav","0","audio-button-response","87","946728","0.0-12.0-0.28","","","",""
"6690","","{""P0_Q0"":""ㄷ,ㅗ,ㅏ,ㅁ,ㅗ,ㅅ"",""P0_Q1"":""(불가능)""}","survey","88","953423","0.0-12.0-1.28","[]","","",""
"1611","TestRecordings/chakot.wav","0","audio-button-response","89","955050","0.0-12.0-0.29","","","",""
"9541","","{""P0_Q0"":""ㅊ,ㅏ,ㄱ,ㅗ,ㅅ"",""P0_Q1"":""(불가능)""}","survey","90","964595","0.0-12.0-1.29","[]","","",""
"1380","TestRecordings/mkit.wav","0","audio-button-response","91","965993","0.0-12.0-0.30","","","",""
"7125","","{""P0_Q0"":""ㅡ,ㅇ,ㄱ,ㅣ,ㅅ"",""P0_Q1"":""(불가능)""}","survey","92","973123","0.0-12.0-1.30","[]","","",""
"1230","TestRecordings/tnunong.wav","0","audio-button-response","93","974429","0.0-12.0-0.31","","","",""
"9230","","{""P0_Q0"":""ㄷ,ㅡ,ㄴ,ㅜ,ㄴ,ㅗ,ㅇ"",""P0_Q1"":""(불가능)""}","survey","94","983663","0.0-12.0-1.31","[]","","",""
"1260","TestRecordings/mpukham.wav","0","audio-button-response","95","984939","0.0-12.0-0.32","","","",""
"6567","","{""P0_Q0"":""ㅡ,ㅇ,ㅂ,ㅜ,ㅋ,ㅏ,ㅁ"",""P0_Q1"":""(불가능)""}","survey","96","991509","0.0-12.0-1.32","[]","","",""
"1243","TestRecordings/twaput.wav","0","audio-button-response","97","992767","0.0-12.0-0.33","","","",""
"7433","","{""P0_Q0"":""ㄷ,ㅗ,ㅏ,ㅂ,ㅜ,ㅅ"",""P0_Q1"":""(불가능)""}","survey","98","1000204","0.0-12.0-1.33","[]","","",""
"1267","TestRecordings/mthik.wav","0","audio-button-response","99","1001485","0.0-12.0-0.34","","","",""
"4974","","{""P0_Q0"":""ㅡ,ㅇ,ㅍ,ㅣ,ㄱ"",""P0_Q1"":""(불가능)""}","survey","100","1006464","0.0-12.0-1.34","[]","","",""
"1154","TestRecordings/khnothik.wav","0","audio-button-response","101","1007634","0.0-12.0-0.35","","","",""
"10182","","{""P0_Q0"":""ㅋ,ㅡ,ㄴ,ㅗ,ㅌ,ㅣ,ㄱ"",""P0_Q1"":""(불가능)""}","survey","102","1017820","0.0-12.0-1.35","[]","","",""
"1225","TestRecordings/ntakhip.wav","0","audio-button-response","103","1019059","0.0-12.0-0.36","","","",""
"6489","","{""P0_Q0"":""ㅡ,ㅇ,ㄷ,ㅏ,ㅋ,ㅣ,ㅅ"",""P0_Q1"":""(불가능)""}","survey","104","1025552","0.0-12.0-1.36","[]","","",""
"1275","TestRecordings/khut.wav","0","audio-button-response","105","1026841","0.0-12.0-0.37","","","",""
"3928","","{""P0_Q0"":""ㅋ,ㅜ,ㅅ"",""P0_Q1"":""(불가능)""}","survey","106","1030774","0.0-12.0-1.37","[]","","",""
"1217","TestRecordings/mphuk.wav","0","audio-button-response","107","1032004","0.0-12.0-0.38","","","",""
"6779","","{""P0_Q0"":""ㅡ,ㅇ,ㅍ,ㅜ,ㄱ"",""P0_Q1"":""(불가능)""}","survey","108","1038787","0.0-12.0-1.38","[]","","",""
"1282","TestRecordings/cwit.wav","0","audio-button-response","109","1040084","0.0-12.0-0.39","","","",""
"4189","","{""P0_Q0"":""ㅈ,ㅜ,ㅣ,ㅅ"",""P0_Q1"":""(불가능)""}","survey","110","1044278","0.0-12.0-1.39","[]","","",""
"1170","TestRecordings/chwiphin.wav","0","audio-button-response","111","1045464","0.0-12.0-0.40","","","",""
"5667","","{""P0_Q0"":""ㅊ,ㅜ,ㅣ,ㅍ,ㅣ,ㄴ"",""P0_Q1"":""(불가능)""}","survey","112","1051135","0.0-12.0-1.40","[]","","",""
"3979","TestRecordings/khithuk.wav","0","audio-button-response","113","1055128","0.0-12.0-0.41","","","",""
"9273","","{""P0_Q0"":""ㅋ,ㅣ,ㅌ,ㅜ"",""P0_Q1"":""(불가능)""}","survey","114","1064407","0.0-12.0-1.41","[]","","",""
"3389","TestRecordings/chmop.wav","0","audio-button-response","115","1067811","0.0-12.0-0.42","","","",""
"10719","","{""P0_Q0"":""ㅊ,ㅡ,ㅁ,ㅗ,ㅅ"",""P0_Q1"":""(불가능)""}","survey","116","1078534","0.0-12.0-1.42","[]","","",""
"1117","TestRecordings/thnok.wav","0","audio-button-response","117","1079665","0.0-12.0-0.43","","","",""
"5654","","{""P0_Q0"":""ㅌ,ㅡ,ㄴ,ㅗ,ㄱ"",""P0_Q1"":""(불가능)""}","survey","118","1085324","0.0-12.0-1.43","[]","","",""
"1170","TestRecordings/chnupot.wav","0","audio-button-response","119","1086510","0.0-12.0-0.44","","","",""
"9644","","{""P0_Q0"":""ㅊ,ㅡ,ㄴ,ㅜ,ㅂ,ㅗ,ㅅ"",""P0_Q1"":""(불가능)""}","survey","120","1096158","0.0-12.0-1.44","[]","","",""
"2185","TestRecordings/khwipot.wav","0","audio-button-response","121","1098359","0.0-12.0-0.45","","","",""
"5544","","{""P0_Q0"":""ㅋ,ㅜ,ㅣ,ㅂ,ㅗ,ㅅ"",""P0_Q1"":""(불가능)""}","survey","122","1103908","0.0-12.0-1.45","[]","","",""
"1258","TestRecordings/cmoman.wav","0","audio-button-response","123","1105181","0.0-12.0-0.46","","","",""
"7965","","{""P0_Q0"":""ㅊ,ㅡ,ㅁ,ㅗ,ㅁ,ㅏ,ㄴ"",""P0_Q1"":""(불가능)""}","survey","124","1113141","0.0-12.0-1.46","[]","","",""
"1231","TestRecordings/mup.wav","0","audio-button-response","125","1114388","0.0-12.0-0.47","","","",""
"4782","","{""P0_Q0"":""ㅁ,ㅜ,ㅂ"",""P0_Q1"":""(불가능)""}","survey","126","1119175","0.0-12.0-1.47","[]","","",""
"1500","TestRecordings/khnap.wav","0","audio-button-response","127","1120689","0.0-12.0-0.48","","","",""
"5020","","{""P0_Q0"":""ㅋ,ㅡ,ㄴ,ㅏ,ㅂ"",""P0_Q1"":""(불가능)""}","survey","128","1125713","0.0-12.0-1.48","[]","","",""
"1204","TestRecordings/swikhat.wav","0","audio-button-response","129","1126932","0.0-12.0-0.49","","","",""
"7279","","{""P0_Q0"":""ㅅ,ㅜ,ㅣ,ㅋ,ㅏ,ㅅ"",""P0_Q1"":""(불가능)""}","survey","130","1134216","0.0-12.0-1.49","[]","","",""
"1516","TestRecordings/thinok.wav","0","audio-button-response","131","1135754","0.0-12.0-0.50","","","",""
"4676","","{""P0_Q0"":""ㅋ,ㅣ,ㄴ,ㅗ,ㄱ"",""P0_Q1"":""(불가능)""}","survey","132","1140433","0.0-12.0-1.50","[]","","",""
"1961","TestRecordings/twak.wav","0","audio-button-response","133","1142409","0.0-12.0-0.51","","","",""
"4764","","{""P0_Q0"":""ㄷ,ㅗ,ㅏ,ㄱ"",""P0_Q1"":""(불가능)""}","survey","134","1147177","0.0-12.0-1.51","[]","","",""
"1357","TestRecordings/twan.wav","0","audio-button-response","135","1148550","0.0-12.0-0.52","","","",""
"3891","","{""P0_Q0"":""ㄷ,ㅗ,ㅏ,ㄴ"",""P0_Q1"":""(불가능)""}","survey","136","1152446","0.0-12.0-1.52","[]","","",""
"1094","TestRecordings/mphutam.wav","0","audio-button-response","137","1153557","0.0-12.0-0.53","","","",""
"8474","","{""P0_Q0"":""ㅇ,ㅍ,ㅜ,ㄷ,ㅏ,ㅁ"",""P0_Q1"":""(불가능)""}","survey","138","1162035","0.0-12.0-1.53","[]","","",""
"1352","TestRecordings/tin.wav","0","audio-button-response","139","1163403","0.0-12.0-0.54","","","",""
"3442","","{""P0_Q0"":""ㄷ,ㅣ,ㄴ"",""P0_Q1"":""(불가능)""}","survey","140","1166849","0.0-12.0-1.54","[]","","",""
"1200","TestRecordings/npucap.wav","0","audio-button-response","141","1168064","0.0-12.0-0.55","","","",""
"6441","","{""P0_Q0"":""ㅇ,ㅍ,ㅜ,ㅈ,ㅏ,ㅂ"",""P0_Q1"":""(불가능)""}","survey","142","1174519","0.0-12.0-1.55","[]","","",""
"1186","TestRecordings/chumik.wav","0","audio-button-response","143","1175721","0.0-12.0-0.56","","","",""
"6488","","{""P0_Q0"":""ㅊ,ㅜ,ㅁ,ㅣㄱ"",""P0_Q1"":""(불가능)""}","survey","144","1182213","0.0-12.0-1.56","[]","","",""
"1199","TestRecordings/thwam.wav","0","audio-button-response","145","1183428","0.0-12.0-0.57","","","",""
"4530","","{""P0_Q0"":""ㅌ,ㅗ,ㅏ,ㅁ"",""P0_Q1"":""(불가능)""}","survey","146","1187962","0.0-12.0-1.57","[]","","",""
"2692","TestRecordings/mtukin.wav","0","audio-button-response","147","1190672","0.0-12.0-0.58","","","",""
"7781","","{""P0_Q0"":""ㅇ,ㄷ,ㅜ,ㄱ,ㅣ,ㄴ"",""P0_Q1"":""(불가능)""}","survey","148","1198457","0.0-12.0-1.58","[]","","",""
"1239","TestRecordings/thwikhip.wav","0","audio-button-response","149","1199711","0.0-12.0-0.59","","","",""
"6360","","{""P0_Q0"":""ㅌ,ㅜ,ㅣ,ㅋ,ㅣ,ㅂ"",""P0_Q1"":""(불가능)""}","survey","150","1206076","0.0-12.0-1.59","[]","","",""
"1705",""," ","html-keyboard-response","151","1207781","0.0-13.0","","","",""
"53462","","{""P0_Q0"":""19"",""P0_Q1"":""여자"",""P0_Q2"":""6살"",""P0_Q3"":""없습니다"",""P0_Q4"":""일본어"",""P0_Q5"":""18살,1년"",""P0_Q6"":""없습니다""}","survey","152","1261249","0.0-14.0","[]","","",""
"2023","<p style=""font-size:30px"",lang=""ko"">실험이 끝났습니다</p><p style=""font-size:30px"",lang=""ko"">참가해주셔서 고맙습니다</p>"," ","html-keyboard-response","153","1263273","0.0-15.0","","","",""
,