"rt","stimulus","response","trial_type","trial_index","time_elapsed","internal_node_id","accuracy","PracticeTest","ConsonantSequence","Grammaticality"
"56526","<p style=""font-size:30px"",lang=""ko"">실험에 오신 것을 환영합니다</p><p lang=""ko"">스페이스바를 누르면 다음 페이지로 넘어갑니다</p>"," ","html-keyboard-response","0","56528","0.0-0.0","","","",""
"2114","<p style=""font-size:30px"",lang=""ko"">해드폰을 본인에게 잘 맞게 착용하세요</p><p lang=""ko"">스페이스바를 누르면 다음 페이지로 넘어갑니다</p>"," ","html-keyboard-response","1","58643","0.0-1.0","","","",""
"3994","<p style=""font-size:30px"",lang=""ko"">이 실험에서는 새로 만든 한국 단어를 들으실 겁니다</p><p style=""font-size:30px"",lang=""ko"">단어를 들리는대로 쓰세요. 그런 다음 그 단어가 한국어 단어로 가능한지 평가하세요</p><p lang=""ko"">스페이스바를 누르면 다음 페이지로 넘어갑니다</p>"," ","html-keyboard-response","2","62637","0.0-2.0","","","",""
"1353","<p style=""font-size:30px"",lang=""ko"">원래 있는 단어로 예를 들어 봅시다</p><p lang=""ko"">스페이스바를 누르면 다음 페이지로 넘어갑니다</p>"," ","html-keyboard-response","3","63991","0.0-3.0","","","",""
"9968","PracticeRecordings/kom_bear.wav","0","audio-button-response","4","73997","0.0-4.0","","","",""
"1567","<p style=""font-size:30px"",lang=""ko"">이제 직접 단어를 듣고 쓰는 연습을 해봅시다. </p><p style=""font-size:30px"",lang=""ko"">스페이스바를 누르면 다음 페이지로 넘어갑니다</p>"," ","html-keyboard-response","5","75564","0.0-5.0","","","",""
"3039","PracticeRecordings/kirin_giraffe.wav","0","audio-button-response","6","78624","0.0-6.0-0.0","","","",""
"15606","kirin_giraffe","{""P0_Q0"":""ㄱ,ㅣ,ㄹ,ㅣ,ㄴ""}","survey","7","94272","0.0-6.0-1.0","[]","practice","NA","TRUE"
"2508","<p style=""font-size:30px"",lang=""ko"">방금 들으신 단어는 ""ㄱ,ㅣ,ㄹ,ㅣ,ㄴ"" 이라고 쓰시면 됩니다</p><p lang=""ko"">스페이스바를 누르면 다음 페이지로 넘어갑니다</p>"," ","html-keyboard-response","8","96781","0.0-6.0-2.0","","","",""
"3536","PracticeRecordings/saca_lion.wav","0","audio-button-response","9","100348","0.0-6.0-0.1","","","",""
"5793","saca_lion","{""P0_Q0"":""ㅅ,ㅏ,ㅈ,ㅏ""}","survey","10","106149","0.0-6.0-1.1","[]","practice","NA","FALSE"
"851","<p style=""font-size:30px"",lang=""ko"">방금 들으신 단어는 ""ㅅ,ㅏ,ㅈ,ㅏ"" 라고 쓰시면 됩니다</p><p lang=""ko"">스페이스바를 누르면 다음 페이지로 넘어갑니다</p>"," ","html-keyboard-response","11","107000","0.0-6.0-2.1","","","",""
"2461","PracticeRecordings/saseum_deer.wav","0","audio-button-response","12","109550","0.0-6.0-0.2","","","",""
"6889","saseum_deer","{""P0_Q0"":""ㅅ,ㅏ,ㅅ,ㅡ,ㅁ""}","survey","13","116449","0.0-6.0-1.2","[]","practice","NA","FALSE"
"1929","<p style=""font-size:30px"",lang=""ko"">방금 들으신 단어는 ""ㅅ,ㅏ,ㅅ,ㅡ,ㅁ""이라고 쓰시면 됩니다</p><p lang=""ko"">스페이스바를 누르면 다음 페이지로 넘어갑니다</p>"," ","html-keyboard-response","14","118379","0.0-6.0-2.2","","","",""
"2380","PracticeRecordings/thokki_rabbit.wav","0","audio-button-response","15","120857","0.0-6.0-0.3","","","",""
"5743","thokki_rabbit","{""P0_Q0"":""ㅌ,ㅗ,ㄲ,ㅣ""}","survey","16","126610","0.0-6.0-1.3","[]","practice","NA","FALSE"
"682","<p style=""font-size:30px"",lang=""ko"">방금 들으신 단어는 ""ㅌ,ㅗ,ㄲ,ㅣ"" 라고 쓰시면 됩니다</p><p lang=""ko"">스페이스바를 누르면 다음 페이지로 넘어갑니다</p>"," ","html-keyboard-response","17","127292","0.0-6.0-2.3","","","",""
"1879","<p style=""font-size:30px"",lang=""ko"">이제 만든 단어로 연습해봅시다.</p><p lang=""ko"">스페이스바를 누르면 다음 페이지로 넘어갑니다</p>"," ","html-keyboard-response","18","129172","0.0-7.0","","","",""
"6626","PracticeRecordings/snen.wav","0","audio-button-response","19","135824","0.0-8.0-0.0","","","",""
"7668","snen","{""P0_Q0"":""ㅅ,ㅡ,ㄴ,ㅐ,ㄴ""}","survey","20","143501","0.0-8.0-1.0","[]","practice","NA","TRUE"
"4898","<p style=""font-size:30px"",lang=""ko"">들으신 단어는 <br> ""ㅅ,ㅡ,ㄴ,ㅐ,ㄴ""  ""ㅅ,ㅡ,ㄴ,ㅐ"" ""ㅅ,ㄴ,ㅐ,ㄴ (""으"" 소리가 안 들리는 경우)"" 등 <br> 사람에 따라 다양하게 들릴 수 있습니다 <br> 본인에게 들리는대로 쓰시면 됩니다.</p><p lang=""ko"">스페이스바를 누르면 다음 페이지로 넘어갑니다</p>"," ","html-keyboard-response","21","148400","0.0-8.0-2.0","","","",""
"2961","PracticeRecordings/phrak.wav","0","audio-button-response","22","151430","0.0-8.0-0.1","","","",""
"9570","phrak","{""P0_Q0"":""ㅍ,ㅡ,ㄹ,ㅏ,ㄱ""}","survey","23","161007","0.0-8.0-1.1","[]","practice","NA","FALSE"
"2195","<p style=""font-size:30px"",lang=""ko"">들으신 단어는 <br> ""ㅍ,ㅡ,ㄹ,ㅏ,ㄱ"" ""ㅍ,ㅡ,ㄹ,ㅏ,ㅅ"" ""ㅋ,ㅡ,ㄹ,ㅏ,ㄱ"" ""ㅍ,ㄹ,ㅏ,ㄱ (""으"" 소리가 안 들리는 경우)"" 등 <br> 사람에 따라 다양하게 들릴 수 있습니다 <br> 본인에게 들리는대로 쓰시면 됩니다.</p><p lang=""ko"">스페이스바를 누르면 다음 페이지로 넘어갑니다</p>"," ","html-keyboard-response","24","163202","0.0-8.0-2.1","","","",""
"2798","PracticeRecordings/chka.wav","0","audio-button-response","25","166062","0.0-8.0-0.2","","","",""
"5197","chka","{""P0_Q0"":""ㅊ,ㅡ,ㄱ,ㅏ""}","survey","26","171265","0.0-8.0-1.2","[]","practice","NA","FALSE"
"2065","<p style=""font-size:30px"",lang=""ko"">들으신 단어는 ""ㅊ,ㅣ,ㄱ,ㅏ"", ""ㅊ,ㅡ,ㄱ,ㅏ"", ""ㅊ,ㄱ,ㅏ"", ""ㅊ,ㅟ,ㄱ,ㅏ"" 등 <br> 사람에 따라 다양하게 들릴 수 있습니다. <br> 본인에게 들리는대로 쓰시면 됩니다.</p><p lang=""ko"">스페이스바를 누르면 다음 페이지로 넘어갑니다</p>"," ","html-keyboard-response","27","173331","0.0-8.0-2.2","","","",""
"2217",""," ","html-keyboard-response","28","175549","0.0-9.0","","","",""
"3881","<p style=""font-size:30px"",lang=""ko"">이제 실험을 시작하겠습니다.</p><p style=""font-size:30px"",lang=""ko"">실전에서는 각각의 만든 단어를 한 번씩만 들을 수 있습니다.</p>"," ","html-keyboard-response","29","179430","0.0-10.0","","","",""
"21705","<p style=""font-size:30px"",lang=""ko"">단어를 풀어 쓰신 후에 그 단어가 한국어로 가능한 단어인지 평가해주세요</p><p lang=""ko"">스페이스바를 누르면 다음 페이지로 넘어갑니다</p>"," ","html-keyboard-response","30","201136","0.0-11.0","","","",""
"7536","TestRecordings/nthaking.wav","0","audio-button-response","31","208705","0.0-12.0-0.0","","","",""
"26230","","{""P0_Q0"":""ㄴ,ㅣ,ㅌ,ㅏ,ㄱ,ㅣ,ㅇ"",""P0_Q1"":""(불가능)""}","survey","32","234950","0.0-12.0-1.0","[]","","",""
"4332","TestRecordings/chumik.wav","0","audio-button-response","33","239374","0.0-12.0-0.1","","","",""
"13244","","{""P0_Q0"":""ㅊ,ㅜ,ㅁ,ㅣ,ㄱ"",""P0_Q1"":""(가능)""}","survey","34","252628","0.0-12.0-1.1","[]","","",""
"5304","TestRecordings/ntakhip.wav","0","audio-button-response","35","258018","0.0-12.0-0.2","","","",""
"25106","","{""P0_Q0"":""ㄴ,ㅡ,ㅇ,ㄷ,ㅏ,ㅋ,ㅣ,ㅂ"",""P0_Q1"":""(가능)""}","survey","36","283132","0.0-12.0-1.2","[]","","",""
"5091","TestRecordings/mphuk.wav","0","audio-button-response","37","288314","0.0-12.0-0.3","","","",""
"9445","","{""P0_Q0"":""ㅇ,ㅡ,ㅁ,ㅍ,ㅜ,ㄱ"",""P0_Q1"":""(불가능)""}","survey","38","297768","0.0-12.0-1.3","[]","","",""
"2613","TestRecordings/khwichon.wav","0","audio-button-response","39","300406","0.0-12.0-0.4","","","",""
"55248","","{""P0_Q0"":""ㅋ,ㅜ,ㅣ,ㅊ,ㅗ,ㄴ"",""P0_Q1"":""(가능)""}","survey","40","355663","0.0-12.0-1.4","[]","","",""
"3540","TestRecordings/tikut.wav","0","audio-button-response","41","359232","0.0-12.0-0.5","","","",""
"15065","","{""P0_Q0"":""ㄷ,ㅣ,ㄱ,ㅜ,ㅅ"",""P0_Q1"":""(불가능)""}","survey","42","374303","0.0-12.0-1.5","[]","","",""
"2766","TestRecordings/nkat.wav","0","audio-button-response","43","377095","0.0-12.0-0.6","","","",""
"10405","","{""P0_Q0"":""ㅇ,ㅡ,ㅇ,ㄱ,ㅏ,ㅅ"",""P0_Q1"":""(가능)""}","survey","44","387505","0.0-12.0-1.6","[]","","",""
"2007","TestRecordings/thwikhip.wav","0","audio-button-response","45","389536","0.0-12.0-0.7","","","",""
"12245","","{""P0_Q0"":""ㅌ,ㅜ,ㅣ,ㅋ,ㅣ,ㅂ"",""P0_Q1"":""(가능)""}","survey","46","401786","0.0-12.0-1.7","[]","","",""
"3490","TestRecordings/nchot.wav","0","audio-button-response","47","405363","0.0-12.0-0.8","","","",""
"12333","","{""P0_Q0"":""ㅇ,ㅡ,ㅇ,ㅊ,ㅗ,ㅅ"",""P0_Q1"":""(불가능)""}","survey","48","417702","0.0-12.0-1.8","[]","","",""
"3734","TestRecordings/cwit.wav","0","audio-button-response","49","421521","0.0-12.0-0.9","","","",""
"9503","","{""P0_Q0"":""ㅈ,ㅜ,ㅣ,ㄱ"",""P0_Q1"":""(불가능)""}","survey","50","431033","0.0-12.0-1.9","[]","","",""
"3441","TestRecordings/khwiphing.wav","0","audio-button-response","51","434498","0.0-12.0-0.10","","","",""
"7535","","{""P0_Q0"":""ㅋ,ㅜ,ㅣ,ㅍ,ㅣ,ㅇ"",""P0_Q1"":""(가능)""}","survey","52","442042","0.0-12.0-1.10","[]","","",""
"2211","TestRecordings/chakot.wav","0","audio-button-response","53","444346","0.0-12.0-0.11","","","",""
"6717","","{""P0_Q0"":""ㅊ,ㅏ,ㄱ,ㅗ,ㅅ"",""P0_Q1"":""(가능)""}","survey","54","451070","0.0-12.0-1.11","[]","","",""
"2343","TestRecordings/twak.wav","0","audio-button-response","55","453437","0.0-12.0-0.12","","","",""
"11205","","{""P0_Q0"":""ㄷ,ㅗ,ㅏ,ㄱ"",""P0_Q1"":""(가능)""}","survey","56","464654","0.0-12.0-1.12","[]","","",""
"2626","TestRecordings/npucap.wav","0","audio-button-response","57","467378","0.0-12.0-0.13","","","",""
"7965","","{""P0_Q0"":""ㅇ,ㅡ,ㅇ,ㅂ,ㅜ,ㅈ,ㅏ,ㅂ"",""P0_Q1"":""(불가능)""}","survey","58","475350","0.0-12.0-1.13","[]","","",""
"2723","TestRecordings/chwikhong.wav","0","audio-button-response","59","478093","0.0-12.0-0.14","","","",""
"8244","","{""P0_Q0"":""ㅊ,ㅜ,ㅣ,ㅋ,ㅗ,ㅇ"",""P0_Q1"":""(가능)""}","survey","60","486346","0.0-12.0-1.14","[]","","",""
"2095","TestRecordings/nthimong.wav","0","audio-button-response","61","488471","0.0-12.0-0.15","","","",""
"7897","","{""P0_Q0"":""ㅇ,ㅡㅇ,ㅌ,ㅣ,ㅁ,ㅗ,ㅇ"",""P0_Q1"":""(불가능)""}","survey","62","496376","0.0-12.0-1.15","[]","","",""
"1799","TestRecordings/cwam.wav","0","audio-button-response","63","498264","0.0-12.0-0.16","","","",""
"11640","","{""P0_Q0"":""ㅈ,ㅗ,ㅏ,ㅁ"",""P0_Q1"":""(가능)""}","survey","64","509913","0.0-12.0-1.16","[]","","",""
"2919","TestRecordings/tin.wav","0","audio-button-response","65","512874","0.0-12.0-0.17","","","",""
"7323","","{""P0_Q0"":""ㄷ,ㅣ,ㄴ"",""P0_Q1"":""(가능)""}","survey","66","520204","0.0-12.0-1.17","[]","","",""
"3334","TestRecordings/twan.wav","0","audio-button-response","67","523562","0.0-12.0-0.18","","","",""
"9241","","{""P0_Q0"":""ㄷ,ㅗ,ㅏ,ㄴ"",""P0_Q1"":""(가능)""}","survey","68","532811","0.0-12.0-1.18","[]","","",""
"2437","TestRecordings/nakhit.wav","0","audio-button-response","69","535273","0.0-12.0-0.19","","","",""
"7254","","{""P0_Q0"":""ㄴ,ㅏ,ㅋ,ㅣ,ㅅ"",""P0_Q1"":""(불가능)""}","survey","70","542536","0.0-12.0-1.19","[]","","",""
"3278","TestRecordings/phmiman.wav","0","audio-button-response","71","545847","0.0-12.0-0.20","","","",""
"12739","","{""P0_Q0"":""ㅍ,ㅡ,ㅁ,ㅣ,ㅁ,ㅏ,ㄴ"",""P0_Q1"":""(가능)""}","survey","72","558596","0.0-12.0-1.20","[]","","",""
"2502","TestRecordings/twaput.wav","0","audio-button-response","73","561186","0.0-12.0-0.21","","","",""
"14789","","{""P0_Q0"":""ㄷ,ㅗ,ㅏ,ㅂ,ㅜ,ㅅ"",""P0_Q1"":""(불가능)""}","survey","74","575983","0.0-12.0-1.21","[]","","",""
"2128","TestRecordings/knot.wav","0","audio-button-response","75","578144","0.0-12.0-0.22","","","",""
"8316","","{""P0_Q0"":""ㅋ,ㅡ,ㄴ,ㅗ,ㅅ"",""P0_Q1"":""(불가능)""}","survey","76","586467","0.0-12.0-1.22","[]","","",""
"2313","TestRecordings/nchocip.wav","0","audio-button-response","77","588808","0.0-12.0-0.23","","","",""
"14170","","{""P0_Q0"":""ㅇ,ㅡ,ㅇ,ㅊ,ㅗ,ㅈ,ㅣ,ㅂ"",""P0_Q1"":""(불가능)""}","survey","78","602985","0.0-12.0-1.23","[]","","",""
"2201","TestRecordings/nkhuchom.wav","0","audio-button-response","79","605211","0.0-12.0-0.24","","","",""
"12314","","{""P0_Q0"":""ㅇ,ㅡ,ㅇ,ㅋ,ㅜ,ㅊ,ㅗ,ㅁ"",""P0_Q1"":""(불가능)""}","survey","80","617533","0.0-12.0-1.24","[]","","",""
"2879","TestRecordings/mtukin.wav","0","audio-button-response","81","620434","0.0-12.0-0.25","","","",""
"10378","","{""P0_Q0"":""ㅇ,ㅡ,ㅇ,ㄷ,ㅜ,ㄱ,ㅣ,ㄴ"",""P0_Q1"":""(불가능)""}","survey","82","630819","0.0-12.0-1.25","[]","","",""
"2850","TestRecordings/thwam.wav","0","audio-button-response","83","633692","0.0-12.0-0.26","","","",""
"14139","","{""P0_Q0"":""ㅌ,ㅗ,ㅏ,ㅁ"",""P0_Q1"":""(불가능)""}","survey","84","647836","0.0-12.0-1.26","[]","","",""
"3417","TestRecordings/pmochun.wav","0","audio-button-response","85","651327","0.0-12.0-0.27","","","",""
"12859","","{""P0_Q0"":""ㄱ,ㅡ,ㅁ,ㅜ,ㅊ,ㅜ,ㄴ"",""P0_Q1"":""(불가능)""}","survey","86","664194","0.0-12.0-1.27","[]","","",""
"2370","TestRecordings/khwipot.wav","0","audio-button-response","87","666650","0.0-12.0-0.28","","","",""
"10345","","{""P0_Q0"":""ㅋ,ㅜ,ㅣ,ㅂ,ㅗ,ㅅ"",""P0_Q1"":""(가능)""}","survey","88","677002","0.0-12.0-1.28","[]","","",""
"2219","TestRecordings/mkit.wav","0","audio-button-response","89","679246","0.0-12.0-0.29","","","",""
"6751","","{""P0_Q0"":""ㅇ,ㅡ,ㅇ,ㄱ,ㅣ,ㅅ"",""P0_Q1"":""(가능)""}","survey","90","686005","0.0-12.0-1.29","[]","","",""
"2049","TestRecordings/mpukham.wav","0","audio-button-response","91","688139","0.0-12.0-0.30","","","",""
"30554","","{""P0_Q0"":""ㅇ,ㅡ,ㅇ,ㅂ,ㅜ,ㄱ,ㅎ,ㅏ,ㅁ"",""P0_Q1"":""(가능)""}","survey","92","718702","0.0-12.0-1.30","[]","","",""
"3484","TestRecordings/chwiphin.wav","0","audio-button-response","93","722277","0.0-12.0-0.31","","","",""
"8819","","{""P0_Q0"":""ㅊ,ㅜ,ㅣ,ㅍ,ㅣ,ㄴ"",""P0_Q1"":""(가능)""}","survey","94","731104","0.0-12.0-1.31","[]","","",""
"2721","TestRecordings/thukhat.wav","0","audio-button-response","95","733913","0.0-12.0-0.32","","","",""
"17644","","{""P0_Q0"":""ㅌ,ㅜ,ㅋ,ㅏ,ㅅ"",""P0_Q1"":""(불가능)""}","survey","96","751563","0.0-12.0-1.32","[]","","",""
"3203","TestRecordings/khnothik.wav","0","audio-button-response","97","754851","0.0-12.0-0.33","","","",""
"12568","","{""P0_Q0"":""ㅋ,ㅡ,ㄴ,ㅗ,ㅌ,ㅣ,ㄱ"",""P0_Q1"":""(불가능)""}","survey","98","767427","0.0-12.0-1.33","[]","","",""
"3249","TestRecordings/mphutam.wav","0","audio-button-response","99","770760","0.0-12.0-0.34","","","",""
"9122","","{""P0_Q0"":""ㅇ,ㅡ,ㅇ,ㅍ,ㅜ,ㄷ,ㅏ,ㅁ"",""P0_Q1"":""(불가능)""}","survey","100","779889","0.0-12.0-1.34","[]","","",""
"2710","TestRecordings/chnupot.wav","0","audio-button-response","101","782684","0.0-12.0-0.35","","","",""
"7564","","{""P0_Q0"":""ㅊ,ㅡ,ㄴ,ㅜ,ㅂ,ㅗ,ㅅ"",""P0_Q1"":""(가능)""}","survey","102","790255","0.0-12.0-1.35","[]","","",""
"1806","TestRecordings/chunak.wav","0","audio-button-response","103","792146","0.0-12.0-0.36","","","",""
"6517","","{""P0_Q0"":""ㅊ,ㅜ,ㄴ,ㅏ,ㄱ"",""P0_Q1"":""(가능)""}","survey","104","798671","0.0-12.0-1.36","[]","","",""
"2333","TestRecordings/cnaphin.wav","0","audio-button-response","105","801090","0.0-12.0-0.37","","","",""
"8772","","{""P0_Q0"":""ㅉ,ㅡ,ㄴ,ㅏ,ㅍ,ㅣ,ㄴ"",""P0_Q1"":""(가능)""}","survey","106","809868","0.0-12.0-1.37","[]","","",""
"2800","TestRecordings/nwimik.wav","0","audio-button-response","107","812752","0.0-12.0-0.38","","","",""
"6036","","{""P0_Q0"":""ㄴ,ㅜ,ㅣ,ㅁ,ㅣ,ㄱ"",""P0_Q1"":""(가능)""}","survey","108","818796","0.0-12.0-1.38","[]","","",""
"1911","TestRecordings/phnokhing.wav","0","audio-button-response","109","820795","0.0-12.0-0.39","","","",""
"9585","","{""P0_Q0"":""ㅍ,ㅡ,ㄴ,ㅗ,ㅋ,ㅣ,ㅇ"",""P0_Q1"":""(불가능)""}","survey","110","830385","0.0-12.0-1.39","[]","","",""
"1969","TestRecordings/kmamun.wav","0","audio-button-response","111","832441","0.0-12.0-0.40","","","",""
"10256","","{""P0_Q0"":""ㅋ,ㅡ,ㅁ,ㅏ,ㅁ,ㅜ,ㄴ"",""P0_Q1"":""(가능)""}","survey","112","842705","0.0-12.0-1.40","[]","","",""
"2012","TestRecordings/mup.wav","0","audio-button-response","113","844801","0.0-12.0-0.41","","","",""
"5071","","{""P0_Q0"":""ㅁ,ㅜ,ㄱ"",""P0_Q1"":""(가능)""}","survey","114","849880","0.0-12.0-1.41","[]","","",""
"2155","TestRecordings/chmop.wav","0","audio-button-response","115","852120","0.0-12.0-0.42","","","",""
"11748","","{""P0_Q0"":""ㅊ,ㅡ,ㅁ,ㅗ,ㄱ"",""P0_Q1"":""(가능)""}","survey","116","863874","0.0-12.0-1.42","[]","","",""
"1644","TestRecordings/khnap.wav","0","audio-button-response","117","865602","0.0-12.0-0.43","","","",""
"5275","","{""P0_Q0"":""ㅋ,ㅡ,ㄴ,ㅏ,ㅂ"",""P0_Q1"":""(불가능)""}","survey","118","870884","0.0-12.0-1.43","[]","","",""
"1872","TestRecordings/khithuk.wav","0","audio-button-response","119","872778","0.0-12.0-0.44","","","",""
"7493","","{""P0_Q0"":""ㅋ,ㅣ,ㅅ,ㅌ,ㅜ"",""P0_Q1"":""(불가능)""}","survey","120","880277","0.0-12.0-1.44","[]","","",""
"1838","TestRecordings/cmoman.wav","0","audio-button-response","121","882199","0.0-12.0-0.45","","","",""
"40229","","{""P0_Q0"":""ㅉ,ㅡ,ㅁ,ㅗ,ㅁ,ㅏ,ㄴ"",""P0_Q1"":""(불가능)""}","survey","122","922435","0.0-12.0-1.45","[]","","",""
"1992","TestRecordings/sikot.wav","0","audio-button-response","123","924452","0.0-12.0-0.46","","","",""
"10541","","{""P0_Q0"":""ㅅ,ㅣ,ㄱ,ㅗ,ㅅ"",""P0_Q1"":""(가능)""}","survey","124","934999","0.0-12.0-1.46","[]","","",""
"3066","TestRecordings/tup.wav","0","audio-button-response","125","938151","0.0-12.0-0.47","","","",""
"7426","","{""P0_Q0"":""ㄷ,ㅜ,ㄱ"",""P0_Q1"":""(가능)""}","survey","126","945584","0.0-12.0-1.47","[]","","",""
"2169","TestRecordings/thnok.wav","0","audio-button-response","127","947836","0.0-12.0-0.48","","","",""
"9136","","{""P0_Q0"":""ㅌ,ㅡ,ㄴ,ㅗ,ㄱ"",""P0_Q1"":""(불가능)""}","survey","128","956979","0.0-12.0-1.48","[]","","",""
"1994","TestRecordings/khin.wav","0","audio-button-response","129","959057","0.0-12.0-0.49","","","",""
"7115","","{""P0_Q0"":""ㅋ,ㅣ,ㄴ"",""P0_Q1"":""(가능)""}","survey","130","966179","0.0-12.0-1.49","[]","","",""
"1791","TestRecordings/taphik.wav","0","audio-button-response","131","968055","0.0-12.0-0.50","","","",""
"6813","","{""P0_Q0"":""ㄷ,ㅏ,ㅍ,ㅣ,ㄱ"",""P0_Q1"":""(가능)""}","survey","132","974874","0.0-12.0-1.50","[]","","",""
"1874","TestRecordings/tnunong.wav","0","audio-button-response","133","976833","0.0-12.0-0.51","","","",""
"7866","","{""P0_Q0"":""ㄷ,ㅡ,ㄴ,ㅜ,ㄴ,ㅗ,ㅇ"",""P0_Q1"":""(불가능)""}","survey","134","984706","0.0-12.0-1.51","[]","","",""
"2278","TestRecordings/mphosak.wav","0","audio-button-response","135","987069","0.0-12.0-0.52","","","",""
"8084","","{""P0_Q0"":""ㅇ,ㅡ,ㅇ,ㅍ,ㅗ,ㅅ,ㅏ,ㄱ"",""P0_Q1"":""(불가능)""}","survey","136","995160","0.0-12.0-1.52","[]","","",""
"1654","TestRecordings/tmichut.wav","0","audio-button-response","137","996899","0.0-12.0-0.53","","","",""
"9901","","{""P0_Q0"":""ㄷ,ㅡ,ㅁ,ㅣ,ㅊ,ㅜ,ㅅ"",""P0_Q1"":""(불가능)""}","survey","138","1006807","0.0-12.0-1.53","[]","","",""
"2823","TestRecordings/thinok.wav","0","audio-button-response","139","1009715","0.0-12.0-0.54","","","",""
"5495","","{""P0_Q0"":""ㅌ,ㅣ,ㄴ,ㅗ,ㄱ"",""P0_Q1"":""(가능)""}","survey","140","1015216","0.0-12.0-1.54","[]","","",""
"2104","TestRecordings/twamot.wav","0","audio-button-response","141","1017393","0.0-12.0-0.55","","","",""
"18497","","{""P0_Q0"":""ㄷ,ㅗ,ㅏ,ㅁ,ㅗ,ㄱ"",""P0_Q1"":""(불가능)""}","survey","142","1035898","0.0-12.0-1.55","[]","","",""
"1713","TestRecordings/khut.wav","0","audio-button-response","143","1037695","0.0-12.0-0.56","","","",""
"7657","","{""P0_Q0"":""ㅋ,ㅡ,ㅇ,ㅜ,ㅅ"",""P0_Q1"":""(불가능)""}","survey","144","1045358","0.0-12.0-1.56","[]","","",""
"1673","TestRecordings/mthik.wav","0","audio-button-response","145","1047116","0.0-12.0-0.57","","","",""
"10456","","{""P0_Q0"":""ㅇ,ㅡ,ㅁ,ㅌ,ㅣ,ㄱ"",""P0_Q1"":""(불가능)""}","survey","146","1057578","0.0-12.0-1.57","[]","","",""
"2310","TestRecordings/chnuk.wav","0","audio-button-response","147","1059976","0.0-12.0-0.58","","","",""
"9624","","{""P0_Q0"":""ㅊ,ㅡ,ㄴ,ㅜ,ㄱ"",""P0_Q1"":""(불가능)""}","survey","148","1069606","0.0-12.0-1.58","[]","","",""
"2515","TestRecordings/swikhat.wav","0","audio-button-response","149","1072206","0.0-12.0-0.59","","","",""
"10631","","{""P0_Q0"":""ㅅ,ㅜ,ㅣ,ㅋ,ㅏ,ㅅ"",""P0_Q1"":""(가능)""}","survey","150","1082845","0.0-12.0-1.59","[]","","",""
"1737",""," ","html-keyboard-response","151","1084582","0.0-13.0","","","",""
"211551","","{""P0_Q0"":""22"",""P0_Q1"":""여"",""P0_Q2"":""6살"",""P0_Q3"":""22살, 6개월"",""P0_Q4"":""독일어/일본어"",""P0_Q5"":""21살, 1년/14살,1년"",""P0_Q6"":""기초 체코어 4개월 동안 학습""}","survey","152","1296142","0.0-14.0","[]","","",""
"11846","<p style=""font-size:30px"",lang=""ko"">실험이 끝났습니다</p><p style=""font-size:30px"",lang=""ko"">참가해주셔서 고맙습니다</p>","control","html-keyboard-response","153","1307988","0.0-15.0","","","",""
,