"rt","stimulus","response","trial_type","trial_index","time_elapsed","internal_node_id","accuracy","PracticeTest","ConsonantSequence","Grammaticality"
"156638754","<p style=""font-size:30px"",lang=""ko"">실험에 오신 것을 환영합니다</p><p lang=""ko"">스페이스바를 누르면 다음 페이지로 넘어갑니다</p>"," ","html-keyboard-response","0","156636179","0.0-0.0","","","",""
"5123","<p style=""font-size:30px"",lang=""ko"">해드폰을 본인에게 잘 맞게 착용하세요</p><p lang=""ko"">스페이스바를 누르면 다음 페이지로 넘어갑니다</p>"," ","html-keyboard-response","1","156641303","0.0-1.0","","","",""
"32373","<p style=""font-size:30px"",lang=""ko"">이 실험에서는 새로 만든 한국 단어를 들으실 겁니다</p><p style=""font-size:30px"",lang=""ko"">단어를 들리는대로 쓰세요. 그런 다음 그 단어가 한국어 단어로 가능한지 평가하세요</p><p lang=""ko"">스페이스바를 누르면 다음 페이지로 넘어갑니다</p>"," ","html-keyboard-response","2","156673677","0.0-2.0","","","",""
"2141","<p style=""font-size:30px"",lang=""ko"">원래 있는 단어로 예를 들어 봅시다</p><p lang=""ko"">스페이스바를 누르면 다음 페이지로 넘어갑니다</p>"," ","html-keyboard-response","3","156675819","0.0-3.0","","","",""
"10876","PracticeRecordings/kom_bear.wav","0","audio-button-response","4","156686931","0.0-4.0","","","",""
"2231","<p style=""font-size:30px"",lang=""ko"">이제 직접 단어를 듣고 쓰는 연습을 해봅시다. </p><p style=""font-size:30px"",lang=""ko"">스페이스바를 누르면 다음 페이지로 넘어갑니다</p>"," ","html-keyboard-response","5","156689162","0.0-5.0","","","",""
"2522","PracticeRecordings/kirin_giraffe.wav","0","audio-button-response","6","156691712","0.0-6.0-0.0","","","",""
"29891","kirin_giraffe","{""P0_Q0"":""ㄱ,ㅣ,ㄹ,ㅣ,ㄴ""}","survey","7","156721651","0.0-6.0-1.0","[]","practice","NA","TRUE"
"1570","<p style=""font-size:30px"",lang=""ko"">방금 들으신 단어는 ""ㄱ,ㅣ,ㄹ,ㅣ,ㄴ"" 이라고 쓰시면 됩니다</p><p lang=""ko"">스페이스바를 누르면 다음 페이지로 넘어갑니다</p>"," ","html-keyboard-response","8","156723222","0.0-6.0-2.0","","","",""
"2413","PracticeRecordings/saca_lion.wav","0","audio-button-response","9","156725695","0.0-6.0-0.1","","","",""
"17924","saca_lion","{""P0_Q0"":""ㅅ,ㅏ,ㅈ,ㅏ""}","survey","10","156743663","0.0-6.0-1.1","[]","practice","NA","FALSE"
"1149","<p style=""font-size:30px"",lang=""ko"">방금 들으신 단어는 ""ㅅ,ㅏ,ㅈ,ㅏ"" 라고 쓰시면 됩니다</p><p lang=""ko"">스페이스바를 누르면 다음 페이지로 넘어갑니다</p>"," ","html-keyboard-response","11","156744813","0.0-6.0-2.1","","","",""
"2099","PracticeRecordings/saseum_deer.wav","0","audio-button-response","12","156746936","0.0-6.0-0.2","","","",""
"6620","saseum_deer","{""P0_Q0"":""ㅅ,ㅏ,ㅅ,ㅡ,ㅁ""}","survey","13","156753565","0.0-6.0-1.2","[]","practice","NA","FALSE"
"2395","<p style=""font-size:30px"",lang=""ko"">방금 들으신 단어는 ""ㅅ,ㅏ,ㅅ,ㅡ,ㅁ""이라고 쓰시면 됩니다</p><p lang=""ko"">스페이스바를 누르면 다음 페이지로 넘어갑니다</p>"," ","html-keyboard-response","14","156755961","0.0-6.0-2.2","","","",""
"2201","PracticeRecordings/thokki_rabbit.wav","0","audio-button-response","15","156758231","0.0-6.0-0.3","","","",""
"7788","thokki_rabbit","{""P0_Q0"":""ㅌ,ㅗ,ㄲ,ㅣ""}","survey","16","156766028","0.0-6.0-1.3","[]","practice","NA","FALSE"
"2191","<p style=""font-size:30px"",lang=""ko"">방금 들으신 단어는 ""ㅌ,ㅗ,ㄲ,ㅣ"" 라고 쓰시면 됩니다</p><p lang=""ko"">스페이스바를 누르면 다음 페이지로 넘어갑니다</p>"," ","html-keyboard-response","17","156768219","0.0-6.0-2.3","","","",""
"1654","<p style=""font-size:30px"",lang=""ko"">이제 만든 단어로 연습해봅시다.</p><p lang=""ko"">스페이스바를 누르면 다음 페이지로 넘어갑니다</p>"," ","html-keyboard-response","18","156769874","0.0-7.0","","","",""
"4677","PracticeRecordings/snen.wav","0","audio-button-response","19","156774609","0.0-8.0-0.0","","","",""
"8013","snen","{""P0_Q0"":""ㅅ,ㅡ,ㄴ,ㅐ,ㅇ""}","survey","20","156782659","0.0-8.0-1.0","[]","practice","NA","TRUE"
"4004","<p style=""font-size:30px"",lang=""ko"">들으신 단어는 <br> ""ㅅ,ㅡ,ㄴ,ㅐ,ㄴ""  ""ㅅ,ㅡ,ㄴ,ㅐ"" ""ㅅ,ㄴ,ㅐ,ㄴ (""으"" 소리가 안 들리는 경우)"" 등 <br> 사람에 따라 다양하게 들릴 수 있습니다 <br> 본인에게 들리는대로 쓰시면 됩니다.</p><p lang=""ko"">스페이스바를 누르면 다음 페이지로 넘어갑니다</p>"," ","html-keyboard-response","21","156786664","0.0-8.0-2.0","","","",""
"2462","PracticeRecordings/phrak.wav","0","audio-button-response","22","156789182","0.0-8.0-0.1","","","",""
"5544","phrak","{""P0_Q0"":""ㅍ,ㅡ,ㄹ,ㅏ,ㄱ""}","survey","23","156794732","0.0-8.0-1.1","[]","practice","NA","FALSE"
"1640","<p style=""font-size:30px"",lang=""ko"">들으신 단어는 <br> ""ㅍ,ㅡ,ㄹ,ㅏ,ㄱ"" ""ㅍ,ㅡ,ㄹ,ㅏ,ㅅ"" ""ㅋ,ㅡ,ㄹ,ㅏ,ㄱ"" ""ㅍ,ㄹ,ㅏ,ㄱ (""으"" 소리가 안 들리는 경우)"" 등 <br> 사람에 따라 다양하게 들릴 수 있습니다 <br> 본인에게 들리는대로 쓰시면 됩니다.</p><p lang=""ko"">스페이스바를 누르면 다음 페이지로 넘어갑니다</p>"," ","html-keyboard-response","24","156796373","0.0-8.0-2.1","","","",""
"2214","PracticeRecordings/chka.wav","0","audio-button-response","25","156798644","0.0-8.0-0.2","","","",""
"5983","chka","{""P0_Q0"":""ㅊ,ㅡ,ㄱ,ㅏ""}","survey","26","156804633","0.0-8.0-1.2","[]","practice","NA","FALSE"
"1153","<p style=""font-size:30px"",lang=""ko"">들으신 단어는 ""ㅊ,ㅣ,ㄱ,ㅏ"", ""ㅊ,ㅡ,ㄱ,ㅏ"", ""ㅊ,ㄱ,ㅏ"", ""ㅊ,ㅟ,ㄱ,ㅏ"" 등 <br> 사람에 따라 다양하게 들릴 수 있습니다. <br> 본인에게 들리는대로 쓰시면 됩니다.</p><p lang=""ko"">스페이스바를 누르면 다음 페이지로 넘어갑니다</p>"," ","html-keyboard-response","27","156805787","0.0-8.0-2.2","","","",""
"2381",""," ","html-keyboard-response","28","156808168","0.0-9.0","","","",""
"13019","<p style=""font-size:30px"",lang=""ko"">이제 실험을 시작하겠습니다.</p><p style=""font-size:30px"",lang=""ko"">실전에서는 각각의 만든 단어를 한 번씩만 들을 수 있습니다.</p>"," ","html-keyboard-response","29","156821188","0.0-10.0","","","",""
"26418","<p style=""font-size:30px"",lang=""ko"">단어를 풀어 쓰신 후에 그 단어가 한국어로 가능한 단어인지 평가해주세요</p><p lang=""ko"">스페이스바를 누르면 다음 페이지로 넘어갑니다</p>"," ","html-keyboard-response","30","156847607","0.0-11.0","","","",""
"3787","TestRecordings/mpukham.wav","0","audio-button-response","31","156851422","0.0-12.0-0.0","","","",""
"12470","","{""P0_Q0"":""ㅂ,ㅜ,ㅋ,ㅑ,ㅁ"",""P0_Q1"":""(불가능)""}","survey","32","156863907","0.0-12.0-1.0","[]","","",""
"6049","TestRecordings/cmoman.wav","0","audio-button-response","33","156869979","0.0-12.0-0.1","","","",""
"14913","","{""P0_Q0"":""ㅈ,ㅣ,ㄴ,ㅗ,ㅁ,ㅏ,ㄴ"",""P0_Q1"":""(가능)""}","survey","34","156884900","0.0-12.0-1.1","[]","","",""
"2711","TestRecordings/nkhuchom.wav","0","audio-button-response","35","156887670","0.0-12.0-0.2","","","",""
"14590","","{""P0_Q0"":""ㅇ,ㅣ,ㅋ,ㅜ.ㅊ.ㅛ,ㅁ"",""P0_Q1"":""(가능)""}","survey","36","156902267","0.0-12.0-1.2","[]","","",""
"1996","TestRecordings/mthik.wav","0","audio-button-response","37","156904319","0.0-12.0-0.3","","","",""
"9273","","{""P0_Q0"":""ㅇ,ㅣ,ㄴ,ㅌ,ㅣ,ㄱ"",""P0_Q1"":""(불가능)""}","survey","38","156913600","0.0-12.0-1.3","[]","","",""
"3112","TestRecordings/mphosak.wav","0","audio-button-response","39","156916751","0.0-12.0-0.4","","","",""
"16227","","{""P0_Q0"":""ㅇ,ㅣ,ㄴ,ㅍ,ㅗ,ㅅ,ㅏ,ㄹ,ㄱ"",""P0_Q1"":""(가능)""}","survey","40","156932986","0.0-12.0-1.4","[]","","",""
"4174","TestRecordings/thnok.wav","0","audio-button-response","41","156937217","0.0-12.0-0.5","","","",""
"27084","","{""P0_Q0"":""ㅌ,ㅡ,ㄴ,ㅗ,ㄱ"",""P0_Q1"":""(가능)""}","survey","42","156964309","0.0-12.0-1.5","[]","","",""
"2447","TestRecordings/tikut.wav","0","audio-button-response","43","156966781","0.0-12.0-0.6","","","",""
"7754","","{""P0_Q0"":""ㄷ,ㅣ,ㄱ,ㅜ,ㄷ"",""P0_Q1"":""(가능)""}","survey","44","156974542","0.0-12.0-1.6","[]","","",""
"2558","TestRecordings/cnaphin.wav","0","audio-button-response","45","156977118","0.0-12.0-0.7","","","",""
"12003","","{""P0_Q0"":""ㅈ,ㅡ,ㄴ,ㅏ,ㅍ,ㅣ,ㄴ"",""P0_Q1"":""(가능)""}","survey","46","156989126","0.0-12.0-1.7","[]","","",""
"2637","TestRecordings/chumik.wav","0","audio-button-response","47","156991787","0.0-12.0-0.8","","","",""
"8181","","{""P0_Q0"":""ㅊ,ㅜ,ㅁ,ㅣ,ㄱ"",""P0_Q1"":""(가능)""}","survey","48","156999975","0.0-12.0-1.8","[]","","",""
"2440","TestRecordings/chunak.wav","0","audio-button-response","49","157002445","0.0-12.0-0.9","","","",""
"6449","","{""P0_Q0"":""ㅊ,ㅜ,ㄴ,ㅏ,ㄱ"",""P0_Q1"":""(가능)""}","survey","50","157008902","0.0-12.0-1.9","[]","","",""
"3180","TestRecordings/nchocip.wav","0","audio-button-response","51","157012111","0.0-12.0-0.10","","","",""
"11662","","{""P0_Q0"":""ㅇ,ㅣ,ㄴ,ㅊ,ㅗ,ㅈ,ㅣ,ㅂ"",""P0_Q1"":""(가능)""}","survey","52","157023781","0.0-12.0-1.10","[]","","",""
"2797","TestRecordings/thukhat.wav","0","audio-button-response","53","157026640","0.0-12.0-0.11","","","",""
"9413","","{""P0_Q0"":""ㅌ,ㅜ,ㅋ,ㅏ,ㅅ"",""P0_Q1"":""(가능)""}","survey","54","157036060","0.0-12.0-1.11","[]","","",""
"2353","TestRecordings/kmamun.wav","0","audio-button-response","55","157038478","0.0-12.0-0.12","","","",""
"12250","","{""P0_Q0"":""ㅋ,ㅡ,ㅁ,ㅏ,ㅁ,ㅜ,ㄴ"",""P0_Q1"":""(가능)""}","survey","56","157050738","0.0-12.0-1.12","[]","","",""
"2833","TestRecordings/khnothik.wav","0","audio-button-response","57","157053598","0.0-12.0-0.13","","","",""
"10862","","{""P0_Q0"":""ㅋ,ㅡ,ㄴ,ㅗ,ㅌ,ㅣ,ㄱ"",""P0_Q1"":""(불가능)""}","survey","58","157064466","0.0-12.0-1.13","[]","","",""
"2537","TestRecordings/nkat.wav","0","audio-button-response","59","157067059","0.0-12.0-0.14","","","",""
"8624","","{""P0_Q0"":""ㅇ,ㅣ,ㄴ,ㄱ,ㅏ,ㅅ"",""P0_Q1"":""(가능)""}","survey","60","157075692","0.0-12.0-1.14","[]","","",""
"3228","TestRecordings/nwimik.wav","0","audio-button-response","61","157078974","0.0-12.0-0.15","","","",""
"10931","","{""P0_Q0"":""ㄴ,ㅜ,ㅣ,ㅁ,ㅣ,ㄱ"",""P0_Q1"":""(가능)""}","survey","62","157089913","0.0-12.0-1.15","[]","","",""
"4052","TestRecordings/chnupot.wav","0","audio-button-response","63","157094026","0.0-12.0-0.16","","","",""
"11787","","{""P0_Q0"":""ㅊ,ㅡ,ㄴ,ㅜ,ㅂ,ㅗ,ㅅ"",""P0_Q1"":""(가능)""}","survey","64","157105823","0.0-12.0-1.16","[]","","",""
"4233","TestRecordings/mphuk.wav","0","audio-button-response","65","157110112","0.0-12.0-0.17","","","",""
"10303","","{""P0_Q0"":""ㅇ,ㅡ,ㅁ,ㅍ,ㅡ,ㅅ"",""P0_Q1"":""(가능)""}","survey","66","157120423","0.0-12.0-1.17","[]","","",""
"3704","TestRecordings/nakhit.wav","0","audio-button-response","67","157124187","0.0-12.0-0.18","","","",""
"14411","","{""P0_Q0"":""ㄴ,ㅏ,ㄱ,ㅋ,ㅣ,ㅅ"",""P0_Q1"":""(불가능)""}","survey","68","157138605","0.0-12.0-1.18","[]","","",""
"2298","TestRecordings/mkit.wav","0","audio-button-response","69","157140958","0.0-12.0-0.19","","","",""
"25483","","{""P0_Q0"":""ㅇ,ㅣ,ㅁ,ㄱ,ㅣ,ㅅ"",""P0_Q1"":""(불가능)""}","survey","70","157166448","0.0-12.0-1.19","[]","","",""
"2664","TestRecordings/ntakhip.wav","0","audio-button-response","71","157169172","0.0-12.0-0.20","","","",""
"23567","","{""P0_Q0"":""ㅇ,ㅣ,ㄴ,ㄷ,ㅏ,ㅅ,ㅋ,ㅣ,ㄱ"",""P0_Q1"":""(불가능)""}","survey","72","157192746","0.0-12.0-1.20","[]","","",""
"2302","TestRecordings/thwam.wav","0","audio-button-response","73","157195073","0.0-12.0-0.21","","","",""
"18344","","{""P0_Q0"":""ㅌ,ㅗ,ㅏ,ㄻ"",""P0_Q1"":""(불가능)""}","survey","74","157213427","0.0-12.0-1.21","[]","","",""
"3403","TestRecordings/knot.wav","0","audio-button-response","75","157216886","0.0-12.0-0.22","","","",""
"8771","","{""P0_Q0"":""ㅋ,ㅡ,ㄴ,ㅗ,ㅅ"",""P0_Q1"":""(불가능)""}","survey","76","157225664","0.0-12.0-1.22","[]","","",""
"2976","TestRecordings/khwiphing.wav","0","audio-button-response","77","157228696","0.0-12.0-0.23","","","",""
"10327","","{""P0_Q0"":""ㅋ,ㅜ,ㅣ,ㅍ,ㅣ,ㅇ"",""P0_Q1"":""(불가능)""}","survey","78","157239034","0.0-12.0-1.23","[]","","",""
"2246","TestRecordings/phmiman.wav","0","audio-button-response","79","157241337","0.0-12.0-0.24","","","",""
"11966","","{""P0_Q0"":""ㅍ,ㅡ,ㅁ,ㅣ,ㅁ,ㅏ,ㄴ"",""P0_Q1"":""(불가능)""}","survey","80","157253310","0.0-12.0-1.24","[]","","",""
"1728","TestRecordings/khwipot.wav","0","audio-button-response","81","157255064","0.0-12.0-0.25","","","",""
"8537","","{""P0_Q0"":""ㅋ,ㅜ,ㅣ,ㅂ,ㅗ,ㅅ"",""P0_Q1"":""(가능)""}","survey","82","157263607","0.0-12.0-1.25","[]","","",""
"2743","TestRecordings/pmochun.wav","0","audio-button-response","83","157266375","0.0-12.0-0.26","","","",""
"9104","","{""P0_Q0"":""ㄴ,ㅡ,ㅁ,ㅡ,ㅊ,ㅜ,ㄴ"",""P0_Q1"":""(가능)""}","survey","84","157275487","0.0-12.0-1.26","[]","","",""
"2528","TestRecordings/cwam.wav","0","audio-button-response","85","157278071","0.0-12.0-0.27","","","",""
"8849","","{""P0_Q0"":""ㅈ,ㅗ,ㅏ,ㅁ"",""P0_Q1"":""(불가능)""}","survey","86","157286928","0.0-12.0-1.27","[]","","",""
"2293","TestRecordings/cwit.wav","0","audio-button-response","87","157289277","0.0-12.0-0.28","","","",""
"14636","","{""P0_Q0"":""ㅈ,ㅢ,ㅅ"",""P0_Q1"":""(가능)""}","survey","88","157303919","0.0-12.0-1.28","[]","","",""
"2100","TestRecordings/mphutam.wav","0","audio-button-response","89","157306074","0.0-12.0-0.29","","","",""
"14431","","{""P0_Q0"":""ㅇ,ㅣ,ㄴ,ㅍ,ㅡ,ㄷ,ㅏ,ㅁ"",""P0_Q1"":""(가능)""}","survey","90","157320512","0.0-12.0-1.29","[]","","",""
"2815","TestRecordings/khnap.wav","0","audio-button-response","91","157323381","0.0-12.0-0.30","","","",""
"8632","","{""P0_Q0"":""ㅋ,ㅡ,ㄴ,ㅏ,ㅂ"",""P0_Q1"":""(불가능)""}","survey","92","157332021","0.0-12.0-1.30","[]","","",""
"2175","TestRecordings/swikhat.wav","0","audio-button-response","93","157334251","0.0-12.0-0.31","","","",""
"9766","","{""P0_Q0"":""ㅅ,ㅢ,ㅋ,ㅏ,ㅅ"",""P0_Q1"":""(가능)""}","survey","94","157344024","0.0-12.0-1.31","[]","","",""
"1937","TestRecordings/twan.wav","0","audio-button-response","95","157346016","0.0-12.0-0.32","","","",""
"10260","","{""P0_Q0"":""ㄷ,ㅘ,ㄴ"",""P0_Q1"":""(불가능)""}","survey","96","157356282","0.0-12.0-1.32","[]","","",""
"1754","TestRecordings/sikot.wav","0","audio-button-response","97","157358093","0.0-12.0-0.33","","","",""
"10963","","{""P0_Q0"":""ㅅ,ㅣ,ㄱ,ㅗ,ㅅ"",""P0_Q1"":""(가능)""}","survey","98","157369064","0.0-12.0-1.33","[]","","",""
"2456","TestRecordings/thwikhip.wav","0","audio-button-response","99","157371576","0.0-12.0-0.34","","","",""
"12703","","{""P0_Q0"":""ㅌ,ㅢ,ㄱ,ㅗ,ㅅ"",""P0_Q1"":""(가능)""}","survey","100","157384287","0.0-12.0-1.34","[]","","",""
"3848","TestRecordings/nthimong.wav","0","audio-button-response","101","157388192","0.0-12.0-0.35","","","",""
"13455","","{""P0_Q0"":""ㅇ,ㅣ,ㄴ,ㅌ,ㅣ,ㅁ,ㅗ,ㅇ"",""P0_Q1"":""(불가능)""}","survey","102","157401654","0.0-12.0-1.35","[]","","",""
"1994","TestRecordings/chakot.wav","0","audio-button-response","103","157403696","0.0-12.0-0.36","","","",""
"6722","","{""P0_Q0"":""ㅊ,ㅏ,ㄱ,ㅗ,ㅅ"",""P0_Q1"":""(가능)""}","survey","104","157410426","0.0-12.0-1.36","[]","","",""
"1927","TestRecordings/chwikhong.wav","0","audio-button-response","105","157412410","0.0-12.0-0.37","","","",""
"9957","","{""P0_Q0"":""ㅊ,ㅣ,ㅋ,ㅗ,ㅇ"",""P0_Q1"":""(가능)""}","survey","106","157422373","0.0-12.0-1.37","[]","","",""
"1841","TestRecordings/tmichut.wav","0","audio-button-response","107","157424238","0.0-12.0-0.38","","","",""
"10170","","{""P0_Q0"":""ㅇ,ㅣ,ㅁ,ㅣ,ㅊ,ㅜ,ㅅ"",""P0_Q1"":""(가능)""}","survey","108","157434414","0.0-12.0-1.38","[]","","",""
"1680","TestRecordings/khut.wav","0","audio-button-response","109","157436116","0.0-12.0-0.39","","","",""
"8799","","{""P0_Q0"":""ㅋ,ㅜ,ㄷ"",""P0_Q1"":""(불가능)""}","survey","110","157444923","0.0-12.0-1.39","[]","","",""
"1521","TestRecordings/twamot.wav","0","audio-button-response","111","157446500","0.0-12.0-0.40","","","",""
"8581","","{""P0_Q0"":""ㄷ,ㅗ,ㅏ,ㅁ,ㅗ,ㅅ"",""P0_Q1"":""(가능)""}","survey","112","157455088","0.0-12.0-1.40","[]","","",""
"1668","TestRecordings/twak.wav","0","audio-button-response","113","157456812","0.0-12.0-0.41","","","",""
"11096","","{""P0_Q0"":""ㄷ,ㅘ,ㄱ"",""P0_Q1"":""(불가능)""}","survey","114","157467915","0.0-12.0-1.41","[]","","",""
"1679","TestRecordings/phnokhing.wav","0","audio-button-response","115","157469619","0.0-12.0-0.42","","","",""
"8835","","{""P0_Q0"":""ㅋ,ㅡ,ㄴ,ㅗ,ㅋ,ㅣ,ㅇ"",""P0_Q1"":""(불가능)""}","survey","116","157478461","0.0-12.0-1.42","[]","","",""
"2591","TestRecordings/thinok.wav","0","audio-button-response","117","157481107","0.0-12.0-0.43","","","",""
"13421","","{""P0_Q0"":""ㅌ,ㅣ,ㄴ,ㅗ,ㄱ"",""P0_Q1"":""(가능)""}","survey","118","157494535","0.0-12.0-1.43","[]","","",""
"1893","TestRecordings/mup.wav","0","audio-button-response","119","157496484","0.0-12.0-0.44","","","",""
"10033","","{""P0_Q0"":""ㅁ,ㅜ,ㄺ"",""P0_Q1"":""(가능)""}","survey","120","157506523","0.0-12.0-1.44","[]","","",""
"1694","TestRecordings/npucap.wav","0","audio-button-response","121","157508275","0.0-12.0-0.45","","","",""
"7443","","{""P0_Q0"":""ㅇ,ㅣ,ㄴ,ㅍ,ㅡ,ㅈ,ㅏ,ㅂ"",""P0_Q1"":""(불가능)""}","survey","122","157515725","0.0-12.0-1.45","[]","","",""
"1816","TestRecordings/chwiphin.wav","0","audio-button-response","123","157517598","0.0-12.0-0.46","","","",""
"10742","","{""P0_Q0"":""ㅊ,ㅡ,ㅣ,ㅍ,ㅣ,ㅇ"",""P0_Q1"":""(불가능)""}","survey","124","157528347","0.0-12.0-1.46","[]","","",""
"1572","TestRecordings/chnuk.wav","0","audio-button-response","125","157529975","0.0-12.0-0.47","","","",""
"10470","","{""P0_Q0"":""ㅊ,ㅡ,ㄴ,ㅜ,ㄱ"",""P0_Q1"":""(불가능)""}","survey","126","157540451","0.0-12.0-1.47","[]","","",""
"1451","TestRecordings/khwichon.wav","0","audio-button-response","127","157541958","0.0-12.0-0.48","","","",""
"7747","","{""P0_Q0"":""ㅋ,ㅜ,ㅣ,ㅊ,ㅗ,ㄴ"",""P0_Q1"":""(가능)""}","survey","128","157549704","0.0-12.0-1.48","[]","","",""
"1682","TestRecordings/khithuk.wav","0","audio-button-response","129","157551442","0.0-12.0-0.49","","","",""
"11476","","{""P0_Q0"":""ㅋ,ㅟ,ㅌ,ㅜ,ㄱ"",""P0_Q1"":""(불가능)""}","survey","130","157562925","0.0-12.0-1.49","[]","","",""
"1367","TestRecordings/tup.wav","0","audio-button-response","131","157564346","0.0-12.0-0.50","","","",""
"5900","","{""P0_Q0"":""ㄷ,ㅜ,ㄱ"",""P0_Q1"":""(가능)""}","survey","132","157570252","0.0-12.0-1.50","[]","","",""
"2005","TestRecordings/nthaking.wav","0","audio-button-response","133","157572313","0.0-12.0-0.51","","","",""
"9249","","{""P0_Q0"":""ㅇ,ㅣ,ㄴ,ㅌ,ㅏ,ㄱ,ㅣ,ㅇ"",""P0_Q1"":""(불가능)""}","survey","134","157581568","0.0-12.0-1.51","[]","","",""
"1692","TestRecordings/chmop.wav","0","audio-button-response","135","157583316","0.0-12.0-0.52","","","",""
"6950","","{""P0_Q0"":""ㅊ,ㅡ,ㅁ,ㅗ,ㄱ"",""P0_Q1"":""(가능)""}","survey","136","157590273","0.0-12.0-1.52","[]","","",""
"1797","TestRecordings/twaput.wav","0","audio-button-response","137","157592124","0.0-12.0-0.53","","","",""
"5961","","{""P0_Q0"":""ㄷ,ㅏ,ㅂ,ㅜ,ㅅ"",""P0_Q1"":""(가능)""}","survey","138","157598092","0.0-12.0-1.53","[]","","",""
"1802","TestRecordings/mtukin.wav","0","audio-button-response","139","157599919","0.0-12.0-0.54","","","",""
"16133","","{""P0_Q0"":""ㅇ,ㅣ,ㄴ,ㄷ,ㅜ,ㄱ,ㅣ,ㅇ"",""P0_Q1"":""(가능)""}","survey","140","157616067","0.0-12.0-1.54","[]","","",""
"1612","TestRecordings/taphik.wav","0","audio-button-response","141","157617734","0.0-12.0-0.55","","","",""
"9059","","{""P0_Q0"":""ㄷ,ㅏ,ㅍ,ㅣ,ㄱ"",""P0_Q1"":""(불가능)""}","survey","142","157626801","0.0-12.0-1.55","[]","","",""
"2132","TestRecordings/tnunong.wav","0","audio-button-response","143","157628990","0.0-12.0-0.56","","","",""
"11609","","{""P0_Q0"":""ㅋ,ㅡ,ㄴ,ㅜ,ㄴ,ㅗ,ㅇ"",""P0_Q1"":""(불가능)""}","survey","144","157640605","0.0-12.0-1.56","[]","","",""
"1527","TestRecordings/nchot.wav","0","audio-button-response","145","157642188","0.0-12.0-0.57","","","",""
"7700","","{""P0_Q0"":""ㅇ,ㅣ,ㄴ,ㅊ,ㅗ,ㅅ"",""P0_Q1"":""(가능)""}","survey","146","157649895","0.0-12.0-1.57","[]","","",""
"1483","TestRecordings/tin.wav","0","audio-button-response","147","157651435","0.0-12.0-0.58","","","",""
"5404","","{""P0_Q0"":""ㄷ,ㅣ,ㄴ"",""P0_Q1"":""(불가능)""}","survey","148","157656848","0.0-12.0-1.58","[]","","",""
"1475","TestRecordings/khin.wav","0","audio-button-response","149","157658381","0.0-12.0-0.59","","","",""
"14787","","{""P0_Q0"":""ㅋ,ㅣ,ㄴ"",""P0_Q1"":""(불가능)""}","survey","150","157673174","0.0-12.0-1.59","[]","","",""
"4454",""," ","html-keyboard-response","151","157677629","0.0-13.0","","","",""
"72656","","{""P0_Q0"":""27"",""P0_Q1"":""여성"",""P0_Q2"":""6"",""P0_Q3"":""네 36개월"",""P0_Q4"":""불어"",""P0_Q5"":""만9세 3년"",""P0_Q6"":""없습니다""}","survey","152","157750292","0.0-14.0","[]","","",""
"61242","<p style=""font-size:30px"",lang=""ko"">실험이 끝났습니다</p><p style=""font-size:30px"",lang=""ko"">참가해주셔서 고맙습니다</p>"," ","html-keyboard-response","153","157811571","0.0-15.0","","","",""
,