"rt","stimulus","response","trial_type","trial_index","time_elapsed","internal_node_id","accuracy","PracticeTest","ConsonantSequence","Grammaticality"
"788911","<p style=""font-size:30px"",lang=""ko"">실험에 오신 것을 환영합니다</p><p lang=""ko"">스페이스바를 누르면 다음 페이지로 넘어갑니다</p>"," ","html-keyboard-response","0","788921","0.0-0.0","","","",""
"1222","<p style=""font-size:30px"",lang=""ko"">해드폰을 본인에게 잘 맞게 착용하세요</p><p lang=""ko"">스페이스바를 누르면 다음 페이지로 넘어갑니다</p>"," ","html-keyboard-response","1","790144","0.0-1.0","","","",""
"2539","<p style=""font-size:30px"",lang=""ko"">이 실험에서는 새로 만든 한국 단어를 들으실 겁니다</p><p style=""font-size:30px"",lang=""ko"">단어를 들리는대로 쓰세요. 그런 다음 그 단어가 한국어 단어로 가능한지 평가하세요</p><p lang=""ko"">스페이스바를 누르면 다음 페이지로 넘어갑니다</p>"," ","html-keyboard-response","2","792684","0.0-2.0","","","",""
"2162","<p style=""font-size:30px"",lang=""ko"">원래 있는 단어로 예를 들어 봅시다</p><p lang=""ko"">스페이스바를 누르면 다음 페이지로 넘어갑니다</p>"," ","html-keyboard-response","3","794847","0.0-3.0","","","",""
"11716","PracticeRecordings/kom_bear.wav","0","audio-button-response","4","806628","0.0-4.0","","","",""
"1190","<p style=""font-size:30px"",lang=""ko"">이제 직접 단어를 듣고 쓰는 연습을 해봅시다. </p><p style=""font-size:30px"",lang=""ko"">스페이스바를 누르면 다음 페이지로 넘어갑니다</p>"," ","html-keyboard-response","5","807819","0.0-5.0","","","",""
"3065","PracticeRecordings/kirin_giraffe.wav","0","audio-button-response","6","810907","0.0-6.0-0.0","","","",""
"11039","kirin_giraffe","{""P0_Q0"":""ㄱ,ㅣ,ㄹ,ㅣ,ㄴ""}","survey","7","821986","0.0-6.0-1.0","[]","practice","NA","TRUE"
"3576","<p style=""font-size:30px"",lang=""ko"">방금 들으신 단어는 ""ㄱ,ㅣ,ㄹ,ㅣ,ㄴ"" 이라고 쓰시면 됩니다</p><p lang=""ko"">스페이스바를 누르면 다음 페이지로 넘어갑니다</p>"," ","html-keyboard-response","8","825563","0.0-6.0-2.0","","","",""
"4412","PracticeRecordings/saca_lion.wav","0","audio-button-response","9","829997","0.0-6.0-0.1","","","",""
"5863","saca_lion","{""P0_Q0"":""ㅅ,ㅏ,ㅈ,ㅏ""}","survey","10","835868","0.0-6.0-1.1","[]","practice","NA","FALSE"
"1329","<p style=""font-size:30px"",lang=""ko"">방금 들으신 단어는 ""ㅅ,ㅏ,ㅈ,ㅏ"" 라고 쓰시면 됩니다</p><p lang=""ko"">스페이스바를 누르면 다음 페이지로 넘어갑니다</p>"," ","html-keyboard-response","11","837198","0.0-6.0-2.1","","","",""
"5260","PracticeRecordings/saseum_deer.wav","0","audio-button-response","12","842482","0.0-6.0-0.2","","","",""
"10600","saseum_deer","{""P0_Q0"":""ㅅ,ㅏ,ㅅ,ㅡ,ㅁ""}","survey","13","853091","0.0-6.0-1.2","[]","practice","NA","FALSE"
"3011","<p style=""font-size:30px"",lang=""ko"">방금 들으신 단어는 ""ㅅ,ㅏ,ㅅ,ㅡ,ㅁ""이라고 쓰시면 됩니다</p><p lang=""ko"">스페이스바를 누르면 다음 페이지로 넘어갑니다</p>"," ","html-keyboard-response","14","856102","0.0-6.0-2.2","","","",""
"2433","PracticeRecordings/thokki_rabbit.wav","0","audio-button-response","15","858558","0.0-6.0-0.3","","","",""
"6799","thokki_rabbit","{""P0_Q0"":""ㅌ,ㅗ,ㄲ,ㅣ""}","survey","16","865367","0.0-6.0-1.3","[]","practice","NA","FALSE"
"1332","<p style=""font-size:30px"",lang=""ko"">방금 들으신 단어는 ""ㅌ,ㅗ,ㄲ,ㅣ"" 라고 쓰시면 됩니다</p><p lang=""ko"">스페이스바를 누르면 다음 페이지로 넘어갑니다</p>"," ","html-keyboard-response","17","866699","0.0-6.0-2.3","","","",""
"1207","<p style=""font-size:30px"",lang=""ko"">이제 만든 단어로 연습해봅시다.</p><p lang=""ko"">스페이스바를 누르면 다음 페이지로 넘어갑니다</p>"," ","html-keyboard-response","18","867907","0.0-7.0","","","",""
"4118","PracticeRecordings/snen.wav","0","audio-button-response","19","872049","0.0-8.0-0.0","","","",""
"6559","snen","{""P0_Q0"":""ㅅ,ㅡ,ㄴ,ㅐㄴ""}","survey","20","878615","0.0-8.0-1.0","[]","practice","NA","TRUE"
"8084","<p style=""font-size:30px"",lang=""ko"">들으신 단어는 <br> ""ㅅ,ㅡ,ㄴ,ㅐ,ㄴ""  ""ㅅ,ㅡ,ㄴ,ㅐ"" ""ㅅ,ㄴ,ㅐ,ㄴ (""으"" 소리가 안 들리는 경우)"" 등 <br> 사람에 따라 다양하게 들릴 수 있습니다 <br> 본인에게 들리는대로 쓰시면 됩니다.</p><p lang=""ko"">스페이스바를 누르면 다음 페이지로 넘어갑니다</p>"," ","html-keyboard-response","21","886700","0.0-8.0-2.0","","","",""
"2676","PracticeRecordings/phrak.wav","0","audio-button-response","22","889396","0.0-8.0-0.1","","","",""
"6596","phrak","{""P0_Q0"":""ㅍ,ㅡ,ㄹ,ㅏ,ㄱ""}","survey","23","895999","0.0-8.0-1.1","[]","practice","NA","FALSE"
"5911","<p style=""font-size:30px"",lang=""ko"">들으신 단어는 <br> ""ㅍ,ㅡ,ㄹ,ㅏ,ㄱ"" ""ㅍ,ㅡ,ㄹ,ㅏ,ㅅ"" ""ㅋ,ㅡ,ㄹ,ㅏ,ㄱ"" ""ㅍ,ㄹ,ㅏ,ㄱ (""으"" 소리가 안 들리는 경우)"" 등 <br> 사람에 따라 다양하게 들릴 수 있습니다 <br> 본인에게 들리는대로 쓰시면 됩니다.</p><p lang=""ko"">스페이스바를 누르면 다음 페이지로 넘어갑니다</p>"," ","html-keyboard-response","24","901910","0.0-8.0-2.1","","","",""
"2663","PracticeRecordings/chka.wav","0","audio-button-response","25","904596","0.0-8.0-0.2","","","",""
"7073","chka","{""P0_Q0"":""ㅊ,ㅡ,ㄱ,ㅏ""}","survey","26","911675","0.0-8.0-1.2","[]","practice","NA","FALSE"
"1629","<p style=""font-size:30px"",lang=""ko"">들으신 단어는 ""ㅊ,ㅣ,ㄱ,ㅏ"", ""ㅊ,ㅡ,ㄱ,ㅏ"", ""ㅊ,ㄱ,ㅏ"", ""ㅊ,ㅟ,ㄱ,ㅏ"" 등 <br> 사람에 따라 다양하게 들릴 수 있습니다. <br> 본인에게 들리는대로 쓰시면 됩니다.</p><p lang=""ko"">스페이스바를 누르면 다음 페이지로 넘어갑니다</p>"," ","html-keyboard-response","27","913304","0.0-8.0-2.2","","","",""
"2408",""," ","html-keyboard-response","28","915713","0.0-9.0","","","",""
"3307","<p style=""font-size:30px"",lang=""ko"">이제 실험을 시작하겠습니다.</p><p style=""font-size:30px"",lang=""ko"">실전에서는 각각의 만든 단어를 한 번씩만 들을 수 있습니다.</p>"," ","html-keyboard-response","29","919021","0.0-10.0","","","",""
"7614","<p style=""font-size:30px"",lang=""ko"">단어를 풀어 쓰신 후에 그 단어가 한국어로 가능한 단어인지 평가해주세요</p><p lang=""ko"">스페이스바를 누르면 다음 페이지로 넘어갑니다</p>"," ","html-keyboard-response","30","926635","0.0-11.0","","","",""
"1476","TestRecordings/thwam.wav","0","audio-button-response","31","928137","0.0-12.0-0.0","","","",""
"23696","","{""P0_Q0"":""ㅌ,ㅡ,ㅇ,ㅘ,ㅁ"",""P0_Q1"":""(가능)""}","survey","32","951849","0.0-12.0-1.0","[]","","",""
"2873","TestRecordings/nthaking.wav","0","audio-button-response","33","954748","0.0-12.0-0.1","","","",""
"25244","","{""P0_Q0"":""ㅇ,ㅡ,ㅇ,ㅌ,ㅏㄱ,ㅇ,ㅣ,ㅇ"",""P0_Q1"":""(가능)""}","survey","34","980000","0.0-12.0-1.1","[]","","",""
"2474","TestRecordings/mpukham.wav","0","audio-button-response","35","982499","0.0-12.0-0.2","","","",""
"15833","","{""P0_Q0"":""ㅇ,ㅡ,ㅁ,ㅂ,ㅜ,ㅋ,ㅏ,ㅁ"",""P0_Q1"":""(가능)""}","survey","36","998341","0.0-12.0-1.2","[]","","",""
"3585","TestRecordings/nchot.wav","0","audio-button-response","37","1001949","0.0-12.0-0.3","","","",""
"22204","","{""P0_Q0"":""ㅇ,ㅡ,ㅁ,ㅊ,ㅗ,ㅅ"",""P0_Q1"":""(가능)""}","survey","38","1024161","0.0-12.0-1.3","[]","","",""
"2793","TestRecordings/nwimik.wav","0","audio-button-response","39","1026978","0.0-12.0-0.4","","","",""
"15615","","{""P0_Q0"":""ㄴ,ㅠ,ㅇ,ㅣ,ㅁ,ㅣ,ㄱ"",""P0_Q1"":""(가능)""}","survey","40","1042601","0.0-12.0-1.4","[]","","",""
"2255","TestRecordings/thukhat.wav","0","audio-button-response","41","1044881","0.0-12.0-0.5","","","",""
"9971","","{""P0_Q0"":""ㅌ,ㅜ,ㅋ,ㅏ,ㅅ"",""P0_Q1"":""(가능)""}","survey","42","1054859","0.0-12.0-1.5","[]","","",""
"1856","TestRecordings/nakhit.wav","0","audio-button-response","43","1056737","0.0-12.0-0.6","","","",""
"10949","","{""P0_Q0"":""ㄴ,ㅏ,ㅋ,ㅣ,ㅅ"",""P0_Q1"":""(가능)""}","survey","44","1067692","0.0-12.0-1.6","[]","","",""
"1915","TestRecordings/chumik.wav","0","audio-button-response","45","1069630","0.0-12.0-0.7","","","",""
"16065","","{""P0_Q0"":""ㅊ,ㅜ,ㅁ,ㅣ,ㄷ"",""P0_Q1"":""(가능)""}","survey","46","1085703","0.0-12.0-1.7","[]","","",""
"1867","TestRecordings/chakot.wav","0","audio-button-response","47","1087593","0.0-12.0-0.8","","","",""
"8559","","{""P0_Q0"":""ㅊ,ㅏ,ㄱ,ㅗ,ㅅ"",""P0_Q1"":""(가능)""}","survey","48","1096159","0.0-12.0-1.8","[]","","",""
"1950","TestRecordings/twak.wav","0","audio-button-response","49","1098133","0.0-12.0-0.9","","","",""
"27410","","{""P0_Q0"":""ㄷ,ㅜ,ㅇ,ㅏ,ㄱ"",""P0_Q1"":""(불가능)""}","survey","50","1125552","0.0-12.0-1.9","[]","","",""
"2571","TestRecordings/chnuk.wav","0","audio-button-response","51","1128149","0.0-12.0-0.10","","","",""
"41130","","{""P0_Q0"":""ㅊ,ㅡ,ㅠ,ㄴ,ㅜ,ㄱ"",""P0_Q1"":""(가능)""}","survey","52","1169286","0.0-12.0-1.10","[]","","",""
"2949","TestRecordings/tup.wav","0","audio-button-response","53","1172260","0.0-12.0-0.11","","","",""
"5822","","{""P0_Q0"":""ㄷ,ㅜ,ㅂ"",""P0_Q1"":""(가능)""}","survey","54","1178091","0.0-12.0-1.11","[]","","",""
"1813","TestRecordings/chunak.wav","0","audio-button-response","55","1179927","0.0-12.0-0.12","","","",""
"7941","","{""P0_Q0"":""ㅊ,ㅜ,ㄴ,ㅏ,ㄱ"",""P0_Q1"":""(가능)""}","survey","56","1187873","0.0-12.0-1.12","[]","","",""
"2065","TestRecordings/khwiphing.wav","0","audio-button-response","57","1189962","0.0-12.0-0.13","","","",""
"10553","","{""P0_Q0"":""ㅋ,ㅜ,ㅣ,ㅍ,ㅣ,ㅇ"",""P0_Q1"":""(가능)""}","survey","58","1200521","0.0-12.0-1.13","[]","","",""
"2130","TestRecordings/khwichon.wav","0","audio-button-response","59","1202674","0.0-12.0-0.14","","","",""
"8635","","{""P0_Q0"":""ㅋ,ㅟ,ㅊ,ㅗ,ㄴ"",""P0_Q1"":""(가능)""}","survey","60","1211317","0.0-12.0-1.14","[]","","",""
"1832","TestRecordings/phnokhing.wav","0","audio-button-response","61","1213174","0.0-12.0-0.15","","","",""
"11545","","{""P0_Q0"":""ㅍ,ㅡ,ㄴ,ㅗ,ㅅ,ㅋ,ㅣ,ㅇ"",""P0_Q1"":""(가능)""}","survey","62","1224726","0.0-12.0-1.15","[]","","",""
"2050","TestRecordings/npucap.wav","0","audio-button-response","63","1226798","0.0-12.0-0.16","","","",""
"10873","","{""P0_Q0"":""ㅇ,ㅡ,ㅇ,ㅂ,ㅜ,ㅈ,ㅏ,ㅂ"",""P0_Q1"":""(가능)""}","survey","64","1237677","0.0-12.0-1.16","[]","","",""
"1680","TestRecordings/mkit.wav","0","audio-button-response","65","1239379","0.0-12.0-0.17","","","",""
"22384","","{""P0_Q0"":""ㅇ,ㅡ,ㅁ,ㄱ,ㅣ,ㅅ"",""P0_Q1"":""(가능)""}","survey","66","1261771","0.0-12.0-1.17","[]","","",""
"2235","TestRecordings/knot.wav","0","audio-button-response","67","1264032","0.0-12.0-0.18","","","",""
"8427","","{""P0_Q0"":""ㅋ,ㅡ,ㄴ,ㅗ,ㅅ"",""P0_Q1"":""(가능)""}","survey","68","1272465","0.0-12.0-1.18","[]","","",""
"1951","TestRecordings/mtukin.wav","0","audio-button-response","69","1274439","0.0-12.0-0.19","","","",""
"9412","","{""P0_Q0"":""ㅇ,ㅡ,ㅁ,ㄷ,ㅜ,ㄱ,ㅣ,ㄴ"",""P0_Q1"":""(가능)""}","survey","70","1283858","0.0-12.0-1.19","[]","","",""
"1548","TestRecordings/mphuk.wav","0","audio-button-response","71","1285427","0.0-12.0-0.20","","","",""
"7507","","{""P0_Q0"":""ㅇ,ㅡ,ㅁ,ㅍ,ㅜ,ㄱ"",""P0_Q1"":""(가능)""}","survey","72","1292942","0.0-12.0-1.20","[]","","",""
"1625","TestRecordings/khnothik.wav","0","audio-button-response","73","1294589","0.0-12.0-0.21","","","",""
"14969","","{""P0_Q0"":""ㅋ,ㅡ,ㄴ,ㅗ,ㅌ,ㅣ,ㄱ"",""P0_Q1"":""(가능)""}","survey","74","1309564","0.0-12.0-1.21","[]","","",""
"1966","TestRecordings/thinok.wav","0","audio-button-response","75","1311551","0.0-12.0-0.22","","","",""
"6044","","{""P0_Q0"":""ㅋ,ㅣ,ㄴ,ㅗ,ㄱ"",""P0_Q1"":""(가능)""}","survey","76","1317602","0.0-12.0-1.22","[]","","",""
"1856","TestRecordings/chwikhong.wav","0","audio-button-response","77","1319480","0.0-12.0-0.23","","","",""
"13221","","{""P0_Q0"":""ㅊ,ㅡ,ㅣ,ㅋ,ㅗ,ㅇ"",""P0_Q1"":""(가능)""}","survey","78","1332709","0.0-12.0-1.23","[]","","",""
"1812","TestRecordings/phmiman.wav","0","audio-button-response","79","1334544","0.0-12.0-0.24","","","",""
"8646","","{""P0_Q0"":""ㅍ,ㅡ,ㅁ,ㅣ,ㅁ,ㅏ,ㄴ"",""P0_Q1"":""(가능)""}","survey","80","1343196","0.0-12.0-1.24","[]","","",""
"1844","TestRecordings/twan.wav","0","audio-button-response","81","1345063","0.0-12.0-0.25","","","",""
"40511","","{""P0_Q0"":""ㄷ,ㅡ,ㅠ,ㅇ,ㅏ,ㄴ"",""P0_Q1"":""(가능)""}","survey","82","1385581","0.0-12.0-1.25","[]","","",""
"2245","TestRecordings/cwit.wav","0","audio-button-response","83","1387850","0.0-12.0-0.26","","","",""
"17013","","{""P0_Q0"":""ㅈ,ㅇ,ㅜ,ㅡ,ㅣ,ㅅ"",""P0_Q1"":""(가능)""}","survey","84","1404870","0.0-12.0-1.26","[]","","",""
"1491","TestRecordings/mthik.wav","0","audio-button-response","85","1406382","0.0-12.0-0.27","","","",""
"10994","","{""P0_Q0"":""ㅇ,ㅁ,ㅡ,ㅌ,ㅣ,ㄱ"",""P0_Q1"":""(가능)""}","survey","86","1417382","0.0-12.0-1.27","[]","","",""
"3013","TestRecordings/khnap.wav","0","audio-button-response","87","1420416","0.0-12.0-0.28","","","",""
"6653","","{""P0_Q0"":""ㅋ,ㅡ,ㄴ,ㅏ,ㅂ"",""P0_Q1"":""(가능)""}","survey","88","1427075","0.0-12.0-1.28","[]","","",""
"2241","TestRecordings/cnaphin.wav","0","audio-button-response","89","1429340","0.0-12.0-0.29","","","",""
"16540","","{""P0_Q0"":""ㅊ,ㅡ,ㄴ,ㅏ,ㅂ,ㅍ,ㅣ,ㅁ"",""P0_Q1"":""(가능)""}","survey","90","1445887","0.0-12.0-1.29","[]","","",""
"1745","TestRecordings/khithuk.wav","0","audio-button-response","91","1447653","0.0-12.0-0.30","","","",""
"5825","","{""P0_Q0"":""ㅋ,ㅣ,ㅌ,ㅜ"",""P0_Q1"":""(가능)""}","survey","92","1453485","0.0-12.0-1.30","[]","","",""
"1377","TestRecordings/chmop.wav","0","audio-button-response","93","1454885","0.0-12.0-0.31","","","",""
"8726","","{""P0_Q0"":""ㅊ,ㅡ,ㄴ,ㅗ,ㅂ"",""P0_Q1"":""(가능)""}","survey","94","1463616","0.0-12.0-1.31","[]","","",""
"1526","TestRecordings/khut.wav","0","audio-button-response","95","1465164","0.0-12.0-0.32","","","",""
"7827","","{""P0_Q0"":""ㅋ,ㅜ,ㅡ,ㅅ,ㄷ"",""P0_Q1"":""(가능)""}","survey","96","1472998","0.0-12.0-1.32","[]","","",""
"1363","TestRecordings/mup.wav","0","audio-button-response","97","1474385","0.0-12.0-0.33","","","",""
"5317","","{""P0_Q0"":""ㅁ,ㅜ,ㅂ"",""P0_Q1"":""(가능)""}","survey","98","1479707","0.0-12.0-1.33","[]","","",""
"1387","TestRecordings/nkat.wav","0","audio-button-response","99","1481116","0.0-12.0-0.34","","","",""
"6470","","{""P0_Q0"":""ㅇ,ㅡ,ㅇ,ㄱ,ㅏ,ㅅ"",""P0_Q1"":""(가능)""}","survey","100","1487593","0.0-12.0-1.34","[]","","",""
"1828","TestRecordings/twamot.wav","0","audio-button-response","101","1489443","0.0-12.0-0.35","","","",""
"8903","","{""P0_Q0"":""ㄷ,ㅜ,ㅡ,ㅇ,ㅏ,ㅁ,ㅗ,ㅅ"",""P0_Q1"":""(가능)""}","survey","102","1498351","0.0-12.0-1.35","[]","","",""
"1479","TestRecordings/cwam.wav","0","audio-button-response","103","1499863","0.0-12.0-0.36","","","",""
"10958","","{""P0_Q0"":""ㅈ,ㅘ,ㅁ"",""P0_Q1"":""(가능)""}","survey","104","1510828","0.0-12.0-1.36","[]","","",""
"1392","TestRecordings/khin.wav","0","audio-button-response","105","1512242","0.0-12.0-0.37","","","",""
"4308","","{""P0_Q0"":""ㅋ,ㅣ,ㄴ"",""P0_Q1"":""(가능)""}","survey","106","1516558","0.0-12.0-1.37","[]","","",""
"1348","TestRecordings/nthimong.wav","0","audio-button-response","107","1517927","0.0-12.0-0.38","","","",""
"8976","","{""P0_Q0"":""ㅇ,ㅡ,ㅇ,ㅌ,ㅣ,ㅁ,ㅗ,ㅇ"",""P0_Q1"":""(가능)""}","survey","108","1526909","0.0-12.0-1.38","[]","","",""
"1490","TestRecordings/sikot.wav","0","audio-button-response","109","1528420","0.0-12.0-0.39","","","",""
"6447","","{""P0_Q0"":""ㅅ,ㅣ,ㄱ,ㅗ,ㅅ"",""P0_Q1"":""(가능)""}","survey","110","1534873","0.0-12.0-1.39","[]","","",""
"1485","TestRecordings/swikhat.wav","0","audio-button-response","111","1536380","0.0-12.0-0.40","","","",""
"11318","","{""P0_Q0"":""ㅅ,ㅣ,ㅇ,ㅣ,ㅋ,ㅏ,ㅂ"",""P0_Q1"":""(가능)""}","survey","112","1547704","0.0-12.0-1.40","[]","","",""
"1664","TestRecordings/kmamun.wav","0","audio-button-response","113","1549389","0.0-12.0-0.41","","","",""
"8725","","{""P0_Q0"":""ㅋ,ㅡ,ㅁ,ㅏ,ㅁ,ㅜ,ㄴ"",""P0_Q1"":""(가능)""}","survey","114","1558121","0.0-12.0-1.41","[]","","",""
"1490","TestRecordings/cmoman.wav","0","audio-button-response","115","1559633","0.0-12.0-0.42","","","",""
"11253","","{""P0_Q0"":""ㅊ,ㅡ,ㅁ,ㅗ,ㅁ,ㅏ,ㄴ"",""P0_Q1"":""(가능)""}","survey","116","1570892","0.0-12.0-1.42","[]","","",""
"1462","TestRecordings/mphosak.wav","0","audio-button-response","117","1572376","0.0-12.0-0.43","","","",""
"10541","","{""P0_Q0"":""ㅇ,ㅡ,ㅇ,ㅍ,ㅗ,ㅅ,ㅏ,ㅂ"",""P0_Q1"":""(가능)""}","survey","118","1582923","0.0-12.0-1.43","[]","","",""
"1486","TestRecordings/tmichut.wav","0","audio-button-response","119","1584430","0.0-12.0-0.44","","","",""
"12078","","{""P0_Q0"":""ㄷ,ㅡ,ㅁ,ㅣ,ㅊ,ㅜ,ㅂ"",""P0_Q1"":""(가능)""}","survey","120","1596515","0.0-12.0-1.44","[]","","",""
"1601","TestRecordings/pmochun.wav","0","audio-button-response","121","1598138","0.0-12.0-0.45","","","",""
"7935","","{""P0_Q0"":""ㅂ,ㅡ,ㅁ,ㅗ,ㅊ,ㅜ,ㄴ"",""P0_Q1"":""(가능)""}","survey","122","1606078","0.0-12.0-1.45","[]","","",""
"1599","TestRecordings/tnunong.wav","0","audio-button-response","123","1607699","0.0-12.0-0.46","","","",""
"7003","","{""P0_Q0"":""ㄷ,ㅜ,ㄴ,ㅜ,ㄴ,ㅗ,ㅇ"",""P0_Q1"":""(가능)""}","survey","124","1614708","0.0-12.0-1.46","[]","","",""
"1404","TestRecordings/mphutam.wav","0","audio-button-response","125","1616135","0.0-12.0-0.47","","","",""
"7666","","{""P0_Q0"":""ㅇ,ㅡ,ㅁ,ㅍ,ㅜ,ㄷ,ㅏ,ㅁ"",""P0_Q1"":""(가능)""}","survey","126","1623809","0.0-12.0-1.47","[]","","",""
"1683","TestRecordings/nkhuchom.wav","0","audio-button-response","127","1625515","0.0-12.0-0.48","","","",""
"8102","","{""P0_Q0"":""ㅇ,ㅡ,ㅁ,ㅋ,ㅜ,ㅊ,ㅗ,ㅁ"",""P0_Q1"":""(가능)""}","survey","128","1633623","0.0-12.0-1.48","[]","","",""
"1367","TestRecordings/tikut.wav","0","audio-button-response","129","1635011","0.0-12.0-0.49","","","",""
"5318","","{""P0_Q0"":""ㄷ,ㅣ,ㄱ,ㅜ,ㄷ"",""P0_Q1"":""(가능)""}","survey","130","1640336","0.0-12.0-1.49","[]","","",""
"1288","TestRecordings/taphik.wav","0","audio-button-response","131","1641647","0.0-12.0-0.50","","","",""
"7064","","{""P0_Q0"":""ㄷ,ㅏ,ㅍ,ㅣ,ㅅ"",""P0_Q1"":""(가능)""}","survey","132","1648716","0.0-12.0-1.50","[]","","",""
"1287","TestRecordings/twaput.wav","0","audio-button-response","133","1650025","0.0-12.0-0.51","","","",""
"37591","","{""P0_Q0"":""ㄷ,ㅜ,ㅇ,ㅡ,ㅇ,ㅏ,ㅂ,ㅜ,ㅅ"",""P0_Q1"":""(가능)""}","survey","134","1687623","0.0-12.0-1.51","[]","","",""
"2010","TestRecordings/tin.wav","0","audio-button-response","135","1689667","0.0-12.0-0.52","","","",""
"7582","","{""P0_Q0"":""ㄷ,ㅣ,ㅇ,ㅣ,ㄴ"",""P0_Q1"":""(가능)""}","survey","136","1697256","0.0-12.0-1.52","[]","","",""
"1520","TestRecordings/chnupot.wav","0","audio-button-response","137","1698798","0.0-12.0-0.53","","","",""
"9339","","{""P0_Q0"":""ㅊ,ㅡ,ㄴ,ㅜ,ㅂ,ㅗ,ㅅ"",""P0_Q1"":""(가능)""}","survey","138","1708145","0.0-12.0-1.53","[]","","",""
"1490","TestRecordings/thnok.wav","0","audio-button-response","139","1709656","0.0-12.0-0.54","","","",""
"6978","","{""P0_Q0"":""ㅌ,ㅡ,ㄴ,ㅗ,ㄱ"",""P0_Q1"":""(가능)""}","survey","140","1716639","0.0-12.0-1.54","[]","","",""
"1479","TestRecordings/nchocip.wav","0","audio-button-response","141","1718140","0.0-12.0-0.55","","","",""
"8394","","{""P0_Q0"":""ㅇ,ㅡ,ㅇ,ㅊ,ㅗ,ㅈ,ㅣ,ㅂ"",""P0_Q1"":""(가능)""}","survey","142","1726539","0.0-12.0-1.55","[]","","",""
"1800","TestRecordings/khwipot.wav","0","audio-button-response","143","1728362","0.0-12.0-0.56","","","",""
"6247","","{""P0_Q0"":""ㅋ,ㅟ,ㅂ,ㅗ,ㅅ"",""P0_Q1"":""(가능)""}","survey","144","1734616","0.0-12.0-1.56","[]","","",""
"1299","TestRecordings/thwikhip.wav","0","audio-button-response","145","1735936","0.0-12.0-0.57","","","",""
"7226","","{""P0_Q0"":""ㅌ,ㅣ,ㅋ,ㅣ,ㅂ"",""P0_Q1"":""(가능)""}","survey","146","1743168","0.0-12.0-1.57","[]","","",""
"2851","TestRecordings/chwiphin.wav","0","audio-button-response","147","1746041","0.0-12.0-0.58","","","",""
"5264","","{""P0_Q0"":""ㅊ,ㅟ,ㅍ,ㅣ,ㄴ"",""P0_Q1"":""(가능)""}","survey","148","1751314","0.0-12.0-1.58","[]","","",""
"1326","TestRecordings/ntakhip.wav","0","audio-button-response","149","1752660","0.0-12.0-0.59","","","",""
"9399","","{""P0_Q0"":""ㅇ,ㅡ,ㅁ,ㄷ,ㅏ,ㅋ,ㅣ,ㅂ"",""P0_Q1"":""(가능)""}","survey","150","1762065","0.0-12.0-1.59","[]","","",""
"2936",""," ","html-keyboard-response","151","1765002","0.0-13.0","","","",""
"123038","","{""P0_Q0"":""23살"",""P0_Q1"":""여"",""P0_Q2"":""11살"",""P0_Q3"":""아니요"",""P0_Q4"":""중국어"",""P0_Q5"":""18살, 1년"",""P0_Q6"":""없습니다.""}","survey","152","1888049","0.0-14.0","[]","","",""
"43822","<p style=""font-size:30px"",lang=""ko"">실험이 끝났습니다</p><p style=""font-size:30px"",lang=""ko"">참가해주셔서 고맙습니다</p>"," ","html-keyboard-response","153","1931872","0.0-15.0","","","",""
,