"rt","stimulus","response","trial_type","trial_index","time_elapsed","internal_node_id","accuracy","PracticeTest","ConsonantSequence","Grammaticality"
"1131750","<p style=""font-size:30px"",lang=""ko"">실험에 오신 것을 환영합니다</p><p lang=""ko"">스페이스바를 누르면 다음 페이지로 넘어갑니다</p>"," ","html-keyboard-response","0","1131751","0.0-0.0","","","",""
"1821","<p style=""font-size:30px"",lang=""ko"">해드폰을 본인에게 잘 맞게 착용하세요</p><p lang=""ko"">스페이스바를 누르면 다음 페이지로 넘어갑니다</p>"," ","html-keyboard-response","1","1133573","0.0-1.0","","","",""
"2171","<p style=""font-size:30px"",lang=""ko"">이 실험에서는 새로 만든 한국 단어를 들으실 겁니다</p><p style=""font-size:30px"",lang=""ko"">단어를 들리는대로 쓰세요. 그런 다음 그 단어가 한국어 단어로 가능한지 평가하세요</p><p lang=""ko"">스페이스바를 누르면 다음 페이지로 넘어갑니다</p>"," ","html-keyboard-response","2","1135745","0.0-2.0","","","",""
"1329","<p style=""font-size:30px"",lang=""ko"">원래 있는 단어로 예를 들어 봅시다</p><p lang=""ko"">스페이스바를 누르면 다음 페이지로 넘어갑니다</p>"," ","html-keyboard-response","3","1137074","0.0-3.0","","","",""
"9221","PracticeRecordings/kom_bear.wav","0","audio-button-response","4","1146318","0.0-4.0","","","",""
"1704","<p style=""font-size:30px"",lang=""ko"">이제 직접 단어를 듣고 쓰는 연습을 해봅시다. </p><p style=""font-size:30px"",lang=""ko"">스페이스바를 누르면 다음 페이지로 넘어갑니다</p>"," ","html-keyboard-response","5","1148023","0.0-5.0","","","",""
"6130","PracticeRecordings/kirin_giraffe.wav","0","audio-button-response","6","1154168","0.0-6.0-0.0","","","",""
"11058","kirin_giraffe","{""P0_Q0"":""ㄱ,ㅣ,ㄹ,ㅣ,ㄴ""}","survey","7","1165251","0.0-6.0-1.0","[]","practice","NA","TRUE"
"2107","<p style=""font-size:30px"",lang=""ko"">방금 들으신 단어는 ""ㄱ,ㅣ,ㄹ,ㅣ,ㄴ"" 이라고 쓰시면 됩니다</p><p lang=""ko"">스페이스바를 누르면 다음 페이지로 넘어갑니다</p>"," ","html-keyboard-response","8","1167358","0.0-6.0-2.0","","","",""
"1906","PracticeRecordings/saca_lion.wav","0","audio-button-response","9","1169279","0.0-6.0-0.1","","","",""
"4727","saca_lion","{""P0_Q0"":""ㅅ,ㅏ,ㅈ,ㅏ""}","survey","10","1174011","0.0-6.0-1.1","[]","practice","NA","FALSE"
"1380","<p style=""font-size:30px"",lang=""ko"">방금 들으신 단어는 ""ㅅ,ㅏ,ㅈ,ㅏ"" 라고 쓰시면 됩니다</p><p lang=""ko"">스페이스바를 누르면 다음 페이지로 넘어갑니다</p>"," ","html-keyboard-response","11","1175391","0.0-6.0-2.1","","","",""
"1684","PracticeRecordings/saseum_deer.wav","0","audio-button-response","12","1177089","0.0-6.0-0.2","","","",""
"5061","saseum_deer","{""P0_Q0"":""ㅅ,ㅏ,ㅅ,ㅡ,ㅁ""}","survey","13","1182156","0.0-6.0-1.2","[]","practice","NA","FALSE"
"686","<p style=""font-size:30px"",lang=""ko"">방금 들으신 단어는 ""ㅅ,ㅏ,ㅅ,ㅡ,ㅁ""이라고 쓰시면 됩니다</p><p lang=""ko"">스페이스바를 누르면 다음 페이지로 넘어갑니다</p>"," ","html-keyboard-response","14","1182842","0.0-6.0-2.2","","","",""
"1796","PracticeRecordings/thokki_rabbit.wav","0","audio-button-response","15","1184652","0.0-6.0-0.3","","","",""
"5329","thokki_rabbit","{""P0_Q0"":""ㅌ,ㅗ,ㄲ,ㅣ""}","survey","16","1189987","0.0-6.0-1.3","[]","practice","NA","FALSE"
"598","<p style=""font-size:30px"",lang=""ko"">방금 들으신 단어는 ""ㅌ,ㅗ,ㄲ,ㅣ"" 라고 쓰시면 됩니다</p><p lang=""ko"">스페이스바를 누르면 다음 페이지로 넘어갑니다</p>"," ","html-keyboard-response","17","1190585","0.0-6.0-2.3","","","",""
"1514","<p style=""font-size:30px"",lang=""ko"">이제 만든 단어로 연습해봅시다.</p><p lang=""ko"">스페이스바를 누르면 다음 페이지로 넘어갑니다</p>"," ","html-keyboard-response","18","1192100","0.0-7.0","","","",""
"2151","PracticeRecordings/snen.wav","0","audio-button-response","19","1194266","0.0-8.0-0.0","","","",""
"7544","snen","{""P0_Q0"":""ㅅ,ㅡ,ㄴ,ㅐ,ㄴ""}","survey","20","1201816","0.0-8.0-1.0","[]","practice","NA","TRUE"
"1691","<p style=""font-size:30px"",lang=""ko"">들으신 단어는 <br> ""ㅅ,ㅡ,ㄴ,ㅐ,ㄴ""  ""ㅅ,ㅡ,ㄴ,ㅐ"" ""ㅅ,ㄴ,ㅐ,ㄴ (""으"" 소리가 안 들리는 경우)"" 등 <br> 사람에 따라 다양하게 들릴 수 있습니다 <br> 본인에게 들리는대로 쓰시면 됩니다.</p><p lang=""ko"">스페이스바를 누르면 다음 페이지로 넘어갑니다</p>"," ","html-keyboard-response","21","1203507","0.0-8.0-2.0","","","",""
"1642","PracticeRecordings/phrak.wav","0","audio-button-response","22","1205163","0.0-8.0-0.1","","","",""
"5676","phrak","{""P0_Q0"":""ㅍ,ㅡ,ㄹ,ㅏ,ㄱ""}","survey","23","1210843","0.0-8.0-1.1","[]","practice","NA","FALSE"
"1125","<p style=""font-size:30px"",lang=""ko"">들으신 단어는 <br> ""ㅍ,ㅡ,ㄹ,ㅏ,ㄱ"" ""ㅍ,ㅡ,ㄹ,ㅏ,ㅅ"" ""ㅋ,ㅡ,ㄹ,ㅏ,ㄱ"" ""ㅍ,ㄹ,ㅏ,ㄱ (""으"" 소리가 안 들리는 경우)"" 등 <br> 사람에 따라 다양하게 들릴 수 있습니다 <br> 본인에게 들리는대로 쓰시면 됩니다.</p><p lang=""ko"">스페이스바를 누르면 다음 페이지로 넘어갑니다</p>"," ","html-keyboard-response","24","1211968","0.0-8.0-2.1","","","",""
"1608","PracticeRecordings/chka.wav","0","audio-button-response","25","1213590","0.0-8.0-0.2","","","",""
"4014","chka","{""P0_Q0"":""ㅊ,ㅡ,ㄱ,ㅏ""}","survey","26","1217608","0.0-8.0-1.2","[]","practice","NA","FALSE"
"974","<p style=""font-size:30px"",lang=""ko"">들으신 단어는 ""ㅊ,ㅣ,ㄱ,ㅏ"", ""ㅊ,ㅡ,ㄱ,ㅏ"", ""ㅊ,ㄱ,ㅏ"", ""ㅊ,ㅟ,ㄱ,ㅏ"" 등 <br> 사람에 따라 다양하게 들릴 수 있습니다. <br> 본인에게 들리는대로 쓰시면 됩니다.</p><p lang=""ko"">스페이스바를 누르면 다음 페이지로 넘어갑니다</p>"," ","html-keyboard-response","27","1218582","0.0-8.0-2.2","","","",""
"3706",""," ","html-keyboard-response","28","1222288","0.0-9.0","","","",""
"6951","<p style=""font-size:30px"",lang=""ko"">이제 실험을 시작하겠습니다.</p><p style=""font-size:30px"",lang=""ko"">실전에서는 각각의 만든 단어를 한 번씩만 들을 수 있습니다.</p>"," ","html-keyboard-response","29","1229239","0.0-10.0","","","",""
"18038","<p style=""font-size:30px"",lang=""ko"">단어를 풀어 쓰신 후에 그 단어가 한국어로 가능한 단어인지 평가해주세요</p><p lang=""ko"">스페이스바를 누르면 다음 페이지로 넘어갑니다</p>"," ","html-keyboard-response","30","1247278","0.0-11.0","","","",""
"3485","TestRecordings/thnok.wav","0","audio-button-response","31","1250779","0.0-12.0-0.0","","","",""
"25587","","{""P0_Q0"":""ㅍ,ㅡ,ㄹ,ㅗ,ㄱ,ㅡ"",""P0_Q1"":""(불가능)""}","survey","32","1276375","0.0-12.0-1.0","[]","","",""
"1819","TestRecordings/mup.wav","0","audio-button-response","33","1278210","0.0-12.0-0.1","","","",""
"19389","","{""P0_Q0"":""ㅁ,ㅜ,ㅅ"",""P0_Q1"":""(가능)""}","survey","34","1297605","0.0-12.0-1.1","[]","","",""
"1710","TestRecordings/thukhat.wav","0","audio-button-response","35","1299329","0.0-12.0-0.2","","","",""
"10031","","{""P0_Q0"":""ㅌ,ㅜ,ㅋ,ㅏ,ㅅ"",""P0_Q1"":""(불가능)""}","survey","36","1309364","0.0-12.0-1.2","[]","","",""
"1530","TestRecordings/khwipot.wav","0","audio-button-response","37","1310908","0.0-12.0-0.3","","","",""
"14286","","{""P0_Q0"":""ㅋ,ㅣ,ㅂ,ㅗ,ㅅ"",""P0_Q1"":""(가능)""}","survey","38","1325201","0.0-12.0-1.3","[]","","",""
"1470","TestRecordings/kmamun.wav","0","audio-button-response","39","1326685","0.0-12.0-0.4","","","",""
"9627","","{""P0_Q0"":""ㄱ,ㅡ,ㅁ,ㅏ,ㅁ,ㅜ,ㄴ"",""P0_Q1"":""(불가능)""}","survey","40","1336316","0.0-12.0-1.4","[]","","",""
"2232","TestRecordings/khin.wav","0","audio-button-response","41","1338563","0.0-12.0-0.5","","","",""
"11083","","{""P0_Q0"":""ㅋ,ㅣ,ㄴ"",""P0_Q1"":""(가능)""}","survey","42","1349651","0.0-12.0-1.5","[]","","",""
"1557","TestRecordings/nwimik.wav","0","audio-button-response","43","1351221","0.0-12.0-0.6","","","",""
"15908","","{""P0_Q0"":""ㄴ,ㅜ,ㅣ,ㄱ,ㅁ,ㅣ,ㄱ"",""P0_Q1"":""(불가능)""}","survey","44","1367134","0.0-12.0-1.6","[]","","",""
"2227","TestRecordings/mthik.wav","0","audio-button-response","45","1369375","0.0-12.0-0.7","","","",""
"16814","","{""P0_Q0"":""ㅁ,ㅜ,ㄴ,ㅌ,ㅜ,ㅣ,ㅅ"",""P0_Q1"":""(불가능)""}","survey","46","1386193","0.0-12.0-1.7","[]","","",""
"1635","TestRecordings/thinok.wav","0","audio-button-response","47","1387843","0.0-12.0-0.8","","","",""
"12957","","{""P0_Q0"":""ㅌ,ㅣ,ㄴ,ㅗ,ㄱ"",""P0_Q1"":""(불가능)""}","survey","48","1400805","0.0-12.0-1.8","[]","","",""
"1597","TestRecordings/chunak.wav","0","audio-button-response","49","1402417","0.0-12.0-0.9","","","",""
"7855","","{""P0_Q0"":""ㅊ,ㅠ,ㄴ,ㅏ"",""P0_Q1"":""(불가능)""}","survey","50","1410276","0.0-12.0-1.9","[]","","",""
"1441","TestRecordings/mphosak.wav","0","audio-button-response","51","1411732","0.0-12.0-0.10","","","",""
"10741","","{""P0_Q0"":""ㅁ,ㅜ,ㄴ,ㅍ,ㅗ,ㅅ,ㅏ"",""P0_Q1"":""(불가능)""}","survey","52","1422477","0.0-12.0-1.10","[]","","",""
"1418","TestRecordings/phmiman.wav","0","audio-button-response","53","1423909","0.0-12.0-0.11","","","",""
"10265","","{""P0_Q0"":""ㅍ,ㅡ,ㄹ,ㅣ,ㅁ,ㅏ,ㄴ"",""P0_Q1"":""(가능)""}","survey","54","1434179","0.0-12.0-1.11","[]","","",""
"1559","TestRecordings/chakot.wav","0","audio-button-response","55","1435753","0.0-12.0-0.12","","","",""
"14729","","{""P0_Q0"":""ㅊ,ㅏ,ㄱ,ㅗ,ㅅ"",""P0_Q1"":""(불가능)""}","survey","56","1450487","0.0-12.0-1.12","[]","","",""
"1483","TestRecordings/chnupot.wav","0","audio-button-response","57","1452000","0.0-12.0-0.13","","","",""
"12678","","{""P0_Q0"":""ㅊ,ㅡ,ㄴ,ㅜ,ㅂ,ㅗ,ㅅ"",""P0_Q1"":""(불가능)""}","survey","58","1464682","0.0-12.0-1.13","[]","","",""
"1539","TestRecordings/tmichut.wav","0","audio-button-response","59","1466235","0.0-12.0-0.14","","","",""
"8234","","{""P0_Q0"":""ㅁ,ㅣ,ㅊ,ㅜ,ㅅ"",""P0_Q1"":""(불가능)""}","survey","60","1474474","0.0-12.0-1.14","[]","","",""
"1538","TestRecordings/swikhat.wav","0","audio-button-response","61","1476026","0.0-12.0-0.15","","","",""
"11318","","{""P0_Q0"":""ㅅ,ㅜ,ㅣ,ㅋ,ㅏ,ㅅ"",""P0_Q1"":""(불가능)""}","survey","62","1487348","0.0-12.0-1.15","[]","","",""
"2014","TestRecordings/phnokhing.wav","0","audio-button-response","63","1489377","0.0-12.0-0.16","","","",""
"11491","","{""P0_Q0"":""ㅍ,ㅡ,ㄴ,ㅗ,ㅋ,ㅣ,ㅇ"",""P0_Q1"":""(불가능)""}","survey","64","1500872","0.0-12.0-1.16","[]","","",""
"1337","TestRecordings/nkat.wav","0","audio-button-response","65","1502223","0.0-12.0-0.17","","","",""
"11851","","{""P0_Q0"":""ㅁ,ㅜ,ㅇ,ㄱ,ㅏ,ㅅ"",""P0_Q1"":""(불가능)""}","survey","66","1514080","0.0-12.0-1.17","[]","","",""
"2052","TestRecordings/nchocip.wav","0","audio-button-response","67","1516146","0.0-12.0-0.18","","","",""
"14907","","{""P0_Q0"":""ㅁ,ㅜ,ㄴ,ㅊ,ㅗ,ㅈ,ㅣ,ㅂ"",""P0_Q1"":""(불가능)""}","survey","68","1531057","0.0-12.0-1.18","[]","","",""
"2315","TestRecordings/cwit.wav","0","audio-button-response","69","1533385","0.0-12.0-0.19","","","",""
"7742","","{""P0_Q0"":""ㅈ,ㅜ,ㅣ,ㄱ"",""P0_Q1"":""(불가능)""}","survey","70","1541131","0.0-12.0-1.19","[]","","",""
"1856","TestRecordings/twak.wav","0","audio-button-response","71","1543001","0.0-12.0-0.20","","","",""
"8470","","{""P0_Q0"":""ㄷ,ㅡ,ㄹ,ㅏ,ㄱ"",""P0_Q1"":""(가능)""}","survey","72","1551476","0.0-12.0-1.20","[]","","",""
"1491","TestRecordings/khwichon.wav","0","audio-button-response","73","1552981","0.0-12.0-0.21","","","",""
"8813","","{""P0_Q0"":""ㅋ,ㅜ,ㅣ,ㅊ,ㅗ,ㄴ"",""P0_Q1"":""(불가능)""}","survey","74","1561798","0.0-12.0-1.21","[]","","",""
"2598","TestRecordings/thwam.wav","0","audio-button-response","75","1564410","0.0-12.0-0.22","","","",""
"10917","","{""P0_Q0"":""ㅌ,ㅗ,ㅏ,ㅇ,ㅏ,ㅁ"",""P0_Q1"":""(불가능)""}","survey","76","1575331","0.0-12.0-1.22","[]","","",""
"1300","TestRecordings/nakhit.wav","0","audio-button-response","77","1576645","0.0-12.0-0.23","","","",""
"8883","","{""P0_Q0"":""ㄴ,ㅑ,ㅋ,ㅜ,ㅣ,ㅅ"",""P0_Q1"":""(불가능)""}","survey","78","1585533","0.0-12.0-1.23","[]","","",""
"1392","TestRecordings/tnunong.wav","0","audio-button-response","79","1586939","0.0-12.0-0.24","","","",""
"15393","","{""P0_Q0"":""ㄷ,ㅡ,ㄹ,ㅜ,ㄴ,ㅗ,ㅇ"",""P0_Q1"":""(불가능)""}","survey","80","1602335","0.0-12.0-1.24","[]","","",""
"1670","TestRecordings/nkhuchom.wav","0","audio-button-response","81","1604020","0.0-12.0-0.25","","","",""
"13464","","{""P0_Q0"":""ㅁ,ㅜ,ㅇ,ㅋ,ㅡ,ㅊ,ㅗ,ㅇ"",""P0_Q1"":""(불가능)""}","survey","82","1617488","0.0-12.0-1.25","[]","","",""
"1547","TestRecordings/sikot.wav","0","audio-button-response","83","1619050","0.0-12.0-0.26","","","",""
"9232","","{""P0_Q0"":""ㅅ,ㅣ,ㄱ,ㅗ,ㅅ"",""P0_Q1"":""(가능)""}","survey","84","1628286","0.0-12.0-1.26","[]","","",""
"1594","TestRecordings/khwiphing.wav","0","audio-button-response","85","1629895","0.0-12.0-0.27","","","",""
"7807","","{""P0_Q0"":""ㅋ,ㅜ,ㅣ,ㅍ,ㅣ,ㅇ"",""P0_Q1"":""(가능)""}","survey","86","1637706","0.0-12.0-1.27","[]","","",""
"1386","TestRecordings/npucap.wav","0","audio-button-response","87","1639107","0.0-12.0-0.28","","","",""
"9992","","{""P0_Q0"":""ㅇ,ㅡ,ㄴ,ㅂ,ㅜ,ㅈ,ㅏ,ㅂ"",""P0_Q1"":""(불가능)""}","survey","88","1649103","0.0-12.0-1.28","[]","","",""
"1380","TestRecordings/khithuk.wav","0","audio-button-response","89","1650496","0.0-12.0-0.29","","","",""
"13927","","{""P0_Q0"":""ㅋ,ㅜ,l,ㅌ,ㅜ,ㅅ"",""P0_Q1"":""(불가능)""}","survey","90","1664427","0.0-12.0-1.29","[]","","",""
"1485","TestRecordings/twan.wav","0","audio-button-response","91","1665927","0.0-12.0-0.30","","","",""
"7377","","{""P0_Q0"":""ㄷ,ㅗ,ㅏ,ㄴ"",""P0_Q1"":""(가능)""}","survey","92","1673308","0.0-12.0-1.30","[]","","",""
"1379","TestRecordings/twamot.wav","0","audio-button-response","93","1674701","0.0-12.0-0.31","","","",""
"10715","","{""P0_Q0"":""ㄷ,ㅗ,ㅏ,ㅁ,ㅗ,ㅅ"",""P0_Q1"":""(불가능)""}","survey","94","1685420","0.0-12.0-1.31","[]","","",""
"1451","TestRecordings/ntakhip.wav","0","audio-button-response","95","1686887","0.0-12.0-0.32","","","",""
"15602","","{""P0_Q0"":""ㅇ,ㅡ,ㄴ,ㄷ,ㅏ,ㅋ,ㅣ,ㅅ"",""P0_Q1"":""(불가능)""}","survey","96","1702494","0.0-12.0-1.32","[]","","",""
"1487","TestRecordings/chmop.wav","0","audio-button-response","97","1703995","0.0-12.0-0.33","","","",""
"9392","","{""P0_Q0"":""ㅊ,ㅡ,ㅁ,ㅗ,ㅅ"",""P0_Q1"":""(불가능)""}","survey","98","1713392","0.0-12.0-1.33","[]","","",""
"1398","TestRecordings/tin.wav","0","audio-button-response","99","1714804","0.0-12.0-0.34","","","",""
"6852","","{""P0_Q0"":""ㄷ,ㅣ,ㄴ"",""P0_Q1"":""(가능)""}","survey","100","1721660","0.0-12.0-1.34","[]","","",""
"1391","TestRecordings/cwam.wav","0","audio-button-response","101","1723067","0.0-12.0-0.35","","","",""
"11192","","{""P0_Q0"":""ㅈ,ㅜ,ㅇ,ㅗ,ㅏ,ㄴ"",""P0_Q1"":""(불가능)""}","survey","102","1734262","0.0-12.0-1.35","[]","","",""
"1284","TestRecordings/tikut.wav","0","audio-button-response","103","1735560","0.0-12.0-0.36","","","",""
"8228","","{""P0_Q0"":""ㄷ,ㅣ,ㄱ,ㅜ,ㄷ"",""P0_Q1"":""(가능)""}","survey","104","1743793","0.0-12.0-1.36","[]","","",""
"1434","TestRecordings/cmoman.wav","0","audio-button-response","105","1745242","0.0-12.0-0.37","","","",""
"17506","","{""P0_Q0"":""ㅊ,ㅡ,ㅁ,ㅗ,ㅁ,ㅓ,ㄴ"",""P0_Q1"":""(불가능)""}","survey","106","1762752","0.0-12.0-1.37","[]","","",""
"1581","TestRecordings/mpukham.wav","0","audio-button-response","107","1764347","0.0-12.0-0.38","","","",""
"11517","","{""P0_Q0"":""ㅇ,ㅡ,ㄴ,ㅂ,ㅜ,ㅋ,ㅏ,ㅁ"",""P0_Q1"":""(불가능)""}","survey","108","1775868","0.0-12.0-1.38","[]","","",""
"1435","TestRecordings/nchot.wav","0","audio-button-response","109","1777318","0.0-12.0-0.39","","","",""
"7379","","{""P0_Q0"":""ㅇ,ㅡ,ㅇ,ㅊ,ㅗ,ㅅ"",""P0_Q1"":""(불가능)""}","survey","110","1784702","0.0-12.0-1.39","[]","","",""
"2637","TestRecordings/mkit.wav","0","audio-button-response","111","1787353","0.0-12.0-0.40","","","",""
"13405","","{""P0_Q0"":""ㅇ,ㅡ,ㅁ,ㄱ,ㅣ,ㄹ,ㅣ,ㅅ"",""P0_Q1"":""(불가능)""}","survey","112","1800762","0.0-12.0-1.40","[]","","",""
"1467","TestRecordings/mtukin.wav","0","audio-button-response","113","1802244","0.0-12.0-0.41","","","",""
"9405","","{""P0_Q0"":""ㅇ,ㅡ,ㄴ,ㄷ,ㅜ,ㄱ,ㅣ,ㄴ"",""P0_Q1"":""(불가능)""}","survey","114","1811653","0.0-12.0-1.41","[]","","",""
"1342","TestRecordings/taphik.wav","0","audio-button-response","115","1813009","0.0-12.0-0.42","","","",""
"6669","","{""P0_Q0"":""ㄷ,ㅏ,ㅍ,ㅣ,ㅅ"",""P0_Q1"":""(불가능)""}","survey","116","1819683","0.0-12.0-1.42","[]","","",""
"1226","TestRecordings/mphuk.wav","0","audio-button-response","117","1820921","0.0-12.0-0.43","","","",""
"9743","","{""P0_Q0"":""ㅇ,ㅡ,ㄴ,ㅂ,ㅜ,ㅌ,ㅜ,ㅅ"",""P0_Q1"":""(불가능)""}","survey","118","1830668","0.0-12.0-1.43","[]","","",""
"1545","TestRecordings/tup.wav","0","audio-button-response","119","1832227","0.0-12.0-0.44","","","",""
"6068","","{""P0_Q0"":""ㄷ,ㅜ,ㅅ"",""P0_Q1"":""(불가능)""}","survey","120","1838299","0.0-12.0-1.44","[]","","",""
"1573","TestRecordings/khnothik.wav","0","audio-button-response","121","1839886","0.0-12.0-0.45","","","",""
"8585","","{""P0_Q0"":""ㅋ,ㅡ,ㄴ,ㅗ,ㅌ,ㅣ,ㄱ"",""P0_Q1"":""(불가능)""}","survey","122","1848476","0.0-12.0-1.45","[]","","",""
"1434","TestRecordings/thwikhip.wav","0","audio-button-response","123","1849925","0.0-12.0-0.46","","","",""
"9249","","{""P0_Q0"":""ㅌ,ㅜ,ㅣ,ㅋ,ㅣ,ㅂ"",""P0_Q1"":""(불가능)""}","survey","124","1859178","0.0-12.0-1.46","[]","","",""
"1794","TestRecordings/chwikhong.wav","0","audio-button-response","125","1860987","0.0-12.0-0.47","","","",""
"6980","","{""P0_Q0"":""ㅊ,ㅜ,ㅣ,ㅋ,ㅗ,ㅇ"",""P0_Q1"":""(불가능)""}","survey","126","1867971","0.0-12.0-1.47","[]","","",""
"1416","TestRecordings/knot.wav","0","audio-button-response","127","1869400","0.0-12.0-0.48","","","",""
"10490","","{""P0_Q0"":""ㅋ,ㅡ,ㄴ,ㅗ,ㅅ"",""P0_Q1"":""(불가능)""}","survey","128","1879895","0.0-12.0-1.48","[]","","",""
"1801","TestRecordings/nthimong.wav","0","audio-button-response","129","1881710","0.0-12.0-0.49","","","",""
"11575","","{""P0_Q0"":""ㅁ,ㅜ,ㅇ,ㅌ,ㅜ,ㅣ,ㅁ,ㅗ,ㅇ"",""P0_Q1"":""(불가능)""}","survey","130","1893289","0.0-12.0-1.49","[]","","",""
"1658","TestRecordings/chumik.wav","0","audio-button-response","131","1894961","0.0-12.0-0.50","","","",""
"11666","","{""P0_Q0"":""ㅊ,ㅠ,ㅁ,ㅣ,ㄱ"",""P0_Q1"":""(불가능)""}","survey","132","1906631","0.0-12.0-1.50","[]","","",""
"1500","TestRecordings/chwiphin.wav","0","audio-button-response","133","1908146","0.0-12.0-0.51","","","",""
"7492","","{""P0_Q0"":""ㅊ,ㅜ,ㅣ,ㅍ,ㅣ,ㄴ"",""P0_Q1"":""(불가능)""}","survey","134","1915643","0.0-12.0-1.51","[]","","",""
"1386","TestRecordings/twaput.wav","0","audio-button-response","135","1917042","0.0-12.0-0.52","","","",""
"7795","","{""P0_Q0"":""ㄷ,ㅗ,ㅏ,ㅂ,ㅜ,ㅅ"",""P0_Q1"":""(불가능)""}","survey","136","1924841","0.0-12.0-1.52","[]","","",""
"1501","TestRecordings/khnap.wav","0","audio-button-response","137","1926356","0.0-12.0-0.53","","","",""
"8627","","{""P0_Q0"":""ㅋ,ㅡ,ㄴ,ㅏ,ㅂ"",""P0_Q1"":""(불가능)""}","survey","138","1934987","0.0-12.0-1.53","[]","","",""
"1493","TestRecordings/nthaking.wav","0","audio-button-response","139","1936494","0.0-12.0-0.54","","","",""
"11743","","{""P0_Q0"":""ㅁ,ㅜ,ㅇ,ㅌ,ㅏ,ㄱ,ㅣ,ㅇ"",""P0_Q1"":""(불가능)""}","survey","140","1948242","0.0-12.0-1.54","[]","","",""
"1557","TestRecordings/mphutam.wav","0","audio-button-response","141","1949813","0.0-12.0-0.55","","","",""
"15852","","{""P0_Q0"":""ㅁ,ㅜ,ㅇ,ㅍ,ㅜ,ㄷ,ㅏ,ㅁ"",""P0_Q1"":""(불가능)""}","survey","142","1965668","0.0-12.0-1.55","[]","","",""
"3059","TestRecordings/chnuk.wav","0","audio-button-response","143","1968741","0.0-12.0-0.56","","","",""
"9437","","{""P0_Q0"":""ㅊ,ㅡ,ㄴ,ㅜ,ㅅ"",""P0_Q1"":""(불가능)""}","survey","144","1978181","0.0-12.0-1.56","[]","","",""
"1353","TestRecordings/pmochun.wav","0","audio-button-response","145","1979549","0.0-12.0-0.57","","","",""
"8618","","{""P0_Q0"":""ㄱ,ㅡ,ㅁ,ㅜ,ㅊ,ㅜ,ㄴ"",""P0_Q1"":""(불가능)""}","survey","146","1988172","0.0-12.0-1.57","[]","","",""
"1406","TestRecordings/cnaphin.wav","0","audio-button-response","147","1989592","0.0-12.0-0.58","","","",""
"8060","","{""P0_Q0"":""ㅊ,ㅡ,ㄴ,ㅏ,ㅍ,ㅣ,ㄴ"",""P0_Q1"":""(불가능)""}","survey","148","1997657","0.0-12.0-1.58","[]","","",""
"1389","TestRecordings/khut.wav","0","audio-button-response","149","1999060","0.0-12.0-0.59","","","",""
"6968","","{""P0_Q0"":""ㅋ,ㅜ,ㅅ"",""P0_Q1"":""(가능)""}","survey","150","2006032","0.0-12.0-1.59","[]","","",""
"3565",""," ","html-keyboard-response","151","2009597","0.0-13.0","","","",""
"87775","","{""P0_Q0"":""25살"",""P0_Q1"":""남성"",""P0_Q2"":""6살"",""P0_Q3"":""."",""P0_Q4"":""중국어"",""P0_Q5"":""19살, 3개월정도"",""P0_Q6"":"".""}","survey","152","2097378","0.0-14.0","[]","","",""
"268008","<p style=""font-size:30px"",lang=""ko"">실험이 끝났습니다</p><p style=""font-size:30px"",lang=""ko"">참가해주셔서 고맙습니다</p>"," ","html-keyboard-response","153","2365386","0.0-15.0","","","",""
,