"rt","stimulus","response","trial_type","trial_index","time_elapsed","internal_node_id","accuracy","PracticeTest","ConsonantSequence","Grammaticality"
"709717","<p style=""font-size:30px"",lang=""ko"">실험에 오신 것을 환영합니다</p><p lang=""ko"">스페이스바를 누르면 다음 페이지로 넘어갑니다</p>"," ","html-keyboard-response","0","709611","0.0-0.0","","","",""
"2156","<p style=""font-size:30px"",lang=""ko"">해드폰을 본인에게 잘 맞게 착용하세요</p><p lang=""ko"">스페이스바를 누르면 다음 페이지로 넘어갑니다</p>"," ","html-keyboard-response","1","711768","0.0-1.0","","","",""
"4138","<p style=""font-size:30px"",lang=""ko"">이 실험에서는 새로 만든 한국 단어를 들으실 겁니다</p><p style=""font-size:30px"",lang=""ko"">단어를 들리는대로 쓰세요. 그런 다음 그 단어가 한국어 단어로 가능한지 평가하세요</p><p lang=""ko"">스페이스바를 누르면 다음 페이지로 넘어갑니다</p>"," ","html-keyboard-response","2","715906","0.0-2.0","","","",""
"1509","<p style=""font-size:30px"",lang=""ko"">원래 있는 단어로 예를 들어 봅시다</p><p lang=""ko"">스페이스바를 누르면 다음 페이지로 넘어갑니다</p>"," ","html-keyboard-response","3","717415","0.0-3.0","","","",""
"9747","PracticeRecordings/kom_bear.wav","0","audio-button-response","4","727190","0.0-4.0","","","",""
"3049","<p style=""font-size:30px"",lang=""ko"">이제 직접 단어를 듣고 쓰는 연습을 해봅시다. </p><p style=""font-size:30px"",lang=""ko"">스페이스바를 누르면 다음 페이지로 넘어갑니다</p>"," ","html-keyboard-response","5","730240","0.0-5.0","","","",""
"4505","PracticeRecordings/kirin_giraffe.wav","0","audio-button-response","6","734765","0.0-6.0-0.0","","","",""
"10355","kirin_giraffe","{""P0_Q0"":""ㄱ,ㅣ,ㄹ,ㅣ,ㄴ""}","survey","7","745151","0.0-6.0-1.0","[]","practice","NA","TRUE"
"2605","<p style=""font-size:30px"",lang=""ko"">방금 들으신 단어는 ""ㄱ,ㅣ,ㄹ,ㅣ,ㄴ"" 이라고 쓰시면 됩니다</p><p lang=""ko"">스페이스바를 누르면 다음 페이지로 넘어갑니다</p>"," ","html-keyboard-response","8","747757","0.0-6.0-2.0","","","",""
"3217","PracticeRecordings/saca_lion.wav","0","audio-button-response","9","750995","0.0-6.0-0.1","","","",""
"4624","saca_lion","{""P0_Q0"":""ㅅ,ㅏ,ㅈ,ㅏ""}","survey","10","755626","0.0-6.0-1.1","[]","practice","NA","FALSE"
"1534","<p style=""font-size:30px"",lang=""ko"">방금 들으신 단어는 ""ㅅ,ㅏ,ㅈ,ㅏ"" 라고 쓰시면 됩니다</p><p lang=""ko"">스페이스바를 누르면 다음 페이지로 넘어갑니다</p>"," ","html-keyboard-response","11","757160","0.0-6.0-2.1","","","",""
"2800","PracticeRecordings/saseum_deer.wav","0","audio-button-response","12","759979","0.0-6.0-0.2","","","",""
"5322","saseum_deer","{""P0_Q0"":""ㅅ,ㅏ,ㅅ,ㅡ,ㅁ""}","survey","13","765306","0.0-6.0-1.2","[]","practice","NA","FALSE"
"1612","<p style=""font-size:30px"",lang=""ko"">방금 들으신 단어는 ""ㅅ,ㅏ,ㅅ,ㅡ,ㅁ""이라고 쓰시면 됩니다</p><p lang=""ko"">스페이스바를 누르면 다음 페이지로 넘어갑니다</p>"," ","html-keyboard-response","14","766919","0.0-6.0-2.2","","","",""
"2015","PracticeRecordings/thokki_rabbit.wav","0","audio-button-response","15","768954","0.0-6.0-0.3","","","",""
"5862","thokki_rabbit","{""P0_Q0"":""ㅌ,ㅗ,ㄲ,ㅣ""}","survey","16","774823","0.0-6.0-1.3","[]","practice","NA","FALSE"
"1227","<p style=""font-size:30px"",lang=""ko"">방금 들으신 단어는 ""ㅌ,ㅗ,ㄲ,ㅣ"" 라고 쓰시면 됩니다</p><p lang=""ko"">스페이스바를 누르면 다음 페이지로 넘어갑니다</p>"," ","html-keyboard-response","17","776050","0.0-6.0-2.3","","","",""
"1640","<p style=""font-size:30px"",lang=""ko"">이제 만든 단어로 연습해봅시다.</p><p lang=""ko"">스페이스바를 누르면 다음 페이지로 넘어갑니다</p>"," ","html-keyboard-response","18","777690","0.0-7.0","","","",""
"4669","PracticeRecordings/snen.wav","0","audio-button-response","19","782379","0.0-8.0-0.0","","","",""
"5320","snen","{""P0_Q0"":""ㅅ,ㅡ,ㄴ,ㅔ,ㄴ""}","survey","20","787705","0.0-8.0-1.0","[]","practice","NA","TRUE"
"5327","<p style=""font-size:30px"",lang=""ko"">들으신 단어는 <br> ""ㅅ,ㅡ,ㄴ,ㅐ,ㄴ""  ""ㅅ,ㅡ,ㄴ,ㅐ"" ""ㅅ,ㄴ,ㅐ,ㄴ (""으"" 소리가 안 들리는 경우)"" 등 <br> 사람에 따라 다양하게 들릴 수 있습니다 <br> 본인에게 들리는대로 쓰시면 됩니다.</p><p lang=""ko"">스페이스바를 누르면 다음 페이지로 넘어갑니다</p>"," ","html-keyboard-response","21","793033","0.0-8.0-2.0","","","",""
"2216","PracticeRecordings/phrak.wav","0","audio-button-response","22","795271","0.0-8.0-0.1","","","",""
"5227","phrak","{""P0_Q0"":""ㅍ,ㅡ,ㄹ,ㅏ,ㄱ""}","survey","23","800504","0.0-8.0-1.1","[]","practice","NA","FALSE"
"2806","<p style=""font-size:30px"",lang=""ko"">들으신 단어는 <br> ""ㅍ,ㅡ,ㄹ,ㅏ,ㄱ"" ""ㅍ,ㅡ,ㄹ,ㅏ,ㅅ"" ""ㅋ,ㅡ,ㄹ,ㅏ,ㄱ"" ""ㅍ,ㄹ,ㅏ,ㄱ (""으"" 소리가 안 들리는 경우)"" 등 <br> 사람에 따라 다양하게 들릴 수 있습니다 <br> 본인에게 들리는대로 쓰시면 됩니다.</p><p lang=""ko"">스페이스바를 누르면 다음 페이지로 넘어갑니다</p>"," ","html-keyboard-response","24","803310","0.0-8.0-2.1","","","",""
"2102","PracticeRecordings/chka.wav","0","audio-button-response","25","805436","0.0-8.0-0.2","","","",""
"5125","chka","{""P0_Q0"":""ㅊ,ㅡ,ㄲ,ㅏ""}","survey","26","810567","0.0-8.0-1.2","[]","practice","NA","FALSE"
"2435","<p style=""font-size:30px"",lang=""ko"">들으신 단어는 ""ㅊ,ㅣ,ㄱ,ㅏ"", ""ㅊ,ㅡ,ㄱ,ㅏ"", ""ㅊ,ㄱ,ㅏ"", ""ㅊ,ㅟ,ㄱ,ㅏ"" 등 <br> 사람에 따라 다양하게 들릴 수 있습니다. <br> 본인에게 들리는대로 쓰시면 됩니다.</p><p lang=""ko"">스페이스바를 누르면 다음 페이지로 넘어갑니다</p>"," ","html-keyboard-response","27","813003","0.0-8.0-2.2","","","",""
"3965",""," ","html-keyboard-response","28","816968","0.0-9.0","","","",""
"4186","<p style=""font-size:30px"",lang=""ko"">이제 실험을 시작하겠습니다.</p><p style=""font-size:30px"",lang=""ko"">실전에서는 각각의 만든 단어를 한 번씩만 들을 수 있습니다.</p>"," ","html-keyboard-response","29","821155","0.0-10.0","","","",""
"18227","<p style=""font-size:30px"",lang=""ko"">단어를 풀어 쓰신 후에 그 단어가 한국어로 가능한 단어인지 평가해주세요</p><p lang=""ko"">스페이스바를 누르면 다음 페이지로 넘어갑니다</p>"," ","html-keyboard-response","30","839382","0.0-11.0","","","",""
"3543","TestRecordings/phnokhing.wav","0","audio-button-response","31","842956","0.0-12.0-0.0","","","",""
"10356","","{""P0_Q0"":""ㅍ,ㅡ,ㄴ,ㅗ,ㅋ,ㅣ,ㅇ"",""P0_Q1"":""(가능)""}","survey","32","853326","0.0-12.0-1.0","[]","","",""
"2720","TestRecordings/cmoman.wav","0","audio-button-response","33","856067","0.0-12.0-0.1","","","",""
"10780","","{""P0_Q0"":""ㅊ,ㅡ,ㅁ,ㅗ,ㅁ,ㅏ,ㄴ"",""P0_Q1"":""(불가능)""}","survey","34","866858","0.0-12.0-1.1","[]","","",""
"2346","TestRecordings/thukhat.wav","0","audio-button-response","35","869226","0.0-12.0-0.2","","","",""
"8225","","{""P0_Q0"":""ㅌ,ㅜ,ㅋ,ㅏ,ㅅ"",""P0_Q1"":""(가능)""}","survey","36","877460","0.0-12.0-1.2","[]","","",""
"2053","TestRecordings/nakhit.wav","0","audio-button-response","37","879535","0.0-12.0-0.3","","","",""
"6587","","{""P0_Q0"":""ㄴ,ㅏ,ㅋ,ㅣ,ㅅ"",""P0_Q1"":""(가능)""}","survey","38","886131","0.0-12.0-1.3","[]","","",""
"4161","TestRecordings/pmochun.wav","0","audio-button-response","39","890315","0.0-12.0-0.4","","","",""
"12716","","{""P0_Q0"":""ㅃ,ㅡ,ㅁ,ㅗ,ㅊ,ㅜ,ㄴ"",""P0_Q1"":""(불가능)""}","survey","40","903041","0.0-12.0-1.4","[]","","",""
"4369","TestRecordings/tnunong.wav","0","audio-button-response","41","907435","0.0-12.0-0.5","","","",""
"8340","","{""P0_Q0"":""ㅌ,ㅡ,ㄴ,ㅜ,ㄴ,ㅗ,ㅇ"",""P0_Q1"":""(불가능)""}","survey","42","915783","0.0-12.0-1.5","[]","","",""
"2182","TestRecordings/twaput.wav","0","audio-button-response","43","918039","0.0-12.0-0.6","","","",""
"9617","","{""P0_Q0"":""ㄷ,ㅗ,ㅏ,ㅂ,ㅜ,ㅅ"",""P0_Q1"":""(불가능)""}","survey","44","927662","0.0-12.0-1.6","[]","","",""
"3954","TestRecordings/phmiman.wav","0","audio-button-response","45","931637","0.0-12.0-0.7","","","",""
"11540","","{""P0_Q0"":""ㅍ,ㅡ,ㅁ,ㅣ,ㅁ,ㅏ,ㄴ"",""P0_Q1"":""(가능)""}","survey","46","943185","0.0-12.0-1.7","[]","","",""
"1981","TestRecordings/chakot.wav","0","audio-button-response","47","945187","0.0-12.0-0.8","","","",""
"6006","","{""P0_Q0"":""ㅊ,ㅏ,ㄱ,ㅗ,ㅅ"",""P0_Q1"":""(가능)""}","survey","48","951200","0.0-12.0-1.8","[]","","",""
"1815","TestRecordings/npucap.wav","0","audio-button-response","49","953038","0.0-12.0-0.9","","","",""
"11149","","{""P0_Q0"":""ㅇ,ㅡ,ㅇ,ㅂ,ㅜ,ㅈ,ㅏ,ㅂ"",""P0_Q1"":""(불가능)""}","survey","50","964194","0.0-12.0-1.9","[]","","",""
"4509","TestRecordings/tup.wav","0","audio-button-response","51","968723","0.0-12.0-0.10","","","",""
"4455","","{""P0_Q0"":""ㄷ,ㅜ,ㅂ"",""P0_Q1"":""(가능)""}","survey","52","973186","0.0-12.0-1.10","[]","","",""
"2296","TestRecordings/khnothik.wav","0","audio-button-response","53","975505","0.0-12.0-0.11","","","",""
"11570","","{""P0_Q0"":""ㅋ,ㅡ,ㄴ,ㅗ,ㅅ,ㅌ,ㅣ,ㄱ"",""P0_Q1"":""(가능)""}","survey","54","987083","0.0-12.0-1.11","[]","","",""
"2368","TestRecordings/nkhuchom.wav","0","audio-button-response","55","989473","0.0-12.0-0.12","","","",""
"13625","","{""P0_Q0"":""ㅇ,ㅡ,ㅁ,ㅋ,ㅜ,ㅊ,ㅗ,ㅁ"",""P0_Q1"":""(불가능)""}","survey","56","1003104","0.0-12.0-1.12","[]","","",""
"1655","TestRecordings/chumik.wav","0","audio-button-response","57","1004781","0.0-12.0-0.13","","","",""
"9334","","{""P0_Q0"":""ㅊ,ㅜ,ㅁ,ㅣ,ㄱ"",""P0_Q1"":""(가능)""}","survey","58","1014123","0.0-12.0-1.13","[]","","",""
"1791","TestRecordings/taphik.wav","0","audio-button-response","59","1015937","0.0-12.0-0.14","","","",""
"6772","","{""P0_Q0"":""ㄷ,ㅏ,ㅍ,ㅣ,ㄱ"",""P0_Q1"":""(가능)""}","survey","60","1022717","0.0-12.0-1.14","[]","","",""
"1735","TestRecordings/twan.wav","0","audio-button-response","61","1024478","0.0-12.0-0.15","","","",""
"7534","","{""P0_Q0"":""ㄷ,ㅗ,ㅏ,ㄴ"",""P0_Q1"":""(가능)""}","survey","62","1032018","0.0-12.0-1.15","[]","","",""
"1671","TestRecordings/mphutam.wav","0","audio-button-response","63","1033714","0.0-12.0-0.16","","","",""
"10821","","{""P0_Q0"":""ㅇ,ㅡ,ㅇ,ㅍ,ㅜ,ㄷ,ㅏ,ㅁ"",""P0_Q1"":""(불가능)""}","survey","64","1044542","0.0-12.0-1.16","[]","","",""
"2094","TestRecordings/knot.wav","0","audio-button-response","65","1046659","0.0-12.0-0.17","","","",""
"6481","","{""P0_Q0"":""ㅋ,ㅡ,ㄴ,ㅗ,ㅅ"",""P0_Q1"":""(불가능)""}","survey","66","1053148","0.0-12.0-1.17","[]","","",""
"1658","TestRecordings/cwam.wav","0","audio-button-response","67","1054831","0.0-12.0-0.18","","","",""
"5599","","{""P0_Q0"":""ㅊ,ㅗ,ㅏ,ㅁ"",""P0_Q1"":""(불가능)""}","survey","68","1060436","0.0-12.0-1.18","[]","","",""
"5060","TestRecordings/kmamun.wav","0","audio-button-response","69","1065519","0.0-12.0-0.19","","","",""
"7544","","{""P0_Q0"":""ㅋ,ㅡ,ㅁ,ㅏ,ㅁ,ㅜ,ㄴ"",""P0_Q1"":""(가능)""}","survey","70","1073072","0.0-12.0-1.19","[]","","",""
"1589","TestRecordings/chmop.wav","0","audio-button-response","71","1074682","0.0-12.0-0.20","","","",""
"9752","","{""P0_Q0"":""ㅊ,ㅡ,ㅁ,ㅗ,ㅅ"",""P0_Q1"":""(불가능)""}","survey","72","1084441","0.0-12.0-1.20","[]","","",""
"3603","TestRecordings/thwam.wav","0","audio-button-response","73","1088066","0.0-12.0-0.21","","","",""
"4587","","{""P0_Q0"":""ㅌ,ㅗ,ㅏ,ㅁ"",""P0_Q1"":""(가능)""}","survey","74","1092661","0.0-12.0-1.21","[]","","",""
"1393","TestRecordings/khwipot.wav","0","audio-button-response","75","1094078","0.0-12.0-0.22","","","",""
"6304","","{""P0_Q0"":""ㅋ,ㅜ,ㅣ,ㅂ,ㅗ,ㅅ"",""P0_Q1"":""(가능)""}","survey","76","1100388","0.0-12.0-1.22","[]","","",""
"1510","TestRecordings/mthik.wav","0","audio-button-response","77","1101919","0.0-12.0-0.23","","","",""
"7836","","{""P0_Q0"":""ㅇ,ㅡ,ㅁ,ㅌ,ㅣ,ㄱ"",""P0_Q1"":""(가능)""}","survey","78","1109762","0.0-12.0-1.23","[]","","",""
"1397","TestRecordings/mkit.wav","0","audio-button-response","79","1111181","0.0-12.0-0.24","","","",""
"6079","","{""P0_Q0"":""ㅇ,ㅡ,ㅁ,ㄱ,ㅣ,ㅅ"",""P0_Q1"":""(불가능)""}","survey","80","1117267","0.0-12.0-1.24","[]","","",""
"1953","TestRecordings/cwit.wav","0","audio-button-response","81","1119241","0.0-12.0-0.25","","","",""
"5619","","{""P0_Q0"":""ㅈ,ㅜ,ㅣ,ㅅ"",""P0_Q1"":""(가능)""}","survey","82","1124867","0.0-12.0-1.25","[]","","",""
"3568","TestRecordings/sikot.wav","0","audio-button-response","83","1128459","0.0-12.0-0.26","","","",""
"6642","","{""P0_Q0"":""ㅅ,ㅣ,ㄱ,ㅗ,ㅅ"",""P0_Q1"":""(가능)""}","survey","84","1135107","0.0-12.0-1.26","[]","","",""
"2522","TestRecordings/nwimik.wav","0","audio-button-response","85","1137649","0.0-12.0-0.27","","","",""
"7900","","{""P0_Q0"":""ㄴ,ㅜ,ㅣ,ㅁ,ㅣ,ㄱ"",""P0_Q1"":""(불가능)""}","survey","86","1145556","0.0-12.0-1.27","[]","","",""
"2700","TestRecordings/khnap.wav","0","audio-button-response","87","1148277","0.0-12.0-0.28","","","",""
"5491","","{""P0_Q0"":""ㅋ,ㅡ,ㄴ,ㅏ,ㅂ"",""P0_Q1"":""(가능)""}","survey","88","1153774","0.0-12.0-1.28","[]","","",""
"1443","TestRecordings/chwikhong.wav","0","audio-button-response","89","1155241","0.0-12.0-0.29","","","",""
"6226","","{""P0_Q0"":""ㅊ,ㅜ,ㅣ,ㅋ,ㅗ,ㅇ"",""P0_Q1"":""(가능)""}","survey","90","1161475","0.0-12.0-1.29","[]","","",""
"1792","TestRecordings/chnuk.wav","0","audio-button-response","91","1163290","0.0-12.0-0.30","","","",""
"6404","","{""P0_Q0"":""ㅊ,ㅡ,ㄴ,ㅜ,ㄱ"",""P0_Q1"":""(불가능)""}","survey","92","1169701","0.0-12.0-1.30","[]","","",""
"1963","TestRecordings/khwiphing.wav","0","audio-button-response","93","1171687","0.0-12.0-0.31","","","",""
"6999","","{""P0_Q0"":""ㅋ,ㅜ,ㅣ,ㅍ,ㅣ,ㅇ"",""P0_Q1"":""(가능)""}","survey","94","1178694","0.0-12.0-1.31","[]","","",""
"1551","TestRecordings/tin.wav","0","audio-button-response","95","1180268","0.0-12.0-0.32","","","",""
"5951","","{""P0_Q0"":""ㄷ,ㅣ,ㄴ"",""P0_Q1"":""(가능)""}","survey","96","1186225","0.0-12.0-1.32","[]","","",""
"1471","TestRecordings/mphosak.wav","0","audio-button-response","97","1187720","0.0-12.0-0.33","","","",""
"11200","","{""P0_Q0"":""ㅇ,ㅡ,ㅇ,ㅍ,ㅗ,ㅅ,ㅏ,ㄱ"",""P0_Q1"":""(불가능)""}","survey","98","1198928","0.0-12.0-1.33","[]","","",""
"1466","TestRecordings/twamot.wav","0","audio-button-response","99","1200418","0.0-12.0-0.34","","","",""
"10025","","{""P0_Q0"":""ㄷ,ㅗ,ㅏ,ㅁ,ㅗ,ㅅ"",""P0_Q1"":""(가능)""}","survey","100","1210450","0.0-12.0-1.34","[]","","",""
"1506","TestRecordings/cnaphin.wav","0","audio-button-response","101","1211980","0.0-12.0-0.35","","","",""
"8108","","{""P0_Q0"":""ㅊ,ㅡ,ㄴ,ㅏ,ㅍ,ㅣ,ㄴ"",""P0_Q1"":""(가능)""}","survey","102","1220096","0.0-12.0-1.35","[]","","",""
"1419","TestRecordings/nchocip.wav","0","audio-button-response","103","1221539","0.0-12.0-0.36","","","",""
"8786","","{""P0_Q0"":""ㅇ,ㅡ,ㅁ,ㅊ,ㅗ,ㅈ,ㅣ,ㅂ"",""P0_Q1"":""(가능)""}","survey","104","1230332","0.0-12.0-1.36","[]","","",""
"1677","TestRecordings/nthimong.wav","0","audio-button-response","105","1232032","0.0-12.0-0.37","","","",""
"11073","","{""P0_Q0"":""ㅇ,ㅡ,ㅇ,ㅌ,ㅣ,ㅁ,ㅗ,ㅅ"",""P0_Q1"":""(가능)""}","survey","106","1243111","0.0-12.0-1.37","[]","","",""
"1484","TestRecordings/chwiphin.wav","0","audio-button-response","107","1244618","0.0-12.0-0.38","","","",""
"7694","","{""P0_Q0"":""ㅊ,ㅜ,ㅣ,ㅍ,ㅣ,ㄴ"",""P0_Q1"":""(가능)""}","survey","108","1252318","0.0-12.0-1.38","[]","","",""
"1458","TestRecordings/chunak.wav","0","audio-button-response","109","1253798","0.0-12.0-0.39","","","",""
"6031","","{""P0_Q0"":""ㅊ,ㅜ,ㄴ,ㅏ,ㄱ"",""P0_Q1"":""(가능)""}","survey","110","1259836","0.0-12.0-1.39","[]","","",""
"1376","TestRecordings/mpukham.wav","0","audio-button-response","111","1261237","0.0-12.0-0.40","","","",""
"9927","","{""P0_Q0"":""ㅇ,ㅡ,ㅁ,ㅂ,ㅜ,ㅋ,ㅏ,ㅅ"",""P0_Q1"":""(불가능)""}","survey","112","1271170","0.0-12.0-1.40","[]","","",""
"1460","TestRecordings/mup.wav","0","audio-button-response","113","1272651","0.0-12.0-0.41","","","",""
"4941","","{""P0_Q0"":""ㅁ,ㅜ,ㅂ"",""P0_Q1"":""(가능)""}","survey","114","1277600","0.0-12.0-1.41","[]","","",""
"2705","TestRecordings/nkat.wav","0","audio-button-response","115","1280326","0.0-12.0-0.42","","","",""
"7653","","{""P0_Q0"":""ㅇ,ㅣ,ㅇ,ㄱ,ㅏ,ㅅ"",""P0_Q1"":""(불가능)""}","survey","116","1287986","0.0-12.0-1.42","[]","","",""
"1539","TestRecordings/thwikhip.wav","0","audio-button-response","117","1289559","0.0-12.0-0.43","","","",""
"11906","","{""P0_Q0"":""ㅌ,ㅜ,ㅣ,ㅋ,ㅣ,ㅂ"",""P0_Q1"":""(가능)""}","survey","118","1301472","0.0-12.0-1.43","[]","","",""
"1837","TestRecordings/twak.wav","0","audio-button-response","119","1303329","0.0-12.0-0.44","","","",""
"6574","","{""P0_Q0"":""ㄷ,ㅗ,ㅏ,ㄱ"",""P0_Q1"":""(가능)""}","survey","120","1309911","0.0-12.0-1.44","[]","","",""
"1411","TestRecordings/tmichut.wav","0","audio-button-response","121","1311343","0.0-12.0-0.45","","","",""
"7974","","{""P0_Q0"":""ㅋ,ㅡ,ㄴ,ㅣ,ㅊ,ㅜ,ㅅ"",""P0_Q1"":""(불가능)""}","survey","122","1319323","0.0-12.0-1.45","[]","","",""
"1989","TestRecordings/nthaking.wav","0","audio-button-response","123","1321336","0.0-12.0-0.46","","","",""
"10804","","{""P0_Q0"":""ㅇ,ㅡ,ㅇ,ㅌ,ㅏ,ㄱ,ㅣ,ㅅ"",""P0_Q1"":""(불가능)""}","survey","124","1332146","0.0-12.0-1.46","[]","","",""
"1172","TestRecordings/chnupot.wav","0","audio-button-response","125","1333340","0.0-12.0-0.47","","","",""
"7387","","{""P0_Q0"":""ㅊ,ㅡ,ㄴ,ㅜ,ㅂ,ㅗ,ㅅ"",""P0_Q1"":""(가능)""}","survey","126","1340736","0.0-12.0-1.47","[]","","",""
"1406","TestRecordings/mphuk.wav","0","audio-button-response","127","1342164","0.0-12.0-0.48","","","",""
"9822","","{""P0_Q0"":""ㅇ,ㅡ,ㅁ,ㅍ,ㅜ,ㄱ"",""P0_Q1"":""(가능)""}","survey","128","1351993","0.0-12.0-1.48","[]","","",""
"1149","TestRecordings/nchot.wav","0","audio-button-response","129","1353163","0.0-12.0-0.49","","","",""
"6440","","{""P0_Q0"":""ㅇ,ㅡ,ㅁ,ㅊ,ㅗ,ㅅ"",""P0_Q1"":""(불가능)""}","survey","130","1359609","0.0-12.0-1.49","[]","","",""
"1375","TestRecordings/khin.wav","0","audio-button-response","131","1361006","0.0-12.0-0.50","","","",""
"4316","","{""P0_Q0"":""ㅋ,ㅣ,ㄴ"",""P0_Q1"":""(불가능)""}","survey","132","1365330","0.0-12.0-1.50","[]","","",""
"1418","TestRecordings/swikhat.wav","0","audio-button-response","133","1366772","0.0-12.0-0.51","","","",""
"6346","","{""P0_Q0"":""ㅅ,ㅜ,ㅣ,ㅋ,ㅏ,ㅅ"",""P0_Q1"":""(가능)""}","survey","134","1373125","0.0-12.0-1.51","[]","","",""
"2597","TestRecordings/ntakhip.wav","0","audio-button-response","135","1375744","0.0-12.0-0.52","","","",""
"6330","","{""P0_Q0"":""ㅇ,ㅡ,ㅇ,ㄷ,ㅏ,ㅋ,ㅣ,ㅅ"",""P0_Q1"":""(가능)""}","survey","136","1382081","0.0-12.0-1.52","[]","","",""
"3076","TestRecordings/thnok.wav","0","audio-button-response","137","1385179","0.0-12.0-0.53","","","",""
"7145","","{""P0_Q0"":""ㅌ,ㅡ,ㄴ,ㅗ,ㅂ"",""P0_Q1"":""(가능)""}","survey","138","1392330","0.0-12.0-1.53","[]","","",""
"1499","TestRecordings/tikut.wav","0","audio-button-response","139","1393851","0.0-12.0-0.54","","","",""
"5092","","{""P0_Q0"":""ㄷ,ㅣ,ㄱ,ㅜ,ㅅ"",""P0_Q1"":""(가능)""}","survey","140","1398950","0.0-12.0-1.54","[]","","",""
"2269","TestRecordings/thinok.wav","0","audio-button-response","141","1401241","0.0-12.0-0.55","","","",""
"5219","","{""P0_Q0"":""ㅌ,ㅣ,ㄴ,ㅗ,ㄱ"",""P0_Q1"":""(가능)""}","survey","142","1406466","0.0-12.0-1.55","[]","","",""
"1225","TestRecordings/mtukin.wav","0","audio-button-response","143","1407713","0.0-12.0-0.56","","","",""
"7789","","{""P0_Q0"":""ㅇ,ㅡ,ㅇ,ㄷ,ㅜ,ㄱ,ㅣ,ㄴ"",""P0_Q1"":""(가능)""}","survey","144","1415508","0.0-12.0-1.56","[]","","",""
"1376","TestRecordings/khwichon.wav","0","audio-button-response","145","1416908","0.0-12.0-0.57","","","",""
"7955","","{""P0_Q0"":""ㅋ,ㅜ,ㅣ,ㅊ,ㅗ,ㄴ"",""P0_Q1"":""(가능)""}","survey","146","1424869","0.0-12.0-1.57","[]","","",""
"4071","TestRecordings/khithuk.wav","0","audio-button-response","147","1428964","0.0-12.0-0.58","","","",""
"5268","","{""P0_Q0"":""ㅋ,ㅣ,ㅌ,ㅜ"",""P0_Q1"":""(가능)""}","survey","148","1434240","0.0-12.0-1.58","[]","","",""
"1611","TestRecordings/khut.wav","0","audio-button-response","149","1435874","0.0-12.0-0.59","","","",""
"3824","","{""P0_Q0"":""ㅋ,ㅜ,ㅅ"",""P0_Q1"":""(가능)""}","survey","150","1439704","0.0-12.0-1.59","[]","","",""
"2503",""," ","html-keyboard-response","151","1442208","0.0-13.0","","","",""
"81400","","{""P0_Q0"":""19살"",""P0_Q1"":""남성"",""P0_Q2"":""6살"",""P0_Q3"":""없다."",""P0_Q4"":""중국어"",""P0_Q5"":""15살, 1년"",""P0_Q6"":""일본어 듣기 위주로 스스로 학습함.""}","survey","152","1523617","0.0-14.0","[]","","",""
"50522","<p style=""font-size:30px"",lang=""ko"">실험이 끝났습니다</p><p style=""font-size:30px"",lang=""ko"">참가해주셔서 고맙습니다</p>"," ","html-keyboard-response","153","1574136","0.0-15.0","","","",""
,