"rt","stimulus","response","trial_type","trial_index","time_elapsed","internal_node_id","accuracy","PracticeTest","ConsonantSequence","Grammaticality"
"948513","<p style=""font-size:30px"",lang=""ko"">실험에 오신 것을 환영합니다</p><p lang=""ko"">스페이스바를 누르면 다음 페이지로 넘어갑니다</p>"," ","html-keyboard-response","0","948514","0.0-0.0","","","",""
"1534","<p style=""font-size:30px"",lang=""ko"">해드폰을 본인에게 잘 맞게 착용하세요</p><p lang=""ko"">스페이스바를 누르면 다음 페이지로 넘어갑니다</p>"," ","html-keyboard-response","1","950049","0.0-1.0","","","",""
"4964","<p style=""font-size:30px"",lang=""ko"">이 실험에서는 새로 만든 한국 단어를 들으실 겁니다</p><p style=""font-size:30px"",lang=""ko"">단어를 들리는대로 쓰세요. 그런 다음 그 단어가 한국어 단어로 가능한지 평가하세요</p><p lang=""ko"">스페이스바를 누르면 다음 페이지로 넘어갑니다</p>"," ","html-keyboard-response","2","955014","0.0-2.0","","","",""
"1465","<p style=""font-size:30px"",lang=""ko"">원래 있는 단어로 예를 들어 봅시다</p><p lang=""ko"">스페이스바를 누르면 다음 페이지로 넘어갑니다</p>"," ","html-keyboard-response","3","956479","0.0-3.0","","","",""
"7138","PracticeRecordings/kom_bear.wav","0","audio-button-response","4","963639","0.0-4.0","","","",""
"1893","<p style=""font-size:30px"",lang=""ko"">이제 직접 단어를 듣고 쓰는 연습을 해봅시다. </p><p style=""font-size:30px"",lang=""ko"">스페이스바를 누르면 다음 페이지로 넘어갑니다</p>"," ","html-keyboard-response","5","965532","0.0-5.0","","","",""
"4164","PracticeRecordings/kirin_giraffe.wav","0","audio-button-response","6","969712","0.0-6.0-0.0","","","",""
"6433","kirin_giraffe","{""P0_Q0"":""ㄱ,ㅣ,ㄹ,ㅣ,ㄴ""}","survey","7","976171","0.0-6.0-1.0","[]","practice","NA","TRUE"
"2488","<p style=""font-size:30px"",lang=""ko"">방금 들으신 단어는 ""ㄱ,ㅣ,ㄹ,ㅣ,ㄴ"" 이라고 쓰시면 됩니다</p><p lang=""ko"">스페이스바를 누르면 다음 페이지로 넘어갑니다</p>"," ","html-keyboard-response","8","978659","0.0-6.0-2.0","","","",""
"5784","PracticeRecordings/saca_lion.wav","0","audio-button-response","9","984459","0.0-6.0-0.1","","","",""
"4759","saca_lion","{""P0_Q0"":""ㅅ,ㅏ,ㅈ,ㅏ""}","survey","10","989224","0.0-6.0-1.1","[]","practice","NA","FALSE"
"1549","<p style=""font-size:30px"",lang=""ko"">방금 들으신 단어는 ""ㅅ,ㅏ,ㅈ,ㅏ"" 라고 쓰시면 됩니다</p><p lang=""ko"">스페이스바를 누르면 다음 페이지로 넘어갑니다</p>"," ","html-keyboard-response","11","990773","0.0-6.0-2.1","","","",""
"2552","PracticeRecordings/saseum_deer.wav","0","audio-button-response","12","993341","0.0-6.0-0.2","","","",""
"5881","saseum_deer","{""P0_Q0"":""ㅅ,ㅏ,ㅅ,ㅡ,ㅁ""}","survey","13","999228","0.0-6.0-1.2","[]","practice","NA","FALSE"
"1219","<p style=""font-size:30px"",lang=""ko"">방금 들으신 단어는 ""ㅅ,ㅏ,ㅅ,ㅡ,ㅁ""이라고 쓰시면 됩니다</p><p lang=""ko"">스페이스바를 누르면 다음 페이지로 넘어갑니다</p>"," ","html-keyboard-response","14","1000447","0.0-6.0-2.2","","","",""
"2268","PracticeRecordings/thokki_rabbit.wav","0","audio-button-response","15","1002730","0.0-6.0-0.3","","","",""
"6067","thokki_rabbit","{""P0_Q0"":""ㅌ,ㅗ,ㄲ,ㅣ""}","survey","16","1008802","0.0-6.0-1.3","[]","practice","NA","FALSE"
"998","<p style=""font-size:30px"",lang=""ko"">방금 들으신 단어는 ""ㅌ,ㅗ,ㄲ,ㅣ"" 라고 쓰시면 됩니다</p><p lang=""ko"">스페이스바를 누르면 다음 페이지로 넘어갑니다</p>"," ","html-keyboard-response","17","1009801","0.0-6.0-2.3","","","",""
"1704","<p style=""font-size:30px"",lang=""ko"">이제 만든 단어로 연습해봅시다.</p><p lang=""ko"">스페이스바를 누르면 다음 페이지로 넘어갑니다</p>"," ","html-keyboard-response","18","1011505","0.0-7.0","","","",""
"7072","PracticeRecordings/snen.wav","0","audio-button-response","19","1018592","0.0-8.0-0.0","","","",""
"6445","snen","{""P0_Q0"":""ㅅ,ㅡ,ㄴ,ㅐ,ㄴ""}","survey","20","1025042","0.0-8.0-1.0","[]","practice","NA","TRUE"
"4992","<p style=""font-size:30px"",lang=""ko"">들으신 단어는 <br> ""ㅅ,ㅡ,ㄴ,ㅐ,ㄴ""  ""ㅅ,ㅡ,ㄴ,ㅐ"" ""ㅅ,ㄴ,ㅐ,ㄴ (""으"" 소리가 안 들리는 경우)"" 등 <br> 사람에 따라 다양하게 들릴 수 있습니다 <br> 본인에게 들리는대로 쓰시면 됩니다.</p><p lang=""ko"">스페이스바를 누르면 다음 페이지로 넘어갑니다</p>"," ","html-keyboard-response","21","1030034","0.0-8.0-2.0","","","",""
"8494","PracticeRecordings/phrak.wav","0","audio-button-response","22","1038543","0.0-8.0-0.1","","","",""
"6607","phrak","{""P0_Q0"":""ㅂ,ㅡ,ㄹ,ㅏ,ㄱ""}","survey","23","1045154","0.0-8.0-1.1","[]","practice","NA","FALSE"
"4222","<p style=""font-size:30px"",lang=""ko"">들으신 단어는 <br> ""ㅍ,ㅡ,ㄹ,ㅏ,ㄱ"" ""ㅍ,ㅡ,ㄹ,ㅏ,ㅅ"" ""ㅋ,ㅡ,ㄹ,ㅏ,ㄱ"" ""ㅍ,ㄹ,ㅏ,ㄱ (""으"" 소리가 안 들리는 경우)"" 등 <br> 사람에 따라 다양하게 들릴 수 있습니다 <br> 본인에게 들리는대로 쓰시면 됩니다.</p><p lang=""ko"">스페이스바를 누르면 다음 페이지로 넘어갑니다</p>"," ","html-keyboard-response","24","1049377","0.0-8.0-2.1","","","",""
"5644","PracticeRecordings/chka.wav","0","audio-button-response","25","1055035","0.0-8.0-0.2","","","",""
"5735","chka","{""P0_Q0"":""ㅊ,ㅡ,ㄱ,ㅏ""}","survey","26","1060774","0.0-8.0-1.2","[]","practice","NA","FALSE"
"3244","<p style=""font-size:30px"",lang=""ko"">들으신 단어는 ""ㅊ,ㅣ,ㄱ,ㅏ"", ""ㅊ,ㅡ,ㄱ,ㅏ"", ""ㅊ,ㄱ,ㅏ"", ""ㅊ,ㅟ,ㄱ,ㅏ"" 등 <br> 사람에 따라 다양하게 들릴 수 있습니다. <br> 본인에게 들리는대로 쓰시면 됩니다.</p><p lang=""ko"">스페이스바를 누르면 다음 페이지로 넘어갑니다</p>"," ","html-keyboard-response","27","1064019","0.0-8.0-2.2","","","",""
"2033",""," ","html-keyboard-response","28","1066052","0.0-9.0","","","",""
"3230","<p style=""font-size:30px"",lang=""ko"">이제 실험을 시작하겠습니다.</p><p style=""font-size:30px"",lang=""ko"">실전에서는 각각의 만든 단어를 한 번씩만 들을 수 있습니다.</p>"," ","html-keyboard-response","29","1069281","0.0-10.0","","","",""
"24141","<p style=""font-size:30px"",lang=""ko"">단어를 풀어 쓰신 후에 그 단어가 한국어로 가능한 단어인지 평가해주세요</p><p lang=""ko"">스페이스바를 누르면 다음 페이지로 넘어갑니다</p>"," ","html-keyboard-response","30","1093422","0.0-11.0","","","",""
"6437","TestRecordings/ntakhip.wav","0","audio-button-response","31","1099876","0.0-12.0-0.0","","","",""
"15931","","{""P0_Q0"":""ㄷ,ㅏ,ㄱ,ㅋ,ㅣ"",""P0_Q1"":""(불가능)""}","survey","32","1115817","0.0-12.0-1.0","[]","","",""
"3060","TestRecordings/twaput.wav","0","audio-button-response","33","1118941","0.0-12.0-0.1","","","",""
"15403","","{""P0_Q0"":""ㄷ,ㅗ,ㅇ,ㅏ,ㅂ,ㅜ,ㅅ"",""P0_Q1"":""(가능)""}","survey","34","1134352","0.0-12.0-1.1","[]","","",""
"3142","TestRecordings/thnok.wav","0","audio-button-response","35","1137508","0.0-12.0-0.2","","","",""
"9806","","{""P0_Q0"":""ㅌ,ㅡ,ㄴ,ㅗ,ㄱ"",""P0_Q1"":""(불가능)""}","survey","36","1147319","0.0-12.0-1.2","[]","","",""
"3339","TestRecordings/nchocip.wav","0","audio-button-response","37","1150672","0.0-12.0-0.3","","","",""
"7605","","{""P0_Q0"":""ㅊ,ㅗ,ㅈ,ㅣ,ㅂ"",""P0_Q1"":""(가능)""}","survey","38","1158282","0.0-12.0-1.3","[]","","",""
"3522","TestRecordings/knot.wav","0","audio-button-response","39","1161818","0.0-12.0-0.4","","","",""
"10603","","{""P0_Q0"":""ㄱ,ㅡ,ㄴ,ㅗ,ㄱ"",""P0_Q1"":""(불가능)""}","survey","40","1172426","0.0-12.0-1.4","[]","","",""
"3744","TestRecordings/thwam.wav","0","audio-button-response","41","1176184","0.0-12.0-0.5","","","",""
"6335","","{""P0_Q0"":""ㅌ,ㅗ,ㅏ,ㅁ"",""P0_Q1"":""(불가능)""}","survey","42","1182525","0.0-12.0-1.5","[]","","",""
"4273","TestRecordings/taphik.wav","0","audio-button-response","43","1186811","0.0-12.0-0.6","","","",""
"6091","","{""P0_Q0"":""ㄷ,ㅏ,ㅍ,ㅣ,ㄱ"",""P0_Q1"":""(가능)""}","survey","44","1192905","0.0-12.0-1.6","[]","","",""
"5178","TestRecordings/mphutam.wav","0","audio-button-response","45","1198101","0.0-12.0-0.7","","","",""
"9380","","{""P0_Q0"":""ㄴ,ㅡ,ㅁ,ㅍ,ㅡ,ㄷ,ㅏ,ㅁ"",""P0_Q1"":""(불가능)""}","survey","46","1207486","0.0-12.0-1.7","[]","","",""
"2101","TestRecordings/mtukin.wav","0","audio-button-response","47","1209601","0.0-12.0-0.8","","","",""
"11517","","{""P0_Q0"":""ㄷ,ㅜ,ㄱ,ㅣ,ㄴ"",""P0_Q1"":""(가능)""}","survey","48","1221124","0.0-12.0-1.8","[]","","",""
"1997","TestRecordings/thwikhip.wav","0","audio-button-response","49","1223134","0.0-12.0-0.9","","","",""
"6674","","{""P0_Q0"":""ㅌ,ㅜ,ㅣ,ㅋ,ㅣ,ㅂ"",""P0_Q1"":""(불가능)""}","survey","50","1229813","0.0-12.0-1.9","[]","","",""
"3960","TestRecordings/mkit.wav","0","audio-button-response","51","1233786","0.0-12.0-0.10","","","",""
"7939","","{""P0_Q0"":""ㅇ,ㅡ,ㄱ,ㅣ,ㅅ"",""P0_Q1"":""(가능)""}","survey","52","1241730","0.0-12.0-1.10","[]","","",""
"1892","TestRecordings/chumik.wav","0","audio-button-response","53","1243635","0.0-12.0-0.11","","","",""
"5799","","{""P0_Q0"":""ㅊ,ㅜ,ㅁ,ㅣ,ㄱ"",""P0_Q1"":""(가능)""}","survey","54","1249440","0.0-12.0-1.11","[]","","",""
"2642","TestRecordings/khut.wav","0","audio-button-response","55","1252095","0.0-12.0-0.12","","","",""
"4584","","{""P0_Q0"":""ㅋ,ㅜ,ㅅ"",""P0_Q1"":""(불가능)""}","survey","56","1256683","0.0-12.0-1.12","[]","","",""
"1928","TestRecordings/kmamun.wav","0","audio-button-response","57","1258626","0.0-12.0-0.13","","","",""
"9047","","{""P0_Q0"":""ㄱ,ㅡ,ㅁ,ㅏ,ㅁ,ㅜ,ㄴ"",""P0_Q1"":""(가능)""}","survey","58","1267677","0.0-12.0-1.13","[]","","",""
"1740","TestRecordings/khnap.wav","0","audio-button-response","59","1269431","0.0-12.0-0.14","","","",""
"5112","","{""P0_Q0"":""ㅋ,ㅡ,ㄴ,ㅏ,ㅂ"",""P0_Q1"":""(가능)""}","survey","60","1274547","0.0-12.0-1.14","[]","","",""
"2762","TestRecordings/nchot.wav","0","audio-button-response","61","1277322","0.0-12.0-0.15","","","",""
"4980","","{""P0_Q0"":""ㄴ,ㅡ,ㅊ,ㅗ,ㅅ"",""P0_Q1"":""(불가능)""}","survey","62","1282307","0.0-12.0-1.15","[]","","",""
"2973","TestRecordings/mpukham.wav","0","audio-button-response","63","1285294","0.0-12.0-0.16","","","",""
"5557","","{""P0_Q0"":""ㅂ,ㅜ,ㄱ,ㅎ,ㅏ,ㅁ"",""P0_Q1"":""(가능)""}","survey","64","1290855","0.0-12.0-1.16","[]","","",""
"2434","TestRecordings/mphosak.wav","0","audio-button-response","65","1293304","0.0-12.0-0.17","","","",""
"4840","","{""P0_Q0"":""ㅍ,ㅗ,ㅅ,ㅏ,ㄱ"",""P0_Q1"":""(가능)""}","survey","66","1298149","0.0-12.0-1.17","[]","","",""
"1879","TestRecordings/thinok.wav","0","audio-button-response","67","1300042","0.0-12.0-0.18","","","",""
"5154","","{""P0_Q0"":""ㅌ,ㅣ,ㄴ,ㅗ,ㄱ"",""P0_Q1"":""(불가능)""}","survey","68","1305200","0.0-12.0-1.18","[]","","",""
"3377","TestRecordings/nkhuchom.wav","0","audio-button-response","69","1308591","0.0-12.0-0.19","","","",""
"5812","","{""P0_Q0"":""ㅋ,ㅡ,ㅊ,ㅛ,ㅁ"",""P0_Q1"":""(불가능)""}","survey","70","1314408","0.0-12.0-1.19","[]","","",""
"1546","TestRecordings/sikot.wav","0","audio-button-response","71","1315967","0.0-12.0-0.20","","","",""
"6416","","{""P0_Q0"":""ㅅ,ㅣ,ㄱ,ㅗ,ㅅ"",""P0_Q1"":""(가능)""}","survey","72","1322387","0.0-12.0-1.20","[]","","",""
"2607","TestRecordings/nthaking.wav","0","audio-button-response","73","1325008","0.0-12.0-0.21","","","",""
"5819","","{""P0_Q0"":""ㅌ,ㅏ,ㄱ,ㅣ,ㅇ"",""P0_Q1"":""(가능)""}","survey","74","1330831","0.0-12.0-1.21","[]","","",""
"1822","TestRecordings/swikhat.wav","0","audio-button-response","75","1332668","0.0-12.0-0.22","","","",""
"6333","","{""P0_Q0"":""ㅅ,ㅜ,ㅣ,ㄱ,ㅏ,ㅅ"",""P0_Q1"":""(가능)""}","survey","76","1339005","0.0-12.0-1.22","[]","","",""
"1739","TestRecordings/chakot.wav","0","audio-button-response","77","1340759","0.0-12.0-0.23","","","",""
"5618","","{""P0_Q0"":""ㅊ,ㅏ,ㄱ,ㅗ,ㅅ"",""P0_Q1"":""(가능)""}","survey","78","1346381","0.0-12.0-1.23","[]","","",""
"1482","TestRecordings/khwipot.wav","0","audio-button-response","79","1347877","0.0-12.0-0.24","","","",""
"6257","","{""P0_Q0"":""ㅋ,ㅜ,ㅣ,ㅂ,ㅗ,ㅅ"",""P0_Q1"":""(가능)""}","survey","80","1354139","0.0-12.0-1.24","[]","","",""
"1413","TestRecordings/twamot.wav","0","audio-button-response","81","1355567","0.0-12.0-0.25","","","",""
"6867","","{""P0_Q0"":""ㄷ,ㅗ,ㅏ,ㅁ,ㅗ,ㅅ"",""P0_Q1"":""(가능)""}","survey","82","1362438","0.0-12.0-1.25","[]","","",""
"1414","TestRecordings/tin.wav","0","audio-button-response","83","1363865","0.0-12.0-0.26","","","",""
"4195","","{""P0_Q0"":""ㄷ,ㅣ,ㄴ"",""P0_Q1"":""(가능)""}","survey","84","1368066","0.0-12.0-1.26","[]","","",""
"1691","TestRecordings/chnupot.wav","0","audio-button-response","85","1369771","0.0-12.0-0.27","","","",""
"15391","","{""P0_Q0"":""ㅊ,ㅡ,ㄴ,ㅜ,ㅂ,ㅗ,ㅅ"",""P0_Q1"":""(가능)""}","survey","86","1385167","0.0-12.0-1.27","[]","","",""
"1968","TestRecordings/khin.wav","0","audio-button-response","87","1387149","0.0-12.0-0.28","","","",""
"4278","","{""P0_Q0"":""ㅋ,ㅣ,ㄴ"",""P0_Q1"":""(가능)""}","survey","88","1391432","0.0-12.0-1.28","[]","","",""
"1816","TestRecordings/khnothik.wav","0","audio-button-response","89","1393262","0.0-12.0-0.29","","","",""
"10608","","{""P0_Q0"":""ㅋ,ㅡ,ㄴ,ㅗ,ㅅ,ㅌ,ㅣ,ㄱ"",""P0_Q1"":""(불가능)""}","survey","90","1403873","0.0-12.0-1.29","[]","","",""
"2191","TestRecordings/chmop.wav","0","audio-button-response","91","1406077","0.0-12.0-0.30","","","",""
"6652","","{""P0_Q0"":""ㅊ,ㅡ,ㅁ,ㅗ,ㄱ"",""P0_Q1"":""(가능)""}","survey","92","1412734","0.0-12.0-1.30","[]","","",""
"2586","TestRecordings/thukhat.wav","0","audio-button-response","93","1415334","0.0-12.0-0.31","","","",""
"5993","","{""P0_Q0"":""ㅌ,ㅜ,ㅋ,ㅏ,ㅅ"",""P0_Q1"":""(불가능)""}","survey","94","1421331","0.0-12.0-1.31","[]","","",""
"1384","TestRecordings/nakhit.wav","0","audio-button-response","95","1422730","0.0-12.0-0.32","","","",""
"7035","","{""P0_Q0"":""ㄴ,ㅏ,ㄱ,ㅋ,ㅣ,ㅅ"",""P0_Q1"":""(가능)""}","survey","96","1429769","0.0-12.0-1.32","[]","","",""
"1879","TestRecordings/tup.wav","0","audio-button-response","97","1431661","0.0-12.0-0.33","","","",""
"4272","","{""P0_Q0"":""ㄷ,ㅜ,ㅂ"",""P0_Q1"":""(가능)""}","survey","98","1435938","0.0-12.0-1.33","[]","","",""
"1809","TestRecordings/tnunong.wav","0","audio-button-response","99","1437761","0.0-12.0-0.34","","","",""
"8999","","{""P0_Q0"":""ㄷ,ㅡ,ㄴ,ㅜ,ㄴ,ㅗ,ㅇ"",""P0_Q1"":""(가능)""}","survey","100","1446764","0.0-12.0-1.34","[]","","",""
"1906","TestRecordings/khwiphing.wav","0","audio-button-response","101","1448684","0.0-12.0-0.35","","","",""
"9191","","{""P0_Q0"":""ㅋ,ㅜ,ㅣ,ㅍ,ㅣ,ㅇ"",""P0_Q1"":""(불가능)""}","survey","102","1457880","0.0-12.0-1.35","[]","","",""
"2455","TestRecordings/phnokhing.wav","0","audio-button-response","103","1460349","0.0-12.0-0.36","","","",""
"8859","","{""P0_Q0"":""ㅍ,ㅡ,ㄴ,ㅗ,ㅋ,ㅣ,ㅇ"",""P0_Q1"":""(불가능)""}","survey","104","1469211","0.0-12.0-1.36","[]","","",""
"1774","TestRecordings/tikut.wav","0","audio-button-response","105","1470999","0.0-12.0-0.37","","","",""
"6868","","{""P0_Q0"":""ㄷ,ㅜ,ㅣ,ㄱ,ㅜ,ㅅ"",""P0_Q1"":""(가능)""}","survey","106","1477870","0.0-12.0-1.37","[]","","",""
"2065","TestRecordings/twan.wav","0","audio-button-response","107","1479950","0.0-12.0-0.38","","","",""
"8033","","{""P0_Q0"":""ㄷ,ㅗ,ㅇ,ㅏ,ㄴ"",""P0_Q1"":""(가능)""}","survey","108","1487987","0.0-12.0-1.38","[]","","",""
"2850","TestRecordings/npucap.wav","0","audio-button-response","109","1490852","0.0-12.0-0.39","","","",""
"6644","","{""P0_Q0"":""ㅍ,ㅜ,ㅈ,ㅏ,ㅂ"",""P0_Q1"":""(불가능)""}","survey","110","1497501","0.0-12.0-1.39","[]","","",""
"1192","TestRecordings/mup.wav","0","audio-button-response","111","1498707","0.0-12.0-0.40","","","",""
"5542","","{""P0_Q0"":""ㅁ,ㅜ,ㅂ,ㅡ"",""P0_Q1"":""(가능)""}","survey","112","1504253","0.0-12.0-1.40","[]","","",""
"1288","TestRecordings/cwam.wav","0","audio-button-response","113","1505556","0.0-12.0-0.41","","","",""
"5778","","{""P0_Q0"":""ㅈ,ㅗ,ㅏ,ㅁ"",""P0_Q1"":""(가능)""}","survey","114","1511339","0.0-12.0-1.41","[]","","",""
"1878","TestRecordings/chwiphin.wav","0","audio-button-response","115","1513231","0.0-12.0-0.42","","","",""
"6653","","{""P0_Q0"":""ㅊ,ㅜ,ㅣ,ㅍ,ㅣ,ㄴ"",""P0_Q1"":""(불가능)""}","survey","116","1519888","0.0-12.0-1.42","[]","","",""
"1596","TestRecordings/cnaphin.wav","0","audio-button-response","117","1521503","0.0-12.0-0.43","","","",""
"7534","","{""P0_Q0"":""ㅊ,ㅡ,ㄴ,ㅏ,ㅍ,ㅣ,ㄴ"",""P0_Q1"":""(불가능)""}","survey","118","1529042","0.0-12.0-1.43","[]","","",""
"2809","TestRecordings/tmichut.wav","0","audio-button-response","119","1531865","0.0-12.0-0.44","","","",""
"8922","","{""P0_Q0"":""ㅊ,ㅡ,ㅁ,ㅣ,ㅊ,ㅠ,ㅅ"",""P0_Q1"":""(불가능)""}","survey","120","1540792","0.0-12.0-1.44","[]","","",""
"1391","TestRecordings/phmiman.wav","0","audio-button-response","121","1542197","0.0-12.0-0.45","","","",""
"8505","","{""P0_Q0"":""ㅍ,ㅡ,ㅁ,ㅣ,ㅁ,ㅏ,ㄴ"",""P0_Q1"":""(가능)""}","survey","122","1550705","0.0-12.0-1.45","[]","","",""
"1627","TestRecordings/cmoman.wav","0","audio-button-response","123","1552348","0.0-12.0-0.46","","","",""
"7533","","{""P0_Q0"":""ㅊ,ㅡ,ㅁ,ㅗ,ㅁ,ㅏ,ㄴ"",""P0_Q1"":""(불가능)""}","survey","124","1559885","0.0-12.0-1.46","[]","","",""
"2058","TestRecordings/twak.wav","0","audio-button-response","125","1561958","0.0-12.0-0.47","","","",""
"6007","","{""P0_Q0"":""ㄷ,ㅗ,ㅏ,ㄱ"",""P0_Q1"":""(가능)""}","survey","126","1567969","0.0-12.0-1.47","[]","","",""
"1447","TestRecordings/khwichon.wav","0","audio-button-response","127","1569431","0.0-12.0-0.48","","","",""
"5980","","{""P0_Q0"":""ㅋ,ㅜ,ㅣ,ㅊ,ㅗ,ㄴ"",""P0_Q1"":""(가능)""}","survey","128","1575415","0.0-12.0-1.48","[]","","",""
"2134","TestRecordings/pmochun.wav","0","audio-button-response","129","1577563","0.0-12.0-0.49","","","",""
"5167","","{""P0_Q0"":""ㅁ,ㅜ,ㅊ,ㅜ,ㄴ"",""P0_Q1"":""(가능)""}","survey","130","1582734","0.0-12.0-1.49","[]","","",""
"1427","TestRecordings/chwikhong.wav","0","audio-button-response","131","1584176","0.0-12.0-0.50","","","",""
"6494","","{""P0_Q0"":""ㅊ,ㅜ,ㅣ,ㅋ,ㅗ,ㅇ"",""P0_Q1"":""(가능)""}","survey","132","1590674","0.0-12.0-1.50","[]","","",""
"2133","TestRecordings/nthimong.wav","0","audio-button-response","133","1592822","0.0-12.0-0.51","","","",""
"7042","","{""P0_Q0"":""ㅌ,ㅣ,ㅁ,ㅗ,ㅇ"",""P0_Q1"":""(가능)""}","survey","134","1599868","0.0-12.0-1.51","[]","","",""
"2244","TestRecordings/khithuk.wav","0","audio-button-response","135","1602128","0.0-12.0-0.52","","","",""
"5800","","{""P0_Q0"":""ㅋ,ㅣ,ㅌ,ㅜ,ㄱ"",""P0_Q1"":""(불가능)""}","survey","136","1607931","0.0-12.0-1.52","[]","","",""
"1385","TestRecordings/nkat.wav","0","audio-button-response","137","1609331","0.0-12.0-0.53","","","",""
"9261","","{""P0_Q0"":""ㅇ,ㅡ,ㅇ,ㄱ,ㅏ,ㅅ"",""P0_Q1"":""(불가능)""}","survey","138","1618597","0.0-12.0-1.53","[]","","",""
"1150","TestRecordings/mthik.wav","0","audio-button-response","139","1619762","0.0-12.0-0.54","","","",""
"7569","","{""P0_Q0"":""ㅇ,ㅡ,ㅌ,ㅣ,ㄱ"",""P0_Q1"":""(불가능)""}","survey","140","1627334","0.0-12.0-1.54","[]","","",""
"1198","TestRecordings/nwimik.wav","0","audio-button-response","141","1628547","0.0-12.0-0.55","","","",""
"6409","","{""P0_Q0"":""ㄴ,ㅜ,ㅣ,ㅁ,ㅣ,ㄱ"",""P0_Q1"":""(가능)""}","survey","142","1634961","0.0-12.0-1.55","[]","","",""
"1246","TestRecordings/chunak.wav","0","audio-button-response","143","1636221","0.0-12.0-0.56","","","",""
"5091","","{""P0_Q0"":""ㅊ,ㅜ,ㄴ,ㅏ,ㄱ"",""P0_Q1"":""(가능)""}","survey","144","1641316","0.0-12.0-1.56","[]","","",""
"1518","TestRecordings/cwit.wav","0","audio-button-response","145","1642848","0.0-12.0-0.57","","","",""
"5402","","{""P0_Q0"":""ㅈ,ㅜ,ㅇ,ㅣ,ㅅ"",""P0_Q1"":""(가능)""}","survey","146","1648255","0.0-12.0-1.57","[]","","",""
"1233","TestRecordings/chnuk.wav","0","audio-button-response","147","1649503","0.0-12.0-0.58","","","",""
"6520","","{""P0_Q0"":""ㅊ,ㅡ,ㄴ,ㅜ"",""P0_Q1"":""(불가능)""}","survey","148","1656027","0.0-12.0-1.58","[]","","",""
"1320","TestRecordings/mphuk.wav","0","audio-button-response","149","1657365","0.0-12.0-0.59","","","",""
"5964","","{""P0_Q0"":""ㅇ,ㅡ,ㅍ,ㅜ,ㄱ"",""P0_Q1"":""(불가능)""}","survey","150","1663334","0.0-12.0-1.59","[]","","",""
"4138",""," ","html-keyboard-response","151","1667472","0.0-13.0","","","",""
"32975","","{""P0_Q0"":""23"",""P0_Q1"":""남"",""P0_Q2"":""12"",""P0_Q3"":""없습니다"",""P0_Q4"":""중국어"",""P0_Q5"":""15살에 1년 배웠습니다"",""P0_Q6"":""없습니다""}","survey","152","1700453","0.0-14.0","[]","","",""
"61888","<p style=""font-size:30px"",lang=""ko"">실험이 끝났습니다</p><p style=""font-size:30px"",lang=""ko"">참가해주셔서 고맙습니다</p>"," ","html-keyboard-response","153","1762341","0.0-15.0","","","",""
,