"rt","stimulus","response","trial_type","trial_index","time_elapsed","internal_node_id","accuracy","PracticeTest","ConsonantSequence","Grammaticality"
"527650","<p style=""font-size:30px"",lang=""ko"">실험에 오신 것을 환영합니다</p><p lang=""ko"">스페이스바를 누르면 다음 페이지로 넘어갑니다</p>"," ","html-keyboard-response","0","528724","0.0-0.0","","","",""
"1154","<p style=""font-size:30px"",lang=""ko"">해드폰을 본인에게 잘 맞게 착용하세요</p><p lang=""ko"">스페이스바를 누르면 다음 페이지로 넘어갑니다</p>"," ","html-keyboard-response","1","529878","0.0-1.0","","","",""
"2987","<p style=""font-size:30px"",lang=""ko"">이 실험에서는 새로 만든 한국 단어를 들으실 겁니다</p><p style=""font-size:30px"",lang=""ko"">단어를 들리는대로 쓰세요. 그런 다음 그 단어가 한국어 단어로 가능한지 평가하세요</p><p lang=""ko"">스페이스바를 누르면 다음 페이지로 넘어갑니다</p>"," ","html-keyboard-response","2","532865","0.0-2.0","","","",""
"1535","<p style=""font-size:30px"",lang=""ko"">원래 있는 단어로 예를 들어 봅시다</p><p lang=""ko"">스페이스바를 누르면 다음 페이지로 넘어갑니다</p>"," ","html-keyboard-response","3","534401","0.0-3.0","","","",""
"15685","PracticeRecordings/kom_bear.wav","0","audio-button-response","4","550217","0.0-4.0","","","",""
"1346","<p style=""font-size:30px"",lang=""ko"">이제 직접 단어를 듣고 쓰는 연습을 해봅시다. </p><p style=""font-size:30px"",lang=""ko"">스페이스바를 누르면 다음 페이지로 넘어갑니다</p>"," ","html-keyboard-response","5","551564","0.0-5.0","","","",""
"4155","PracticeRecordings/kirin_giraffe.wav","0","audio-button-response","6","555752","0.0-6.0-0.0","","","",""
"5917","kirin_giraffe","{""P0_Q0"":""ㄱ,ㅣ,ㄹ,ㅣ,ㄴ""}","survey","7","561714","0.0-6.0-1.0","[]","practice","NA","TRUE"
"2275","<p style=""font-size:30px"",lang=""ko"">방금 들으신 단어는 ""ㄱ,ㅣ,ㄹ,ㅣ,ㄴ"" 이라고 쓰시면 됩니다</p><p lang=""ko"">스페이스바를 누르면 다음 페이지로 넘어갑니다</p>"," ","html-keyboard-response","8","563990","0.0-6.0-2.0","","","",""
"2598","PracticeRecordings/saca_lion.wav","0","audio-button-response","9","566677","0.0-6.0-0.1","","","",""
"7546","saca_lion","{""P0_Q0"":""ㅅ,ㅏ,ㅈ,ㅏ""}","survey","10","574231","0.0-6.0-1.1","[]","practice","NA","FALSE"
"1223","<p style=""font-size:30px"",lang=""ko"">방금 들으신 단어는 ""ㅅ,ㅏ,ㅈ,ㅏ"" 라고 쓰시면 됩니다</p><p lang=""ko"">스페이스바를 누르면 다음 페이지로 넘어갑니다</p>"," ","html-keyboard-response","11","575454","0.0-6.0-2.1","","","",""
"2332","PracticeRecordings/saseum_deer.wav","0","audio-button-response","12","577810","0.0-6.0-0.2","","","",""
"6223","saseum_deer","{""P0_Q0"":""ㅅ,ㅏ,ㅅ,ㅡ,ㅁ""}","survey","13","584041","0.0-6.0-1.2","[]","practice","NA","FALSE"
"1029","<p style=""font-size:30px"",lang=""ko"">방금 들으신 단어는 ""ㅅ,ㅏ,ㅅ,ㅡ,ㅁ""이라고 쓰시면 됩니다</p><p lang=""ko"">스페이스바를 누르면 다음 페이지로 넘어갑니다</p>"," ","html-keyboard-response","14","585071","0.0-6.0-2.2","","","",""
"1781","PracticeRecordings/thokki_rabbit.wav","0","audio-button-response","15","586937","0.0-6.0-0.3","","","",""
"4753","thokki_rabbit","{""P0_Q0"":""ㅌ,ㅗ,ㄲ,ㅣ""}","survey","16","591699","0.0-6.0-1.3","[]","practice","NA","FALSE"
"874","<p style=""font-size:30px"",lang=""ko"">방금 들으신 단어는 ""ㅌ,ㅗ,ㄲ,ㅣ"" 라고 쓰시면 됩니다</p><p lang=""ko"">스페이스바를 누르면 다음 페이지로 넘어갑니다</p>"," ","html-keyboard-response","17","592573","0.0-6.0-2.3","","","",""
"1317","<p style=""font-size:30px"",lang=""ko"">이제 만든 단어로 연습해봅시다.</p><p lang=""ko"">스페이스바를 누르면 다음 페이지로 넘어갑니다</p>"," ","html-keyboard-response","18","593891","0.0-7.0","","","",""
"3844","PracticeRecordings/snen.wav","0","audio-button-response","19","597811","0.0-8.0-0.0","","","",""
"6824","snen","{""P0_Q0"":""ㅅ,ㅡ,ㄴ,ㅐ,ㅁ""}","survey","20","604645","0.0-8.0-1.0","[]","practice","NA","TRUE"
"4810","<p style=""font-size:30px"",lang=""ko"">들으신 단어는 <br> ""ㅅ,ㅡ,ㄴ,ㅐ,ㄴ""  ""ㅅ,ㅡ,ㄴ,ㅐ"" ""ㅅ,ㄴ,ㅐ,ㄴ (""으"" 소리가 안 들리는 경우)"" 등 <br> 사람에 따라 다양하게 들릴 수 있습니다 <br> 본인에게 들리는대로 쓰시면 됩니다.</p><p lang=""ko"">스페이스바를 누르면 다음 페이지로 넘어갑니다</p>"," ","html-keyboard-response","21","609455","0.0-8.0-2.0","","","",""
"2570","PracticeRecordings/phrak.wav","0","audio-button-response","22","612109","0.0-8.0-0.1","","","",""
"5289","phrak","{""P0_Q0"":""ㅍ,ㅡ,ㄹ,ㅏ,ㄱ""}","survey","23","617405","0.0-8.0-1.1","[]","practice","NA","FALSE"
"2000","<p style=""font-size:30px"",lang=""ko"">들으신 단어는 <br> ""ㅍ,ㅡ,ㄹ,ㅏ,ㄱ"" ""ㅍ,ㅡ,ㄹ,ㅏ,ㅅ"" ""ㅋ,ㅡ,ㄹ,ㅏ,ㄱ"" ""ㅍ,ㄹ,ㅏ,ㄱ (""으"" 소리가 안 들리는 경우)"" 등 <br> 사람에 따라 다양하게 들릴 수 있습니다 <br> 본인에게 들리는대로 쓰시면 됩니다.</p><p lang=""ko"">스페이스바를 누르면 다음 페이지로 넘어갑니다</p>"," ","html-keyboard-response","24","619405","0.0-8.0-2.1","","","",""
"1999","PracticeRecordings/chka.wav","0","audio-button-response","25","621491","0.0-8.0-0.2","","","",""
"3655","chka","{""P0_Q0"":""ㅊ,ㅡ,ㄱ,ㅏ""}","survey","26","625152","0.0-8.0-1.2","[]","practice","NA","FALSE"
"1810","<p style=""font-size:30px"",lang=""ko"">들으신 단어는 ""ㅊ,ㅣ,ㄱ,ㅏ"", ""ㅊ,ㅡ,ㄱ,ㅏ"", ""ㅊ,ㄱ,ㅏ"", ""ㅊ,ㅟ,ㄱ,ㅏ"" 등 <br> 사람에 따라 다양하게 들릴 수 있습니다. <br> 본인에게 들리는대로 쓰시면 됩니다.</p><p lang=""ko"">스페이스바를 누르면 다음 페이지로 넘어갑니다</p>"," ","html-keyboard-response","27","626962","0.0-8.0-2.2","","","",""
"2157",""," ","html-keyboard-response","28","629120","0.0-9.0","","","",""
"1983","<p style=""font-size:30px"",lang=""ko"">이제 실험을 시작하겠습니다.</p><p style=""font-size:30px"",lang=""ko"">실전에서는 각각의 만든 단어를 한 번씩만 들을 수 있습니다.</p>"," ","html-keyboard-response","29","631104","0.0-10.0","","","",""
"20969","<p style=""font-size:30px"",lang=""ko"">단어를 풀어 쓰신 후에 그 단어가 한국어로 가능한 단어인지 평가해주세요</p><p lang=""ko"">스페이스바를 누르면 다음 페이지로 넘어갑니다</p>"," ","html-keyboard-response","30","652074","0.0-11.0","","","",""
"4012","TestRecordings/tmichut.wav","0","audio-button-response","31","656174","0.0-12.0-0.0","","","",""
"9646","","{""P0_Q0"":""ㅁ,ㅣ,ㅅ,ㅊ,ㅜ"",""P0_Q1"":""(불가능)""}","survey","32","665835","0.0-12.0-1.0","[]","","",""
"3462","TestRecordings/nwimik.wav","0","audio-button-response","33","669320","0.0-12.0-0.1","","","",""
"12054","","{""P0_Q0"":""ㄴ,ㅜ,ㅣ,ㅁ,ㅣ,ㄱ"",""P0_Q1"":""(가능)""}","survey","34","681384","0.0-12.0-1.1","[]","","",""
"2015","TestRecordings/khin.wav","0","audio-button-response","35","683484","0.0-12.0-0.2","","","",""
"6251","","{""P0_Q0"":""ㅋ,ㅣ,ㄴ"",""P0_Q1"":""(가능)""}","survey","36","689744","0.0-12.0-1.2","[]","","",""
"2721","TestRecordings/twamot.wav","0","audio-button-response","37","692550","0.0-12.0-0.3","","","",""
"6936","","{""P0_Q0"":""ㄷ,ㅜ,ㅇ,ㅏ,ㅁ,ㅗ,ㅅ"",""P0_Q1"":""(불가능)""}","survey","38","699494","0.0-12.0-1.3","[]","","",""
"2910","TestRecordings/nakhit.wav","0","audio-button-response","39","702488","0.0-12.0-0.4","","","",""
"5674","","{""P0_Q0"":""ㄴ,ㅏ,ㅋ,ㅣ,ㅅ"",""P0_Q1"":""(가능)""}","survey","40","708171","0.0-12.0-1.4","[]","","",""
"3186","TestRecordings/sikot.wav","0","audio-button-response","41","711443","0.0-12.0-0.5","","","",""
"5257","","{""P0_Q0"":""ㅅ,ㅣ,ㄱ,ㅗ,ㅅ"",""P0_Q1"":""(가능)""}","survey","42","716708","0.0-12.0-1.5","[]","","",""
"1907","TestRecordings/mphuk.wav","0","audio-button-response","43","718700","0.0-12.0-0.6","","","",""
"8345","","{""P0_Q0"":""ㅇ,ㅡ,ㅁ,ㅍ,ㅜ,ㄱ"",""P0_Q1"":""(불가능)""}","survey","44","727052","0.0-12.0-1.6","[]","","",""
"2804","TestRecordings/cwit.wav","0","audio-button-response","45","729940","0.0-12.0-0.7","","","",""
"5883","","{""P0_Q0"":""ㅈ,ㅜ,ㅣ,ㄱ"",""P0_Q1"":""(가능)""}","survey","46","735829","0.0-12.0-1.7","[]","","",""
"1763","TestRecordings/ntakhip.wav","0","audio-button-response","47","737677","0.0-12.0-0.8","","","",""
"8326","","{""P0_Q0"":""ㅇ,ㅡㄴ,ㄷ,ㅏ,ㅋ,ㅣ,ㅂ"",""P0_Q1"":""(불가능)""}","survey","48","746011","0.0-12.0-1.8","[]","","",""
"1837","TestRecordings/chnupot.wav","0","audio-button-response","49","747871","0.0-12.0-0.9","","","",""
"9062","","{""P0_Q0"":""ㅊ,ㅡ,ㄴ,ㅜ,ㅂ,ㅗ,ㅅ"",""P0_Q1"":""(불가능)""}","survey","50","756941","0.0-12.0-1.9","[]","","",""
"2077","TestRecordings/mkit.wav","0","audio-button-response","51","759103","0.0-12.0-0.10","","","",""
"8865","","{""P0_Q0"":""ㅇ,ㅡ,ㅁ,ㄱ,ㅣ,ㅅ"",""P0_Q1"":""(가능)""}","survey","52","767975","0.0-12.0-1.10","[]","","",""
"1696","TestRecordings/nkat.wav","0","audio-button-response","53","769752","0.0-12.0-0.11","","","",""
"8084","","{""P0_Q0"":""ㅇ,ㅡ,ㄴ,ㄱ,ㅏ,ㅅ"",""P0_Q1"":""(불가능)""}","survey","54","777843","0.0-12.0-1.11","[]","","",""
"2138","TestRecordings/thwam.wav","0","audio-button-response","55","780067","0.0-12.0-0.12","","","",""
"5153","","{""P0_Q0"":""ㅌ,ㅗ,ㅏ,ㅁ"",""P0_Q1"":""(불가능)""}","survey","56","785228","0.0-12.0-1.12","[]","","",""
"1885","TestRecordings/chnuk.wav","0","audio-button-response","57","787137","0.0-12.0-0.13","","","",""
"4331","","{""P0_Q0"":""ㅊ,ㅡ,ㄴ,ㅜ"",""P0_Q1"":""(가능)""}","survey","58","791475","0.0-12.0-1.13","[]","","",""
"1687","TestRecordings/mtukin.wav","0","audio-button-response","59","793247","0.0-12.0-0.14","","","",""
"11060","","{""P0_Q0"":""ㅇ,ㅡ,ㄴ,ㄷ,ㅜ,ㄱ,ㅣ,ㅇ,ㅣ,ㄴ"",""P0_Q1"":""(가능)""}","survey","60","804314","0.0-12.0-1.14","[]","","",""
"1733","TestRecordings/taphik.wav","0","audio-button-response","61","806134","0.0-12.0-0.15","","","",""
"6381","","{""P0_Q0"":""ㄷ,ㅏ,ㅍ,ㅣ,ㄱ"",""P0_Q1"":""(가능)""}","survey","62","812525","0.0-12.0-1.15","[]","","",""
"1767","TestRecordings/thwikhip.wav","0","audio-button-response","63","814354","0.0-12.0-0.16","","","",""
"6454","","{""P0_Q0"":""ㅌ,ㅜ,ㅣ,ㅋ,ㅣ,ㅂ"",""P0_Q1"":""(가능)""}","survey","64","820816","0.0-12.0-1.16","[]","","",""
"1989","TestRecordings/chwikhong.wav","0","audio-button-response","65","822892","0.0-12.0-0.17","","","",""
"5673","","{""P0_Q0"":""ㅊ,ㅜ,ㅣ,ㅋ,ㅗ,ㅇ"",""P0_Q1"":""(가능)""}","survey","66","828572","0.0-12.0-1.17","[]","","",""
"2811","TestRecordings/chmop.wav","0","audio-button-response","67","831470","0.0-12.0-0.18","","","",""
"8868","","{""P0_Q0"":""ㅊ,ㅡ,ㅁ,ㅗ,ㄱ"",""P0_Q1"":""(불가능)""}","survey","68","840345","0.0-12.0-1.18","[]","","",""
"2145","TestRecordings/khwipot.wav","0","audio-button-response","69","842575","0.0-12.0-0.19","","","",""
"5503","","{""P0_Q0"":""ㅋ,ㅜ,ㅣ,ㅂ,ㅗ,ㅅ"",""P0_Q1"":""(가능)""}","survey","70","848087","0.0-12.0-1.19","[]","","",""
"3946","TestRecordings/khwiphing.wav","0","audio-button-response","71","852129","0.0-12.0-0.20","","","",""
"6740","","{""P0_Q0"":""ㅋ,ㅜ,ㅣ,ㅍ,ㅣ,ㅇ"",""P0_Q1"":""(불가능)""}","survey","72","858876","0.0-12.0-1.20","[]","","",""
"1753","TestRecordings/swikhat.wav","0","audio-button-response","73","860713","0.0-12.0-0.21","","","",""
"7064","","{""P0_Q0"":""ㅅ,ㅜ,ㅣ,ㄱ,ㅏ,ㅅ"",""P0_Q1"":""(불가능)""}","survey","74","867785","0.0-12.0-1.21","[]","","",""
"1473","TestRecordings/chunak.wav","0","audio-button-response","75","869343","0.0-12.0-0.22","","","",""
"5733","","{""P0_Q0"":""ㅊ,ㅜ,ㄴ,ㅏ,ㅅ"",""P0_Q1"":""(가능)""}","survey","76","875082","0.0-12.0-1.22","[]","","",""
"2677","TestRecordings/kmamun.wav","0","audio-button-response","77","877843","0.0-12.0-0.23","","","",""
"7843","","{""P0_Q0"":""ㄱ,ㅡ,ㅁ,ㅏ,ㅁ,ㅜ,ㄴ"",""P0_Q1"":""(불가능)""}","survey","78","885693","0.0-12.0-1.23","[]","","",""
"1980","TestRecordings/cwam.wav","0","audio-button-response","79","887718","0.0-12.0-0.24","","","",""
"4803","","{""P0_Q0"":""ㅈ,ㅗ,ㅏ,ㅁ"",""P0_Q1"":""(불가능)""}","survey","80","892529","0.0-12.0-1.24","[]","","",""
"1413","TestRecordings/mthik.wav","0","audio-button-response","81","893970","0.0-12.0-0.25","","","",""
"6117","","{""P0_Q0"":""ㅇ,ㅡ,ㅁ,ㅍ,ㅣ,ㄱ"",""P0_Q1"":""(불가능)""}","survey","82","900094","0.0-12.0-1.25","[]","","",""
"2019","TestRecordings/nchocip.wav","0","audio-button-response","83","902196","0.0-12.0-0.26","","","",""
"8558","","{""P0_Q0"":""ㅇ,ㅡ,ㅁ,ㅊ,ㅗ,ㅈ,ㅣ,ㅅ"",""P0_Q1"":""(가능)""}","survey","84","910761","0.0-12.0-1.26","[]","","",""
"1825","TestRecordings/cmoman.wav","0","audio-button-response","85","912670","0.0-12.0-0.27","","","",""
"8649","","{""P0_Q0"":""ㅈ,ㅡ,ㅁ,ㅗ,ㅁ,ㅏ,ㄴ"",""P0_Q1"":""(불가능)""}","survey","86","921326","0.0-12.0-1.27","[]","","",""
"3938","TestRecordings/tup.wav","0","audio-button-response","87","925348","0.0-12.0-0.28","","","",""
"7734","","{""P0_Q0"":""ㄷ,ㅜ,ㅇ,ㅡ"",""P0_Q1"":""(불가능)""}","survey","88","933090","0.0-12.0-1.28","[]","","",""
"2149","TestRecordings/tnunong.wav","0","audio-button-response","89","935323","0.0-12.0-0.29","","","",""
"5549","","{""P0_Q0"":""ㄴ,ㅜ,ㄴ,ㅗ,ㅇ"",""P0_Q1"":""(불가능)""}","survey","90","940879","0.0-12.0-1.29","[]","","",""
"2170","TestRecordings/twaput.wav","0","audio-button-response","91","943134","0.0-12.0-0.30","","","",""
"7354","","{""P0_Q0"":""ㄷ,ㅜ,ㅇ,ㅏ,ㅂ,ㅜ,ㅅ"",""P0_Q1"":""(불가능)""}","survey","92","950495","0.0-12.0-1.30","[]","","",""
"1678","TestRecordings/pmochun.wav","0","audio-button-response","93","952258","0.0-12.0-0.31","","","",""
"5849","","{""P0_Q0"":""ㅁ,ㅜ,ㅊ,ㅜ,ㄴ"",""P0_Q1"":""(불가능)""}","survey","94","958114","0.0-12.0-1.31","[]","","",""
"2188","TestRecordings/knot.wav","0","audio-button-response","95","960386","0.0-12.0-0.32","","","",""
"5376","","{""P0_Q0"":""ㅋ,ㅡ,ㄴ,ㅗ,ㅅ"",""P0_Q1"":""(불가능)""}","survey","96","965770","0.0-12.0-1.32","[]","","",""
"1719","TestRecordings/khut.wav","0","audio-button-response","97","967575","0.0-12.0-0.33","","","",""
"8108","","{""P0_Q0"":""ㅋ,ㅜ,ㅇ,ㅜ,ㅅ"",""P0_Q1"":""(불가능)""}","survey","98","975690","0.0-12.0-1.33","[]","","",""
"1797","TestRecordings/khnothik.wav","0","audio-button-response","99","977573","0.0-12.0-0.34","","","",""
"7618","","{""P0_Q0"":""ㅋ,ㅡ,ㄴ,ㅗ,ㅌ,ㅣ,ㄱ"",""P0_Q1"":""(가능)""}","survey","100","985197","0.0-12.0-1.34","[]","","",""
"2333","TestRecordings/thinok.wav","0","audio-button-response","101","987574","0.0-12.0-0.35","","","",""
"5456","","{""P0_Q0"":""ㅋ,ㅣ,ㄴ,ㅗ"",""P0_Q1"":""(가능)""}","survey","102","993039","0.0-12.0-1.35","[]","","",""
"1631","TestRecordings/npucap.wav","0","audio-button-response","103","994755","0.0-12.0-0.36","","","",""
"9532","","{""P0_Q0"":""ㅇ,ㅡ,ㄴ,ㅂ,ㅜ,ㅈ,ㅏ,ㅅ"",""P0_Q1"":""(불가능)""}","survey","104","1004294","0.0-12.0-1.36","[]","","",""
"1800","TestRecordings/nchot.wav","0","audio-button-response","105","1006180","0.0-12.0-0.37","","","",""
"9911","","{""P0_Q0"":""ㅇ,ㅡ,ㅁ,ㅊ,ㅗ,ㅅ"",""P0_Q1"":""(불가능)""}","survey","106","1016098","0.0-12.0-1.37","[]","","",""
"2508","TestRecordings/nthaking.wav","0","audio-button-response","107","1018694","0.0-12.0-0.38","","","",""
"9199","","{""P0_Q0"":""ㅇ,ㅡ,ㄴ,ㅌ,ㅏ,ㄱ,ㅣ,ㅇ"",""P0_Q1"":""(가능)""}","survey","108","1027902","0.0-12.0-1.38","[]","","",""
"1530","TestRecordings/cnaphin.wav","0","audio-button-response","109","1029455","0.0-12.0-0.39","","","",""
"7249","","{""P0_Q0"":""ㅊ,ㅡ,ㄴ,ㅏ,ㅍ,ㅣ,ㅇ"",""P0_Q1"":""(불가능)""}","survey","110","1036712","0.0-12.0-1.39","[]","","",""
"1907","TestRecordings/mphosak.wav","0","audio-button-response","111","1038704","0.0-12.0-0.40","","","",""
"9128","","{""P0_Q0"":""ㅇ,ㅡ,ㄴ,ㅍ,ㅗ,ㅅ,ㅏ"",""P0_Q1"":""(가능)""}","survey","112","1047837","0.0-12.0-1.40","[]","","",""
"1638","TestRecordings/nkhuchom.wav","0","audio-button-response","113","1049561","0.0-12.0-0.41","","","",""
"6913","","{""P0_Q0"":""ㅇ,ㅡ,ㅁ,ㅋ,ㅜ,ㅊ,ㅗ,ㅁ"",""P0_Q1"":""(불가능)""}","survey","114","1056481","0.0-12.0-1.41","[]","","",""
"1569","TestRecordings/khwichon.wav","0","audio-button-response","115","1058135","0.0-12.0-0.42","","","",""
"5913","","{""P0_Q0"":""ㅋ,ㅜ,ㅣ,ㅊ,ㅗ,ㄴ"",""P0_Q1"":""(가능)""}","survey","116","1064055","0.0-12.0-1.42","[]","","",""
"1402","TestRecordings/thukhat.wav","0","audio-button-response","117","1065544","0.0-12.0-0.43","","","",""
"5099","","{""P0_Q0"":""ㅌ,ㅜ,ㅋ,ㅏ,ㅅ"",""P0_Q1"":""(불가능)""}","survey","118","1070649","0.0-12.0-1.43","[]","","",""
"1457","TestRecordings/tin.wav","0","audio-button-response","119","1072192","0.0-12.0-0.44","","","",""
"3647","","{""P0_Q0"":""ㄷ,ㅣㄴ"",""P0_Q1"":""(가능)""}","survey","120","1075847","0.0-12.0-1.44","[]","","",""
"1401","TestRecordings/khnap.wav","0","audio-button-response","121","1077334","0.0-12.0-0.45","","","",""
"5602","","{""P0_Q0"":""ㅋ,ㅡ,ㄴ,ㅏ,ㅂ"",""P0_Q1"":""(가능)""}","survey","122","1082943","0.0-12.0-1.45","[]","","",""
"1531","TestRecordings/khithuk.wav","0","audio-button-response","123","1084559","0.0-12.0-0.46","","","",""
"6368","","{""P0_Q0"":""ㅋ,ㅣ,ㅌ,ㅜ"",""P0_Q1"":""(가능)""}","survey","124","1090935","0.0-12.0-1.46","[]","","",""
"1533","TestRecordings/chumik.wav","0","audio-button-response","125","1092554","0.0-12.0-0.47","","","",""
"5282","","{""P0_Q0"":""ㅊ,ㅜ,ㅁ,ㅣ,ㄱ"",""P0_Q1"":""(가능)""}","survey","126","1097843","0.0-12.0-1.47","[]","","",""
"2491","TestRecordings/chwiphin.wav","0","audio-button-response","127","1100419","0.0-12.0-0.48","","","",""
"5798","","{""P0_Q0"":""ㅊ,ㅜ,ㅣ,ㅍ,ㅣ,ㄴ"",""P0_Q1"":""(가능)""}","survey","128","1106224","0.0-12.0-1.48","[]","","",""
"1463","TestRecordings/mphutam.wav","0","audio-button-response","129","1107774","0.0-12.0-0.49","","","",""
"8525","","{""P0_Q0"":""ㅇ,ㅡ,ㄴ,ㅍ,ㅜ,ㄷ,ㅏ,ㅁ"",""P0_Q1"":""(불가능)""}","survey","130","1116306","0.0-12.0-1.49","[]","","",""
"1511","TestRecordings/mup.wav","0","audio-button-response","131","1117901","0.0-12.0-0.50","","","",""
"6948","","{""P0_Q0"":""ㅁ,ㅜ,ㅇ,ㅜ,ㅂ"",""P0_Q1"":""(가능)""}","survey","132","1124856","0.0-12.0-1.50","[]","","",""
"1397","TestRecordings/twak.wav","0","audio-button-response","133","1126339","0.0-12.0-0.51","","","",""
"5934","","{""P0_Q0"":""ㄸ,ㅜ,ㅇ,ㅗ,ㅏ,ㄱ"",""P0_Q1"":""(불가능)""}","survey","134","1132280","0.0-12.0-1.51","[]","","",""
"1489","TestRecordings/thnok.wav","0","audio-button-response","135","1133853","0.0-12.0-0.52","","","",""
"5057","","{""P0_Q0"":""ㅋ,ㅡ,ㄴ,ㅗ,ㄱ"",""P0_Q1"":""(불가능)""}","survey","136","1138918","0.0-12.0-1.52","[]","","",""
"1997","TestRecordings/nthimong.wav","0","audio-button-response","137","1141000","0.0-12.0-0.53","","","",""
"8875","","{""P0_Q0"":""ㅇ,ㅣ,ㄴ,ㅌ,ㅣ,ㅁ,ㅗ,ㅇ"",""P0_Q1"":""(불가능)""}","survey","138","1149883","0.0-12.0-1.53","[]","","",""
"1631","TestRecordings/mpukham.wav","0","audio-button-response","139","1151601","0.0-12.0-0.54","","","",""
"6596","","{""P0_Q0"":""ㅇ,ㅡ,ㄴ,ㅂ,ㅜ,ㅋ,ㅏ,ㅁ"",""P0_Q1"":""(불가능)""}","survey","140","1158203","0.0-12.0-1.54","[]","","",""
"1796","TestRecordings/phmiman.wav","0","audio-button-response","141","1160084","0.0-12.0-0.55","","","",""
"7372","","{""P0_Q0"":""ㅍ,ㅡ,ㅁ,ㅣ,ㅁ,ㅏ,ㄴ"",""P0_Q1"":""(불가능)""}","survey","142","1167464","0.0-12.0-1.55","[]","","",""
"1339","TestRecordings/twan.wav","0","audio-button-response","143","1168888","0.0-12.0-0.56","","","",""
"6435","","{""P0_Q0"":""ㄷ,ㅜ,ㅇ,ㅗ,ㅏ,ㄴ"",""P0_Q1"":""(가능)""}","survey","144","1175331","0.0-12.0-1.56","[]","","",""
"1557","TestRecordings/chakot.wav","0","audio-button-response","145","1176979","0.0-12.0-0.57","","","",""
"5084","","{""P0_Q0"":""ㅊ,ㅏ,ㄱ,ㅗ,ㅅ"",""P0_Q1"":""(가능)""}","survey","146","1182070","0.0-12.0-1.57","[]","","",""
"1438","TestRecordings/tikut.wav","0","audio-button-response","147","1183593","0.0-12.0-0.58","","","",""
"5887","","{""P0_Q0"":""ㄷ,ㅣ,ㄱ,ㅜ,ㅅ"",""P0_Q1"":""(가능)""}","survey","148","1189488","0.0-12.0-1.58","[]","","",""
"1465","TestRecordings/phnokhing.wav","0","audio-button-response","149","1191041","0.0-12.0-0.59","","","",""
"8715","","{""P0_Q0"":""ㅋ,ㅡ,ㄴ,ㅗ,ㅋ,ㅣ,ㅇ"",""P0_Q1"":""(가능)""}","survey","150","1199762","0.0-12.0-1.59","[]","","",""
"3259",""," ","html-keyboard-response","151","1203021","0.0-13.0","","","",""
"31705","","{""P0_Q0"":""25"",""P0_Q1"":""남자"",""P0_Q2"":""9살"",""P0_Q3"":""x"",""P0_Q4"":""일본어"",""P0_Q5"":""고1~3, 3년"",""P0_Q6"":""x""}","survey","152","1234737","0.0-14.0","[]","","",""
"82706","<p style=""font-size:30px"",lang=""ko"">실험이 끝났습니다</p><p style=""font-size:30px"",lang=""ko"">참가해주셔서 고맙습니다</p>"," ","html-keyboard-response","153","1317444","0.0-15.0","","","",""
,