"rt","stimulus","response","trial_type","trial_index","time_elapsed","internal_node_id","accuracy","PracticeTest","ConsonantSequence","Grammaticality"
"447731","<p style=""font-size:30px"",lang=""ko"">실험에 오신 것을 환영합니다</p><p lang=""ko"">스페이스바를 누르면 다음 페이지로 넘어갑니다</p>"," ","html-keyboard-response","0","447735","0.0-0.0","","","",""
"60298","<p style=""font-size:30px"",lang=""ko"">해드폰을 본인에게 잘 맞게 착용하세요</p><p lang=""ko"">스페이스바를 누르면 다음 페이지로 넘어갑니다</p>"," ","html-keyboard-response","1","508033","0.0-1.0","","","",""
"3549","<p style=""font-size:30px"",lang=""ko"">이 실험에서는 새로 만든 한국 단어를 들으실 겁니다</p><p style=""font-size:30px"",lang=""ko"">단어를 들리는대로 쓰세요. 그런 다음 그 단어가 한국어 단어로 가능한지 평가하세요</p><p lang=""ko"">스페이스바를 누르면 다음 페이지로 넘어갑니다</p>"," ","html-keyboard-response","2","511583","0.0-2.0","","","",""
"1269","<p style=""font-size:30px"",lang=""ko"">원래 있는 단어로 예를 들어 봅시다</p><p lang=""ko"">스페이스바를 누르면 다음 페이지로 넘어갑니다</p>"," ","html-keyboard-response","3","512852","0.0-3.0","","","",""
"23911","PracticeRecordings/kom_bear.wav","0","audio-button-response","4","536829","0.0-4.0","","","",""
"4624","<p style=""font-size:30px"",lang=""ko"">이제 직접 단어를 듣고 쓰는 연습을 해봅시다. </p><p style=""font-size:30px"",lang=""ko"">스페이스바를 누르면 다음 페이지로 넘어갑니다</p>"," ","html-keyboard-response","5","541453","0.0-5.0","","","",""
"3612","PracticeRecordings/kirin_giraffe.wav","0","audio-button-response","6","545090","0.0-6.0-0.0","","","",""
"23886","kirin_giraffe","{""P0_Q0"":""ㄱ,ㅣ,ㄹ,ㅣ,ㄴ""}","survey","7","569018","0.0-6.0-1.0","[]","practice","NA","TRUE"
"3943","<p style=""font-size:30px"",lang=""ko"">방금 들으신 단어는 ""ㄱ,ㅣ,ㄹ,ㅣ,ㄴ"" 이라고 쓰시면 됩니다</p><p lang=""ko"">스페이스바를 누르면 다음 페이지로 넘어갑니다</p>"," ","html-keyboard-response","8","572961","0.0-6.0-2.0","","","",""
"2052","PracticeRecordings/saca_lion.wav","0","audio-button-response","9","575041","0.0-6.0-0.1","","","",""
"6370","saca_lion","{""P0_Q0"":""ㅅ,ㅏ,ㅈ,ㅏ""}","survey","10","581419","0.0-6.0-1.1","[]","practice","NA","FALSE"
"2162","<p style=""font-size:30px"",lang=""ko"">방금 들으신 단어는 ""ㅅ,ㅏ,ㅈ,ㅏ"" 라고 쓰시면 됩니다</p><p lang=""ko"">스페이스바를 누르면 다음 페이지로 넘어갑니다</p>"," ","html-keyboard-response","11","583582","0.0-6.0-2.1","","","",""
"1594","PracticeRecordings/saseum_deer.wav","0","audio-button-response","12","585201","0.0-6.0-0.2","","","",""
"6721","saseum_deer","{""P0_Q0"":""ㅅ,ㅏ,ㅅ,ㅡ,ㅁ""}","survey","13","591932","0.0-6.0-1.2","[]","practice","NA","FALSE"
"4286","<p style=""font-size:30px"",lang=""ko"">방금 들으신 단어는 ""ㅅ,ㅏ,ㅅ,ㅡ,ㅁ""이라고 쓰시면 됩니다</p><p lang=""ko"">스페이스바를 누르면 다음 페이지로 넘어갑니다</p>"," ","html-keyboard-response","14","596218","0.0-6.0-2.2","","","",""
"2637","PracticeRecordings/thokki_rabbit.wav","0","audio-button-response","15","598878","0.0-6.0-0.3","","","",""
"8342","thokki_rabbit","{""P0_Q0"":""ㅌ,ㅗ,ㄲ,ㅣ""}","survey","16","607228","0.0-6.0-1.3","[]","practice","NA","FALSE"
"2091","<p style=""font-size:30px"",lang=""ko"">방금 들으신 단어는 ""ㅌ,ㅗ,ㄲ,ㅣ"" 라고 쓰시면 됩니다</p><p lang=""ko"">스페이스바를 누르면 다음 페이지로 넘어갑니다</p>"," ","html-keyboard-response","17","609319","0.0-6.0-2.3","","","",""
"546","<p style=""font-size:30px"",lang=""ko"">이제 만든 단어로 연습해봅시다.</p><p lang=""ko"">스페이스바를 누르면 다음 페이지로 넘어갑니다</p>"," ","html-keyboard-response","18","609866","0.0-7.0","","","",""
"3323","PracticeRecordings/snen.wav","0","audio-button-response","19","613211","0.0-8.0-0.0","","","",""
"10955","snen","{""P0_Q0"":""ㅅ,ㅡ,ㄴ,ㅔ,ㄴ""}","survey","20","624173","0.0-8.0-1.0","[]","practice","NA","TRUE"
"4539","<p style=""font-size:30px"",lang=""ko"">들으신 단어는 <br> ""ㅅ,ㅡ,ㄴ,ㅐ,ㄴ""  ""ㅅ,ㅡ,ㄴ,ㅐ"" ""ㅅ,ㄴ,ㅐ,ㄴ (""으"" 소리가 안 들리는 경우)"" 등 <br> 사람에 따라 다양하게 들릴 수 있습니다 <br> 본인에게 들리는대로 쓰시면 됩니다.</p><p lang=""ko"">스페이스바를 누르면 다음 페이지로 넘어갑니다</p>"," ","html-keyboard-response","21","628713","0.0-8.0-2.0","","","",""
"3351","PracticeRecordings/phrak.wav","0","audio-button-response","22","632085","0.0-8.0-0.1","","","",""
"8837","phrak","{""P0_Q0"":""ㅍ,ㅡ,ㄹ,ㅏ,ㄱ""}","survey","23","640928","0.0-8.0-1.1","[]","practice","NA","FALSE"
"1702","<p style=""font-size:30px"",lang=""ko"">들으신 단어는 <br> ""ㅍ,ㅡ,ㄹ,ㅏ,ㄱ"" ""ㅍ,ㅡ,ㄹ,ㅏ,ㅅ"" ""ㅋ,ㅡ,ㄹ,ㅏ,ㄱ"" ""ㅍ,ㄹ,ㅏ,ㄱ (""으"" 소리가 안 들리는 경우)"" 등 <br> 사람에 따라 다양하게 들릴 수 있습니다 <br> 본인에게 들리는대로 쓰시면 됩니다.</p><p lang=""ko"">스페이스바를 누르면 다음 페이지로 넘어갑니다</p>"," ","html-keyboard-response","24","642630","0.0-8.0-2.1","","","",""
"1569","PracticeRecordings/chka.wav","0","audio-button-response","25","644222","0.0-8.0-0.2","","","",""
"4898","chka","{""P0_Q0"":""ㅅ,ㅡ,ㄱ,ㅏ""}","survey","26","649126","0.0-8.0-1.2","[]","practice","NA","FALSE"
"2300","<p style=""font-size:30px"",lang=""ko"">들으신 단어는 ""ㅊ,ㅣ,ㄱ,ㅏ"", ""ㅊ,ㅡ,ㄱ,ㅏ"", ""ㅊ,ㄱ,ㅏ"", ""ㅊ,ㅟ,ㄱ,ㅏ"" 등 <br> 사람에 따라 다양하게 들릴 수 있습니다. <br> 본인에게 들리는대로 쓰시면 됩니다.</p><p lang=""ko"">스페이스바를 누르면 다음 페이지로 넘어갑니다</p>"," ","html-keyboard-response","27","651427","0.0-8.0-2.2","","","",""
"8660",""," ","html-keyboard-response","28","660088","0.0-9.0","","","",""
"2816","<p style=""font-size:30px"",lang=""ko"">이제 실험을 시작하겠습니다.</p><p style=""font-size:30px"",lang=""ko"">실전에서는 각각의 만든 단어를 한 번씩만 들을 수 있습니다.</p>"," ","html-keyboard-response","29","662904","0.0-10.0","","","",""
"15806","<p style=""font-size:30px"",lang=""ko"">단어를 풀어 쓰신 후에 그 단어가 한국어로 가능한 단어인지 평가해주세요</p><p lang=""ko"">스페이스바를 누르면 다음 페이지로 넘어갑니다</p>"," ","html-keyboard-response","30","678711","0.0-11.0","","","",""
"2027","TestRecordings/chmop.wav","0","audio-button-response","31","680762","0.0-12.0-0.0","","","",""
"13447","","{""P0_Q0"":""ㅊ,ㅡ,ㅁ,ㅗ,ㄱ"",""P0_Q1"":""(가능)""}","survey","32","694224","0.0-12.0-1.0","[]","","",""
"1586","TestRecordings/taphik.wav","0","audio-button-response","33","695830","0.0-12.0-0.1","","","",""
"13435","","{""P0_Q0"":""ㄷ,ㅏ,ㅍ,ㅣ,ㄱ"",""P0_Q1"":""(불가능)""}","survey","34","709275","0.0-12.0-1.1","[]","","",""
"1619","TestRecordings/thnok.wav","0","audio-button-response","35","710914","0.0-12.0-0.2","","","",""
"9894","","{""P0_Q0"":""ㅊ,ㅡ,ㄴ,ㅗ,ㄱ"",""P0_Q1"":""(불가능)""}","survey","36","720816","0.0-12.0-1.2","[]","","",""
"1912","TestRecordings/chunak.wav","0","audio-button-response","37","722749","0.0-12.0-0.3","","","",""
"13859","","{""P0_Q0"":""ㅊ,ㅜ,ㄴ,ㅎ,ㅗ,ㅏ"",""P0_Q1"":""(가능)""}","survey","38","736616","0.0-12.0-1.3","[]","","",""
"1919","TestRecordings/chwiphin.wav","0","audio-button-response","39","738559","0.0-12.0-0.4","","","",""
"7810","","{""P0_Q0"":""ㅊ,ㅣ,ㅍ,ㅣ,ㄴ"",""P0_Q1"":""(가능)""}","survey","40","746376","0.0-12.0-1.4","[]","","",""
"1230","TestRecordings/knot.wav","0","audio-button-response","41","747629","0.0-12.0-0.5","","","",""
"10098","","{""P0_Q0"":""ㄱ,ㅡ,ㄴ,ㅗ,ㄴ"",""P0_Q1"":""(불가능)""}","survey","42","757731","0.0-12.0-1.5","[]","","",""
"1369","TestRecordings/nakhit.wav","0","audio-button-response","43","759123","0.0-12.0-0.6","","","",""
"13964","","{""P0_Q0"":""ㄴ,ㅏ,ㄱ,ㅋ,ㅣ,ㅌ,ㅡ"",""P0_Q1"":""(불가능)""}","survey","44","773093","0.0-12.0-1.6","[]","","",""
"1494","TestRecordings/thwikhip.wav","0","audio-button-response","45","774610","0.0-12.0-0.7","","","",""
"15816","","{""P0_Q0"":""ㅌ,ㅡ,ㅇ,ㅣ,ㅋ,ㅣ,ㅌ"",""P0_Q1"":""(불가능)""}","survey","46","790434","0.0-12.0-1.7","[]","","",""
"1799","TestRecordings/npucap.wav","0","audio-button-response","47","792256","0.0-12.0-0.8","","","",""
"10419","","{""P0_Q0"":""ㅇ,ㅜ,ㅂ,ㅡ,ㅈ,ㅏ,ㅂ"",""P0_Q1"":""(가능)""}","survey","48","802682","0.0-12.0-1.8","[]","","",""
"1498","TestRecordings/chakot.wav","0","audio-button-response","49","804212","0.0-12.0-0.9","","","",""
"7907","","{""P0_Q0"":""ㅊ,ㅏ,ㄱ,ㅗ,ㄷ"",""P0_Q1"":""(가능)""}","survey","50","812130","0.0-12.0-1.9","[]","","",""
"1971","TestRecordings/nwimik.wav","0","audio-button-response","51","814125","0.0-12.0-0.10","","","",""
"8358","","{""P0_Q0"":""ㄴ,ㅣ,ㅁ,ㅣ,ㄱ"",""P0_Q1"":""(불가능)""}","survey","52","822490","0.0-12.0-1.10","[]","","",""
"1390","TestRecordings/mkit.wav","0","audio-button-response","53","823902","0.0-12.0-0.11","","","",""
"8712","","{""P0_Q0"":""ㅇ,ㅡ,ㅁ,ㄱ,ㅣ,ㅌ"",""P0_Q1"":""(불가능)""}","survey","54","832621","0.0-12.0-1.11","[]","","",""
"1153","TestRecordings/thwam.wav","0","audio-button-response","55","833797","0.0-12.0-0.12","","","",""
"8186","","{""P0_Q0"":""ㅌ,ㅏ,ㅁ"",""P0_Q1"":""(불가능)""}","survey","56","841989","0.0-12.0-1.12","[]","","",""
"3015","TestRecordings/nchocip.wav","0","audio-button-response","57","845027","0.0-12.0-0.13","","","",""
"17164","","{""P0_Q0"":""ㅇ,ㅡㅁ,ㅊ,ㅗ,ㅈ,ㅣ,ㅂ"",""P0_Q1"":""(가능)""}","survey","58","862199","0.0-12.0-1.13","[]","","",""
"2570","TestRecordings/kmamun.wav","0","audio-button-response","59","864791","0.0-12.0-0.14","","","",""
"10920","","{""P0_Q0"":""ㄱ,ㅡ,ㅁ,ㅏ,ㅁ,ㅜ,ㄴ"",""P0_Q1"":""(가능)""}","survey","60","875720","0.0-12.0-1.14","[]","","",""
"1423","TestRecordings/pmochun.wav","0","audio-button-response","61","877167","0.0-12.0-0.15","","","",""
"6936","","{""P0_Q0"":""ㅁ,ㅡ,ㅊ,ㅜ,ㄴ"",""P0_Q1"":""(불가능)""}","survey","62","884110","0.0-12.0-1.15","[]","","",""
"1238","TestRecordings/khut.wav","0","audio-button-response","63","885370","0.0-12.0-0.16","","","",""
"7095","","{""P0_Q0"":""ㅋ,ㅜ,ㄷ"",""P0_Q1"":""(불가능)""}","survey","64","892473","0.0-12.0-1.16","[]","","",""
"1167","TestRecordings/twak.wav","0","audio-button-response","65","893664","0.0-12.0-0.17","","","",""
"10857","","{""P0_Q0"":""ㄸ,ㅡ,ㅇ,ㅏ,ㄱ"",""P0_Q1"":""(가능)""}","survey","66","904528","0.0-12.0-1.17","[]","","",""
"1346","TestRecordings/ntakhip.wav","0","audio-button-response","67","905899","0.0-12.0-0.18","","","",""
"10635","","{""P0_Q0"":""ㅇ,ㅡ,ㅇ,ㄷ,ㅏ,ㅂ,ㅋ,ㅣ,ㅌ"",""P0_Q1"":""(가능)""}","survey","68","916540","0.0-12.0-1.18","[]","","",""
"2715","TestRecordings/cnaphin.wav","0","audio-button-response","69","919279","0.0-12.0-0.19","","","",""
"11397","","{""P0_Q0"":""ㅉ,ㅡ,ㄴ,ㅏ,ㅍ,ㅣ,ㄴ"",""P0_Q1"":""(불가능)""}","survey","70","930683","0.0-12.0-1.19","[]","","",""
"1707","TestRecordings/khwiphing.wav","0","audio-button-response","71","932414","0.0-12.0-0.20","","","",""
"8679","","{""P0_Q0"":""ㅋ,ㅣ,ㅍ,ㅣ,ㅇ"",""P0_Q1"":""(불가능)""}","survey","72","941100","0.0-12.0-1.20","[]","","",""
"1269","TestRecordings/mtukin.wav","0","audio-button-response","73","942393","0.0-12.0-0.21","","","",""
"16934","","{""P0_Q0"":""ㅇ,ㅡ,ㅁ,ㄷ,ㅜ,ㄱ,ㅜ,ㅣ,ㄴ"",""P0_Q1"":""(가능)""}","survey","74","959334","0.0-12.0-1.21","[]","","",""
"1475","TestRecordings/mthik.wav","0","audio-button-response","75","960830","0.0-12.0-0.22","","","",""
"11591","","{""P0_Q0"":""ㅇ,ㅡ,ㅁ,ㅋ,ㅣ,ㄱ"",""P0_Q1"":""(가능)""}","survey","76","972430","0.0-12.0-1.22","[]","","",""
"1389","TestRecordings/cmoman.wav","0","audio-button-response","77","973842","0.0-12.0-0.23","","","",""
"11280","","{""P0_Q0"":""ㅉ,ㅡ,ㅁ,ㅡ,ㅁ,ㅗ,ㄴ"",""P0_Q1"":""(가능)""}","survey","78","985129","0.0-12.0-1.23","[]","","",""
"1245","TestRecordings/chnuk.wav","0","audio-button-response","79","986395","0.0-12.0-0.24","","","",""
"14389","","{""P0_Q0"":""ㅉ,ㅡ,ㄴ,ㅜ,ㄴ"",""P0_Q1"":""(가능)""}","survey","80","1000791","0.0-12.0-1.24","[]","","",""
"1299","TestRecordings/nthimong.wav","0","audio-button-response","81","1002113","0.0-12.0-0.25","","","",""
"12381","","{""P0_Q0"":""ㅇ,ㅡ,ㅇ,ㅌ,ㅣ,ㅁ,ㅜ,ㅇ"",""P0_Q1"":""(불가능)""}","survey","82","1014502","0.0-12.0-1.25","[]","","",""
"1738","TestRecordings/chnupot.wav","0","audio-button-response","83","1016261","0.0-12.0-0.26","","","",""
"14536","","{""P0_Q0"":""ㅉ,ㅡ,ㄴ,ㅜ,ㅂ,ㅗ,ㅅ"",""P0_Q1"":""(가능)""}","survey","84","1030804","0.0-12.0-1.26","[]","","",""
"1716","TestRecordings/thukhat.wav","0","audio-button-response","85","1032543","0.0-12.0-0.27","","","",""
"8641","","{""P0_Q0"":""ㅌ,ㅜ,ㅋ,ㅗ,ㅏ,ㅌ"",""P0_Q1"":""(가능)""}","survey","86","1041192","0.0-12.0-1.27","[]","","",""
"1308","TestRecordings/mup.wav","0","audio-button-response","87","1042521","0.0-12.0-0.28","","","",""
"4612","","{""P0_Q0"":""ㅁ,ㅜ,ㅂ"",""P0_Q1"":""(가능)""}","survey","88","1047140","0.0-12.0-1.28","[]","","",""
"1339","TestRecordings/phmiman.wav","0","audio-button-response","89","1048510","0.0-12.0-0.29","","","",""
"16215","","{""P0_Q0"":""ㅌ,ㅡ,ㅁ,ㅣ,ㅁ,ㅏ,ㄴ"",""P0_Q1"":""(가능)""}","survey","90","1064731","0.0-12.0-1.29","[]","","",""
"1659","TestRecordings/nchot.wav","0","audio-button-response","91","1066414","0.0-12.0-0.30","","","",""
"10101","","{""P0_Q0"":""ㅇ,ㅡ,ㅇ,ㅊ,ㅗ"",""P0_Q1"":""(불가능)""}","survey","92","1076521","0.0-12.0-1.30","[]","","",""
"1375","TestRecordings/tmichut.wav","0","audio-button-response","93","1077919","0.0-12.0-0.31","","","",""
"8210","","{""P0_Q0"":""ㅅ,ㅡ,ㅁ,ㅣ,ㅊ,ㅜ,ㄴ"",""P0_Q1"":""(가능)""}","survey","94","1086137","0.0-12.0-1.31","[]","","",""
"1141","TestRecordings/mphutam.wav","0","audio-button-response","95","1087301","0.0-12.0-0.32","","","",""
"11784","","{""P0_Q0"":""ㅇ,ㅜ,ㄴ,ㅍ,ㅡ,ㄷ,ㅏ,ㅁ"",""P0_Q1"":""(가능)""}","survey","96","1099093","0.0-12.0-1.32","[]","","",""
"1529","TestRecordings/nkhuchom.wav","0","audio-button-response","97","1100645","0.0-12.0-0.33","","","",""
"12051","","{""P0_Q0"":""ㅇ,ㅜ,ㄴ,ㅋ,ㅡ,ㅊ,ㅗ,ㅁ"",""P0_Q1"":""(불가능)""}","survey","98","1112702","0.0-12.0-1.33","[]","","",""
"1258","TestRecordings/khnothik.wav","0","audio-button-response","99","1113982","0.0-12.0-0.34","","","",""
"8094","","{""P0_Q0"":""ㅋ,ㅡ,ㄴ,ㅗ,ㅌ,ㅣ,ㅂ"",""P0_Q1"":""(불가능)""}","survey","100","1122083","0.0-12.0-1.34","[]","","",""
"2851","TestRecordings/nthaking.wav","0","audio-button-response","101","1124960","0.0-12.0-0.35","","","",""
"12300","","{""P0_Q0"":""ㅇ,ㅡ,ㅇ,ㅌ,ㅏ,ㄱ,ㅜ,ㅣ,ㄴ"",""P0_Q1"":""(가능)""}","survey","102","1137267","0.0-12.0-1.35","[]","","",""
"1197","TestRecordings/tikut.wav","0","audio-button-response","103","1138485","0.0-12.0-0.36","","","",""
"6984","","{""P0_Q0"":""ㄷ,ㅣ,ㄱ,ㅜ,ㄷ"",""P0_Q1"":""(가능)""}","survey","104","1145475","0.0-12.0-1.36","[]","","",""
"1189","TestRecordings/nkat.wav","0","audio-button-response","105","1146687","0.0-12.0-0.37","","","",""
"9439","","{""P0_Q0"":""ㅇ,ㅡ,ㅇ,ㄱ,ㅏ,ㄷ"",""P0_Q1"":""(가능)""}","survey","106","1156133","0.0-12.0-1.37","[]","","",""
"1126","TestRecordings/twamot.wav","0","audio-button-response","107","1157282","0.0-12.0-0.38","","","",""
"7831","","{""P0_Q0"":""ㅌ,ㅏ,ㅁ,ㅗ,ㅅ"",""P0_Q1"":""(가능)""}","survey","108","1165120","0.0-12.0-1.38","[]","","",""
"1501","TestRecordings/thinok.wav","0","audio-button-response","109","1166643","0.0-12.0-0.39","","","",""
"7394","","{""P0_Q0"":""ㅌ,ㅣ,ㄴ,ㅗ,ㄱ"",""P0_Q1"":""(가능)""}","survey","110","1174044","0.0-12.0-1.39","[]","","",""
"1093","TestRecordings/khithuk.wav","0","audio-button-response","111","1175173","0.0-12.0-0.40","","","",""
"5499","","{""P0_Q0"":""ㅋ,ㅣ,ㅌ,ㅜ"",""P0_Q1"":""(가능)""}","survey","112","1180679","0.0-12.0-1.40","[]","","",""
"1416","TestRecordings/mphuk.wav","0","audio-button-response","113","1182119","0.0-12.0-0.41","","","",""
"7089","","{""P0_Q0"":""ㅇ,ㅜ,ㅁ,ㅍ,ㅜ"",""P0_Q1"":""(불가능)""}","survey","114","1189214","0.0-12.0-1.41","[]","","",""
"1252","TestRecordings/sikot.wav","0","audio-button-response","115","1190489","0.0-12.0-0.42","","","",""
"6728","","{""P0_Q0"":""ㅅ,ㅣ,ㄱ,ㅗ,ㄷ"",""P0_Q1"":""(가능)""}","survey","116","1197223","0.0-12.0-1.42","[]","","",""
"2351","TestRecordings/khin.wav","0","audio-button-response","117","1199597","0.0-12.0-0.43","","","",""
"6411","","{""P0_Q0"":""ㅋ,ㅜ,ㅣ,ㄴ"",""P0_Q1"":""(불가능)""}","survey","118","1206015","0.0-12.0-1.43","[]","","",""
"1207","TestRecordings/mphosak.wav","0","audio-button-response","119","1207254","0.0-12.0-0.44","","","",""
"11467","","{""P0_Q0"":""ㅇ,ㅡ,ㅁ,ㅍ,ㅗ,ㅅ,ㅏ,ㄱ"",""P0_Q1"":""(가능)""}","survey","120","1218728","0.0-12.0-1.44","[]","","",""
"1140","TestRecordings/twaput.wav","0","audio-button-response","121","1219891","0.0-12.0-0.45","","","",""
"6567","","{""P0_Q0"":""ㄷ,ㅏ,ㅂ,ㅜ,ㄷ"",""P0_Q1"":""(불가능)""}","survey","122","1226464","0.0-12.0-1.45","[]","","",""
"1056","TestRecordings/twan.wav","0","audio-button-response","123","1227545","0.0-12.0-0.46","","","",""
"3966","","{""P0_Q0"":""ㄷ,ㅏ,ㄴ"",""P0_Q1"":""(가능)""}","survey","124","1231517","0.0-12.0-1.46","[]","","",""
"1389","TestRecordings/khwichon.wav","0","audio-button-response","125","1232930","0.0-12.0-0.47","","","",""
"6935","","{""P0_Q0"":""ㅋ,ㅣ,ㅊ,ㅗ,ㄴ"",""P0_Q1"":""(불가능)""}","survey","126","1239873","0.0-12.0-1.47","[]","","",""
"988","TestRecordings/tup.wav","0","audio-button-response","127","1240882","0.0-12.0-0.48","","","",""
"7282","","{""P0_Q0"":""ㄷ,ㅜ,ㅂ"",""P0_Q1"":""(가능)""}","survey","128","1248172","0.0-12.0-1.48","[]","","",""
"1189","TestRecordings/mpukham.wav","0","audio-button-response","129","1249383","0.0-12.0-0.49","","","",""
"10453","","{""P0_Q0"":""ㅇ,ㅡ,ㅁ,ㅂ,ㅜ,ㅋ,ㅗ,ㅏ,ㄴ"",""P0_Q1"":""(가능)""}","survey","130","1259843","0.0-12.0-1.49","[]","","",""
"1016","TestRecordings/cwit.wav","0","audio-button-response","131","1260881","0.0-12.0-0.50","","","",""
"6409","","{""P0_Q0"":""ㅈ,ㅣ,ㅅ"",""P0_Q1"":""(가능)""}","survey","132","1267296","0.0-12.0-1.50","[]","","",""
"1050","TestRecordings/tnunong.wav","0","audio-button-response","133","1268368","0.0-12.0-0.51","","","",""
"9245","","{""P0_Q0"":""ㄱ,ㅡ,ㄴ,ㅜ,ㄴ,ㅗ,ㄴ"",""P0_Q1"":""(가능)""}","survey","134","1277620","0.0-12.0-1.51","[]","","",""
"1043","TestRecordings/khwipot.wav","0","audio-button-response","135","1278686","0.0-12.0-0.52","","","",""
"10860","","{""P0_Q0"":""ㅋ,ㅣ,ㅂ,ㅗ,ㅅ"",""P0_Q1"":""(가능)""}","survey","136","1289554","0.0-12.0-1.52","[]","","",""
"1072","TestRecordings/swikhat.wav","0","audio-button-response","137","1290647","0.0-12.0-0.53","","","",""
"5950","","{""P0_Q0"":""ㅅ,ㅣ,ㅋ,ㅏ,ㅅ"",""P0_Q1"":""(가능)""}","survey","138","1296603","0.0-12.0-1.53","[]","","",""
"1285","TestRecordings/tin.wav","0","audio-button-response","139","1297911","0.0-12.0-0.54","","","",""
"5210","","{""P0_Q0"":""ㄷ,ㅣ,ㄴ"",""P0_Q1"":""(가능)""}","survey","140","1303127","0.0-12.0-1.54","[]","","",""
"973","TestRecordings/khnap.wav","0","audio-button-response","141","1304122","0.0-12.0-0.55","","","",""
"5880","","{""P0_Q0"":""ㅋ,ㅡ,ㄴ,ㅏ,ㅂ"",""P0_Q1"":""(가능)""}","survey","142","1310009","0.0-12.0-1.55","[]","","",""
"1064","TestRecordings/chumik.wav","0","audio-button-response","143","1311096","0.0-12.0-0.56","","","",""
"5554","","{""P0_Q0"":""ㅊ,ㅜ,ㅁ,ㅣ,ㄱ"",""P0_Q1"":""(불가능)""}","survey","144","1316657","0.0-12.0-1.56","[]","","",""
"889","TestRecordings/cwam.wav","0","audio-button-response","145","1317570","0.0-12.0-0.57","","","",""
"6749","","{""P0_Q0"":""ㅈ,ㅏ,ㅁ"",""P0_Q1"":""(가능)""}","survey","146","1324325","0.0-12.0-1.57","[]","","",""
"903","TestRecordings/phnokhing.wav","0","audio-button-response","147","1325252","0.0-12.0-0.58","","","",""
"9288","","{""P0_Q0"":""ㅍ,ㅡ,ㄴ,ㅗ,ㅋ,ㅣ,ㅇ"",""P0_Q1"":""(불가능)""}","survey","148","1334547","0.0-12.0-1.58","[]","","",""
"1132","TestRecordings/chwikhong.wav","0","audio-button-response","149","1335703","0.0-12.0-0.59","","","",""
"7372","","{""P0_Q0"":""ㅊ,ㅣ,ㅋ,ㅗ,ㅇ"",""P0_Q1"":""(가능)""}","survey","150","1343082","0.0-12.0-1.59","[]","","",""
"2913",""," ","html-keyboard-response","151","1345996","0.0-13.0","","","",""
"35895","","{""P0_Q0"":""26"",""P0_Q1"":""여"",""P0_Q2"":""15"",""P0_Q3"":""아니요"",""P0_Q4"":""일본어"",""P0_Q5"":""18살,1년"",""P0_Q6"":""없습니다.""}","survey","152","1381900","0.0-14.0","[]","","",""
"44323","<p style=""font-size:30px"",lang=""ko"">실험이 끝났습니다</p><p style=""font-size:30px"",lang=""ko"">참가해주셔서 고맙습니다</p>"," ","html-keyboard-response","153","1426224","0.0-15.0","","","",""
,