"rt","stimulus","response","trial_type","trial_index","time_elapsed","internal_node_id","accuracy","PracticeTest","ConsonantSequence","Grammaticality"
"664606","<p style=""font-size:30px"",lang=""ko"">실험에 오신 것을 환영합니다</p><p lang=""ko"">스페이스바를 누르면 다음 페이지로 넘어갑니다</p>"," ","html-keyboard-response","0","664607","0.0-0.0","","","",""
"2719","<p style=""font-size:30px"",lang=""ko"">해드폰을 본인에게 잘 맞게 착용하세요</p><p lang=""ko"">스페이스바를 누르면 다음 페이지로 넘어갑니다</p>"," ","html-keyboard-response","1","667327","0.0-1.0","","","",""
"3881","<p style=""font-size:30px"",lang=""ko"">이 실험에서는 새로 만든 한국 단어를 들으실 겁니다</p><p style=""font-size:30px"",lang=""ko"">단어를 들리는대로 쓰세요. 그런 다음 그 단어가 한국어 단어로 가능한지 평가하세요</p><p lang=""ko"">스페이스바를 누르면 다음 페이지로 넘어갑니다</p>"," ","html-keyboard-response","2","671090","0.0-2.0","","","",""
"2363","<p style=""font-size:30px"",lang=""ko"">원래 있는 단어로 예를 들어 봅시다</p><p lang=""ko"">스페이스바를 누르면 다음 페이지로 넘어갑니다</p>"," ","html-keyboard-response","3","673454","0.0-3.0","","","",""
"11797","PracticeRecordings/kom_bear.wav","0","audio-button-response","4","685305","0.0-4.0","","","",""
"3714","<p style=""font-size:30px"",lang=""ko"">이제 직접 단어를 듣고 쓰는 연습을 해봅시다. </p><p style=""font-size:30px"",lang=""ko"">스페이스바를 누르면 다음 페이지로 넘어갑니다</p>"," ","html-keyboard-response","5","689019","0.0-5.0","","","",""
"6714","PracticeRecordings/kirin_giraffe.wav","0","audio-button-response","6","695753","0.0-6.0-0.0","","","",""
"22662","kirin_giraffe","{""P0_Q0"":""ㄱ,ㅣ,ㄹ,ㅣ,ㄴ""}","survey","7","718447","0.0-6.0-1.0","[]","practice","NA","TRUE"
"3785","<p style=""font-size:30px"",lang=""ko"">방금 들으신 단어는 ""ㄱ,ㅣ,ㄹ,ㅣ,ㄴ"" 이라고 쓰시면 됩니다</p><p lang=""ko"">스페이스바를 누르면 다음 페이지로 넘어갑니다</p>"," ","html-keyboard-response","8","722233","0.0-6.0-2.0","","","",""
"1904","PracticeRecordings/saca_lion.wav","0","audio-button-response","9","724159","0.0-6.0-0.1","","","",""
"7506","saca_lion","{""P0_Q0"":""ㅅ,ㅏ,ㅈ,ㅏ""}","survey","10","731684","0.0-6.0-1.1","[]","practice","NA","FALSE"
"818","<p style=""font-size:30px"",lang=""ko"">방금 들으신 단어는 ""ㅅ,ㅏ,ㅈ,ㅏ"" 라고 쓰시면 됩니다</p><p lang=""ko"">스페이스바를 누르면 다음 페이지로 넘어갑니다</p>"," ","html-keyboard-response","11","732502","0.0-6.0-2.1","","","",""
"1549","PracticeRecordings/saseum_deer.wav","0","audio-button-response","12","734070","0.0-6.0-0.2","","","",""
"7438","saseum_deer","{""P0_Q0"":""ㅅ,ㅏ,ㅅ,ㅡ,ㅁ""}","survey","13","741515","0.0-6.0-1.2","[]","practice","NA","FALSE"
"1156","<p style=""font-size:30px"",lang=""ko"">방금 들으신 단어는 ""ㅅ,ㅏ,ㅅ,ㅡ,ㅁ""이라고 쓰시면 됩니다</p><p lang=""ko"">스페이스바를 누르면 다음 페이지로 넘어갑니다</p>"," ","html-keyboard-response","14","742671","0.0-6.0-2.2","","","",""
"1212","PracticeRecordings/thokki_rabbit.wav","0","audio-button-response","15","743908","0.0-6.0-0.3","","","",""
"7088","thokki_rabbit","{""P0_Q0"":""ㅌ,ㅗ,ㄲ,ㅣ""}","survey","16","751005","0.0-6.0-1.3","[]","practice","NA","FALSE"
"1016","<p style=""font-size:30px"",lang=""ko"">방금 들으신 단어는 ""ㅌ,ㅗ,ㄲ,ㅣ"" 라고 쓰시면 됩니다</p><p lang=""ko"">스페이스바를 누르면 다음 페이지로 넘어갑니다</p>"," ","html-keyboard-response","17","752022","0.0-6.0-2.3","","","",""
"2624","<p style=""font-size:30px"",lang=""ko"">이제 만든 단어로 연습해봅시다.</p><p lang=""ko"">스페이스바를 누르면 다음 페이지로 넘어갑니다</p>"," ","html-keyboard-response","18","754647","0.0-7.0","","","",""
"3967","PracticeRecordings/snen.wav","0","audio-button-response","19","758636","0.0-8.0-0.0","","","",""
"9144","snen","{""P0_Q0"":""ㅅ,ㅡ,ㄴ,ㅔ,ㄴ""}","survey","20","767788","0.0-8.0-1.0","[]","practice","NA","TRUE"
"3027","<p style=""font-size:30px"",lang=""ko"">들으신 단어는 <br> ""ㅅ,ㅡ,ㄴ,ㅐ,ㄴ""  ""ㅅ,ㅡ,ㄴ,ㅐ"" ""ㅅ,ㄴ,ㅐ,ㄴ (""으"" 소리가 안 들리는 경우)"" 등 <br> 사람에 따라 다양하게 들릴 수 있습니다 <br> 본인에게 들리는대로 쓰시면 됩니다.</p><p lang=""ko"">스페이스바를 누르면 다음 페이지로 넘어갑니다</p>"," ","html-keyboard-response","21","770816","0.0-8.0-2.0","","","",""
"2554","PracticeRecordings/phrak.wav","0","audio-button-response","22","773391","0.0-8.0-0.1","","","",""
"7526","phrak","{""P0_Q0"":""ㅍ,ㅡ,ㄹ,ㅏ,ㄱ""}","survey","23","780923","0.0-8.0-1.1","[]","practice","NA","FALSE"
"1136","<p style=""font-size:30px"",lang=""ko"">들으신 단어는 <br> ""ㅍ,ㅡ,ㄹ,ㅏ,ㄱ"" ""ㅍ,ㅡ,ㄹ,ㅏ,ㅅ"" ""ㅋ,ㅡ,ㄹ,ㅏ,ㄱ"" ""ㅍ,ㄹ,ㅏ,ㄱ (""으"" 소리가 안 들리는 경우)"" 등 <br> 사람에 따라 다양하게 들릴 수 있습니다 <br> 본인에게 들리는대로 쓰시면 됩니다.</p><p lang=""ko"">스페이스바를 누르면 다음 페이지로 넘어갑니다</p>"," ","html-keyboard-response","24","782060","0.0-8.0-2.1","","","",""
"3139","PracticeRecordings/chka.wav","0","audio-button-response","25","785221","0.0-8.0-0.2","","","",""
"4663","chka","{""P0_Q0"":""ㅅ,ㅡ,ㄱ,ㅏ""}","survey","26","789890","0.0-8.0-1.2","[]","practice","NA","FALSE"
"2031","<p style=""font-size:30px"",lang=""ko"">들으신 단어는 ""ㅊ,ㅣ,ㄱ,ㅏ"", ""ㅊ,ㅡ,ㄱ,ㅏ"", ""ㅊ,ㄱ,ㅏ"", ""ㅊ,ㅟ,ㄱ,ㅏ"" 등 <br> 사람에 따라 다양하게 들릴 수 있습니다. <br> 본인에게 들리는대로 쓰시면 됩니다.</p><p lang=""ko"">스페이스바를 누르면 다음 페이지로 넘어갑니다</p>"," ","html-keyboard-response","27","791922","0.0-8.0-2.2","","","",""
"15804",""," ","html-keyboard-response","28","807726","0.0-9.0","","","",""
"3125","<p style=""font-size:30px"",lang=""ko"">이제 실험을 시작하겠습니다.</p><p style=""font-size:30px"",lang=""ko"">실전에서는 각각의 만든 단어를 한 번씩만 들을 수 있습니다.</p>"," ","html-keyboard-response","29","810852","0.0-10.0","","","",""
"32372","<p style=""font-size:30px"",lang=""ko"">단어를 풀어 쓰신 후에 그 단어가 한국어로 가능한 단어인지 평가해주세요</p><p lang=""ko"">스페이스바를 누르면 다음 페이지로 넘어갑니다</p>"," ","html-keyboard-response","30","843225","0.0-11.0","","","",""
"5135","TestRecordings/mthik.wav","0","audio-button-response","31","848384","0.0-12.0-0.0","","","",""
"24337","","{""P0_Q0"":""ㅁ,ㅜ,ㅇ,ㅌ,ㅣ"",""P0_Q1"":""(가능)""}","survey","32","872736","0.0-12.0-1.0","[]","","",""
"3113","TestRecordings/tup.wav","0","audio-button-response","33","875873","0.0-12.0-0.1","","","",""
"8176","","{""P0_Q0"":""ㄷ,ㅜ,ㄱ"",""P0_Q1"":""(가능)""}","survey","34","884059","0.0-12.0-1.1","[]","","",""
"2933","TestRecordings/mtukin.wav","0","audio-button-response","35","887015","0.0-12.0-0.2","","","",""
"18376","","{""P0_Q0"":""ㅎ,ㅣ,ㄴ,ㄷ,ㅜ,ㄱ,ㅣ,ㄴ"",""P0_Q1"":""(불가능)""}","survey","36","905400","0.0-12.0-1.2","[]","","",""
"3418","TestRecordings/nchocip.wav","0","audio-button-response","37","908841","0.0-12.0-0.3","","","",""
"15750","","{""P0_Q0"":""ㅇ,ㅡ,ㅁ,ㅊ,ㅗ,ㅈ,ㅣ,ㅂ"",""P0_Q1"":""(불가능)""}","survey","38","924599","0.0-12.0-1.3","[]","","",""
"2545","TestRecordings/phnokhing.wav","0","audio-button-response","39","927167","0.0-12.0-0.4","","","",""
"15203","","{""P0_Q0"":""ㅍ,ㅡ,ㄴ,ㅗ,ㅋ,ㅣ,ㅇ"",""P0_Q1"":""(불가능)""}","survey","40","942378","0.0-12.0-1.4","[]","","",""
"4021","TestRecordings/chakot.wav","0","audio-button-response","41","946423","0.0-12.0-0.5","","","",""
"7644","","{""P0_Q0"":""ㅊ,ㅏ,ㄱ,ㅗ,ㅅ"",""P0_Q1"":""(가능)""}","survey","42","954075","0.0-12.0-1.5","[]","","",""
"1885","TestRecordings/chnuk.wav","0","audio-button-response","43","955982","0.0-12.0-0.6","","","",""
"6302","","{""P0_Q0"":""ㅊ,ㅡ,ㄴ,ㅜ"",""P0_Q1"":""(불가능)""}","survey","44","962293","0.0-12.0-1.6","[]","","",""
"2172","TestRecordings/chmop.wav","0","audio-button-response","45","964488","0.0-12.0-0.7","","","",""
"7619","","{""P0_Q0"":""ㅊ,ㅡ,ㅁ,ㅗ,ㅅ"",""P0_Q1"":""(불가능)""}","survey","46","972114","0.0-12.0-1.7","[]","","",""
"3112","TestRecordings/npucap.wav","0","audio-button-response","47","975251","0.0-12.0-0.8","","","",""
"10894","","{""P0_Q0"":""ㅇ,ㅣ,ㄴ,ㅂ,ㅜ,ㅈ,ㅏ,ㅂ"",""P0_Q1"":""(불가능)""}","survey","48","986152","0.0-12.0-1.8","[]","","",""
"3351","TestRecordings/mphosak.wav","0","audio-button-response","49","989525","0.0-12.0-0.9","","","",""
"9795","","{""P0_Q0"":""ㅇ,ㅣ,ㄴ,ㅍ,ㅗ,ㅅ,ㅏ,ㅂ"",""P0_Q1"":""(불가능)""}","survey","50","999330","0.0-12.0-1.9","[]","","",""
"2205","TestRecordings/sikot.wav","0","audio-button-response","51","1001556","0.0-12.0-0.10","","","",""
"8644","","{""P0_Q0"":""ㅅ,ㅣ,ㄱ,ㅗ,ㅅ"",""P0_Q1"":""(불가능)""}","survey","52","1010207","0.0-12.0-1.10","[]","","",""
"2814","TestRecordings/chwiphin.wav","0","audio-button-response","53","1013044","0.0-12.0-0.11","","","",""
"7003","","{""P0_Q0"":""ㅊ,ㅣ,ㅍ,ㅣ,ㅇ"",""P0_Q1"":""(가능)""}","survey","54","1020055","0.0-12.0-1.11","[]","","",""
"3266","TestRecordings/tmichut.wav","0","audio-button-response","55","1023345","0.0-12.0-0.12","","","",""
"9815","","{""P0_Q0"":""ㄹ,ㅣ,ㅁ,ㅣ,ㅊ,ㅜ,ㄴ"",""P0_Q1"":""(불가능)""}","survey","56","1033168","0.0-12.0-1.12","[]","","",""
"4593","TestRecordings/cwam.wav","0","audio-button-response","57","1037783","0.0-12.0-0.13","","","",""
"7129","","{""P0_Q0"":""ㄷ,ㅡ,ㄹ,ㅏ,ㅁ"",""P0_Q1"":""(불가능)""}","survey","58","1044921","0.0-12.0-1.13","[]","","",""
"2377","TestRecordings/khnothik.wav","0","audio-button-response","59","1047320","0.0-12.0-0.14","","","",""
"10091","","{""P0_Q0"":""ㅋ,ㅡ,ㄴ,ㅗ,ㅌ,ㅣ,ㄱ"",""P0_Q1"":""(불가능)""}","survey","60","1057421","0.0-12.0-1.14","[]","","",""
"1981","TestRecordings/chwikhong.wav","0","audio-button-response","61","1059426","0.0-12.0-0.15","","","",""
"8462","","{""P0_Q0"":""ㅊ,ㅣ,ㅋ,ㅗ,ㅇ"",""P0_Q1"":""(가능)""}","survey","62","1067895","0.0-12.0-1.15","[]","","",""
"2011","TestRecordings/thwikhip.wav","0","audio-button-response","63","1069929","0.0-12.0-0.16","","","",""
"5771","","{""P0_Q0"":""ㅌ,ㅣ,ㅋ,ㅣ,ㅂ"",""P0_Q1"":""(불가능)""}","survey","64","1075708","0.0-12.0-1.16","[]","","",""
"2006","TestRecordings/khwiphing.wav","0","audio-button-response","65","1077737","0.0-12.0-0.17","","","",""
"6368","","{""P0_Q0"":""ㅋ,ㅣ,ㅍ,ㅣ,ㅇ"",""P0_Q1"":""(불가능)""}","survey","66","1084112","0.0-12.0-1.17","[]","","",""
"1554","TestRecordings/thukhat.wav","0","audio-button-response","67","1085687","0.0-12.0-0.18","","","",""
"8196","","{""P0_Q0"":""ㅌ,ㅜ,ㅋ,ㅏ,ㅅ"",""P0_Q1"":""(불가능)""}","survey","68","1093892","0.0-12.0-1.18","[]","","",""
"2847","TestRecordings/khnap.wav","0","audio-button-response","69","1096760","0.0-12.0-0.19","","","",""
"6891","","{""P0_Q0"":""ㅋ,ㅡ,ㄴ,ㅏ,ㅂ"",""P0_Q1"":""(불가능)""}","survey","70","1103658","0.0-12.0-1.19","[]","","",""
"1744","TestRecordings/knot.wav","0","audio-button-response","71","1105423","0.0-12.0-0.20","","","",""
"7454","","{""P0_Q0"":""ㅋ,ㅡ,ㄴ,ㅗ,ㅂ"",""P0_Q1"":""(불가능)""}","survey","72","1112885","0.0-12.0-1.20","[]","","",""
"1908","TestRecordings/chunak.wav","0","audio-button-response","73","1114813","0.0-12.0-0.21","","","",""
"7223","","{""P0_Q0"":""ㅊ,ㅜ,ㄴ,ㅏ,ㅅ"",""P0_Q1"":""(불가능)""}","survey","74","1122044","0.0-12.0-1.21","[]","","",""
"1367","TestRecordings/mphutam.wav","0","audio-button-response","75","1123433","0.0-12.0-0.22","","","",""
"10844","","{""P0_Q0"":""ㅇ,ㅡ,ㅁ,ㅍ,ㅜ,ㄷ,ㅏ,ㅁ"",""P0_Q1"":""(불가능)""}","survey","76","1134284","0.0-12.0-1.22","[]","","",""
"2383","TestRecordings/thnok.wav","0","audio-button-response","77","1136690","0.0-12.0-0.23","","","",""
"6792","","{""P0_Q0"":""ㅌ,ㅡ,ㄴ,ㅗ"",""P0_Q1"":""(불가능)""}","survey","78","1143488","0.0-12.0-1.23","[]","","",""
"1709","TestRecordings/thwam.wav","0","audio-button-response","79","1145220","0.0-12.0-0.24","","","",""
"6009","","{""P0_Q0"":""ㅌ,ㅏ,ㅁ"",""P0_Q1"":""(불가능)""}","survey","80","1151238","0.0-12.0-1.24","[]","","",""
"1582","TestRecordings/nakhit.wav","0","audio-button-response","81","1152841","0.0-12.0-0.25","","","",""
"8840","","{""P0_Q0"":""ㄴ,ㅏ,ㅋ,ㅣ"",""P0_Q1"":""(불가능)""}","survey","82","1161687","0.0-12.0-1.25","[]","","",""
"1443","TestRecordings/khin.wav","0","audio-button-response","83","1163151","0.0-12.0-0.26","","","",""
"4590","","{""P0_Q0"":""ㅋ,ㅣ,ㄴ"",""P0_Q1"":""(불가능)""}","survey","84","1167748","0.0-12.0-1.26","[]","","",""
"1657","TestRecordings/mpukham.wav","0","audio-button-response","85","1169429","0.0-12.0-0.27","","","",""
"11339","","{""P0_Q0"":""ㅇ,ㅡ,ㅁ,ㅍ,ㅜ,ㅋ,ㅏ,ㅁ"",""P0_Q1"":""(불가능)""}","survey","86","1180775","0.0-12.0-1.27","[]","","",""
"1611","TestRecordings/cnaphin.wav","0","audio-button-response","87","1182408","0.0-12.0-0.28","","","",""
"8273","","{""P0_Q0"":""ㅊ,ㅡ,ㄴ,ㅏ,ㅍ,ㅣ,ㄴ"",""P0_Q1"":""(불가능)""}","survey","88","1190690","0.0-12.0-1.28","[]","","",""
"2036","TestRecordings/nthaking.wav","0","audio-button-response","89","1192749","0.0-12.0-0.29","","","",""
"8721","","{""P0_Q0"":""ㅇ,ㅡ,ㅇ,ㅌ,ㅏ,ㄱ,ㅣ,ㄴ"",""P0_Q1"":""(불가능)""}","survey","90","1201477","0.0-12.0-1.29","[]","","",""
"1859","TestRecordings/twak.wav","0","audio-button-response","91","1203358","0.0-12.0-0.30","","","",""
"6441","","{""P0_Q0"":""ㄷ,ㅡ,ㄹ,ㅏ,ㄱ"",""P0_Q1"":""(불가능)""}","survey","92","1209806","0.0-12.0-1.30","[]","","",""
"1760","TestRecordings/nchot.wav","0","audio-button-response","93","1211589","0.0-12.0-0.31","","","",""
"10975","","{""P0_Q0"":""ㅇ,ㅣ,ㄴ,ㅊ,ㅗ,ㅅ"",""P0_Q1"":""(불가능)""}","survey","94","1222570","0.0-12.0-1.31","[]","","",""
"2048","TestRecordings/twan.wav","0","audio-button-response","95","1224640","0.0-12.0-0.32","","","",""
"10318","","{""P0_Q0"":""ㄷ,ㅡ,ㅇ,ㅗ,ㅏ,ㄴ"",""P0_Q1"":""(가능)""}","survey","96","1234966","0.0-12.0-1.32","[]","","",""
"1732","TestRecordings/thinok.wav","0","audio-button-response","97","1236729","0.0-12.0-0.33","","","",""
"6531","","{""P0_Q0"":""ㅋ,ㅣ,ㄴ,ㅗ,ㅅ"",""P0_Q1"":""(불가능)""}","survey","98","1243268","0.0-12.0-1.33","[]","","",""
"1691","TestRecordings/twaput.wav","0","audio-button-response","99","1244981","0.0-12.0-0.34","","","",""
"12717","","{""P0_Q0"":""ㄷ,ㅡ,ㅇ,ㅗ,ㅏ,ㅂ,ㅜ,ㅅ"",""P0_Q1"":""(불가능)""}","survey","100","1257704","0.0-12.0-1.34","[]","","",""
"1787","TestRecordings/pmochun.wav","0","audio-button-response","101","1259513","0.0-12.0-0.35","","","",""
"7232","","{""P0_Q0"":""ㅇ,ㅡ,ㅁ,ㅜ,ㅊ,ㅜ,ㄴ"",""P0_Q1"":""(불가능)""}","survey","102","1266752","0.0-12.0-1.35","[]","","",""
"1465","TestRecordings/phmiman.wav","0","audio-button-response","103","1268239","0.0-12.0-0.36","","","",""
"8403","","{""P0_Q0"":""ㅍ,ㅡ,ㅁ,ㅣ,ㅁ,ㅏ,ㄴ"",""P0_Q1"":""(불가능)""}","survey","104","1276649","0.0-12.0-1.36","[]","","",""
"1598","TestRecordings/tikut.wav","0","audio-button-response","105","1278267","0.0-12.0-0.37","","","",""
"8099","","{""P0_Q0"":""ㄷ,ㅣ,ㄱ,ㅜ,ㄷ"",""P0_Q1"":""(불가능)""}","survey","106","1286373","0.0-12.0-1.37","[]","","",""
"1772","TestRecordings/tin.wav","0","audio-button-response","107","1288169","0.0-12.0-0.38","","","",""
"5172","","{""P0_Q0"":""ㄷ,ㅣ,ㄴ"",""P0_Q1"":""(가능)""}","survey","108","1293348","0.0-12.0-1.38","[]","","",""
"1560","TestRecordings/khut.wav","0","audio-button-response","109","1294929","0.0-12.0-0.39","","","",""
"5412","","{""P0_Q0"":""ㅋ,ㅜ,ㅅ"",""P0_Q1"":""(불가능)""}","survey","110","1300348","0.0-12.0-1.39","[]","","",""
"1609","TestRecordings/khithuk.wav","0","audio-button-response","111","1301979","0.0-12.0-0.40","","","",""
"5502","","{""P0_Q0"":""ㅋ,ㅣ,ㅌ,ㅜ"",""P0_Q1"":""(불가능)""}","survey","112","1307488","0.0-12.0-1.40","[]","","",""
"1630","TestRecordings/khwipot.wav","0","audio-button-response","113","1309140","0.0-12.0-0.41","","","",""
"6072","","{""P0_Q0"":""ㅋ,ㅣ,ㅂ,ㅗ,ㅅ"",""P0_Q1"":""(가능)""}","survey","114","1315221","0.0-12.0-1.41","[]","","",""
"1389","TestRecordings/nkat.wav","0","audio-button-response","115","1316632","0.0-12.0-0.42","","","",""
"8678","","{""P0_Q0"":""ㅇ,ㅡ,ㅇ,ㄱ,ㅏ,ㅅ"",""P0_Q1"":""(불가능)""}","survey","116","1325319","0.0-12.0-1.42","[]","","",""
"1484","TestRecordings/mkit.wav","0","audio-button-response","117","1326825","0.0-12.0-0.43","","","",""
"8523","","{""P0_Q0"":""ㅇ,ㅡ,ㅇ,ㄱ,ㅣ,ㅅ"",""P0_Q1"":""(불가능)""}","survey","118","1335355","0.0-12.0-1.43","[]","","",""
"1342","TestRecordings/nthimong.wav","0","audio-button-response","119","1336719","0.0-12.0-0.44","","","",""
"8562","","{""P0_Q0"":""ㅇ,ㅡ,ㅇ,ㅌ,ㅣ,ㅁ,ㅗ,ㅇ"",""P0_Q1"":""(불가능)""}","survey","120","1345288","0.0-12.0-1.44","[]","","",""
"1368","TestRecordings/nkhuchom.wav","0","audio-button-response","121","1346679","0.0-12.0-0.45","","","",""
"11049","","{""P0_Q0"":""ㅇ,ㅡ,ㅇ,ㅋ,ㅜ,ㅊ,ㅗ,ㅇ"",""P0_Q1"":""(불가능)""}","survey","122","1357735","0.0-12.0-1.45","[]","","",""
"1674","TestRecordings/tnunong.wav","0","audio-button-response","123","1359433","0.0-12.0-0.46","","","",""
"5816","","{""P0_Q0"":""ㄷ,ㅜ,ㄴ,ㅗ,ㅇ"",""P0_Q1"":""(불가능)""}","survey","124","1365256","0.0-12.0-1.46","[]","","",""
"1579","TestRecordings/khwichon.wav","0","audio-button-response","125","1366856","0.0-12.0-0.47","","","",""
"6809","","{""P0_Q0"":""ㅋ,ㅣ,ㅊ,ㅗ,ㄴ"",""P0_Q1"":""(가능)""}","survey","126","1373674","0.0-12.0-1.47","[]","","",""
"1641","TestRecordings/cmoman.wav","0","audio-button-response","127","1375337","0.0-12.0-0.48","","","",""
"7512","","{""P0_Q0"":""ㅊ,ㅡ,ㅁ,ㅗ,ㅁ,ㅏ,ㄴ"",""P0_Q1"":""(불가능)""}","survey","128","1382856","0.0-12.0-1.48","[]","","",""
"1601","TestRecordings/mup.wav","0","audio-button-response","129","1384479","0.0-12.0-0.49","","","",""
"5371","","{""P0_Q0"":""ㅁ,ㅜ,ㄷ"",""P0_Q1"":""(불가능)""}","survey","130","1389857","0.0-12.0-1.49","[]","","",""
"1612","TestRecordings/nwimik.wav","0","audio-button-response","131","1391489","0.0-12.0-0.50","","","",""
"8026","","{""P0_Q0"":""ㄴ,ㅜ,ㅣ,ㅁ,ㅣㄱ"",""P0_Q1"":""(불가능)""}","survey","132","1399523","0.0-12.0-1.50","[]","","",""
"1460","TestRecordings/twamot.wav","0","audio-button-response","133","1401005","0.0-12.0-0.51","","","",""
"14888","","{""P0_Q0"":""ㄷ,ㅡ,ㅇ,ㅗ,ㅏ,ㅁ,ㅗ,ㅅ"",""P0_Q1"":""(불가능)""}","survey","134","1415899","0.0-12.0-1.51","[]","","",""
"1631","TestRecordings/mphuk.wav","0","audio-button-response","135","1417552","0.0-12.0-0.52","","","",""
"7628","","{""P0_Q0"":""ㅇ,ㅡ,ㅇ,ㅍ,ㅜ,ㄱ"",""P0_Q1"":""(불가능)""}","survey","136","1425187","0.0-12.0-1.52","[]","","",""
"1491","TestRecordings/taphik.wav","0","audio-button-response","137","1426700","0.0-12.0-0.53","","","",""
"8055","","{""P0_Q0"":""ㄷ,ㅡ,ㄹ,ㅏ,ㅍ,ㅣ,ㄱ"",""P0_Q1"":""(불가능)""}","survey","138","1434762","0.0-12.0-1.53","[]","","",""
"2696","TestRecordings/cwit.wav","0","audio-button-response","139","1437480","0.0-12.0-0.54","","","",""
"8686","","{""P0_Q0"":""ㅈ,ㅜ,ㅣ,ㄱ"",""P0_Q1"":""(불가능)""}","survey","140","1446174","0.0-12.0-1.54","[]","","",""
"1427","TestRecordings/ntakhip.wav","0","audio-button-response","141","1447633","0.0-12.0-0.55","","","",""
"8351","","{""P0_Q0"":""ㅇ,ㅡ,ㅇ,ㄷ,ㅏ,ㅋ,ㅣ,ㄱ"",""P0_Q1"":""(불가능)""}","survey","142","1455992","0.0-12.0-1.55","[]","","",""
"1462","TestRecordings/swikhat.wav","0","audio-button-response","143","1457477","0.0-12.0-0.56","","","",""
"6702","","{""P0_Q0"":""ㅅ,ㅣ,ㅋ,ㅏ,ㄱ"",""P0_Q1"":""(불가능)""}","survey","144","1464187","0.0-12.0-1.56","[]","","",""
"1599","TestRecordings/chumik.wav","0","audio-button-response","145","1465807","0.0-12.0-0.57","","","",""
"5268","","{""P0_Q0"":""ㅊ,ㅜ,ㅁ,ㅣ,ㄱ"",""P0_Q1"":""(불가능)""}","survey","146","1471082","0.0-12.0-1.57","[]","","",""
"1303","TestRecordings/chnupot.wav","0","audio-button-response","147","1472407","0.0-12.0-0.58","","","",""
"9469","","{""P0_Q0"":""ㅊ,ㅜ,ㄴ,ㅡ,ㅂ,ㅗ,ㅅ"",""P0_Q1"":""(불가능)""}","survey","148","1481884","0.0-12.0-1.58","[]","","",""
"1575","TestRecordings/kmamun.wav","0","audio-button-response","149","1483483","0.0-12.0-0.59","","","",""
"8716","","{""P0_Q0"":""ㅋ,ㅡ,ㅁ,ㅏ,ㅁ,ㅜ,ㄴ"",""P0_Q1"":""(불가능)""}","survey","150","1492206","0.0-12.0-1.59","[]","","",""
"4550",""," ","html-keyboard-response","151","1496757","0.0-13.0","","","",""
"52153","","{""P0_Q0"":""23"",""P0_Q1"":""남"",""P0_Q2"":""9"",""P0_Q3"":""없음"",""P0_Q4"":""없음"",""P0_Q5"":""없음"",""P0_Q6"":""학교 수업으로 짧게 일본어를 배웠습니다""}","survey","152","1548918","0.0-14.0","[]","","",""
"93172","<p style=""font-size:30px"",lang=""ko"">실험이 끝났습니다</p><p style=""font-size:30px"",lang=""ko"">참가해주셔서 고맙습니다</p>"," ","html-keyboard-response","153","1642091","0.0-15.0","","","",""
,