"rt","stimulus","response","trial_type","trial_index","time_elapsed","internal_node_id","accuracy","PracticeTest","ConsonantSequence","Grammaticality"
"753697","<p style=""font-size:30px"",lang=""ko"">실험에 오신 것을 환영합니다</p><p lang=""ko"">스페이스바를 누르면 다음 페이지로 넘어갑니다</p>"," ","html-keyboard-response","0","753592","0.0-0.0","","","",""
"3825","<p style=""font-size:30px"",lang=""ko"">해드폰을 본인에게 잘 맞게 착용하세요</p><p lang=""ko"">스페이스바를 누르면 다음 페이지로 넘어갑니다</p>"," ","html-keyboard-response","1","757418","0.0-1.0","","","",""
"5248","<p style=""font-size:30px"",lang=""ko"">이 실험에서는 새로 만든 한국 단어를 들으실 겁니다</p><p style=""font-size:30px"",lang=""ko"">단어를 들리는대로 쓰세요. 그런 다음 그 단어가 한국어 단어로 가능한지 평가하세요</p><p lang=""ko"">스페이스바를 누르면 다음 페이지로 넘어갑니다</p>"," ","html-keyboard-response","2","762666","0.0-2.0","","","",""
"1204","<p style=""font-size:30px"",lang=""ko"">원래 있는 단어로 예를 들어 봅시다</p><p lang=""ko"">스페이스바를 누르면 다음 페이지로 넘어갑니다</p>"," ","html-keyboard-response","3","763871","0.0-3.0","","","",""
"11835","PracticeRecordings/kom_bear.wav","0","audio-button-response","4","775761","0.0-4.0","","","",""
"1764","<p style=""font-size:30px"",lang=""ko"">이제 직접 단어를 듣고 쓰는 연습을 해봅시다. </p><p style=""font-size:30px"",lang=""ko"">스페이스바를 누르면 다음 페이지로 넘어갑니다</p>"," ","html-keyboard-response","5","777526","0.0-5.0","","","",""
"3376","PracticeRecordings/kirin_giraffe.wav","0","audio-button-response","6","780922","0.0-6.0-0.0","","","",""
"6170","kirin_giraffe","{""P0_Q0"":""ㄱ,ㅣ,ㄹ,ㅣ,ㄴ""}","survey","7","787123","0.0-6.0-1.0","[]","practice","NA","TRUE"
"2298","<p style=""font-size:30px"",lang=""ko"">방금 들으신 단어는 ""ㄱ,ㅣ,ㄹ,ㅣ,ㄴ"" 이라고 쓰시면 됩니다</p><p lang=""ko"">스페이스바를 누르면 다음 페이지로 넘어갑니다</p>"," ","html-keyboard-response","8","789422","0.0-6.0-2.0","","","",""
"1609","PracticeRecordings/saca_lion.wav","0","audio-button-response","9","791051","0.0-6.0-0.1","","","",""
"4498","saca_lion","{""P0_Q0"":""ㅅ,ㅏ,ㅈ,ㅏ""}","survey","10","795555","0.0-6.0-1.1","[]","practice","NA","FALSE"
"1123","<p style=""font-size:30px"",lang=""ko"">방금 들으신 단어는 ""ㅅ,ㅏ,ㅈ,ㅏ"" 라고 쓰시면 됩니다</p><p lang=""ko"">스페이스바를 누르면 다음 페이지로 넘어갑니다</p>"," ","html-keyboard-response","11","796679","0.0-6.0-2.1","","","",""
"1430","PracticeRecordings/saseum_deer.wav","0","audio-button-response","12","798129","0.0-6.0-0.2","","","",""
"6387","saseum_deer","{""P0_Q0"":""ㅅ,ㅏ,ㅅ,ㅡ,ㅁ""}","survey","13","804522","0.0-6.0-1.2","[]","practice","NA","FALSE"
"896","<p style=""font-size:30px"",lang=""ko"">방금 들으신 단어는 ""ㅅ,ㅏ,ㅅ,ㅡ,ㅁ""이라고 쓰시면 됩니다</p><p lang=""ko"">스페이스바를 누르면 다음 페이지로 넘어갑니다</p>"," ","html-keyboard-response","14","805418","0.0-6.0-2.2","","","",""
"1402","PracticeRecordings/thokki_rabbit.wav","0","audio-button-response","15","806839","0.0-6.0-0.3","","","",""
"4373","thokki_rabbit","{""P0_Q0"":""ㅌ,ㅗ,ㄲ,ㅣ""}","survey","16","811219","0.0-6.0-1.3","[]","practice","NA","FALSE"
"1140","<p style=""font-size:30px"",lang=""ko"">방금 들으신 단어는 ""ㅌ,ㅗ,ㄲ,ㅣ"" 라고 쓰시면 됩니다</p><p lang=""ko"">스페이스바를 누르면 다음 페이지로 넘어갑니다</p>"," ","html-keyboard-response","17","812359","0.0-6.0-2.3","","","",""
"950","<p style=""font-size:30px"",lang=""ko"">이제 만든 단어로 연습해봅시다.</p><p lang=""ko"">스페이스바를 누르면 다음 페이지로 넘어갑니다</p>"," ","html-keyboard-response","18","813310","0.0-7.0","","","",""
"2360","PracticeRecordings/snen.wav","0","audio-button-response","19","815689","0.0-8.0-0.0","","","",""
"5427","snen","{""P0_Q0"":""ㅅ,ㅡ,ㄴ,ㅐ,ㄴ""}","survey","20","821122","0.0-8.0-1.0","[]","practice","NA","TRUE"
"3734","<p style=""font-size:30px"",lang=""ko"">들으신 단어는 <br> ""ㅅ,ㅡ,ㄴ,ㅐ,ㄴ""  ""ㅅ,ㅡ,ㄴ,ㅐ"" ""ㅅ,ㄴ,ㅐ,ㄴ (""으"" 소리가 안 들리는 경우)"" 등 <br> 사람에 따라 다양하게 들릴 수 있습니다 <br> 본인에게 들리는대로 쓰시면 됩니다.</p><p lang=""ko"">스페이스바를 누르면 다음 페이지로 넘어갑니다</p>"," ","html-keyboard-response","21","824857","0.0-8.0-2.0","","","",""
"1572","PracticeRecordings/phrak.wav","0","audio-button-response","22","826446","0.0-8.0-0.1","","","",""
"4184","phrak","{""P0_Q0"":""ㅍ,ㅡ,ㄹ,ㅏ,ㄱ""}","survey","23","830636","0.0-8.0-1.1","[]","practice","NA","FALSE"
"2880","<p style=""font-size:30px"",lang=""ko"">들으신 단어는 <br> ""ㅍ,ㅡ,ㄹ,ㅏ,ㄱ"" ""ㅍ,ㅡ,ㄹ,ㅏ,ㅅ"" ""ㅋ,ㅡ,ㄹ,ㅏ,ㄱ"" ""ㅍ,ㄹ,ㅏ,ㄱ (""으"" 소리가 안 들리는 경우)"" 등 <br> 사람에 따라 다양하게 들릴 수 있습니다 <br> 본인에게 들리는대로 쓰시면 됩니다.</p><p lang=""ko"">스페이스바를 누르면 다음 페이지로 넘어갑니다</p>"," ","html-keyboard-response","24","833516","0.0-8.0-2.1","","","",""
"2253","PracticeRecordings/chka.wav","0","audio-button-response","25","835788","0.0-8.0-0.2","","","",""
"7253","chka","{""P0_Q0"":""ㅊ,ㅡ,ㅋ,ㅏ""}","survey","26","843047","0.0-8.0-1.2","[]","practice","NA","FALSE"
"2918","<p style=""font-size:30px"",lang=""ko"">들으신 단어는 ""ㅊ,ㅣ,ㄱ,ㅏ"", ""ㅊ,ㅡ,ㄱ,ㅏ"", ""ㅊ,ㄱ,ㅏ"", ""ㅊ,ㅟ,ㄱ,ㅏ"" 등 <br> 사람에 따라 다양하게 들릴 수 있습니다. <br> 본인에게 들리는대로 쓰시면 됩니다.</p><p lang=""ko"">스페이스바를 누르면 다음 페이지로 넘어갑니다</p>"," ","html-keyboard-response","27","845965","0.0-8.0-2.2","","","",""
"2195",""," ","html-keyboard-response","28","848161","0.0-9.0","","","",""
"2182","<p style=""font-size:30px"",lang=""ko"">이제 실험을 시작하겠습니다.</p><p style=""font-size:30px"",lang=""ko"">실전에서는 각각의 만든 단어를 한 번씩만 들을 수 있습니다.</p>"," ","html-keyboard-response","29","850343","0.0-10.0","","","",""
"13751","<p style=""font-size:30px"",lang=""ko"">단어를 풀어 쓰신 후에 그 단어가 한국어로 가능한 단어인지 평가해주세요</p><p lang=""ko"">스페이스바를 누르면 다음 페이지로 넘어갑니다</p>"," ","html-keyboard-response","30","864095","0.0-11.0","","","",""
"2045","TestRecordings/twaput.wav","0","audio-button-response","31","866164","0.0-12.0-0.0","","","",""
"6719","","{""P0_Q0"":""ㄸ,ㅗ,ㅏ,ㅂ,ㅜ,ㅅ"",""P0_Q1"":""(가능)""}","survey","32","872898","0.0-12.0-1.0","[]","","",""
"1780","TestRecordings/cnaphin.wav","0","audio-button-response","33","874700","0.0-12.0-0.1","","","",""
"18287","","{""P0_Q0"":""ㅊ,ㅡ,ㄴ,ㅏ,ㅍ,ㅣ,ㄴ"",""P0_Q1"":""(가능)""}","survey","34","892997","0.0-12.0-1.1","[]","","",""
"2974","TestRecordings/nchocip.wav","0","audio-button-response","35","895993","0.0-12.0-0.2","","","",""
"10024","","{""P0_Q0"":""ㅇ,ㅡ,ㅇ,ㅊ,ㅗ,ㅈ,ㅣ,ㅂ"",""P0_Q1"":""(불가능)""}","survey","36","906026","0.0-12.0-1.2","[]","","",""
"1530","TestRecordings/nkat.wav","0","audio-button-response","37","907578","0.0-12.0-0.3","","","",""
"19260","","{""P0_Q0"":""ㅇ,ㅡ,ㅇ,ㅇ,ㅣㅇ,ㄱ,ㅏ,ㅅ"",""P0_Q1"":""(불가능)""}","survey","38","926845","0.0-12.0-1.3","[]","","",""
"1934","TestRecordings/mkit.wav","0","audio-button-response","39","928800","0.0-12.0-0.4","","","",""
"7427","","{""P0_Q0"":""ㅇ,ㅡ,ㅇ,ㄱ,ㅣ,ㅅ"",""P0_Q1"":""(가능)""}","survey","40","936234","0.0-12.0-1.4","[]","","",""
"1531","TestRecordings/mthik.wav","0","audio-button-response","41","937786","0.0-12.0-0.5","","","",""
"9815","","{""P0_Q0"":""ㅇ,ㅡ,ㅁ,ㅌ,ㅣ,ㄱ"",""P0_Q1"":""(불가능)""}","survey","42","947609","0.0-12.0-1.5","[]","","",""
"1649","TestRecordings/swikhat.wav","0","audio-button-response","43","949280","0.0-12.0-0.6","","","",""
"8155","","{""P0_Q0"":""ㅅ,ㅜ,ㅣ,ㅋ,ㅏ,ㅅ"",""P0_Q1"":""(가능)""}","survey","44","957443","0.0-12.0-1.6","[]","","",""
"1794","TestRecordings/nkhuchom.wav","0","audio-button-response","45","959259","0.0-12.0-0.7","","","",""
"9912","","{""P0_Q0"":""ㅇ,ㅡ,ㅁ,ㅋ,ㅜ,ㅊ,ㅗ,ㅇ,ㅡ,ㅁ"",""P0_Q1"":""(불가능)""}","survey","46","969178","0.0-12.0-1.7","[]","","",""
"1643","TestRecordings/cmoman.wav","0","audio-button-response","47","970841","0.0-12.0-0.8","","","",""
"14065","","{""P0_Q0"":""ㅊ,ㅡ,ㅁ,ㅗ,ㅁ,ㅏ,ㅁ"",""P0_Q1"":""(불가능)""}","survey","48","984914","0.0-12.0-1.8","[]","","",""
"2310","TestRecordings/tup.wav","0","audio-button-response","49","987245","0.0-12.0-0.9","","","",""
"8473","","{""P0_Q0"":""ㄷ,ㅜ,ㅂ"",""P0_Q1"":""(가능)""}","survey","50","995725","0.0-12.0-1.9","[]","","",""
"2509","TestRecordings/nwimik.wav","0","audio-button-response","51","998256","0.0-12.0-0.10","","","",""
"10766","","{""P0_Q0"":""ㄴ,ㅜ,ㅇ,ㅣ,ㅁ,ㅣ,ㄱ"",""P0_Q1"":""(가능)""}","survey","52","1009030","0.0-12.0-1.10","[]","","",""
"1370","TestRecordings/phmiman.wav","0","audio-button-response","53","1010422","0.0-12.0-0.11","","","",""
"9696","","{""P0_Q0"":""ㅍ,ㅡ,ㅁ,ㅣ,ㅁ,ㅏ,ㅁ"",""P0_Q1"":""(가능)""}","survey","54","1020125","0.0-12.0-1.11","[]","","",""
"1510","TestRecordings/nakhit.wav","0","audio-button-response","55","1021657","0.0-12.0-0.12","","","",""
"7841","","{""P0_Q0"":""ㄴ,ㅏ,ㄱ,ㅌ,ㅣ,ㄱ"",""P0_Q1"":""(불가능)""}","survey","56","1029506","0.0-12.0-1.12","[]","","",""
"1419","TestRecordings/nthaking.wav","0","audio-button-response","57","1030947","0.0-12.0-0.13","","","",""
"8649","","{""P0_Q0"":""ㅇ,ㅡ,ㅇ,ㅋ,ㅏ,ㄱ,ㅣ,ㅇ"",""P0_Q1"":""(불가능)""}","survey","58","1039603","0.0-12.0-1.13","[]","","",""
"1433","TestRecordings/mtukin.wav","0","audio-button-response","59","1041059","0.0-12.0-0.14","","","",""
"17175","","{""P0_Q0"":""ㅇ,ㅡ,ㅁ,ㄷ,ㅜ,ㄱ,ㅣ,ㄴ"",""P0_Q1"":""(가능)""}","survey","60","1058242","0.0-12.0-1.14","[]","","",""
"1732","TestRecordings/chmop.wav","0","audio-button-response","61","1059996","0.0-12.0-0.15","","","",""
"5655","","{""P0_Q0"":""ㅊ,ㅜ,ㅁ,ㅗ,ㅂ"",""P0_Q1"":""(불가능)""}","survey","62","1065658","0.0-12.0-1.15","[]","","",""
"1656","TestRecordings/pmochun.wav","0","audio-button-response","63","1067336","0.0-12.0-0.16","","","",""
"7552","","{""P0_Q0"":""ㅁ,ㅜ,ㅊ,ㅜ,ㄴ"",""P0_Q1"":""(가능)""}","survey","64","1074895","0.0-12.0-1.16","[]","","",""
"1703","TestRecordings/mphutam.wav","0","audio-button-response","65","1076620","0.0-12.0-0.17","","","",""
"9907","","{""P0_Q0"":""ㅇ,ㅡ,ㅁ,ㅍ,ㅜ,ㄷ,ㅏ,ㅁ"",""P0_Q1"":""(불가능)""}","survey","66","1086534","0.0-12.0-1.17","[]","","",""
"2101","TestRecordings/khwipot.wav","0","audio-button-response","67","1088661","0.0-12.0-0.18","","","",""
"7620","","{""P0_Q0"":""ㅋ,ㅜ,ㅣ,ㅂ,ㅗ,ㅅ"",""P0_Q1"":""(불가능)""}","survey","68","1096288","0.0-12.0-1.18","[]","","",""
"1348","TestRecordings/tikut.wav","0","audio-button-response","69","1097660","0.0-12.0-0.19","","","",""
"8051","","{""P0_Q0"":""ㄷ,ㅣ,ㄱ,ㅜ,ㅅ"",""P0_Q1"":""(가능)""}","survey","70","1105717","0.0-12.0-1.19","[]","","",""
"1426","TestRecordings/thwam.wav","0","audio-button-response","71","1107165","0.0-12.0-0.20","","","",""
"11384","","{""P0_Q0"":""ㅌ,ㅜ,ㅇ,ㅏ,ㅁ"",""P0_Q1"":""(가능)""}","survey","72","1118556","0.0-12.0-1.20","[]","","",""
"2975","TestRecordings/khut.wav","0","audio-button-response","73","1121552","0.0-12.0-0.21","","","",""
"5219","","{""P0_Q0"":""ㅋ,ㅜ,ㅅ"",""P0_Q1"":""(가능)""}","survey","74","1126777","0.0-12.0-1.21","[]","","",""
"1447","TestRecordings/mpukham.wav","0","audio-button-response","75","1128245","0.0-12.0-0.22","","","",""
"8010","","{""P0_Q0"":""ㅇ,ㅡ,ㅁ,ㅂ,ㅜ,ㅋ,ㅏ,ㅁ"",""P0_Q1"":""(가능)""}","survey","76","1136263","0.0-12.0-1.22","[]","","",""
"2030","TestRecordings/chumik.wav","0","audio-button-response","77","1138315","0.0-12.0-0.23","","","",""
"5857","","{""P0_Q0"":""ㅊ,ㅜ,ㅁ,ㅣ,ㅋ"",""P0_Q1"":""(가능)""}","survey","78","1144178","0.0-12.0-1.23","[]","","",""
"1795","TestRecordings/nthimong.wav","0","audio-button-response","79","1145995","0.0-12.0-0.24","","","",""
"8871","","{""P0_Q0"":""ㅇ,ㅡ,ㅁ,ㅌ,ㅣ,ㅁ,ㅗ,ㅇ"",""P0_Q1"":""(불가능)""}","survey","80","1154873","0.0-12.0-1.24","[]","","",""
"1668","TestRecordings/khwichon.wav","0","audio-button-response","81","1156563","0.0-12.0-0.25","","","",""
"6613","","{""P0_Q0"":""ㅋ,ㅜ,ㅣ,ㅊ,ㅗ,ㄴ"",""P0_Q1"":""(가능)""}","survey","82","1163184","0.0-12.0-1.25","[]","","",""
"2114","TestRecordings/mphuk.wav","0","audio-button-response","83","1165319","0.0-12.0-0.26","","","",""
"12453","","{""P0_Q0"":""ㅇ,ㅡ,ㅁ,ㅍ,ㅜ,ㅅ"",""P0_Q1"":""(불가능)""}","survey","84","1177778","0.0-12.0-1.26","[]","","",""
"1406","TestRecordings/mphosak.wav","0","audio-button-response","85","1179205","0.0-12.0-0.27","","","",""
"16577","","{""P0_Q0"":""ㅇ,ㅡ,ㅁ,ㅍ,ㅗ,ㅅ,ㅏ,ㅎ"",""P0_Q1"":""(가능)""}","survey","86","1195789","0.0-12.0-1.27","[]","","",""
"2031","TestRecordings/chunak.wav","0","audio-button-response","87","1197842","0.0-12.0-0.28","","","",""
"5487","","{""P0_Q0"":""ㅊ,ㅜ,ㄴ,ㅏ,ㅋ"",""P0_Q1"":""(가능)""}","survey","88","1203336","0.0-12.0-1.28","[]","","",""
"1766","TestRecordings/taphik.wav","0","audio-button-response","89","1205124","0.0-12.0-0.29","","","",""
"5204","","{""P0_Q0"":""ㄷ,ㅏ,ㅍ,ㅣ,ㄱ"",""P0_Q1"":""(가능)""}","survey","90","1210335","0.0-12.0-1.29","[]","","",""
"1406","TestRecordings/cwit.wav","0","audio-button-response","91","1211762","0.0-12.0-0.30","","","",""
"8098","","{""P0_Q0"":""ㅈ,ㅜ,ㅇ,ㅣ,ㅅ"",""P0_Q1"":""(불가능)""}","survey","92","1219867","0.0-12.0-1.30","[]","","",""
"1488","TestRecordings/tmichut.wav","0","audio-button-response","93","1221377","0.0-12.0-0.31","","","",""
"10312","","{""P0_Q0"":""ㅁ,ㅣ,ㅊ,ㅜ,ㅅ"",""P0_Q1"":""(가능)""}","survey","94","1231697","0.0-12.0-1.31","[]","","",""
"1814","TestRecordings/chwikhong.wav","0","audio-button-response","95","1233534","0.0-12.0-0.32","","","",""
"6960","","{""P0_Q0"":""ㅊ,ㅜ,ㅣ,ㅋ,ㅗ,ㅇ"",""P0_Q1"":""(가능)""}","survey","96","1240501","0.0-12.0-1.32","[]","","",""
"1064","TestRecordings/kmamun.wav","0","audio-button-response","97","1241588","0.0-12.0-0.33","","","",""
"8495","","{""P0_Q0"":""ㄱ,ㅡ,ㅁ,ㅏ,ㅁ,ㅜ,ㄴ"",""P0_Q1"":""(가능)""}","survey","98","1250089","0.0-12.0-1.33","[]","","",""
"1217","TestRecordings/khwiphing.wav","0","audio-button-response","99","1251329","0.0-12.0-0.34","","","",""
"11459","","{""P0_Q0"":""ㅋ,ㅜ,ㅣ,ㅍ,ㅣ,ㅇ"",""P0_Q1"":""(가능)""}","survey","100","1262794","0.0-12.0-1.34","[]","","",""
"2724","TestRecordings/thwikhip.wav","0","audio-button-response","101","1265541","0.0-12.0-0.35","","","",""
"6535","","{""P0_Q0"":""ㅌ,ㅜ,ㅣ,ㅋ,ㅣ,ㅂ"",""P0_Q1"":""(가능)""}","survey","102","1272084","0.0-12.0-1.35","[]","","",""
"1217","TestRecordings/khnothik.wav","0","audio-button-response","103","1273323","0.0-12.0-0.36","","","",""
"7975","","{""P0_Q0"":""ㅋ,ㅡ,ㄴ,ㅗ,ㅌ,ㅣ,ㄱ"",""P0_Q1"":""(가능)""}","survey","104","1281304","0.0-12.0-1.36","[]","","",""
"1503","TestRecordings/sikot.wav","0","audio-button-response","105","1282829","0.0-12.0-0.37","","","",""
"8147","","{""P0_Q0"":""ㅅ,ㅣ,ㄱ,ㅗ,ㅎ"",""P0_Q1"":""(불가능)""}","survey","106","1290982","0.0-12.0-1.37","[]","","",""
"1371","TestRecordings/tnunong.wav","0","audio-button-response","107","1292375","0.0-12.0-0.38","","","",""
"9986","","{""P0_Q0"":""ㄷ,ㅡ,ㄴ,ㅜ,ㄴ,ㅗ,ㅇ"",""P0_Q1"":""(불가능)""}","survey","108","1302367","0.0-12.0-1.38","[]","","",""
"1523","TestRecordings/ntakhip.wav","0","audio-button-response","109","1303911","0.0-12.0-0.39","","","",""
"11423","","{""P0_Q0"":""ㅇ,ㅡ,ㅁ,ㄷ,ㅏ,ㅋ,ㅣ,ㅂ"",""P0_Q1"":""(불가능)""}","survey","110","1315341","0.0-12.0-1.39","[]","","",""
"1377","TestRecordings/thukhat.wav","0","audio-button-response","111","1316740","0.0-12.0-0.40","","","",""
"8265","","{""P0_Q0"":""ㅌ,ㅜ,ㅋ,ㅏ,ㅎ"",""P0_Q1"":""(불가능)""}","survey","112","1325012","0.0-12.0-1.40","[]","","",""
"1592","TestRecordings/thnok.wav","0","audio-button-response","113","1326626","0.0-12.0-0.41","","","",""
"7153","","{""P0_Q0"":""ㅌ,ㅡ,ㄴ,ㅗ,ㄱ"",""P0_Q1"":""(가능)""}","survey","114","1333786","0.0-12.0-1.41","[]","","",""
"1446","TestRecordings/twak.wav","0","audio-button-response","115","1335255","0.0-12.0-0.42","","","",""
"9924","","{""P0_Q0"":""ㄷ,ㅜ,ㅇ,ㅏ,ㅋ"",""P0_Q1"":""(불가능)""}","survey","116","1345186","0.0-12.0-1.42","[]","","",""
"1614","TestRecordings/phnokhing.wav","0","audio-button-response","117","1346821","0.0-12.0-0.43","","","",""
"8188","","{""P0_Q0"":""ㅍ,ㅡ,ㄴ,ㅗ,ㅋ,ㅣ,ㅇ"",""P0_Q1"":""(불가능)""}","survey","118","1355017","0.0-12.0-1.43","[]","","",""
"2058","TestRecordings/khnap.wav","0","audio-button-response","119","1357096","0.0-12.0-0.44","","","",""
"9172","","{""P0_Q0"":""ㅋ,ㅡ,ㄴ,ㅏ,ㅂ"",""P0_Q1"":""(가능)""}","survey","120","1366275","0.0-12.0-1.44","[]","","",""
"1213","TestRecordings/knot.wav","0","audio-button-response","121","1367508","0.0-12.0-0.45","","","",""
"5598","","{""P0_Q0"":""ㄱ,ㅡ,ㄴ,ㅗ,ㅎ"",""P0_Q1"":""(가능)""}","survey","122","1373113","0.0-12.0-1.45","[]","","",""
"863","TestRecordings/cwam.wav","0","audio-button-response","123","1373999","0.0-12.0-0.46","","","",""
"10499","","{""P0_Q0"":""ㅈ,ㅗ,ㅏ,ㅇ,ㅏ,ㅁ"",""P0_Q1"":""(가능)""}","survey","124","1384504","0.0-12.0-1.46","[]","","",""
"1190","TestRecordings/mup.wav","0","audio-button-response","125","1385715","0.0-12.0-0.47","","","",""
"5418","","{""P0_Q0"":""ㅁ,ㅜ,ㅅ"",""P0_Q1"":""(불가능)""}","survey","126","1391140","0.0-12.0-1.47","[]","","",""
"2036","TestRecordings/chakot.wav","0","audio-button-response","127","1393199","0.0-12.0-0.48","","","",""
"6196","","{""P0_Q0"":""ㅊ,ㅏ,ㄱ,ㅗ,ㅎ"",""P0_Q1"":""(가능)""}","survey","128","1399401","0.0-12.0-1.48","[]","","",""
"2001","TestRecordings/twamot.wav","0","audio-button-response","129","1401424","0.0-12.0-0.49","","","",""
"9208","","{""P0_Q0"":""ㄷ,ㅜ,ㅇ,ㅏ,ㅁ,ㅗ,ㅎ"",""P0_Q1"":""(불가능)""}","survey","130","1410639","0.0-12.0-1.49","[]","","",""
"1556","TestRecordings/tin.wav","0","audio-button-response","131","1412219","0.0-12.0-0.50","","","",""
"9199","","{""P0_Q0"":""ㄷ,ㅣ,ㄴ"",""P0_Q1"":""(가능)""}","survey","132","1421425","0.0-12.0-1.50","[]","","",""
"1618","TestRecordings/twan.wav","0","audio-button-response","133","1423066","0.0-12.0-0.51","","","",""
"6549","","{""P0_Q0"":""ㄷ,ㅜ,ㅇ,ㅏ,ㄴ"",""P0_Q1"":""(가능)""}","survey","134","1429621","0.0-12.0-1.51","[]","","",""
"1087","TestRecordings/nchot.wav","0","audio-button-response","135","1430729","0.0-12.0-0.52","","","",""
"11049","","{""P0_Q0"":""ㅁ,ㅡ,ㅁ,ㅊ,ㅗ,ㄱ"",""P0_Q1"":""(불가능)""}","survey","136","1441786","0.0-12.0-1.52","[]","","",""
"1177","TestRecordings/chnuk.wav","0","audio-button-response","137","1442984","0.0-12.0-0.53","","","",""
"6430","","{""P0_Q0"":""ㅊ,ㅡ,ㄴ,ㅜ,ㄱ"",""P0_Q1"":""(불가능)""}","survey","138","1449421","0.0-12.0-1.53","[]","","",""
"1084","TestRecordings/npucap.wav","0","audio-button-response","139","1450528","0.0-12.0-0.54","","","",""
"10534","","{""P0_Q0"":""ㅁ,ㅡ,ㅁ,ㅂ,ㅜ,ㅈ,ㅏ,ㄱ"",""P0_Q1"":""(불가능)""}","survey","140","1461069","0.0-12.0-1.54","[]","","",""
"1106","TestRecordings/thinok.wav","0","audio-button-response","141","1462197","0.0-12.0-0.55","","","",""
"8402","","{""P0_Q0"":""ㅌ,ㅣ,ㄴ,ㅗ,ㄱ"",""P0_Q1"":""(가능)""}","survey","142","1470606","0.0-12.0-1.55","[]","","",""
"1054","TestRecordings/chnupot.wav","0","audio-button-response","143","1471693","0.0-12.0-0.56","","","",""
"8965","","{""P0_Q0"":""ㅊ,ㅡ,ㄴ,ㅜ,ㅂ,ㅗ,ㅅ"",""P0_Q1"":""(불가능)""}","survey","144","1480666","0.0-12.0-1.56","[]","","",""
"1147","TestRecordings/khithuk.wav","0","audio-button-response","145","1481836","0.0-12.0-0.57","","","",""
"6021","","{""P0_Q0"":""ㅋ,ㅣ,ㅌ,ㅜ"",""P0_Q1"":""(가능)""}","survey","146","1487865","0.0-12.0-1.57","[]","","",""
"1218","TestRecordings/chwiphin.wav","0","audio-button-response","147","1489105","0.0-12.0-0.58","","","",""
"6028","","{""P0_Q0"":""ㅊ,ㅜ,ㅣ,ㅍ,ㅣ,ㄴ"",""P0_Q1"":""(가능)""}","survey","148","1495140","0.0-12.0-1.58","[]","","",""
"1355","TestRecordings/khin.wav","0","audio-button-response","149","1496519","0.0-12.0-0.59","","","",""
"4697","","{""P0_Q0"":""ㅋ,ㅣ,ㄴ"",""P0_Q1"":""(가능)""}","survey","150","1501222","0.0-12.0-1.59","[]","","",""
"2489",""," ","html-keyboard-response","151","1503711","0.0-13.0","","","",""
"43139","","{""P0_Q0"":""20"",""P0_Q1"":""여"",""P0_Q2"":""5"",""P0_Q3"":""x"",""P0_Q4"":""중국어"",""P0_Q5"":""15, 3"",""P0_Q6"":""x""}","survey","152","1546859","0.0-14.0","[]","","",""
"167562","<p style=""font-size:30px"",lang=""ko"">실험이 끝났습니다</p><p style=""font-size:30px"",lang=""ko"">참가해주셔서 고맙습니다</p>"," ","html-keyboard-response","153","1714422","0.0-15.0","","","",""
,