"rt","stimulus","response","trial_type","trial_index","time_elapsed","internal_node_id","accuracy","PracticeTest","ConsonantSequence","Grammaticality"
"2562143","<p style=""font-size:30px"",lang=""ko"">실험에 오신 것을 환영합니다</p><p lang=""ko"">스페이스바를 누르면 다음 페이지로 넘어갑니다</p>"," ","html-keyboard-response","0","2562038","0.0-0.0","","","",""
"1664","<p style=""font-size:30px"",lang=""ko"">해드폰을 본인에게 잘 맞게 착용하세요</p><p lang=""ko"">스페이스바를 누르면 다음 페이지로 넘어갑니다</p>"," ","html-keyboard-response","1","2563703","0.0-1.0","","","",""
"5572","<p style=""font-size:30px"",lang=""ko"">이 실험에서는 새로 만든 한국 단어를 들으실 겁니다</p><p style=""font-size:30px"",lang=""ko"">단어를 들리는대로 쓰세요. 그런 다음 그 단어가 한국어 단어로 가능한지 평가하세요</p><p lang=""ko"">스페이스바를 누르면 다음 페이지로 넘어갑니다</p>"," ","html-keyboard-response","2","2569275","0.0-2.0","","","",""
"1586","<p style=""font-size:30px"",lang=""ko"">원래 있는 단어로 예를 들어 봅시다</p><p lang=""ko"">스페이스바를 누르면 다음 페이지로 넘어갑니다</p>"," ","html-keyboard-response","3","2570861","0.0-3.0","","","",""
"8524","PracticeRecordings/kom_bear.wav","0","audio-button-response","4","2579529","0.0-4.0","","","",""
"2489","<p style=""font-size:30px"",lang=""ko"">이제 직접 단어를 듣고 쓰는 연습을 해봅시다. </p><p style=""font-size:30px"",lang=""ko"">스페이스바를 누르면 다음 페이지로 넘어갑니다</p>"," ","html-keyboard-response","5","2582018","0.0-5.0","","","",""
"4401","PracticeRecordings/kirin_giraffe.wav","0","audio-button-response","6","2586512","0.0-6.0-0.0","","","",""
"10809","kirin_giraffe","{""P0_Q0"":""ㄱ,ㅣ,ㄹ,ㅣㄴ""}","survey","7","2597355","0.0-6.0-1.0","[]","practice","NA","TRUE"
"2026","<p style=""font-size:30px"",lang=""ko"">방금 들으신 단어는 ""ㄱ,ㅣ,ㄹ,ㅣ,ㄴ"" 이라고 쓰시면 됩니다</p><p lang=""ko"">스페이스바를 누르면 다음 페이지로 넘어갑니다</p>"," ","html-keyboard-response","8","2599381","0.0-6.0-2.0","","","",""
"2183","PracticeRecordings/saca_lion.wav","0","audio-button-response","9","2601647","0.0-6.0-0.1","","","",""
"4972","saca_lion","{""P0_Q0"":""ㅅ,ㅏ,ㅈ,ㅏ""}","survey","10","2606625","0.0-6.0-1.1","[]","practice","NA","FALSE"
"1337","<p style=""font-size:30px"",lang=""ko"">방금 들으신 단어는 ""ㅅ,ㅏ,ㅈ,ㅏ"" 라고 쓰시면 됩니다</p><p lang=""ko"">스페이스바를 누르면 다음 페이지로 넘어갑니다</p>"," ","html-keyboard-response","11","2607963","0.0-6.0-2.1","","","",""
"2031","PracticeRecordings/saseum_deer.wav","0","audio-button-response","12","2610076","0.0-6.0-0.2","","","",""
"5006","saseum_deer","{""P0_Q0"":""ㅅ,ㅏㅅ,ㅡ,ㅁ""}","survey","13","2615088","0.0-6.0-1.2","[]","practice","NA","FALSE"
"1300","<p style=""font-size:30px"",lang=""ko"">방금 들으신 단어는 ""ㅅ,ㅏ,ㅅ,ㅡ,ㅁ""이라고 쓰시면 됩니다</p><p lang=""ko"">스페이스바를 누르면 다음 페이지로 넘어갑니다</p>"," ","html-keyboard-response","14","2616388","0.0-6.0-2.2","","","",""
"1658","PracticeRecordings/thokki_rabbit.wav","0","audio-button-response","15","2618129","0.0-6.0-0.3","","","",""
"4473","thokki_rabbit","{""P0_Q0"":""ㅌ,ㅗ,ㄲ,ㅣ""}","survey","16","2622609","0.0-6.0-1.3","[]","practice","NA","FALSE"
"1465","<p style=""font-size:30px"",lang=""ko"">방금 들으신 단어는 ""ㅌ,ㅗ,ㄲ,ㅣ"" 라고 쓰시면 됩니다</p><p lang=""ko"">스페이스바를 누르면 다음 페이지로 넘어갑니다</p>"," ","html-keyboard-response","17","2624074","0.0-6.0-2.3","","","",""
"2089","<p style=""font-size:30px"",lang=""ko"">이제 만든 단어로 연습해봅시다.</p><p lang=""ko"">스페이스바를 누르면 다음 페이지로 넘어갑니다</p>"," ","html-keyboard-response","18","2626163","0.0-7.0","","","",""
"2605","PracticeRecordings/snen.wav","0","audio-button-response","19","2628849","0.0-8.0-0.0","","","",""
"6954","snen","{""P0_Q0"":""ㅅ,ㅡ,ㄴ,ㅔ,ㄴ""}","survey","20","2635810","0.0-8.0-1.0","[]","practice","NA","TRUE"
"5394","<p style=""font-size:30px"",lang=""ko"">들으신 단어는 <br> ""ㅅ,ㅡ,ㄴ,ㅐ,ㄴ""  ""ㅅ,ㅡ,ㄴ,ㅐ"" ""ㅅ,ㄴ,ㅐ,ㄴ (""으"" 소리가 안 들리는 경우)"" 등 <br> 사람에 따라 다양하게 들릴 수 있습니다 <br> 본인에게 들리는대로 쓰시면 됩니다.</p><p lang=""ko"">스페이스바를 누르면 다음 페이지로 넘어갑니다</p>"," ","html-keyboard-response","21","2641205","0.0-8.0-2.0","","","",""
"2379","PracticeRecordings/phrak.wav","0","audio-button-response","22","2643668","0.0-8.0-0.1","","","",""
"7516","phrak","{""P0_Q0"":""ㅂ,ㅡ,ㄹ,ㅏ,ㄱ""}","survey","23","2651191","0.0-8.0-1.1","[]","practice","NA","FALSE"
"3274","<p style=""font-size:30px"",lang=""ko"">들으신 단어는 <br> ""ㅍ,ㅡ,ㄹ,ㅏ,ㄱ"" ""ㅍ,ㅡ,ㄹ,ㅏ,ㅅ"" ""ㅋ,ㅡ,ㄹ,ㅏ,ㄱ"" ""ㅍ,ㄹ,ㅏ,ㄱ (""으"" 소리가 안 들리는 경우)"" 등 <br> 사람에 따라 다양하게 들릴 수 있습니다 <br> 본인에게 들리는대로 쓰시면 됩니다.</p><p lang=""ko"">스페이스바를 누르면 다음 페이지로 넘어갑니다</p>"," ","html-keyboard-response","24","2654466","0.0-8.0-2.1","","","",""
"2710","PracticeRecordings/chka.wav","0","audio-button-response","25","2657260","0.0-8.0-0.2","","","",""
"4935","chka","{""P0_Q0"":""ㅊ,ㅡ,ㄱ,ㅏ""}","survey","26","2662202","0.0-8.0-1.2","[]","practice","NA","FALSE"
"2396","<p style=""font-size:30px"",lang=""ko"">들으신 단어는 ""ㅊ,ㅣ,ㄱ,ㅏ"", ""ㅊ,ㅡ,ㄱ,ㅏ"", ""ㅊ,ㄱ,ㅏ"", ""ㅊ,ㅟ,ㄱ,ㅏ"" 등 <br> 사람에 따라 다양하게 들릴 수 있습니다. <br> 본인에게 들리는대로 쓰시면 됩니다.</p><p lang=""ko"">스페이스바를 누르면 다음 페이지로 넘어갑니다</p>"," ","html-keyboard-response","27","2664599","0.0-8.0-2.2","","","",""
"2661",""," ","html-keyboard-response","28","2667260","0.0-9.0","","","",""
"2900","<p style=""font-size:30px"",lang=""ko"">이제 실험을 시작하겠습니다.</p><p style=""font-size:30px"",lang=""ko"">실전에서는 각각의 만든 단어를 한 번씩만 들을 수 있습니다.</p>"," ","html-keyboard-response","29","2670161","0.0-10.0","","","",""
"28319","<p style=""font-size:30px"",lang=""ko"">단어를 풀어 쓰신 후에 그 단어가 한국어로 가능한 단어인지 평가해주세요</p><p lang=""ko"">스페이스바를 누르면 다음 페이지로 넘어갑니다</p>"," ","html-keyboard-response","30","2698481","0.0-11.0","","","",""
"3544","TestRecordings/chmop.wav","0","audio-button-response","31","2702111","0.0-12.0-0.0","","","",""
"19873","","{""P0_Q0"":""ㅊ,ㅡ,ㅁ,ㅗ,ㄱ"",""P0_Q1"":""(불가능)""}","survey","32","2722001","0.0-12.0-1.0","[]","","",""
"2851","TestRecordings/twan.wav","0","audio-button-response","33","2724930","0.0-12.0-0.1","","","",""
"21758","","{""P0_Q0"":""ㄷ,ㅗ,ㅏ,ㄴ"",""P0_Q1"":""(불가능)""}","survey","34","2746697","0.0-12.0-1.1","[]","","",""
"2512","TestRecordings/swikhat.wav","0","audio-button-response","35","2749301","0.0-12.0-0.2","","","",""
"12501","","{""P0_Q0"":""ㅅ,ㅟ,ㅋ,ㅏ,ㅅ"",""P0_Q1"":""(불가능)""}","survey","36","2761811","0.0-12.0-1.2","[]","","",""
"2068","TestRecordings/phnokhing.wav","0","audio-button-response","37","2763964","0.0-12.0-0.3","","","",""
"11073","","{""P0_Q0"":""ㅍ,ㅡ,ㄴ,ㅗ,ㅋ,ㅣ,ㅇ"",""P0_Q1"":""(가능)""}","survey","38","2775044","0.0-12.0-1.3","[]","","",""
"2169","TestRecordings/nthaking.wav","0","audio-button-response","39","2777237","0.0-12.0-0.4","","","",""
"11308","","{""P0_Q0"":""ㅇ,ㅡ,ㅇ,ㅌ,ㅏ,ㄱ,ㅣ,ㅇ"",""P0_Q1"":""(불가능)""}","survey","40","2788552","0.0-12.0-1.4","[]","","",""
"1556","TestRecordings/nchot.wav","0","audio-button-response","41","2790190","0.0-12.0-0.5","","","",""
"21983","","{""P0_Q0"":""ㅇ,ㅡ,ㅇ,ㅊ,ㅗ,ㅅ"",""P0_Q1"":""(가능)""}","survey","42","2812181","0.0-12.0-1.5","[]","","",""
"2437","TestRecordings/khwichon.wav","0","audio-button-response","43","2814707","0.0-12.0-0.6","","","",""
"7502","","{""P0_Q0"":""ㅋ,ㅟ,ㅊ,ㅗ,ㄴ"",""P0_Q1"":""(가능)""}","survey","44","2822217","0.0-12.0-1.6","[]","","",""
"2082","TestRecordings/thwikhip.wav","0","audio-button-response","45","2824322","0.0-12.0-0.7","","","",""
"9916","","{""P0_Q0"":""ㅌ,ㅟ,ㅋ,ㅣ,ㅂ"",""P0_Q1"":""(불가능)""}","survey","46","2834245","0.0-12.0-1.7","[]","","",""
"1816","TestRecordings/chunak.wav","0","audio-button-response","47","2836145","0.0-12.0-0.8","","","",""
"6595","","{""P0_Q0"":""ㅊ,ㅜ,ㄴ,ㅏ,ㄱ"",""P0_Q1"":""(가능)""}","survey","48","2842747","0.0-12.0-1.8","[]","","",""
"2423","TestRecordings/khnothik.wav","0","audio-button-response","49","2845255","0.0-12.0-0.9","","","",""
"9097","","{""P0_Q0"":""ㅋ,ㅡ,ㄴ,ㅗ,ㅌ,ㅣ,ㄱ"",""P0_Q1"":""(불가능)""}","survey","50","2854359","0.0-12.0-1.9","[]","","",""
"1868","TestRecordings/thnok.wav","0","audio-button-response","51","2856311","0.0-12.0-0.10","","","",""
"6420","","{""P0_Q0"":""ㅌ,ㅡ,ㄴ,ㅗ,ㄱ"",""P0_Q1"":""(가능)""}","survey","52","2862738","0.0-12.0-1.10","[]","","",""
"2004","TestRecordings/knot.wav","0","audio-button-response","53","2864827","0.0-12.0-0.11","","","",""
"5682","","{""P0_Q0"":""ㄱ,ㅡ,ㄴ,ㅗ,ㅅ"",""P0_Q1"":""(불가능)""}","survey","54","2870516","0.0-12.0-1.11","[]","","",""
"1950","TestRecordings/tnunong.wav","0","audio-button-response","55","2872551","0.0-12.0-0.12","","","",""
"7376","","{""P0_Q0"":""ㄷ,ㅡ,ㄴ,ㅜ,ㄴ,ㅗ,ㅇ"",""P0_Q1"":""(불가능)""}","survey","56","2879934","0.0-12.0-1.12","[]","","",""
"3088","TestRecordings/twak.wav","0","audio-button-response","57","2883106","0.0-12.0-0.13","","","",""
"4709","","{""P0_Q0"":""ㄷ,ㅘ,ㄱ"",""P0_Q1"":""(불가능)""}","survey","58","2887823","0.0-12.0-1.13","[]","","",""
"2553","TestRecordings/mphosak.wav","0","audio-button-response","59","2890460","0.0-12.0-0.14","","","",""
"9293","","{""P0_Q0"":""ㅇ,ㅡ,ㅇ,ㅍ,ㅗ,ㅅ,ㅏ,ㄱ"",""P0_Q1"":""(가능)""}","survey","60","2899760","0.0-12.0-1.14","[]","","",""
"2526","TestRecordings/khnap.wav","0","audio-button-response","61","2902370","0.0-12.0-0.15","","","",""
"6085","","{""P0_Q0"":""ㅋ,ㅡ,ㄴ,ㅏ,ㅂ"",""P0_Q1"":""(가능)""}","survey","62","2908462","0.0-12.0-1.15","[]","","",""
"2886","TestRecordings/twamot.wav","0","audio-button-response","63","2911433","0.0-12.0-0.16","","","",""
"8417","","{""P0_Q0"":""ㄷ,ㅘ,ㅁ,ㅗ,ㅅ"",""P0_Q1"":""(불가능)""}","survey","64","2919858","0.0-12.0-1.16","[]","","",""
"1760","TestRecordings/chwiphin.wav","0","audio-button-response","65","2921647","0.0-12.0-0.17","","","",""
"6972","","{""P0_Q0"":""ㅊ,ㅟ,ㅍ,ㅣ,ㄴ"",""P0_Q1"":""(가능)""}","survey","66","2928627","0.0-12.0-1.17","[]","","",""
"2968","TestRecordings/cwam.wav","0","audio-button-response","67","2931679","0.0-12.0-0.18","","","",""
"4928","","{""P0_Q0"":""ㅈ,ㅘ,ㅁ"",""P0_Q1"":""(불가능)""}","survey","68","2936614","0.0-12.0-1.18","[]","","",""
"2048","TestRecordings/khwiphing.wav","0","audio-button-response","69","2938747","0.0-12.0-0.19","","","",""
"16981","","{""P0_Q0"":""ㅋ,ㅟ,ㅍ,ㅣ,ㅇ"",""P0_Q1"":""(불가능)""}","survey","70","2955734","0.0-12.0-1.19","[]","","",""
"2402","TestRecordings/cnaphin.wav","0","audio-button-response","71","2958220","0.0-12.0-0.20","","","",""
"8599","","{""P0_Q0"":""ㅊ,ㅡ,ㄴ,ㅏ,ㅍ,ㅣ,ㄴ"",""P0_Q1"":""(불가능)""}","survey","72","2966826","0.0-12.0-1.20","[]","","",""
"2217","TestRecordings/chakot.wav","0","audio-button-response","73","2969128","0.0-12.0-0.21","","","",""
"6106","","{""P0_Q0"":""ㅊ,ㅏ,ㄱ,ㅗ,ㅅ"",""P0_Q1"":""(가능)""}","survey","74","2975241","0.0-12.0-1.21","[]","","",""
"1926","TestRecordings/chnupot.wav","0","audio-button-response","75","2977252","0.0-12.0-0.22","","","",""
"12391","","{""P0_Q0"":""ㅊ,ㅡ,ㄴ,ㅜ,ㅂ,ㅗ,ㅅ"",""P0_Q1"":""(불가능)""}","survey","76","2989651","0.0-12.0-1.22","[]","","",""
"1941","TestRecordings/ntakhip.wav","0","audio-button-response","77","2991677","0.0-12.0-0.23","","","",""
"9606","","{""P0_Q0"":""ㅇ,ㅡ,ㅇ,ㄷ,ㅏ,ㅋ,ㅣ,ㅅ"",""P0_Q1"":""(불가능)""}","survey","78","3001290","0.0-12.0-1.23","[]","","",""
"2375","TestRecordings/tikut.wav","0","audio-button-response","79","3003751","0.0-12.0-0.24","","","",""
"8475","","{""P0_Q0"":""ㄷ,ㅣ,ㄱ,ㅜ,ㅅ"",""P0_Q1"":""(가능)""}","survey","80","3012233","0.0-12.0-1.24","[]","","",""
"1755","TestRecordings/cmoman.wav","0","audio-button-response","81","3014075","0.0-12.0-0.25","","","",""
"9359","","{""P0_Q0"":""ㅊ,ㅡ,ㅁ,ㅗ,ㅁ,ㅏ,ㄴ"",""P0_Q1"":""(불가능)""}","survey","82","3023440","0.0-12.0-1.25","[]","","",""
"1801","TestRecordings/pmochun.wav","0","audio-button-response","83","3025327","0.0-12.0-0.26","","","",""
"14557","","{""P0_Q0"":""ㅂ,ㅜ,ㅇ,ㅇ,ㅜ,ㅊ,ㅜ,ㄴ"",""P0_Q1"":""(가능)""}","survey","84","3039891","0.0-12.0-1.26","[]","","",""
"1953","TestRecordings/nakhit.wav","0","audio-button-response","85","3041928","0.0-12.0-0.27","","","",""
"5532","","{""P0_Q0"":""ㄴ,ㅏ,ㅋ,ㅣ,ㅅ"",""P0_Q1"":""(불가능)""}","survey","86","3047467","0.0-12.0-1.27","[]","","",""
"1513","TestRecordings/mphutam.wav","0","audio-button-response","87","3049008","0.0-12.0-0.28","","","",""
"7778","","{""P0_Q0"":""ㅇ,ㅡ,ㅇ,ㅍ,ㅜ,ㄷ,ㅏ,ㅁ"",""P0_Q1"":""(불가능)""}","survey","88","3056793","0.0-12.0-1.28","[]","","",""
"1617","TestRecordings/chumik.wav","0","audio-button-response","89","3058497","0.0-12.0-0.29","","","",""
"6566","","{""P0_Q0"":""ㅊ,ㅜ,ㅁ,ㅣ,ㄱ"",""P0_Q1"":""(가능)""}","survey","90","3065071","0.0-12.0-1.29","[]","","",""
"3202","TestRecordings/khin.wav","0","audio-button-response","91","3068356","0.0-12.0-0.30","","","",""
"9096","","{""P0_Q0"":""ㅋ,ㅣ,ㄴ"",""P0_Q1"":""(불가능)""}","survey","92","3077459","0.0-12.0-1.30","[]","","",""
"1548","TestRecordings/mpukham.wav","0","audio-button-response","93","3079037","0.0-12.0-0.31","","","",""
"8810","","{""P0_Q0"":""ㅇ,ㅡ,ㅇ,ㅂ,ㅜ,ㅋ,ㅘ,ㄴ"",""P0_Q1"":""(불가능)""}","survey","94","3087853","0.0-12.0-1.31","[]","","",""
"2500","TestRecordings/khithuk.wav","0","audio-button-response","95","3090438","0.0-12.0-0.32","","","",""
"5793","","{""P0_Q0"":""ㅋ,ㅣ,ㅌ,ㅜ"",""P0_Q1"":""(불가능)""}","survey","96","3096237","0.0-12.0-1.32","[]","","",""
"1690","TestRecordings/nkat.wav","0","audio-button-response","97","3098011","0.0-12.0-0.33","","","",""
"7255","","{""P0_Q0"":""ㅇ,ㅡ,ㅇ,ㄱ,ㅏ,ㅅ"",""P0_Q1"":""(불가능)""}","survey","98","3105272","0.0-12.0-1.33","[]","","",""
"1783","TestRecordings/tin.wav","0","audio-button-response","99","3107141","0.0-12.0-0.34","","","",""
"4977","","{""P0_Q0"":""ㄷ,ㅣ,ㄴ"",""P0_Q1"":""(가능)""}","survey","100","3112125","0.0-12.0-1.34","[]","","",""
"1551","TestRecordings/tup.wav","0","audio-button-response","101","3113760","0.0-12.0-0.35","","","",""
"13123","","{""P0_Q0"":""ㄷ,ㅜ,ㅂ"",""P0_Q1"":""(가능)""}","survey","102","3126890","0.0-12.0-1.35","[]","","",""
"1803","TestRecordings/sikot.wav","0","audio-button-response","103","3128777","0.0-12.0-0.36","","","",""
"7279","","{""P0_Q0"":""ㅅ,ㅣ,ㄱ,ㅗ,ㅅ"",""P0_Q1"":""(가능)""}","survey","104","3136062","0.0-12.0-1.36","[]","","",""
"1452","TestRecordings/nwimik.wav","0","audio-button-response","105","3137597","0.0-12.0-0.37","","","",""
"7144","","{""P0_Q0"":""ㄴ,ㅜ,ㅇ,ㅣ,ㅁ,ㅣ,ㄱ"",""P0_Q1"":""(불가능)""}","survey","106","3144748","0.0-12.0-1.37","[]","","",""
"2353","TestRecordings/mup.wav","0","audio-button-response","107","3147184","0.0-12.0-0.38","","","",""
"8114","","{""P0_Q0"":""ㅁ,ㅜ,ㅅ"",""P0_Q1"":""(가능)""}","survey","108","3155307","0.0-12.0-1.38","[]","","",""
"2412","TestRecordings/npucap.wav","0","audio-button-response","109","3157805","0.0-12.0-0.39","","","",""
"7741","","{""P0_Q0"":""ㅇ,ㅡ,ㅇ,ㅂ,ㅜ,ㅈ,ㅏ,ㅂ"",""P0_Q1"":""(불가능)""}","survey","110","3165552","0.0-12.0-1.39","[]","","",""
"1403","TestRecordings/taphik.wav","0","audio-button-response","111","3166978","0.0-12.0-0.40","","","",""
"9422","","{""P0_Q0"":""ㄷ,ㅏ,ㅍ,ㅣ,ㄱ"",""P0_Q1"":""(불가능)""}","survey","112","3176407","0.0-12.0-1.40","[]","","",""
"1378","TestRecordings/mkit.wav","0","audio-button-response","113","3177814","0.0-12.0-0.41","","","",""
"6829","","{""P0_Q0"":""ㅇ,ㅡ,ㅇ,ㄱ,ㅣ,ㅅ"",""P0_Q1"":""(불가능)""}","survey","114","3184651","0.0-12.0-1.41","[]","","",""
"2462","TestRecordings/mtukin.wav","0","audio-button-response","115","3187198","0.0-12.0-0.42","","","",""
"15702","","{""P0_Q0"":""ㅇ,ㅡ,ㅇ,ㄷ,ㅜ,ㄱ,ㅣ,ㄴ"",""P0_Q1"":""(불가능)""}","survey","116","3202906","0.0-12.0-1.42","[]","","",""
"1694","TestRecordings/khwipot.wav","0","audio-button-response","117","3204684","0.0-12.0-0.43","","","",""
"9439","","{""P0_Q0"":""ㅋ,ㅟ,ㅂ,ㅗ,ㅅ"",""P0_Q1"":""(가능)""}","survey","118","3214129","0.0-12.0-1.43","[]","","",""
"1485","TestRecordings/cwit.wav","0","audio-button-response","119","3215701","0.0-12.0-0.44","","","",""
"5812","","{""P0_Q0"":""ㅈ,ㅟ,ㅌ"",""P0_Q1"":""(불가능)""}","survey","120","3221520","0.0-12.0-1.44","[]","","",""
"1523","TestRecordings/chnuk.wav","0","audio-button-response","121","3223072","0.0-12.0-0.45","","","",""
"6838","","{""P0_Q0"":""ㅊ,ㅡ,ㄴ,ㅜ"",""P0_Q1"":""(불가능)""}","survey","122","3229917","0.0-12.0-1.45","[]","","",""
"2916","TestRecordings/chwikhong.wav","0","audio-button-response","123","3232918","0.0-12.0-0.46","","","",""
"5688","","{""P0_Q0"":""ㅊ,ㅟ,ㅋ,ㅗ,ㅇ"",""P0_Q1"":""(가능)""}","survey","124","3238612","0.0-12.0-1.46","[]","","",""
"1849","TestRecordings/nchocip.wav","0","audio-button-response","125","3240544","0.0-12.0-0.47","","","",""
"8662","","{""P0_Q0"":""ㅇ,ㅡ,ㅇ,ㅊ,ㅗ,ㅈ,ㅣ,ㅂ"",""P0_Q1"":""(가능)""}","survey","126","3249213","0.0-12.0-1.47","[]","","",""
"1908","TestRecordings/tmichut.wav","0","audio-button-response","127","3251206","0.0-12.0-0.48","","","",""
"6879","","{""P0_Q0"":""ㄷ,ㅡ,ㅁ,ㅣ,ㅊ,ㅜ,ㅅ"",""P0_Q1"":""(불가능)""}","survey","128","3258092","0.0-12.0-1.48","[]","","",""
"1712","TestRecordings/phmiman.wav","0","audio-button-response","129","3259890","0.0-12.0-0.49","","","",""
"6665","","{""P0_Q0"":""ㅍ,ㅡ,ㅁ,ㅣ,ㅁ,ㅏ,ㄴ"",""P0_Q1"":""(불가능)""}","survey","130","3266561","0.0-12.0-1.49","[]","","",""
"1665","TestRecordings/thukhat.wav","0","audio-button-response","131","3268311","0.0-12.0-0.50","","","",""
"5963","","{""P0_Q0"":""ㅌ,ㅜ,ㅋ,ㅏ,ㅅ"",""P0_Q1"":""(불가능)""}","survey","132","3274282","0.0-12.0-1.50","[]","","",""
"2285","TestRecordings/kmamun.wav","0","audio-button-response","133","3276591","0.0-12.0-0.51","","","",""
"9763","","{""P0_Q0"":""ㄱ,ㅡ,ㅁ,ㅏ,ㅁ,ㅜ,ㄴ"",""P0_Q1"":""(가능)""}","survey","134","3286361","0.0-12.0-1.51","[]","","",""
"1533","TestRecordings/mthik.wav","0","audio-button-response","135","3287977","0.0-12.0-0.52","","","",""
"5904","","{""P0_Q0"":""ㅇ,ㅡ,ㅇ,ㅌ,ㅣ,ㄱ"",""P0_Q1"":""(불가능)""}","survey","136","3293887","0.0-12.0-1.52","[]","","",""
"1651","TestRecordings/thwam.wav","0","audio-button-response","137","3295622","0.0-12.0-0.53","","","",""
"4478","","{""P0_Q0"":""ㅌ,ㅘ,ㅁ"",""P0_Q1"":""(불가능)""}","survey","138","3300107","0.0-12.0-1.53","[]","","",""
"1283","TestRecordings/twaput.wav","0","audio-button-response","139","3301475","0.0-12.0-0.54","","","",""
"6435","","{""P0_Q0"":""ㄷ,ㅘ,ㅂ,ㅜ,ㅅ"",""P0_Q1"":""(불가능)""}","survey","140","3307917","0.0-12.0-1.54","[]","","",""
"1705","TestRecordings/nthimong.wav","0","audio-button-response","141","3309706","0.0-12.0-0.55","","","",""
"13574","","{""P0_Q0"":""ㅇ,ㅡ,ㅇ,ㅌ,ㅣ,ㅁ,ㅗ,ㅇ"",""P0_Q1"":""(불가능)""}","survey","142","3323287","0.0-12.0-1.55","[]","","",""
"1682","TestRecordings/thinok.wav","0","audio-button-response","143","3325044","0.0-12.0-0.56","","","",""
"9677","","{""P0_Q0"":""ㅌ,ㅣ,ㄴ,ㅗ,ㄱ"",""P0_Q1"":""(가능)""}","survey","144","3334727","0.0-12.0-1.56","[]","","",""
"1397","TestRecordings/mphuk.wav","0","audio-button-response","145","3336146","0.0-12.0-0.57","","","",""
"7547","","{""P0_Q0"":""ㅇ,ㅡ,ㅁ,ㅍ,ㅜ"",""P0_Q1"":""(불가능)""}","survey","146","3343700","0.0-12.0-1.57","[]","","",""
"1642","TestRecordings/nkhuchom.wav","0","audio-button-response","147","3345365","0.0-12.0-0.58","","","",""
"7599","","{""P0_Q0"":""ㅇ,ㅡ,ㅇ,ㅋ,ㅜ,ㅊ,ㅛ,ㅁ"",""P0_Q1"":""(불가능)""}","survey","148","3352971","0.0-12.0-1.58","[]","","",""
"4098","TestRecordings/khut.wav","0","audio-button-response","149","3357153","0.0-12.0-0.59","","","",""
"4997","","{""P0_Q0"":""ㅋ,ㅜ,ㅅ"",""P0_Q1"":""(불가능)""}","survey","150","3362156","0.0-12.0-1.59","[]","","",""
"3545",""," ","html-keyboard-response","151","3365702","0.0-13.0","","","",""
"70600","","{""P0_Q0"":""21"",""P0_Q1"":""여자"",""P0_Q2"":""8살"",""P0_Q3"":""없음"",""P0_Q4"":""없음"",""P0_Q5"":""없음"",""P0_Q6"":""고등학생 때 중국어 수업 들은 적 있지만 유의미하진 않은 것 같습니다""}","survey","152","3436310","0.0-14.0","[]","","",""
"118729","<p style=""font-size:30px"",lang=""ko"">실험이 끝났습니다</p><p style=""font-size:30px"",lang=""ko"">참가해주셔서 고맙습니다</p>"," ","html-keyboard-response","153","3555037","0.0-15.0","","","",""
,