rt,stimulus,response,trial_type,trial_index,time_elapsed,internal_node_id,accuracy,PracticeTest,ConsonantSequence,Grammaticality
,,,,,,,,,,
121346,"<p style=""font-size:30px"">Welcome to the experiment</p><p>Press spacebar to continue</p>", ,html-keyboard-response,0,121341,0.0-0.0,,,,
,,,,,,,,,,
1874,"<p style=""font-size:30px"">Please ensure that your headphones are on correctly</p><p>Press spacebar to continue</p>", ,html-keyboard-response,1,123216,0.0-1.0,,,,
,,,,,,,,,,
2351,"<p style=""font-size:30px"">In this experiment, you will listen to nonsense words</p><p style=""font-size:30px"",lang=""ko"">Your task is to write down the word and then rate how good an English word it is</p><p>Press spacebar to continue</p>", ,html-keyboard-response,2,125568,0.0-2.0,,,,
,,,,,,,,,,
2224,"<p style=""font-size:30px"">Let's practice with some nonsense words so that you understand the task</p><p>Press spacebar to continue</p>", ,html-keyboard-response,3,127792,0.0-3.0,,,,
,,,,,,,,,,
2412,PracticeRecordings/bupkes.wav,0,audio-button-response,4,130688,0.0-4.0-0.0,,,,
,,,,,,,,,,
24873,bupkes,"{""P0_Q0"":""bepkis""}",survey,5,155604,0.0-4.0-1.0,[],practice,NA,TRUE
,,,,,,,,,,
6202,"<p style=""font-size:30px""> The word you heard is <br> ""bupkess"" <br> It may sound different depending on the person. <br> Write it down as it sounds.</p><p lang=""ko"">Press spacebar to continue</p>", ,html-keyboard-response,6,161808,0.0-4.0-2.0,,,,
,,,,,,,,,,
2213,PracticeRecordings/dringgep.wav,0,audio-button-response,7,164029,0.0-4.0-0.1,,,,
,,,,,,,,,,
10558,dringep,"{""P0_Q0"":""dringgep""}",survey,8,174602,0.0-4.0-1.1,[],practice,NA,FALSE
,,,,,,,,,,
3210,"<p style=""font-size:30px""> The word you heard is <br> ""dringep"" <br> It may sound different depending on the person. <br> Write it down as it sounds.</p><p lang=""ko"">Press spacebar to continue</p>", ,html-keyboard-response,9,177814,0.0-4.0-2.1,,,,
,,,,,,,,,,
1881,PracticeRecordings/dunggem.wav,0,audio-button-response,10,179701,0.0-4.0-0.2,,,,
,,,,,,,,,,
7520,dunggem,"{""P0_Q0"":""dungen""}",survey,11,187234,0.0-4.0-1.2,[],practice,NA,FALSE
,,,,,,,,,,
4298,"<p style=""font-size:30px""> The word you heard is <br> ""dungem"" (or) ""doongem"" <br> It may sound different depending on the person. <br> Write it down as it sounds.</p><p lang=""ko"">Press spacebar to continue</p>", ,html-keyboard-response,12,191534,0.0-4.0-2.2,,,,
,,,,,,,,,,
1799,PracticeRecordings/deip.wav,0,audio-button-response,13,193340,0.0-4.0-0.3,,,,
,,,,,,,,,,
3465,deip,"{""P0_Q0"":""dape""}",survey,14,196816,0.0-4.0-1.3,[],practice,NA,FALSE
,,,,,,,,,,
1122,"<p style=""font-size:30px""> The word you heard is <br> ""dape"" <br> It may sound different depending on the person. <br> Write it down as it sounds.</p><p lang=""ko"">Press spacebar to continue</p>", ,html-keyboard-response,15,197940,0.0-4.0-2.3,,,,
,,,,,,,,,,
1408,, ,html-keyboard-response,16,199350,0.0-5.0,,,,
,,,,,,,,,,
1847,"<p style=""font-size:30px"">Now let's move on to the actual experiment.</p><p style=""font-size:30px"",lang=""ko"">During the experiment, you will hear each of the nonce words only once.", ,html-keyboard-response,17,201197,0.0-6.0,,,,
,,,,,,,,,,
3039,"<p style=""font-size:30px"">After writing down the word, you will also rate the nonsense word you heard as a possible word of American English.</p><p>Press spacebar to continue</p>", ,html-keyboard-response,18,204237,0.0-7.0,,,,
,,,,,,,,,,
2463,TestRecordings/dlain.wav,0,audio-button-response,19,206708,0.0-8.0-0.0,,,,
,,,,,,,,,,
14970,,"{""P0_Q0"":""dline"",""P0_Q1"":6}",survey,20,221690,0.0-8.0-1.0,[],,,
,,,,,,,,,,
1586,TestRecordings/skup.wav,0,audio-button-response,21,223283,0.0-8.0-0.1,,,,
,,,,,,,,,,
14479,,"{""P0_Q0"":""scepe"",""P0_Q1"":7}",survey,22,237775,0.0-8.0-1.1,[],,,
,,,,,,,,,,
1780,TestRecordings/ndek.wav,0,audio-button-response,23,239562,0.0-8.0-0.2,,,,
,,,,,,,,,,
5515,,"{""P0_Q0"":""ndeck"",""P0_Q1"":1}",survey,24,245088,0.0-8.0-1.2,[],,,
,,,,,,,,,,
1771,TestRecordings/pesgut.wav,0,audio-button-response,25,246866,0.0-8.0-0.3,,,,
,,,,,,,,,,
7758,,"{""P0_Q0"":""pescute"",""P0_Q1"":7}",survey,26,254639,0.0-8.0-1.3,[],,,
,,,,,,,,,,
1981,TestRecordings/gwut.wav,0,audio-button-response,27,256626,0.0-8.0-0.4,,,,
,,,,,,,,,,
5757,,"{""P0_Q0"":""guite"",""P0_Q1"":5}",survey,28,262399,0.0-8.0-1.4,[],,,
,,,,,,,,,,
2226,TestRecordings/tlamsus.wav,0,audio-button-response,29,264633,0.0-8.0-0.5,,,,
,,,,,,,,,,
7860,,"{""P0_Q0"":""tlamsys"",""P0_Q1"":1}",survey,30,272502,0.0-8.0-1.5,[],,,
,,,,,,,,,,
1826,TestRecordings/spen.wav,0,audio-button-response,31,274337,0.0-8.0-0.6,,,,
,,,,,,,,,,
6961,,"{""P0_Q0"":""spen"",""P0_Q1"":7}",survey,32,281308,0.0-8.0-1.6,[],,,
,,,,,,,,,,
1711,TestRecordings/mpahk.wav,0,audio-button-response,33,283024,0.0-8.0-0.7,,,,
,,,,,,,,,,
6168,,"{""P0_Q0"":""npake"",""P0_Q1"":1}",survey,34,289205,0.0-8.0-1.7,[],,,
,,,,,,,,,,
1587,TestRecordings/douk.wav,0,audio-button-response,35,290800,0.0-8.0-0.8,,,,
,,,,,,,,,,
6790,,"{""P0_Q0"":""douck"",""P0_Q1"":7}",survey,36,297603,0.0-8.0-1.8,[],,,
,,,,,,,,,,
2244,TestRecordings/gatdum.wav,0,audio-button-response,37,299856,0.0-8.0-0.9,,,,
,,,,,,,,,,
12467,,"{""P0_Q0"":""getdum"",""P0_Q1"":7}",survey,38,312331,0.0-8.0-1.9,[],,,
,,,,,,,,,,
1790,TestRecordings/bwus.wav,0,audio-button-response,39,314127,0.0-8.0-0.10,,,,
,,,,,,,,,,
4242,,"{""P0_Q0"":""buise"",""P0_Q1"":7}",survey,40,318377,0.0-8.0-1.10,[],,,
,,,,,,,,,,
1790,TestRecordings/trindus.wav,0,audio-button-response,41,320174,0.0-8.0-0.11,,,,
,,,,,,,,,,
9602,,"{""P0_Q0"":""trindus"",""P0_Q1"":7}",survey,42,329786,0.0-8.0-1.11,[],,,
,,,,,,,,,,
2292,TestRecordings/daum.wav,0,audio-button-response,43,332086,0.0-8.0-0.12,,,,
,,,,,,,,,,
10315,,"{""P0_Q0"":""daune"",""P0_Q1"":7}",survey,44,342409,0.0-8.0-1.12,[],,,
,,,,,,,,,,
1205,TestRecordings/bim.wav,0,audio-button-response,45,343621,0.0-8.0-0.13,,,,
,,,,,,,,,,
3651,,"{""P0_Q0"":""bim"",""P0_Q1"":7}",survey,46,347281,0.0-8.0-1.13,[],,,
,,,,,,,,,,
2277,TestRecordings/drensum.wav,0,audio-button-response,47,349565,0.0-8.0-0.14,,,,
,,,,,,,,,,
10617,,"{""P0_Q0"":""drinsun"",""P0_Q1"":7}",survey,48,360192,0.0-8.0-1.14,[],,,
,,,,,,,,,,
2943,TestRecordings/driksum.wav,0,audio-button-response,49,363140,0.0-8.0-0.15,,,,
,,,,,,,,,,
10339,,"{""P0_Q0"":""dricksun"",""P0_Q1"":7}",survey,50,373487,0.0-8.0-1.15,[],,,
,,,,,,,,,,
1839,TestRecordings/draspung.wav,0,audio-button-response,51,375332,0.0-8.0-0.16,,,,
,,,,,,,,,,
7580,,"{""P0_Q0"":""draspun"",""P0_Q1"":7}",survey,52,382919,0.0-8.0-1.16,[],,,
,,,,,,,,,,
1469,TestRecordings/kmuup.wav,0,audio-button-response,53,384396,0.0-8.0-0.17,,,,
,,,,,,,,,,
8492,,"{""P0_Q0"":""kenoop"",""P0_Q1"":5}",survey,54,392894,0.0-8.0-1.17,[],,,
,,,,,,,,,,
1718,TestRecordings/gakdum.wav,0,audio-button-response,55,394619,0.0-8.0-0.18,,,,
,,,,,,,,,,
13060,,"{""P0_Q0"":""gecdum"",""P0_Q1"":7}",survey,56,407686,0.0-8.0-1.18,[],,,
,,,,,,,,,,
2422,TestRecordings/dlupgik.wav,0,audio-button-response,57,410114,0.0-8.0-0.19,,,,
,,,,,,,,,,
13156,,"{""P0_Q0"":""dlupgeck"",""P0_Q1"":2}",survey,58,423277,0.0-8.0-1.19,[],,,
,,,,,,,,,,
1805,TestRecordings/genpum.wav,0,audio-button-response,59,425090,0.0-8.0-0.20,,,,
,,,,,,,,,,
7035,,"{""P0_Q0"":""genpun"",""P0_Q1"":7}",survey,60,432133,0.0-8.0-1.20,[],,,
,,,,,,,,,,
2687,TestRecordings/bimkun.wav,0,audio-button-response,61,434824,0.0-8.0-0.21,,,,
,,,,,,,,,,
10771,,"{""P0_Q0"":""bimcune"",""P0_Q1"":7}",survey,62,445605,0.0-8.0-1.21,[],,,
,,,,,,,,,,
1555,TestRecordings/mpat.wav,0,audio-button-response,63,447169,0.0-8.0-0.22,,,,
,,,,,,,,,,
4929,,"{""P0_Q0"":""npate"",""P0_Q1"":1}",survey,64,452108,0.0-8.0-1.22,[],,,
,,,,,,,,,,
2060,TestRecordings/gekpup.wav,0,audio-button-response,65,454176,0.0-8.0-0.23,,,,
,,,,,,,,,,
16019,,"{""P0_Q0"":""geckpuck"",""P0_Q1"":7}",survey,66,470203,0.0-8.0-1.23,[],,,
,,,,,,,,,,
1430,TestRecordings/dlang.wav,0,audio-button-response,67,471640,0.0-8.0-0.24,,,,
,,,,,,,,,,
4661,,"{""P0_Q0"":""dlang"",""P0_Q1"":1}",survey,68,476307,0.0-8.0-1.24,[],,,
,,,,,,,,,,
1661,TestRecordings/sandup.wav,0,audio-button-response,69,477975,0.0-8.0-0.25,,,,
,,,,,,,,,,
6058,,"{""P0_Q0"":""sandip"",""P0_Q1"":7}",survey,70,484042,0.0-8.0-1.25,[],,,
,,,,,,,,,,
2096,TestRecordings/druksan.wav,0,audio-button-response,71,486143,0.0-8.0-0.26,,,,
,,,,,,,,,,
18643,,"{""P0_Q0"":""drooksan"",""P0_Q1"":7}",survey,72,504793,0.0-8.0-1.26,[],,,
,,,,,,,,,,
2150,TestRecordings/tlakgung.wav,0,audio-button-response,73,506950,0.0-8.0-0.27,,,,
,,,,,,,,,,
7643,,"{""P0_Q0"":""tlatgung"",""P0_Q1"":1}",survey,74,514601,0.0-8.0-1.27,[],,,
,,,,,,,,,,
1494,TestRecordings/keptus.wav,0,audio-button-response,75,516102,0.0-8.0-0.28,,,,
,,,,,,,,,,
26989,,"{""P0_Q0"":""keptust"",""P0_Q1"":7}",survey,76,543095,0.0-8.0-1.28,[],,,
,,,,,,,,,,
1582,TestRecordings/nungtem.wav,0,audio-button-response,77,544684,0.0-8.0-0.29,,,,
,,,,,,,,,,
7739,,"{""P0_Q0"":""noongtin"",""P0_Q1"":7}",survey,78,552431,0.0-8.0-1.29,[],,,
,,,,,,,,,,
1462,TestRecordings/beptus.wav,0,audio-button-response,79,553899,0.0-8.0-0.30,,,,
,,,,,,,,,,
5395,,"{""P0_Q0"":""beptus"",""P0_Q1"":7}",survey,80,559303,0.0-8.0-1.30,[],,,
,,,,,,,,,,
1303,TestRecordings/biptet.wav,0,audio-button-response,81,560611,0.0-8.0-0.31,,,,
,,,,,,,,,,
5610,,"{""P0_Q0"":""biptet"",""P0_Q1"":7}",survey,82,566229,0.0-8.0-1.31,[],,,
,,,,,,,,,,
1365,TestRecordings/gwas.wav,0,audio-button-response,83,567603,0.0-8.0-0.32,,,,
,,,,,,,,,,
4381,,"{""P0_Q0"":""gwass"",""P0_Q1"":7}",survey,84,572008,0.0-8.0-1.32,[],,,
,,,,,,,,,,
1845,TestRecordings/tembip.wav,0,audio-button-response,85,573858,0.0-8.0-0.33,,,,
,,,,,,,,,,
5633,,"{""P0_Q0"":""timdip"",""P0_Q1"":7}",survey,86,579503,0.0-8.0-1.33,[],,,
,,,,,,,,,,
1379,TestRecordings/guut.wav,0,audio-button-response,87,580891,0.0-8.0-0.34,,,,
,,,,,,,,,,
5186,,"{""P0_Q0"":""goot"",""P0_Q1"":7}",survey,88,586086,0.0-8.0-1.34,[],,,
,,,,,,,,,,
1317,TestRecordings/ndaik.wav,0,audio-button-response,89,587410,0.0-8.0-0.35,,,,
,,,,,,,,,,
3739,,"{""P0_Q0"":""ndike"",""P0_Q1"":1}",survey,90,591158,0.0-8.0-1.35,[],,,
,,,,,,,,,,
821,TestRecordings/stup.wav,0,audio-button-response,91,591985,0.0-8.0-0.36,,,,
,,,,,,,,,,
3946,,"{""P0_Q0"":""stupe"",""P0_Q1"":7}",survey,92,595941,0.0-8.0-1.36,[],,,
,,,,,,,,,,
1661,TestRecordings/dunbem.wav,0,audio-button-response,93,597610,0.0-8.0-0.37,,,,
,,,,,,,,,,
10595,,"{""P0_Q0"":""dunbem"",""P0_Q1"":6}",survey,94,608214,0.0-8.0-1.37,[],,,
,,,,,,,,,,
1837,TestRecordings/dletgin.wav,0,audio-button-response,95,610057,0.0-8.0-0.38,,,,
,,,,,,,,,,
6571,,"{""P0_Q0"":""dletgin"",""P0_Q1"":1}",survey,96,616636,0.0-8.0-1.38,[],,,
,,,,,,,,,,
1309,TestRecordings/tleik.wav,0,audio-button-response,97,617952,0.0-8.0-0.39,,,,
,,,,,,,,,,
3858,,"{""P0_Q0"":""tlake"",""P0_Q1"":1}",survey,98,621819,0.0-8.0-1.39,[],,,
,,,,,,,,,,
1397,TestRecordings/dliim.wav,0,audio-button-response,99,623225,0.0-8.0-0.40,,,,
,,,,,,,,,,
4945,,"{""P0_Q0"":""dleem"",""P0_Q1"":1}",survey,100,628194,0.0-8.0-1.40,[],,,
,,,,,,,,,,
1413,TestRecordings/treng.wav,0,audio-button-response,101,629616,0.0-8.0-0.41,,,,
,,,,,,,,,,
4285,,"{""P0_Q0"":""trang"",""P0_Q1"":7}",survey,102,633925,0.0-8.0-1.41,[],,,
,,,,,,,,,,
1581,TestRecordings/tlaip.wav,0,audio-button-response,103,635512,0.0-8.0-0.42,,,,
,,,,,,,,,,
7015,,"{""P0_Q0"":""tlipe"",""P0_Q1"":1}",survey,104,642540,0.0-8.0-1.42,[],,,
,,,,,,,,,,
1293,TestRecordings/pmaut.wav,0,audio-button-response,105,643839,0.0-8.0-0.43,,,,
,,,,,,,,,,
5851,,"{""P0_Q0"":""pnope"",""P0_Q1"":1}",survey,106,649699,0.0-8.0-1.43,[],,,
,,,,,,,,,,
1525,TestRecordings/tlangduk.wav,0,audio-button-response,107,651231,0.0-8.0-0.44,,,,
,,,,,,,,,,
10539,,"{""P0_Q0"":""tlangdup"",""P0_Q1"":1}",survey,108,661779,0.0-8.0-1.44,[],,,
,,,,,,,,,,
1166,TestRecordings/bnup.wav,0,audio-button-response,109,662950,0.0-8.0-0.45,,,,
,,,,,,,,,,
4754,,"{""P0_Q0"":""pnoop"",""P0_Q1"":1}",survey,110,667714,0.0-8.0-1.45,[],,,
,,,,,,,,,,
1407,TestRecordings/nasgek.wav,0,audio-button-response,111,669126,0.0-8.0-0.46,,,,
,,,,,,,,,,
6637,,"{""P0_Q0"":""nasgeck"",""P0_Q1"":5}",survey,112,675769,0.0-8.0-1.46,[],,,
,,,,,,,,,,
1287,TestRecordings/gmut.wav,0,audio-button-response,113,677062,0.0-8.0-0.47,,,,
,,,,,,,,,,
9036,,"{""P0_Q0"":""gmut"",""P0_Q1"":1}",survey,114,686106,0.0-8.0-1.47,[],,,
,,,,,,,,,,
1251,TestRecordings/daip.wav,0,audio-button-response,115,687365,0.0-8.0-0.48,,,,
,,,,,,,,,,
6286,,"{""P0_Q0"":""dipe"",""P0_Q1"":6}",survey,116,693679,0.0-8.0-1.48,[],,,
,,,,,,,,,,
1606,TestRecordings/gukpim.wav,0,audio-button-response,117,695293,0.0-8.0-0.49,,,,
,,,,,,,,,,
10771,,"{""P0_Q0"":""guckpin"",""P0_Q1"":5}",survey,118,706089,0.0-8.0-1.49,[],,,
,,,,,,,,,,
1173,TestRecordings/dret.wav,0,audio-button-response,119,707269,0.0-8.0-0.50,,,,
,,,,,,,,,,
7369,,"{""P0_Q0"":""dret"",""P0_Q1"":7}",survey,120,714648,0.0-8.0-1.50,[],,,
,,,,,,,,,,
1550,TestRecordings/santem.wav,0,audio-button-response,121,716204,0.0-8.0-0.51,,,,
,,,,,,,,,,
4682,,"{""P0_Q0"":""santim"",""P0_Q1"":7}",survey,122,720896,0.0-8.0-1.51,[],,,
,,,,,,,,,,
2061,TestRecordings/dlesbup.wav,0,audio-button-response,123,722963,0.0-8.0-0.52,,,,
,,,,,,,,,,
17633,,"{""P0_Q0"":""blesspup"",""P0_Q1"":4}",survey,124,740607,0.0-8.0-1.52,[],,,
,,,,,,,,,,
1790,TestRecordings/tlunpem.wav,0,audio-button-response,125,742403,0.0-8.0-0.53,,,,
,,,,,,,,,,
9442,,"{""P0_Q0"":""tlunpin"",""P0_Q1"":1}",survey,126,751853,0.0-8.0-1.53,[],,,
,,,,,,,,,,
1389,TestRecordings/drembip.wav,0,audio-button-response,127,753251,0.0-8.0-0.54,,,,
,,,,,,,,,,
8002,,"{""P0_Q0"":""drinbip"",""P0_Q1"":7}",survey,128,761277,0.0-8.0-1.54,[],,,
,,,,,,,,,,
1453,TestRecordings/dmat.wav,0,audio-button-response,129,762738,0.0-8.0-0.55,,,,
,,,,,,,,,,
5621,,"{""P0_Q0"":""dnate"",""P0_Q1"":1}",survey,130,768382,0.0-8.0-1.55,[],,,
,,,,,,,,,,
1572,TestRecordings/gintep.wav,0,audio-button-response,131,769961,0.0-8.0-0.56,,,,
,,,,,,,,,,
9490,,"{""P0_Q0"":""gintap"",""P0_Q1"":6}",survey,132,779462,0.0-8.0-1.56,[],,,
,,,,,,,,,,
1613,TestRecordings/staik.wav,0,audio-button-response,133,781080,0.0-8.0-0.57,,,,
,,,,,,,,,,
3466,,"{""P0_Q0"":""stike"",""P0_Q1"":7}",survey,134,784557,0.0-8.0-1.57,[],,,
,,,,,,,,,,
1118,TestRecordings/mdak.wav,0,audio-button-response,135,785681,0.0-8.0-0.58,,,,
,,,,,,,,,,
4697,,"{""P0_Q0"":""ndake"",""P0_Q1"":1}",survey,136,790388,0.0-8.0-1.58,[],,,
,,,,,,,,,,
1382,TestRecordings/dwis.wav,0,audio-button-response,137,791777,0.0-8.0-0.59,,,,
,,,,,,,,,,
6795,,"{""P0_Q0"":""dwiss"",""P0_Q1"":7}",survey,138,798580,0.0-8.0-1.59,[],,,
,,,,,,,,,,
2619,, ,html-keyboard-response,139,801200,0.0-9.0,,,,
,,,,,,,,,,
66217,,"{""P0_Q0"":""19"",""P0_Q1"":""female"",""P0_Q2"":""Yes"",""P0_Q3"":""Ukrainian"",""P0_Q4"":""17, 1 year"",""P0_Q5"":""In-depth study from various books and learning platforms. ~B2 level""}",survey,140,867426,0.0-10.0,[],,,
,,,,,,,,,,
14756,"<p style=""font-size:30px"">The experiment has ended</p><p style=""font-size:30px"",lang=""ko"">Thanks for participating in it!</p>", ,html-keyboard-response,141,882182,0.0-11.0,,,,