rt,stimulus,response,trial_type,trial_index,time_elapsed,internal_node_id,accuracy,PracticeTest,ConsonantSequence,Grammaticality
,,,,,,,,,,
808230,"<p style=""font-size:30px"">Welcome to the experiment</p><p>Press spacebar to continue</p>", ,html-keyboard-response,0,808190,0.0-0.0,,,,
,,,,,,,,,,
2312,"<p style=""font-size:30px"">Please ensure that your headphones are on correctly</p><p>Press spacebar to continue</p>", ,html-keyboard-response,1,810503,0.0-1.0,,,,
,,,,,,,,,,
3299,"<p style=""font-size:30px"">In this experiment, you will listen to nonsense words</p><p style=""font-size:30px"",lang=""ko"">Your task is to write down the word and then rate how good an English word it is</p><p>Press spacebar to continue</p>", ,html-keyboard-response,2,813802,0.0-2.0,,,,
,,,,,,,,,,
2023,"<p style=""font-size:30px"">Let's practice with some nonsense words so that you understand the task</p><p>Press spacebar to continue</p>", ,html-keyboard-response,3,815826,0.0-3.0,,,,
,,,,,,,,,,
3004,PracticeRecordings/bupkes.wav,0,audio-button-response,4,819282,0.0-4.0-0.0,,,,
,,,,,,,,,,
7346,bupkes,"{""P0_Q0"":""bobcas""}",survey,5,826671,0.0-4.0-1.0,[],practice,NA,TRUE
,,,,,,,,,,
4073,"<p style=""font-size:30px""> The word you heard is <br> ""bupkess"" <br> It may sound different depending on the person. <br> Write it down as it sounds.</p><p lang=""ko"">Press spacebar to continue</p>", ,html-keyboard-response,6,830745,0.0-4.0-2.0,,,,
,,,,,,,,,,
1822,PracticeRecordings/dringgep.wav,0,audio-button-response,7,832577,0.0-4.0-0.1,,,,
,,,,,,,,,,
16213,dringep,"{""P0_Q0"":""dringep""}",survey,8,848804,0.0-4.0-1.1,[],practice,NA,FALSE
,,,,,,,,,,
2284,"<p style=""font-size:30px""> The word you heard is <br> ""dringep"" <br> It may sound different depending on the person. <br> Write it down as it sounds.</p><p lang=""ko"">Press spacebar to continue</p>", ,html-keyboard-response,9,851088,0.0-4.0-2.1,,,,
,,,,,,,,,,
2384,PracticeRecordings/dunggem.wav,0,audio-button-response,10,853479,0.0-4.0-0.2,,,,
,,,,,,,,,,
31169,dunggem,"{""P0_Q0"":""doongan""}",survey,11,884659,0.0-4.0-1.2,[],practice,NA,FALSE
,,,,,,,,,,
3978,"<p style=""font-size:30px""> The word you heard is <br> ""dungem"" (or) ""doongem"" <br> It may sound different depending on the person. <br> Write it down as it sounds.</p><p lang=""ko"">Press spacebar to continue</p>", ,html-keyboard-response,12,888639,0.0-4.0-2.2,,,,
,,,,,,,,,,
1478,PracticeRecordings/deip.wav,0,audio-button-response,13,890126,0.0-4.0-0.3,,,,
,,,,,,,,,,
4200,deip,"{""P0_Q0"":""dape""}",survey,14,894337,0.0-4.0-1.3,[],practice,NA,FALSE
,,,,,,,,,,
4260,"<p style=""font-size:30px""> The word you heard is <br> ""dape"" <br> It may sound different depending on the person. <br> Write it down as it sounds.</p><p lang=""ko"">Press spacebar to continue</p>", ,html-keyboard-response,15,898597,0.0-4.0-2.3,,,,
,,,,,,,,,,
1928,, ,html-keyboard-response,16,900526,0.0-5.0,,,,
,,,,,,,,,,
2120,"<p style=""font-size:30px"">Now let's move on to the actual experiment.</p><p style=""font-size:30px"",lang=""ko"">During the experiment, you will hear each of the nonce words only once.", ,html-keyboard-response,17,902645,0.0-6.0,,,,
,,,,,,,,,,
3959,"<p style=""font-size:30px"">After writing down the word, you will also rate the nonsense word you heard as a possible word of American English.</p><p>Press spacebar to continue</p>", ,html-keyboard-response,18,906605,0.0-7.0,,,,
,,,,,,,,,,
2477,TestRecordings/beptus.wav,0,audio-button-response,19,909132,0.0-8.0-0.0,,,,
,,,,,,,,,,
13599,,"{""P0_Q0"":""baptus"",""P0_Q1"":7}",survey,20,922744,0.0-8.0-1.0,[],,,
,,,,,,,,,,
1396,TestRecordings/dwis.wav,0,audio-button-response,21,924148,0.0-8.0-0.1,,,,
,,,,,,,,,,
9551,,"{""P0_Q0"":""dwiss"",""P0_Q1"":7}",survey,22,933711,0.0-8.0-1.1,[],,,
,,,,,,,,,,
1516,TestRecordings/draspung.wav,0,audio-button-response,23,935235,0.0-8.0-0.2,,,,
,,,,,,,,,,
6905,,"{""P0_Q0"":""draspoon"",""P0_Q1"":5}",survey,24,942151,0.0-8.0-1.2,[],,,
,,,,,,,,,,
1619,TestRecordings/pmaut.wav,0,audio-button-response,25,943778,0.0-8.0-0.3,,,,
,,,,,,,,,,
6234,,"{""P0_Q0"":""pmount"",""P0_Q1"":2}",survey,26,950022,0.0-8.0-1.3,[],,,
,,,,,,,,,,
1221,TestRecordings/dmat.wav,0,audio-button-response,27,951250,0.0-8.0-0.4,,,,
,,,,,,,,,,
5603,,"{""P0_Q0"":""dmat"",""P0_Q1"":2}",survey,28,956862,0.0-8.0-1.4,[],,,
,,,,,,,,,,
1381,TestRecordings/dliim.wav,0,audio-button-response,29,958249,0.0-8.0-0.5,,,,
,,,,,,,,,,
4835,,"{""P0_Q0"":""dleem"",""P0_Q1"":1}",survey,30,963093,0.0-8.0-1.5,[],,,
,,,,,,,,,,
1740,TestRecordings/nasgek.wav,0,audio-button-response,31,964842,0.0-8.0-0.6,,,,
,,,,,,,,,,
6026,,"{""P0_Q0"":""nasgek"",""P0_Q1"":5}",survey,32,970878,0.0-8.0-1.6,[],,,
,,,,,,,,,,
1555,TestRecordings/tlakgung.wav,0,audio-button-response,33,972442,0.0-8.0-0.7,,,,
,,,,,,,,,,
8484,,"{""P0_Q0"":""dlatgoon"",""P0_Q1"":2}",survey,34,980932,0.0-8.0-1.7,[],,,
,,,,,,,,,,
1452,TestRecordings/mdak.wav,0,audio-button-response,35,982392,0.0-8.0-0.8,,,,
,,,,,,,,,,
5491,,"{""P0_Q0"":""mdak"",""P0_Q1"":1}",survey,36,987891,0.0-8.0-1.8,[],,,
,,,,,,,,,,
1436,TestRecordings/spen.wav,0,audio-button-response,37,989336,0.0-8.0-0.9,,,,
,,,,,,,,,,
6027,,"{""P0_Q0"":""spen"",""P0_Q1"":7}",survey,38,995371,0.0-8.0-1.9,[],,,
,,,,,,,,,,
1069,TestRecordings/dlang.wav,0,audio-button-response,39,996448,0.0-8.0-0.10,,,,
,,,,,,,,,,
7588,,"{""P0_Q0"":""dlang"",""P0_Q1"":2}",survey,40,1004043,0.0-8.0-1.10,[],,,
,,,,,,,,,,
1181,TestRecordings/gukpim.wav,0,audio-button-response,41,1005232,0.0-8.0-0.11,,,,
,,,,,,,,,,
9516,,"{""P0_Q0"":""gookpim"",""P0_Q1"":6}",survey,42,1014754,0.0-8.0-1.11,[],,,
,,,,,,,,,,
2029,TestRecordings/daum.wav,0,audio-button-response,43,1016791,0.0-8.0-0.12,,,,
,,,,,,,,,,
9899,,"{""P0_Q0"":""dalm"",""P0_Q1"":4}",survey,44,1026697,0.0-8.0-1.12,[],,,
,,,,,,,,,,
1269,TestRecordings/driksum.wav,0,audio-button-response,45,1027974,0.0-8.0-0.13,,,,
,,,,,,,,,,
17547,,"{""P0_Q0"":""drickseum"",""P0_Q1"":6}",survey,46,1045528,0.0-8.0-1.13,[],,,
,,,,,,,,,,
965,TestRecordings/ndek.wav,0,audio-button-response,47,1046501,0.0-8.0-0.14,,,,
,,,,,,,,,,
6676,,"{""P0_Q0"":""mdeck"",""P0_Q1"":2}",survey,48,1053185,0.0-8.0-1.14,[],,,
,,,,,,,,,,
1260,TestRecordings/gwut.wav,0,audio-button-response,49,1054452,0.0-8.0-0.15,,,,
,,,,,,,,,,
8596,,"{""P0_Q0"":""gwoot"",""P0_Q1"":5}",survey,50,1063056,0.0-8.0-1.15,[],,,
,,,,,,,,,,
1356,TestRecordings/druksan.wav,0,audio-button-response,51,1064421,0.0-8.0-0.16,,,,
,,,,,,,,,,
7452,,"{""P0_Q0"":""drooksan"",""P0_Q1"":6}",survey,52,1071879,0.0-8.0-1.16,[],,,
,,,,,,,,,,
1315,TestRecordings/drensum.wav,0,audio-button-response,53,1073204,0.0-8.0-0.17,,,,
,,,,,,,,,,
6340,,"{""P0_Q0"":""drensum"",""P0_Q1"":5}",survey,54,1079551,0.0-8.0-1.17,[],,,
,,,,,,,,,,
1446,TestRecordings/gatdum.wav,0,audio-button-response,55,1081004,0.0-8.0-0.18,,,,
,,,,,,,,,,
5978,,"{""P0_Q0"":""getdun"",""P0_Q1"":7}",survey,56,1086990,0.0-8.0-1.18,[],,,
,,,,,,,,,,
1252,TestRecordings/tembip.wav,0,audio-button-response,57,1088251,0.0-8.0-0.19,,,,
,,,,,,,,,,
6388,,"{""P0_Q0"":""tembip"",""P0_Q1"":7}",survey,58,1094646,0.0-8.0-1.19,[],,,
,,,,,,,,,,
1076,TestRecordings/bwus.wav,0,audio-button-response,59,1095730,0.0-8.0-0.20,,,,
,,,,,,,,,,
19092,,"{""P0_Q0"":""bwoos"",""P0_Q1"":4}",survey,60,1114829,0.0-8.0-1.20,[],,,
,,,,,,,,,,
1244,TestRecordings/staik.wav,0,audio-button-response,61,1116081,0.0-8.0-0.21,,,,
,,,,,,,,,,
4956,,"{""P0_Q0"":""stike"",""P0_Q1"":7}",survey,62,1121044,0.0-8.0-1.21,[],,,
,,,,,,,,,,
1196,TestRecordings/trindus.wav,0,audio-button-response,63,1122248,0.0-8.0-0.22,,,,
,,,,,,,,,,
5875,,"{""P0_Q0"":""trendus"",""P0_Q1"":7}",survey,64,1128132,0.0-8.0-1.22,[],,,
,,,,,,,,,,
1403,TestRecordings/tlaip.wav,0,audio-button-response,65,1129545,0.0-8.0-0.23,,,,
,,,,,,,,,,
4716,,"{""P0_Q0"":""tlipe"",""P0_Q1"":2}",survey,66,1134268,0.0-8.0-1.23,[],,,
,,,,,,,,,,
1044,TestRecordings/ndaik.wav,0,audio-button-response,67,1135320,0.0-8.0-0.24,,,,
,,,,,,,,,,
12324,,"{""P0_Q0"":""ndyke"",""P0_Q1"":2}",survey,68,1147651,0.0-8.0-1.24,[],,,
,,,,,,,,,,
1516,TestRecordings/douk.wav,0,audio-button-response,69,1149175,0.0-8.0-0.25,,,,
,,,,,,,,,,
4531,,"{""P0_Q0"":""doke"",""P0_Q1"":7}",survey,70,1153714,0.0-8.0-1.25,[],,,
,,,,,,,,,,
1229,TestRecordings/dlesbup.wav,0,audio-button-response,71,1154951,0.0-8.0-0.26,,,,
,,,,,,,,,,
6715,,"{""P0_Q0"":""blasbup"",""P0_Q1"":6}",survey,72,1161675,0.0-8.0-1.26,[],,,
,,,,,,,,,,
1117,TestRecordings/guut.wav,0,audio-button-response,73,1162799,0.0-8.0-0.27,,,,
,,,,,,,,,,
5484,,"{""P0_Q0"":""goot"",""P0_Q1"":7}",survey,74,1168290,0.0-8.0-1.27,[],,,
,,,,,,,,,,
1333,TestRecordings/genpum.wav,0,audio-button-response,75,1169631,0.0-8.0-0.28,,,,
,,,,,,,,,,
8213,,"{""P0_Q0"":""genpun"",""P0_Q1"":6}",survey,76,1177849,0.0-8.0-1.28,[],,,
,,,,,,,,,,
1171,TestRecordings/tlangduk.wav,0,audio-button-response,77,1179030,0.0-8.0-0.29,,,,
,,,,,,,,,,
18780,,"{""P0_Q0"":""plaindook"",""P0_Q1"":6}",survey,78,1197817,0.0-8.0-1.29,[],,,
,,,,,,,,,,
1165,TestRecordings/keptus.wav,0,audio-button-response,79,1198988,0.0-8.0-0.30,,,,
,,,,,,,,,,
4988,,"{""P0_Q0"":""keptus"",""P0_Q1"":7}",survey,80,1203984,0.0-8.0-1.30,[],,,
,,,,,,,,,,
1189,TestRecordings/gekpup.wav,0,audio-button-response,81,1205180,0.0-8.0-0.31,,,,
,,,,,,,,,,
13236,,"{""P0_Q0"":""gekpup"",""P0_Q1"":5}",survey,82,1218423,0.0-8.0-1.31,[],,,
,,,,,,,,,,
996,TestRecordings/biptet.wav,0,audio-button-response,83,1219427,0.0-8.0-0.32,,,,
,,,,,,,,,,
8378,,"{""P0_Q0"":""bibtet"",""P0_Q1"":7}",survey,84,1227814,0.0-8.0-1.32,[],,,
,,,,,,,,,,
1556,TestRecordings/tlunpem.wav,0,audio-button-response,85,1229380,0.0-8.0-0.33,,,,
,,,,,,,,,,
5861,,"{""P0_Q0"":""dlunpem"",""P0_Q1"":1}",survey,86,1235264,0.0-8.0-1.33,[],,,
,,,,,,,,,,
938,TestRecordings/mpahk.wav,0,audio-button-response,87,1236211,0.0-8.0-0.34,,,,
,,,,,,,,,,
8697,,"{""P0_Q0"":""mpawk"",""P0_Q1"":2}",survey,88,1244918,0.0-8.0-1.34,[],,,
,,,,,,,,,,
1091,TestRecordings/dunbem.wav,0,audio-button-response,89,1246019,0.0-8.0-0.35,,,,
,,,,,,,,,,
7099,,"{""P0_Q0"":""dunbem"",""P0_Q1"":6}",survey,90,1253126,0.0-8.0-1.35,[],,,
,,,,,,,,,,
828,TestRecordings/bnup.wav,0,audio-button-response,91,1253962,0.0-8.0-0.36,,,,
,,,,,,,,,,
7770,,"{""P0_Q0"":""bnoop"",""P0_Q1"":2}",survey,92,1261741,0.0-8.0-1.36,[],,,
,,,,,,,,,,
980,TestRecordings/dret.wav,0,audio-button-response,93,1262730,0.0-8.0-0.37,,,,
,,,,,,,,,,
6771,,"{""P0_Q0"":""drett"",""P0_Q1"":7}",survey,94,1269509,0.0-8.0-1.37,[],,,
,,,,,,,,,,
988,TestRecordings/mpat.wav,0,audio-button-response,95,1270505,0.0-8.0-0.38,,,,
,,,,,,,,,,
5682,,"{""P0_Q0"":""mpat"",""P0_Q1"":3}",survey,96,1276196,0.0-8.0-1.38,[],,,
,,,,,,,,,,
941,TestRecordings/daip.wav,0,audio-button-response,97,1277144,0.0-8.0-0.39,,,,
,,,,,,,,,,
11642,,"{""P0_Q0"":""daipe"",""P0_Q1"":7}",survey,98,1288795,0.0-8.0-1.39,[],,,
,,,,,,,,,,
996,TestRecordings/drembip.wav,0,audio-button-response,99,1289801,0.0-8.0-0.40,,,,
,,,,,,,,,,
7532,,"{""P0_Q0"":""drembip"",""P0_Q1"":6}",survey,100,1297356,0.0-8.0-1.40,[],,,
,,,,,,,,,,
1082,TestRecordings/gmut.wav,0,audio-button-response,101,1298447,0.0-8.0-0.41,,,,
,,,,,,,,,,
11081,,"{""P0_Q0"":""gmoot"",""P0_Q1"":1}",survey,102,1309539,0.0-8.0-1.41,[],,,
,,,,,,,,,,
1012,TestRecordings/treng.wav,0,audio-button-response,103,1310559,0.0-8.0-0.42,,,,
,,,,,,,,,,
12504,,"{""P0_Q0"":""trengue"",""P0_Q1"":7}",survey,104,1323074,0.0-8.0-1.42,[],,,
,,,,,,,,,,
1316,TestRecordings/dlain.wav,0,audio-button-response,105,1324398,0.0-8.0-0.43,,,,
,,,,,,,,,,
4745,,"{""P0_Q0"":""dline"",""P0_Q1"":1}",survey,106,1329153,0.0-8.0-1.43,[],,,
,,,,,,,,,,
837,TestRecordings/skup.wav,0,audio-button-response,107,1329998,0.0-8.0-0.44,,,,
,,,,,,,,,,
16337,,"{""P0_Q0"":""scup"",""P0_Q1"":7}",survey,108,1346344,0.0-8.0-1.44,[],,,
,,,,,,,,,,
980,TestRecordings/gwas.wav,0,audio-button-response,109,1347333,0.0-8.0-0.45,,,,
,,,,,,,,,,
5604,,"{""P0_Q0"":""gwass"",""P0_Q1"":7}",survey,110,1352962,0.0-8.0-1.45,[],,,
,,,,,,,,,,
1251,TestRecordings/gintep.wav,0,audio-button-response,111,1354221,0.0-8.0-0.46,,,,
,,,,,,,,,,
5073,,"{""P0_Q0"":""gentep"",""P0_Q1"":6}",survey,112,1359305,0.0-8.0-1.46,[],,,
,,,,,,,,,,
945,TestRecordings/santem.wav,0,audio-button-response,113,1360260,0.0-8.0-0.47,,,,
,,,,,,,,,,
4756,,"{""P0_Q0"":""santen"",""P0_Q1"":6}",survey,114,1365024,0.0-8.0-1.47,[],,,
,,,,,,,,,,
996,TestRecordings/nungtem.wav,0,audio-button-response,115,1366027,0.0-8.0-0.48,,,,
,,,,,,,,,,
6427,,"{""P0_Q0"":""nuntem"",""P0_Q1"":4}",survey,116,1372464,0.0-8.0-1.48,[],,,
,,,,,,,,,,
917,TestRecordings/bimkun.wav,0,audio-button-response,117,1373388,0.0-8.0-0.49,,,,
,,,,,,,,,,
13506,,"{""P0_Q0"":""bimkoon"",""P0_Q1"":6}",survey,118,1386902,0.0-8.0-1.49,[],,,
,,,,,,,,,,
1027,TestRecordings/stup.wav,0,audio-button-response,119,1387939,0.0-8.0-0.50,,,,
,,,,,,,,,,
6987,,"{""P0_Q0"":""stup"",""P0_Q1"":7}",survey,120,1394934,0.0-8.0-1.50,[],,,
,,,,,,,,,,
1213,TestRecordings/kmuup.wav,0,audio-button-response,121,1396154,0.0-8.0-0.51,,,,
,,,,,,,,,,
9531,,"{""P0_Q0"":""kmoop"",""P0_Q1"":3}",survey,122,1405693,0.0-8.0-1.51,[],,,
,,,,,,,,,,
1044,TestRecordings/tlamsus.wav,0,audio-button-response,123,1406746,0.0-8.0-0.52,,,,
,,,,,,,,,,
5379,,"{""P0_Q0"":""tlamsus"",""P0_Q1"":1}",survey,124,1412133,0.0-8.0-1.52,[],,,
,,,,,,,,,,
947,TestRecordings/pesgut.wav,0,audio-button-response,125,1413090,0.0-8.0-0.53,,,,
,,,,,,,,,,
16980,,"{""P0_Q0"":""peskut"",""P0_Q1"":5}",survey,126,1430076,0.0-8.0-1.53,[],,,
,,,,,,,,,,
1045,TestRecordings/dlupgik.wav,0,audio-button-response,127,1431128,0.0-8.0-0.54,,,,
,,,,,,,,,,
12635,,"{""P0_Q0"":""dlupgik"",""P0_Q1"":1}",survey,128,1443772,0.0-8.0-1.54,[],,,
,,,,,,,,,,
963,TestRecordings/bim.wav,0,audio-button-response,129,1444743,0.0-8.0-0.55,,,,
,,,,,,,,,,
4555,,"{""P0_Q0"":""bim"",""P0_Q1"":7}",survey,130,1449308,0.0-8.0-1.55,[],,,
,,,,,,,,,,
1580,TestRecordings/gakdum.wav,0,audio-button-response,131,1450895,0.0-8.0-0.56,,,,
,,,,,,,,,,
9364,,"{""P0_Q0"":""gekdom"",""P0_Q1"":6}",survey,132,1460266,0.0-8.0-1.56,[],,,
,,,,,,,,,,
916,TestRecordings/tleik.wav,0,audio-button-response,133,1461191,0.0-8.0-0.57,,,,
,,,,,,,,,,
5739,,"{""P0_Q0"":""tlake"",""P0_Q1"":2}",survey,134,1466937,0.0-8.0-1.57,[],,,
,,,,,,,,,,
1116,TestRecordings/sandup.wav,0,audio-button-response,135,1468062,0.0-8.0-0.58,,,,
,,,,,,,,,,
5068,,"{""P0_Q0"":""sandup"",""P0_Q1"":7}",survey,136,1473137,0.0-8.0-1.58,[],,,
,,,,,,,,,,
1958,TestRecordings/dletgin.wav,0,audio-button-response,137,1475102,0.0-8.0-0.59,,,,
,,,,,,,,,,
10061,,"{""P0_Q0"":""dletgun"",""P0_Q1"":1}",survey,138,1485169,0.0-8.0-1.59,[],,,
,,,,,,,,,,
2795,, ,html-keyboard-response,139,1487966,0.0-9.0,,,,
,,,,,,,,,,
76128,,"{""P0_Q0"":""19"",""P0_Q1"":""Nonbinary"",""P0_Q2"":""Yes"",""P0_Q3"":""Japanese (conversationally)"",""P0_Q4"":""Age 12, now for 7 years"",""P0_Q5"":""Mostly scholastic, with some immersion based learning""}",survey,140,1564102,0.0-10.0,[],,,
,,,,,,,,,,
129635,"<p style=""font-size:30px"">The experiment has ended</p><p style=""font-size:30px"",lang=""ko"">Thanks for participating in it!</p>", ,html-keyboard-response,141,1693731,0.0-11.0,,,,