rt,stimulus,response,trial_type,trial_index,time_elapsed,internal_node_id,accuracy,PracticeTest,ConsonantSequence,Grammaticality
,,,,,,,,,,
732118,"<p style=""font-size:30px"">Welcome to the experiment</p><p>Press spacebar to continue</p>", ,html-keyboard-response,0,732097,0.0-0.0,,,,
,,,,,,,,,,
2831,"<p style=""font-size:30px"">Please ensure that your headphones are on correctly</p><p>Press spacebar to continue</p>", ,html-keyboard-response,1,734929,0.0-1.0,,,,
,,,,,,,,,,
8282,"<p style=""font-size:30px"">In this experiment, you will listen to nonsense words</p><p style=""font-size:30px"",lang=""ko"">Your task is to write down the word and then rate how good an English word it is</p><p>Press spacebar to continue</p>", ,html-keyboard-response,2,743213,0.0-2.0,,,,
,,,,,,,,,,
1872,"<p style=""font-size:30px"">Let's practice with some nonsense words so that you understand the task</p><p>Press spacebar to continue</p>", ,html-keyboard-response,3,745085,0.0-3.0,,,,
,,,,,,,,,,
6745,PracticeRecordings/bupkes.wav,0,audio-button-response,4,752173,0.0-4.0-0.0,,,,
,,,,,,,,,,
5296,bupkes,"{""P0_Q0"":""Bupkiss""}",survey,5,757506,0.0-4.0-1.0,[],practice,NA,TRUE
,,,,,,,,,,
4594,"<p style=""font-size:30px""> The word you heard is <br> ""bupkess"" <br> It may sound different depending on the person. <br> Write it down as it sounds.</p><p lang=""ko"">Press spacebar to continue</p>", ,html-keyboard-response,6,762101,0.0-4.0-2.0,,,,
,,,,,,,,,,
7064,PracticeRecordings/dringgep.wav,0,audio-button-response,7,769171,0.0-4.0-0.1,,,,
,,,,,,,,,,
4287,dringep,"{""P0_Q0"":""kringap""}",survey,8,773470,0.0-4.0-1.1,[],practice,NA,FALSE
,,,,,,,,,,
5028,"<p style=""font-size:30px""> The word you heard is <br> ""dringep"" <br> It may sound different depending on the person. <br> Write it down as it sounds.</p><p lang=""ko"">Press spacebar to continue</p>", ,html-keyboard-response,9,778500,0.0-4.0-2.1,,,,
,,,,,,,,,,
1816,PracticeRecordings/dunggem.wav,0,audio-button-response,10,780323,0.0-4.0-0.2,,,,
,,,,,,,,,,
4193,dunggem,"{""P0_Q0"":""dungeng""}",survey,11,784526,0.0-4.0-1.2,[],practice,NA,FALSE
,,,,,,,,,,
6229,"<p style=""font-size:30px""> The word you heard is <br> ""dungem"" (or) ""doongem"" <br> It may sound different depending on the person. <br> Write it down as it sounds.</p><p lang=""ko"">Press spacebar to continue</p>", ,html-keyboard-response,12,790756,0.0-4.0-2.2,,,,
,,,,,,,,,,
2632,PracticeRecordings/deip.wav,0,audio-button-response,13,793394,0.0-4.0-0.3,,,,
,,,,,,,,,,
4249,deip,"{""P0_Q0"":""dape""}",survey,14,797654,0.0-4.0-1.3,[],practice,NA,FALSE
,,,,,,,,,,
2245,"<p style=""font-size:30px""> The word you heard is <br> ""dape"" <br> It may sound different depending on the person. <br> Write it down as it sounds.</p><p lang=""ko"">Press spacebar to continue</p>", ,html-keyboard-response,15,799900,0.0-4.0-2.3,,,,
,,,,,,,,,,
4103,, ,html-keyboard-response,16,804003,0.0-5.0,,,,
,,,,,,,,,,
6247,"<p style=""font-size:30px"">Now let's move on to the actual experiment.</p><p style=""font-size:30px"",lang=""ko"">During the experiment, you will hear each of the nonce words only once.", ,html-keyboard-response,17,810250,0.0-6.0,,,,
,,,,,,,,,,
5591,"<p style=""font-size:30px"">After writing down the word, you will also rate the nonsense word you heard as a possible word of American English.</p><p>Press spacebar to continue</p>", ,html-keyboard-response,18,815843,0.0-7.0,,,,
,,,,,,,,,,
3337,TestRecordings/spen.wav,0,audio-button-response,19,819185,0.0-8.0-0.0,,,,
,,,,,,,,,,
8304,,"{""P0_Q0"":""span"",""P0_Q1"":7}",survey,20,827502,0.0-8.0-1.0,[],,,
,,,,,,,,,,
1805,TestRecordings/staik.wav,0,audio-button-response,21,829314,0.0-8.0-0.1,,,,
,,,,,,,,,,
5871,,"{""P0_Q0"":""stike"",""P0_Q1"":3}",survey,22,835197,0.0-8.0-1.1,[],,,
,,,,,,,,,,
1486,TestRecordings/gatdum.wav,0,audio-button-response,23,836689,0.0-8.0-0.2,,,,
,,,,,,,,,,
6089,,"{""P0_Q0"":""gatdoom"",""P0_Q1"":1}",survey,24,842789,0.0-8.0-1.2,[],,,
,,,,,,,,,,
1398,TestRecordings/stup.wav,0,audio-button-response,25,844193,0.0-8.0-0.3,,,,
,,,,,,,,,,
8026,,"{""P0_Q0"":""stoop"",""P0_Q1"":7}",survey,26,852228,0.0-8.0-1.3,[],,,
,,,,,,,,,,
1582,TestRecordings/dlesbup.wav,0,audio-button-response,27,853816,0.0-8.0-0.4,,,,
,,,,,,,,,,
8891,,"{""P0_Q0"":""blasbop"",""P0_Q1"":1}",survey,28,862715,0.0-8.0-1.4,[],,,
,,,,,,,,,,
1373,TestRecordings/nungtem.wav,0,audio-button-response,29,864096,0.0-8.0-0.5,,,,
,,,,,,,,,,
5746,,"{""P0_Q0"":""nungtem"",""P0_Q1"":1}",survey,30,869851,0.0-8.0-1.5,[],,,
,,,,,,,,,,
1190,TestRecordings/santem.wav,0,audio-button-response,31,871048,0.0-8.0-0.6,,,,
,,,,,,,,,,
8018,,"{""P0_Q0"":""santem"",""P0_Q1"":3}",survey,32,879075,0.0-8.0-1.6,[],,,
,,,,,,,,,,
2006,TestRecordings/tleik.wav,0,audio-button-response,33,881088,0.0-8.0-0.7,,,,
,,,,,,,,,,
19292,,"{""P0_Q0"":""plake"",""P0_Q1"":3}",survey,34,900385,0.0-8.0-1.7,[],,,
,,,,,,,,,,
2447,TestRecordings/tlamsus.wav,0,audio-button-response,35,902838,0.0-8.0-0.8,,,,
,,,,,,,,,,
9194,,"{""P0_Q0"":""calmsauce"",""P0_Q1"":5}",survey,36,912042,0.0-8.0-1.8,[],,,
,,,,,,,,,,
1182,TestRecordings/daip.wav,0,audio-button-response,37,913230,0.0-8.0-0.9,,,,
,,,,,,,,,,
3973,,"{""P0_Q0"":""dipe"",""P0_Q1"":2}",survey,38,917210,0.0-8.0-1.9,[],,,
,,,,,,,,,,
1790,TestRecordings/tlakgung.wav,0,audio-button-response,39,919007,0.0-8.0-0.10,,,,
,,,,,,,,,,
7482,,"{""P0_Q0"":""plakgung"",""P0_Q1"":1}",survey,40,926497,0.0-8.0-1.10,[],,,
,,,,,,,,,,
1678,TestRecordings/beptus.wav,0,audio-button-response,41,928181,0.0-8.0-0.11,,,,
,,,,,,,,,,
8035,,"{""P0_Q0"":""baptus"",""P0_Q1"":5}",survey,42,936225,0.0-8.0-1.11,[],,,
,,,,,,,,,,
1214,TestRecordings/mdak.wav,0,audio-button-response,43,937445,0.0-8.0-0.12,,,,
,,,,,,,,,,
5396,,"{""P0_Q0"":""m'dak"",""P0_Q1"":1}",survey,44,942848,0.0-8.0-1.12,[],,,
,,,,,,,,,,
1311,TestRecordings/tlaip.wav,0,audio-button-response,45,944165,0.0-8.0-0.13,,,,
,,,,,,,,,,
7299,,"{""P0_Q0"":""plipe"",""P0_Q1"":2}",survey,46,951472,0.0-8.0-1.13,[],,,
,,,,,,,,,,
1799,TestRecordings/dliim.wav,0,audio-button-response,47,953277,0.0-8.0-0.14,,,,
,,,,,,,,,,
4852,,"{""P0_Q0"":""dleam"",""P0_Q1"":6}",survey,48,958136,0.0-8.0-1.14,[],,,
,,,,,,,,,,
1382,TestRecordings/bwus.wav,0,audio-button-response,49,959524,0.0-8.0-0.15,,,,
,,,,,,,,,,
3987,,"{""P0_Q0"":""bous"",""P0_Q1"":2}",survey,50,963520,0.0-8.0-1.15,[],,,
,,,,,,,,,,
1390,TestRecordings/daum.wav,0,audio-button-response,51,964917,0.0-8.0-0.16,,,,
,,,,,,,,,,
5572,,"{""P0_Q0"":""dowm"",""P0_Q1"":4}",survey,52,970495,0.0-8.0-1.16,[],,,
,,,,,,,,,,
1206,TestRecordings/dmat.wav,0,audio-button-response,53,971708,0.0-8.0-0.17,,,,
,,,,,,,,,,
4612,,"{""P0_Q0"":""d'mat"",""P0_Q1"":1}",survey,54,976328,0.0-8.0-1.17,[],,,
,,,,,,,,,,
1030,TestRecordings/gmut.wav,0,audio-button-response,55,977364,0.0-8.0-0.18,,,,
,,,,,,,,,,
9548,,"{""P0_Q0"":""g'mut"",""P0_Q1"":3}",survey,56,986919,0.0-8.0-1.18,[],,,
,,,,,,,,,,
1373,TestRecordings/drembip.wav,0,audio-button-response,57,988300,0.0-8.0-0.19,,,,
,,,,,,,,,,
6299,,"{""P0_Q0"":""drambep"",""P0_Q1"":1}",survey,58,994607,0.0-8.0-1.19,[],,,
,,,,,,,,,,
1238,TestRecordings/mpat.wav,0,audio-button-response,59,995851,0.0-8.0-0.20,,,,
,,,,,,,,,,
8453,,"{""P0_Q0"":""m'pat"",""P0_Q1"":3}",survey,60,1004311,0.0-8.0-1.20,[],,,
,,,,,,,,,,
1367,TestRecordings/druksan.wav,0,audio-button-response,61,1005683,0.0-8.0-0.21,,,,
,,,,,,,,,,
7371,,"{""P0_Q0"":""drooksan"",""P0_Q1"":2}",survey,62,1013062,0.0-8.0-1.21,[],,,
,,,,,,,,,,
1463,TestRecordings/sandup.wav,0,audio-button-response,63,1014531,0.0-8.0-0.22,,,,
,,,,,,,,,,
6412,,"{""P0_Q0"":""sandup"",""P0_Q1"":1}",survey,64,1020950,0.0-8.0-1.22,[],,,
,,,,,,,,,,
1230,TestRecordings/nasgek.wav,0,audio-button-response,65,1022187,0.0-8.0-0.23,,,,
,,,,,,,,,,
7564,,"{""P0_Q0"":""nasgeck"",""P0_Q1"":1}",survey,66,1029757,0.0-8.0-1.23,[],,,
,,,,,,,,,,
1318,TestRecordings/kmuup.wav,0,audio-button-response,67,1031082,0.0-8.0-0.24,,,,
,,,,,,,,,,
7612,,"{""P0_Q0"":""g'moop"",""P0_Q1"":1}",survey,68,1038702,0.0-8.0-1.24,[],,,
,,,,,,,,,,
1093,TestRecordings/trindus.wav,0,audio-button-response,69,1039802,0.0-8.0-0.25,,,,
,,,,,,,,,,
7268,,"{""P0_Q0"":""trendous"",""P0_Q1"":4}",survey,70,1047077,0.0-8.0-1.25,[],,,
,,,,,,,,,,
1277,TestRecordings/gwut.wav,0,audio-button-response,71,1048362,0.0-8.0-0.26,,,,
,,,,,,,,,,
10892,,"{""P0_Q0"":""gowt"",""P0_Q1"":1}",survey,72,1059260,0.0-8.0-1.26,[],,,
,,,,,,,,,,
1006,TestRecordings/gintep.wav,0,audio-button-response,73,1060274,0.0-8.0-0.27,,,,
,,,,,,,,,,
4941,,"{""P0_Q0"":""gentep"",""P0_Q1"":1}",survey,74,1065220,0.0-8.0-1.27,[],,,
,,,,,,,,,,
1398,TestRecordings/gwas.wav,0,audio-button-response,75,1066625,0.0-8.0-0.28,,,,
,,,,,,,,,,
3908,,"{""P0_Q0"":""gwass"",""P0_Q1"":7}",survey,76,1070541,0.0-8.0-1.28,[],,,
,,,,,,,,,,
1175,TestRecordings/guut.wav,0,audio-button-response,77,1071722,0.0-8.0-0.29,,,,
,,,,,,,,,,
3076,,"{""P0_Q0"":""goot"",""P0_Q1"":2}",survey,78,1074803,0.0-8.0-1.29,[],,,
,,,,,,,,,,
1134,TestRecordings/douk.wav,0,audio-button-response,79,1075945,0.0-8.0-0.30,,,,
,,,,,,,,,,
3468,,"{""P0_Q0"":""doke"",""P0_Q1"":1}",survey,80,1079420,0.0-8.0-1.30,[],,,
,,,,,,,,,,
910,TestRecordings/tlunpem.wav,0,audio-button-response,81,1080336,0.0-8.0-0.31,,,,
,,,,,,,,,,
7891,,"{""P0_Q0"":""t'loonpen"",""P0_Q1"":2}",survey,82,1088235,0.0-8.0-1.31,[],,,
,,,,,,,,,,
1198,TestRecordings/tlangduk.wav,0,audio-button-response,83,1089440,0.0-8.0-0.32,,,,
,,,,,,,,,,
4683,,"{""P0_Q0"":""plengdook"",""P0_Q1"":1}",survey,84,1094131,0.0-8.0-1.32,[],,,
,,,,,,,,,,
1110,TestRecordings/pesgut.wav,0,audio-button-response,85,1095248,0.0-8.0-0.33,,,,
,,,,,,,,,,
6603,,"{""P0_Q0"":""pesgoot"",""P0_Q1"":3}",survey,86,1101858,0.0-8.0-1.33,[],,,
,,,,,,,,,,
919,TestRecordings/gukpim.wav,0,audio-button-response,87,1102784,0.0-8.0-0.34,,,,
,,,,,,,,,,
7333,,"{""P0_Q0"":""gookpen"",""P0_Q1"":2}",survey,88,1110140,0.0-8.0-1.34,[],,,
,,,,,,,,,,
965,TestRecordings/bimkun.wav,0,audio-button-response,89,1111112,0.0-8.0-0.35,,,,
,,,,,,,,,,
6064,,"{""P0_Q0"":""bimkun"",""P0_Q1"":1}",survey,90,1117188,0.0-8.0-1.35,[],,,
,,,,,,,,,,
1005,TestRecordings/biptet.wav,0,audio-button-response,91,1118199,0.0-8.0-0.36,,,,
,,,,,,,,,,
4538,,"{""P0_Q0"":""biptet"",""P0_Q1"":1}",survey,92,1122747,0.0-8.0-1.36,[],,,
,,,,,,,,,,
1253,TestRecordings/dlang.wav,0,audio-button-response,93,1124008,0.0-8.0-0.37,,,,
,,,,,,,,,,
4034,,"{""P0_Q0"":""dlang"",""P0_Q1"":1}",survey,94,1128050,0.0-8.0-1.37,[],,,
,,,,,,,,,,
966,TestRecordings/gekpup.wav,0,audio-button-response,95,1129023,0.0-8.0-0.38,,,,
,,,,,,,,,,
7555,,"{""P0_Q0"":""gekpup"",""P0_Q1"":1}",survey,96,1136586,0.0-8.0-1.38,[],,,
,,,,,,,,,,
2343,TestRecordings/dletgin.wav,0,audio-button-response,97,1138935,0.0-8.0-0.39,,,,
,,,,,,,,,,
4546,,"{""P0_Q0"":""blatgen"",""P0_Q1"":1}",survey,98,1143490,0.0-8.0-1.39,[],,,
,,,,,,,,,,
847,TestRecordings/dlain.wav,0,audio-button-response,99,1144343,0.0-8.0-0.40,,,,
,,,,,,,,,,
4509,,"{""P0_Q0"":""blin"",""P0_Q1"":5}",survey,100,1148858,0.0-8.0-1.40,[],,,
,,,,,,,,,,
998,TestRecordings/dlupgik.wav,0,audio-button-response,101,1149862,0.0-8.0-0.41,,,,
,,,,,,,,,,
6897,,"{""P0_Q0"":""bloopgek"",""P0_Q1"":1}",survey,102,1156769,0.0-8.0-1.41,[],,,
,,,,,,,,,,
854,TestRecordings/ndek.wav,0,audio-button-response,103,1157630,0.0-8.0-0.42,,,,
,,,,,,,,,,
4412,,"{""P0_Q0"":""m'dek"",""P0_Q1"":1}",survey,104,1162066,0.0-8.0-1.42,[],,,
,,,,,,,,,,
757,TestRecordings/dunbem.wav,0,audio-button-response,105,1162829,0.0-8.0-0.43,,,,
,,,,,,,,,,
4280,,"{""P0_Q0"":""dunbem"",""P0_Q1"":2}",survey,106,1167122,0.0-8.0-1.43,[],,,
,,,,,,,,,,
924,TestRecordings/driksum.wav,0,audio-button-response,107,1168053,0.0-8.0-0.44,,,,
,,,,,,,,,,
12985,,"{""P0_Q0"":""driksoon"",""P0_Q1"":2}",survey,108,1181049,0.0-8.0-1.44,[],,,
,,,,,,,,,,
886,TestRecordings/skup.wav,0,audio-button-response,109,1181941,0.0-8.0-0.45,,,,
,,,,,,,,,,
21162,,"{""P0_Q0"":""scoop"",""P0_Q1"":3}",survey,110,1203111,0.0-8.0-1.45,[],,,
,,,,,,,,,,
1101,TestRecordings/treng.wav,0,audio-button-response,111,1204220,0.0-8.0-0.46,,,,
,,,,,,,,,,
3603,,"{""P0_Q0"":""trang"",""P0_Q1"":5}",survey,112,1207831,0.0-8.0-1.46,[],,,
,,,,,,,,,,
917,TestRecordings/tembip.wav,0,audio-button-response,113,1208757,0.0-8.0-0.47,,,,
,,,,,,,,,,
4124,,"{""P0_Q0"":""tembep"",""P0_Q1"":2}",survey,114,1212887,0.0-8.0-1.47,[],,,
,,,,,,,,,,
998,TestRecordings/keptus.wav,0,audio-button-response,115,1213892,0.0-8.0-0.48,,,,
,,,,,,,,,,
5346,,"{""P0_Q0"":""keptus"",""P0_Q1"":5}",survey,116,1219246,0.0-8.0-1.48,[],,,
,,,,,,,,,,
1005,TestRecordings/draspung.wav,0,audio-button-response,117,1220260,0.0-8.0-0.49,,,,
,,,,,,,,,,
4923,,"{""P0_Q0"":""draspun"",""P0_Q1"":1}",survey,118,1225209,0.0-8.0-1.49,[],,,
,,,,,,,,,,
845,TestRecordings/dret.wav,0,audio-button-response,119,1226059,0.0-8.0-0.50,,,,
,,,,,,,,,,
9729,,"{""P0_Q0"":""dret"",""P0_Q1"":7}",survey,120,1235800,0.0-8.0-1.50,[],,,
,,,,,,,,,,
981,TestRecordings/genpum.wav,0,audio-button-response,121,1236787,0.0-8.0-0.51,,,,
,,,,,,,,,,
4331,,"{""P0_Q0"":""genpun"",""P0_Q1"":2}",survey,122,1241127,0.0-8.0-1.51,[],,,
,,,,,,,,,,
1094,TestRecordings/gakdum.wav,0,audio-button-response,123,1242227,0.0-8.0-0.52,,,,
,,,,,,,,,,
6561,,"{""P0_Q0"":""gakdoom"",""P0_Q1"":2}",survey,124,1248799,0.0-8.0-1.52,[],,,
,,,,,,,,,,
765,TestRecordings/bim.wav,0,audio-button-response,125,1249570,0.0-8.0-0.53,,,,
,,,,,,,,,,
3346,,"{""P0_Q0"":""bin"",""P0_Q1"":7}",survey,126,1252926,0.0-8.0-1.53,[],,,
,,,,,,,,,,
861,TestRecordings/bnup.wav,0,audio-button-response,127,1253795,0.0-8.0-0.54,,,,
,,,,,,,,,,
4328,,"{""P0_Q0"":""b'nup"",""P0_Q1"":1}",survey,128,1258134,0.0-8.0-1.54,[],,,
,,,,,,,,,,
868,TestRecordings/mpahk.wav,0,audio-button-response,129,1259010,0.0-8.0-0.55,,,,
,,,,,,,,,,
4899,,"{""P0_Q0"":""m'pock"",""P0_Q1"":1}",survey,130,1263918,0.0-8.0-1.55,[],,,
,,,,,,,,,,
899,TestRecordings/dwis.wav,0,audio-button-response,131,1264826,0.0-8.0-0.56,,,,
,,,,,,,,,,
3979,,"{""P0_Q0"":""dwiss"",""P0_Q1"":3}",survey,132,1268815,0.0-8.0-1.56,[],,,
,,,,,,,,,,
787,TestRecordings/ndaik.wav,0,audio-button-response,133,1269610,0.0-8.0-0.57,,,,
,,,,,,,,,,
4635,,"{""P0_Q0"":""dike"",""P0_Q1"":7}",survey,134,1274254,0.0-8.0-1.57,[],,,
,,,,,,,,,,
1213,TestRecordings/drensum.wav,0,audio-button-response,135,1275474,0.0-8.0-0.58,,,,
,,,,,,,,,,
4512,,"{""P0_Q0"":""drensoon"",""P0_Q1"":2}",survey,136,1279996,0.0-8.0-1.58,[],,,
,,,,,,,,,,
821,TestRecordings/pmaut.wav,0,audio-button-response,137,1280826,0.0-8.0-0.59,,,,
,,,,,,,,,,
7990,,"{""P0_Q0"":""p'mout"",""P0_Q1"":4}",survey,138,1288846,0.0-8.0-1.59,[],,,
,,,,,,,,,,
2739,, ,html-keyboard-response,139,1291586,0.0-9.0,,,,
,,,,,,,,,,
87706,,"{""P0_Q0"":""21"",""P0_Q1"":""Male"",""P0_Q2"":""Yes"",""P0_Q3"":""A little Japanese (like elementary level)"",""P0_Q4"":""about 5"",""P0_Q5"":""Doulingo for about a year and then Obenkyo and reading New Web Easy Articles for the rest""}",survey,140,1379309,0.0-10.0,[],,,
,,,,,,,,,,
3352,"<p style=""font-size:30px"">The experiment has ended</p><p style=""font-size:30px"",lang=""ko"">Thanks for participating in it!</p>", ,html-keyboard-response,141,1382664,0.0-11.0,,,,