rt,stimulus,response,trial_type,trial_index,time_elapsed,internal_node_id,accuracy,PracticeTest,ConsonantSequence,Grammaticality
,,,,,,,,,,
1951502,"<p style=""font-size:30px"">Welcome to the experiment</p><p>Press spacebar to continue</p>", ,html-keyboard-response,0,1951462,0.0-0.0,,,,
,,,,,,,,,,
2456,"<p style=""font-size:30px"">Please ensure that your headphones are on correctly</p><p>Press spacebar to continue</p>", ,html-keyboard-response,1,1953919,0.0-1.0,,,,
,,,,,,,,,,
2524,"<p style=""font-size:30px"">In this experiment, you will listen to nonsense words</p><p style=""font-size:30px"",lang=""ko"">Your task is to write down the word and then rate how good an English word it is</p><p>Press spacebar to continue</p>", ,html-keyboard-response,2,1956443,0.0-2.0,,,,
,,,,,,,,,,
2247,"<p style=""font-size:30px"">Let's practice with some nonsense words so that you understand the task</p><p>Press spacebar to continue</p>", ,html-keyboard-response,3,1958691,0.0-3.0,,,,
,,,,,,,,,,
6725,PracticeRecordings/bupkes.wav,0,audio-button-response,4,1965883,0.0-4.0-0.0,,,,
,,,,,,,,,,
9170,bupkes,"{""P0_Q0"":""bupkiss""}",survey,5,1975096,0.0-4.0-1.0,[],practice,NA,TRUE
,,,,,,,,,,
5017,"<p style=""font-size:30px""> The word you heard is <br> ""bupkess"" <br> It may sound different depending on the person. <br> Write it down as it sounds.</p><p lang=""ko"">Press spacebar to continue</p>", ,html-keyboard-response,6,1980114,0.0-4.0-2.0,,,,
,,,,,,,,,,
3056,PracticeRecordings/dringgep.wav,0,audio-button-response,7,1983178,0.0-4.0-0.1,,,,
,,,,,,,,,,
9303,dringep,"{""P0_Q0"":""dringepp""}",survey,8,1992493,0.0-4.0-1.1,[],practice,NA,FALSE
,,,,,,,,,,
2059,"<p style=""font-size:30px""> The word you heard is <br> ""dringep"" <br> It may sound different depending on the person. <br> Write it down as it sounds.</p><p lang=""ko"">Press spacebar to continue</p>", ,html-keyboard-response,9,1994554,0.0-4.0-2.1,,,,
,,,,,,,,,,
2935,PracticeRecordings/dunggem.wav,0,audio-button-response,10,1997497,0.0-4.0-0.2,,,,
,,,,,,,,,,
8490,dunggem,"{""P0_Q0"":""dungam""}",survey,11,2005997,0.0-4.0-1.2,[],practice,NA,FALSE
,,,,,,,,,,
2523,"<p style=""font-size:30px""> The word you heard is <br> ""dungem"" (or) ""doongem"" <br> It may sound different depending on the person. <br> Write it down as it sounds.</p><p lang=""ko"">Press spacebar to continue</p>", ,html-keyboard-response,12,2008521,0.0-4.0-2.2,,,,
,,,,,,,,,,
1103,PracticeRecordings/deip.wav,0,audio-button-response,13,2009633,0.0-4.0-0.3,,,,
,,,,,,,,,,
3442,deip,"{""P0_Q0"":""dape""}",survey,14,2013084,0.0-4.0-1.3,[],practice,NA,FALSE
,,,,,,,,,,
884,"<p style=""font-size:30px""> The word you heard is <br> ""dape"" <br> It may sound different depending on the person. <br> Write it down as it sounds.</p><p lang=""ko"">Press spacebar to continue</p>", ,html-keyboard-response,15,2013969,0.0-4.0-2.3,,,,
,,,,,,,,,,
2577,, ,html-keyboard-response,16,2016545,0.0-5.0,,,,
,,,,,,,,,,
5607,"<p style=""font-size:30px"">Now let's move on to the actual experiment.</p><p style=""font-size:30px"",lang=""ko"">During the experiment, you will hear each of the nonce words only once.", ,html-keyboard-response,17,2022153,0.0-6.0,,,,
,,,,,,,,,,
4807,"<p style=""font-size:30px"">After writing down the word, you will also rate the nonsense word you heard as a possible word of American English.</p><p>Press spacebar to continue</p>", ,html-keyboard-response,18,2026961,0.0-7.0,,,,
,,,,,,,,,,
1750,TestRecordings/dliim.wav,0,audio-button-response,19,2028720,0.0-8.0-0.0,,,,
,,,,,,,,,,
16072,,"{""P0_Q0"":""dleem"",""P0_Q1"":2}",survey,20,2044804,0.0-8.0-1.0,[],,,
,,,,,,,,,,
1451,TestRecordings/gintep.wav,0,audio-button-response,21,2046262,0.0-8.0-0.1,,,,
,,,,,,,,,,
10776,,"{""P0_Q0"":""kintep"",""P0_Q1"":6}",survey,22,2057050,0.0-8.0-1.1,[],,,
,,,,,,,,,,
1236,TestRecordings/pesgut.wav,0,audio-button-response,23,2058293,0.0-8.0-0.2,,,,
,,,,,,,,,,
10330,,"{""P0_Q0"":""peskut"",""P0_Q1"":7}",survey,24,2068634,0.0-8.0-1.2,[],,,
,,,,,,,,,,
1019,TestRecordings/drembip.wav,0,audio-button-response,25,2069661,0.0-8.0-0.3,,,,
,,,,,,,,,,
6345,,"{""P0_Q0"":""drembip"",""P0_Q1"":5}",survey,26,2076017,0.0-8.0-1.3,[],,,
,,,,,,,,,,
2419,TestRecordings/dlang.wav,0,audio-button-response,27,2078445,0.0-8.0-0.4,,,,
,,,,,,,,,,
6705,,"{""P0_Q0"":""plang"",""P0_Q1"":6}",survey,28,2085160,0.0-8.0-1.4,[],,,
,,,,,,,,,,
1079,TestRecordings/pmaut.wav,0,audio-button-response,29,2086244,0.0-8.0-0.5,,,,
,,,,,,,,,,
5123,,"{""P0_Q0"":""pmount"",""P0_Q1"":6}",survey,30,2091375,0.0-8.0-1.5,[],,,
,,,,,,,,,,
1021,TestRecordings/kmuup.wav,0,audio-button-response,31,2092404,0.0-8.0-0.6,,,,
,,,,,,,,,,
5787,,"{""P0_Q0"":""kmoop"",""P0_Q1"":7}",survey,32,2098199,0.0-8.0-1.6,[],,,
,,,,,,,,,,
1051,TestRecordings/trindus.wav,0,audio-button-response,33,2099259,0.0-8.0-0.7,,,,
,,,,,,,,,,
4156,,"{""P0_Q0"":""trindus"",""P0_Q1"":7}",survey,34,2103423,0.0-8.0-1.7,[],,,
,,,,,,,,,,
1093,TestRecordings/mpat.wav,0,audio-button-response,35,2104523,0.0-8.0-0.8,,,,
,,,,,,,,,,
6146,,"{""P0_Q0"":""mpat"",""P0_Q1"":4}",survey,36,2110678,0.0-8.0-1.8,[],,,
,,,,,,,,,,
1076,TestRecordings/bnup.wav,0,audio-button-response,37,2111763,0.0-8.0-0.9,,,,
,,,,,,,,,,
8443,,"{""P0_Q0"":""bnup"",""P0_Q1"":3}",survey,38,2120214,0.0-8.0-1.9,[],,,
,,,,,,,,,,
1212,TestRecordings/draspung.wav,0,audio-button-response,39,2121434,0.0-8.0-0.10,,,,
,,,,,,,,,,
4475,,"{""P0_Q0"":""draspum"",""P0_Q1"":5}",survey,40,2125918,0.0-8.0-1.10,[],,,
,,,,,,,,,,
1197,TestRecordings/santem.wav,0,audio-button-response,41,2127122,0.0-8.0-0.11,,,,
,,,,,,,,,,
4212,,"{""P0_Q0"":""santan"",""P0_Q1"":7}",survey,42,2131342,0.0-8.0-1.11,[],,,
,,,,,,,,,,
1012,TestRecordings/dlupgik.wav,0,audio-button-response,43,2132361,0.0-8.0-0.12,,,,
,,,,,,,,,,
4748,,"{""P0_Q0"":""blupkick"",""P0_Q1"":7}",survey,44,2137117,0.0-8.0-1.12,[],,,
,,,,,,,,,,
942,TestRecordings/stup.wav,0,audio-button-response,45,2138065,0.0-8.0-0.13,,,,
,,,,,,,,,,
23108,,"{""P0_Q0"":""steup"",""P0_Q1"":4}",survey,46,2161179,0.0-8.0-1.13,[],,,
,,,,,,,,,,
1710,TestRecordings/tlamsus.wav,0,audio-button-response,47,2162896,0.0-8.0-0.14,,,,
,,,,,,,,,,
4292,,"{""P0_Q0"":""flamsus"",""P0_Q1"":6}",survey,48,2167195,0.0-8.0-1.14,[],,,
,,,,,,,,,,
981,TestRecordings/dunbem.wav,0,audio-button-response,49,2168184,0.0-8.0-0.15,,,,
,,,,,,,,,,
4796,,"{""P0_Q0"":""dunbam"",""P0_Q1"":5}",survey,50,2172987,0.0-8.0-1.15,[],,,
,,,,,,,,,,
998,TestRecordings/mpahk.wav,0,audio-button-response,51,2173991,0.0-8.0-0.16,,,,
,,,,,,,,,,
4268,,"{""P0_Q0"":""mpock"",""P0_Q1"":3}",survey,52,2178266,0.0-8.0-1.16,[],,,
,,,,,,,,,,
1052,TestRecordings/gatdum.wav,0,audio-button-response,53,2179327,0.0-8.0-0.17,,,,
,,,,,,,,,,
5098,,"{""P0_Q0"":""gatdum"",""P0_Q1"":7}",survey,54,2184434,0.0-8.0-1.17,[],,,
,,,,,,,,,,
1245,TestRecordings/daip.wav,0,audio-button-response,55,2185687,0.0-8.0-0.18,,,,
,,,,,,,,,,
5107,,"{""P0_Q0"":""diap"",""P0_Q1"":5}",survey,56,2190802,0.0-8.0-1.18,[],,,
,,,,,,,,,,
1022,TestRecordings/beptus.wav,0,audio-button-response,57,2191831,0.0-8.0-0.19,,,,
,,,,,,,,,,
4619,,"{""P0_Q0"":""beptus"",""P0_Q1"":4}",survey,58,2196458,0.0-8.0-1.19,[],,,
,,,,,,,,,,
1676,TestRecordings/tlunpem.wav,0,audio-button-response,59,2198142,0.0-8.0-0.20,,,,
,,,,,,,,,,
5748,,"{""P0_Q0"":""tloonpan"",""P0_Q1"":3}",survey,60,2203897,0.0-8.0-1.20,[],,,
,,,,,,,,,,
966,TestRecordings/dwis.wav,0,audio-button-response,61,2204870,0.0-8.0-0.21,,,,
,,,,,,,,,,
5108,,"{""P0_Q0"":""dwiss"",""P0_Q1"":4}",survey,62,2209984,0.0-8.0-1.21,[],,,
,,,,,,,,,,
1037,TestRecordings/genpum.wav,0,audio-button-response,63,2211029,0.0-8.0-0.22,,,,
,,,,,,,,,,
5426,,"{""P0_Q0"":""ginpum"",""P0_Q1"":2}",survey,64,2216465,0.0-8.0-1.22,[],,,
,,,,,,,,,,
877,TestRecordings/mdak.wav,0,audio-button-response,65,2217349,0.0-8.0-0.23,,,,
,,,,,,,,,,
4204,,"{""P0_Q0"":""mdack"",""P0_Q1"":2}",survey,66,2221560,0.0-8.0-1.23,[],,,
,,,,,,,,,,
1238,TestRecordings/skup.wav,0,audio-button-response,67,2222805,0.0-8.0-0.24,,,,
,,,,,,,,,,
5924,,"{""P0_Q0"":""sceup"",""P0_Q1"":2}",survey,68,2228736,0.0-8.0-1.24,[],,,
,,,,,,,,,,
1012,TestRecordings/drensum.wav,0,audio-button-response,69,2229757,0.0-8.0-0.25,,,,
,,,,,,,,,,
4755,,"{""P0_Q0"":""drinsum"",""P0_Q1"":6}",survey,70,2234520,0.0-8.0-1.25,[],,,
,,,,,,,,,,
1149,TestRecordings/staik.wav,0,audio-button-response,71,2235676,0.0-8.0-0.26,,,,
,,,,,,,,,,
7315,,"{""P0_Q0"":""staic"",""P0_Q1"":3}",survey,72,2242999,0.0-8.0-1.26,[],,,
,,,,,,,,,,
1157,TestRecordings/dlesbup.wav,0,audio-button-response,73,2244164,0.0-8.0-0.27,,,,
,,,,,,,,,,
6587,,"{""P0_Q0"":""blessbup"",""P0_Q1"":4}",survey,74,2250759,0.0-8.0-1.27,[],,,
,,,,,,,,,,
1093,TestRecordings/treng.wav,0,audio-button-response,75,2251860,0.0-8.0-0.28,,,,
,,,,,,,,,,
4451,,"{""P0_Q0"":""traing"",""P0_Q1"":5}",survey,76,2256319,0.0-8.0-1.28,[],,,
,,,,,,,,,,
1494,TestRecordings/tlakgung.wav,0,audio-button-response,77,2257819,0.0-8.0-0.29,,,,
,,,,,,,,,,
10259,,"{""P0_Q0"":""blakgun"",""P0_Q1"":3}",survey,78,2268086,0.0-8.0-1.29,[],,,
,,,,,,,,,,
3286,TestRecordings/ndaik.wav,0,audio-button-response,79,2271379,0.0-8.0-0.30,,,,
,,,,,,,,,,
3251,,"{""P0_Q0"":""mdaic"",""P0_Q1"":2}",survey,80,2274638,0.0-8.0-1.30,[],,,
,,,,,,,,,,
1797,TestRecordings/dletgin.wav,0,audio-button-response,81,2276442,0.0-8.0-0.31,,,,
,,,,,,,,,,
4371,,"{""P0_Q0"":""bleckgin"",""P0_Q1"":4}",survey,82,2280821,0.0-8.0-1.31,[],,,
,,,,,,,,,,
999,TestRecordings/gmut.wav,0,audio-button-response,83,2281826,0.0-8.0-0.32,,,,
,,,,,,,,,,
7259,,"{""P0_Q0"":""gmut"",""P0_Q1"":2}",survey,84,2289093,0.0-8.0-1.32,[],,,
,,,,,,,,,,
958,TestRecordings/daum.wav,0,audio-button-response,85,2290057,0.0-8.0-0.33,,,,
,,,,,,,,,,
3389,,"{""P0_Q0"":""dowm"",""P0_Q1"":7}",survey,86,2293454,0.0-8.0-1.33,[],,,
,,,,,,,,,,
883,TestRecordings/biptet.wav,0,audio-button-response,87,2294345,0.0-8.0-0.34,,,,
,,,,,,,,,,
4738,,"{""P0_Q0"":""biptet"",""P0_Q1"":7}",survey,88,2299109,0.0-8.0-1.34,[],,,
,,,,,,,,,,
979,TestRecordings/gwas.wav,0,audio-button-response,89,2300097,0.0-8.0-0.35,,,,
,,,,,,,,,,
3882,,"{""P0_Q0"":""gwass"",""P0_Q1"":6}",survey,90,2303989,0.0-8.0-1.35,[],,,
,,,,,,,,,,
965,TestRecordings/bim.wav,0,audio-button-response,91,2304961,0.0-8.0-0.36,,,,
,,,,,,,,,,
3850,,"{""P0_Q0"":""bim"",""P0_Q1"":7}",survey,92,2308820,0.0-8.0-1.36,[],,,
,,,,,,,,,,
980,TestRecordings/tembip.wav,0,audio-button-response,93,2309808,0.0-8.0-0.37,,,,
,,,,,,,,,,
4698,,"{""P0_Q0"":""tembip"",""P0_Q1"":6}",survey,94,2314516,0.0-8.0-1.37,[],,,
,,,,,,,,,,
1395,TestRecordings/dret.wav,0,audio-button-response,95,2315920,0.0-8.0-0.38,,,,
,,,,,,,,,,
3219,,"{""P0_Q0"":""dret"",""P0_Q1"":7}",survey,96,2319147,0.0-8.0-1.38,[],,,
,,,,,,,,,,
909,TestRecordings/ndek.wav,0,audio-button-response,97,2320064,0.0-8.0-0.39,,,,
,,,,,,,,,,
5050,,"{""P0_Q0"":""mdeck"",""P0_Q1"":3}",survey,98,2325123,0.0-8.0-1.39,[],,,
,,,,,,,,,,
916,TestRecordings/tlaip.wav,0,audio-button-response,99,2326048,0.0-8.0-0.40,,,,
,,,,,,,,,,
5300,,"{""P0_Q0"":""tlaip"",""P0_Q1"":3}",survey,100,2331354,0.0-8.0-1.40,[],,,
,,,,,,,,,,
1470,TestRecordings/gukpim.wav,0,audio-button-response,101,2332831,0.0-8.0-0.41,,,,
,,,,,,,,,,
4507,,"{""P0_Q0"":""cookpin"",""P0_Q1"":7}",survey,102,2337346,0.0-8.0-1.41,[],,,
,,,,,,,,,,
901,TestRecordings/dlain.wav,0,audio-button-response,103,2338256,0.0-8.0-0.42,,,,
,,,,,,,,,,
3571,,"{""P0_Q0"":""bline"",""P0_Q1"":7}",survey,104,2341833,0.0-8.0-1.42,[],,,
,,,,,,,,,,
870,TestRecordings/gekpup.wav,0,audio-button-response,105,2342711,0.0-8.0-0.43,,,,
,,,,,,,,,,
10829,,"{""P0_Q0"":""geckpeup"",""P0_Q1"":3}",survey,106,2353547,0.0-8.0-1.43,[],,,
,,,,,,,,,,
889,TestRecordings/nungtem.wav,0,audio-button-response,107,2354446,0.0-8.0-0.44,,,,
,,,,,,,,,,
5783,,"{""P0_Q0"":""noontim"",""P0_Q1"":3}",survey,108,2360258,0.0-8.0-1.44,[],,,
,,,,,,,,,,
851,TestRecordings/nasgek.wav,0,audio-button-response,109,2361118,0.0-8.0-0.45,,,,
,,,,,,,,,,
7993,,"{""P0_Q0"":""nasgeck"",""P0_Q1"":7}",survey,110,2369122,0.0-8.0-1.45,[],,,
,,,,,,,,,,
973,TestRecordings/spen.wav,0,audio-button-response,111,2370102,0.0-8.0-0.46,,,,
,,,,,,,,,,
4218,,"{""P0_Q0"":""spen"",""P0_Q1"":7}",survey,112,2374328,0.0-8.0-1.46,[],,,
,,,,,,,,,,
861,TestRecordings/keptus.wav,0,audio-button-response,113,2375197,0.0-8.0-0.47,,,,
,,,,,,,,,,
4401,,"{""P0_Q0"":""keptus"",""P0_Q1"":4}",survey,114,2379608,0.0-8.0-1.47,[],,,
,,,,,,,,,,
830,TestRecordings/dmat.wav,0,audio-button-response,115,2380444,0.0-8.0-0.48,,,,
,,,,,,,,,,
4419,,"{""P0_Q0"":""dmat"",""P0_Q1"":2}",survey,116,2384873,0.0-8.0-1.48,[],,,
,,,,,,,,,,
933,TestRecordings/druksan.wav,0,audio-button-response,117,2385812,0.0-8.0-0.49,,,,
,,,,,,,,,,
5594,,"{""P0_Q0"":""drucksan"",""P0_Q1"":4}",survey,118,2391416,0.0-8.0-1.49,[],,,
,,,,,,,,,,
910,TestRecordings/tlangduk.wav,0,audio-button-response,119,2392332,0.0-8.0-0.50,,,,
,,,,,,,,,,
5954,,"{""P0_Q0"":""plangduk"",""P0_Q1"":4}",survey,120,2398294,0.0-8.0-1.50,[],,,
,,,,,,,,,,
1015,TestRecordings/gakdum.wav,0,audio-button-response,121,2399316,0.0-8.0-0.51,,,,
,,,,,,,,,,
4274,,"{""P0_Q0"":""gackdum"",""P0_Q1"":5}",survey,122,2403598,0.0-8.0-1.51,[],,,
,,,,,,,,,,
1470,TestRecordings/tleik.wav,0,audio-button-response,123,2405075,0.0-8.0-0.52,,,,
,,,,,,,,,,
7419,,"{""P0_Q0"":""tlayk"",""P0_Q1"":3}",survey,124,2412502,0.0-8.0-1.52,[],,,
,,,,,,,,,,
918,TestRecordings/sandup.wav,0,audio-button-response,125,2413427,0.0-8.0-0.53,,,,
,,,,,,,,,,
3973,,"{""P0_Q0"":""sandup"",""P0_Q1"":5}",survey,126,2417438,0.0-8.0-1.53,[],,,
,,,,,,,,,,
731,TestRecordings/guut.wav,0,audio-button-response,127,2418179,0.0-8.0-0.54,,,,
,,,,,,,,,,
4173,,"{""P0_Q0"":""goot"",""P0_Q1"":7}",survey,128,2422385,0.0-8.0-1.54,[],,,
,,,,,,,,,,
1370,TestRecordings/gwut.wav,0,audio-button-response,129,2423762,0.0-8.0-0.55,,,,
,,,,,,,,,,
14569,,"{""P0_Q0"":""gwut"",""P0_Q1"":2}",survey,130,2438342,0.0-8.0-1.55,[],,,
,,,,,,,,,,
916,TestRecordings/douk.wav,0,audio-button-response,131,2439265,0.0-8.0-0.56,,,,
,,,,,,,,,,
3996,,"{""P0_Q0"":""doke"",""P0_Q1"":7}",survey,132,2443270,0.0-8.0-1.56,[],,,
,,,,,,,,,,
780,TestRecordings/bimkun.wav,0,audio-button-response,133,2444057,0.0-8.0-0.57,,,,
,,,,,,,,,,
6714,,"{""P0_Q0"":""bimkun"",""P0_Q1"":2}",survey,134,2450780,0.0-8.0-1.57,[],,,
,,,,,,,,,,
1078,TestRecordings/driksum.wav,0,audio-button-response,135,2451865,0.0-8.0-0.58,,,,
,,,,,,,,,,
5083,,"{""P0_Q0"":""dricksum"",""P0_Q1"":5}",survey,136,2456956,0.0-8.0-1.58,[],,,
,,,,,,,,,,
907,TestRecordings/bwus.wav,0,audio-button-response,137,2457872,0.0-8.0-0.59,,,,
,,,,,,,,,,
7132,,"{""P0_Q0"":""bwus"",""P0_Q1"":3}",survey,138,2465011,0.0-8.0-1.59,[],,,
,,,,,,,,,,
3723,, ,html-keyboard-response,139,2468736,0.0-9.0,,,,
,,,,,,,,,,
75839,,"{""P0_Q0"":""18"",""P0_Q1"":""Female"",""P0_Q2"":""Yes"",""P0_Q3"":""French"",""P0_Q4"":""Age 12"",""P0_Q5"":""I have been learning French for six years and have passed a biliteracy test.""}",survey,140,2544583,0.0-10.0,[],,,
,,,,,,,,,,
380491,"<p style=""font-size:30px"">The experiment has ended</p><p style=""font-size:30px"",lang=""ko"">Thanks for participating in it!</p>", ,html-keyboard-response,141,2925055,0.0-11.0,,,,