rt,stimulus,response,trial_type,trial_index,time_elapsed,internal_node_id,accuracy,PracticeTest,ConsonantSequence,Grammaticality
,,,,,,,,,,
1030030,"<p style=""font-size:30px"">Welcome to the experiment</p><p>Press spacebar to continue</p>", ,html-keyboard-response,0,1030001,0.0-0.0,,,,
,,,,,,,,,,
1981,"<p style=""font-size:30px"">Please ensure that your headphones are on correctly</p><p>Press spacebar to continue</p>", ,html-keyboard-response,1,1031983,0.0-1.0,,,,
,,,,,,,,,,
8632,"<p style=""font-size:30px"">In this experiment, you will listen to nonsense words</p><p style=""font-size:30px"",lang=""ko"">Your task is to write down the word and then rate how good an English word it is</p><p>Press spacebar to continue</p>", ,html-keyboard-response,2,1040614,0.0-2.0,,,,
,,,,,,,,,,
1950,"<p style=""font-size:30px"">Let's practice with some nonsense words so that you understand the task</p><p>Press spacebar to continue</p>", ,html-keyboard-response,3,1042566,0.0-3.0,,,,
,,,,,,,,,,
8463,PracticeRecordings/bupkes.wav,0,audio-button-response,4,1051037,0.0-4.0-0.0,,,,
,,,,,,,,,,
15146,bupkes,"{""P0_Q0"":""bupkes""}",survey,5,1066217,0.0-4.0-1.0,[],practice,NA,TRUE
,,,,,,,,,,
7067,"<p style=""font-size:30px""> The word you heard is <br> ""bupkess"" <br> It may sound different depending on the person. <br> Write it down as it sounds.</p><p lang=""ko"">Press spacebar to continue</p>", ,html-keyboard-response,6,1073285,0.0-4.0-2.0,,,,
,,,,,,,,,,
2194,PracticeRecordings/dringgep.wav,0,audio-button-response,7,1075483,0.0-4.0-0.1,,,,
,,,,,,,,,,
5200,dringep,"{""P0_Q0"":""tringep""}",survey,8,1080695,0.0-4.0-1.1,[],practice,NA,FALSE
,,,,,,,,,,
2812,"<p style=""font-size:30px""> The word you heard is <br> ""dringep"" <br> It may sound different depending on the person. <br> Write it down as it sounds.</p><p lang=""ko"">Press spacebar to continue</p>", ,html-keyboard-response,9,1083508,0.0-4.0-2.1,,,,
,,,,,,,,,,
1649,PracticeRecordings/dunggem.wav,0,audio-button-response,10,1085163,0.0-4.0-0.2,,,,
,,,,,,,,,,
10537,dunggem,"{""P0_Q0"":""dungen""}",survey,11,1095710,0.0-4.0-1.2,[],practice,NA,FALSE
,,,,,,,,,,
4580,"<p style=""font-size:30px""> The word you heard is <br> ""dungem"" (or) ""doongem"" <br> It may sound different depending on the person. <br> Write it down as it sounds.</p><p lang=""ko"">Press spacebar to continue</p>", ,html-keyboard-response,12,1100291,0.0-4.0-2.2,,,,
,,,,,,,,,,
1353,PracticeRecordings/deip.wav,0,audio-button-response,13,1101651,0.0-4.0-0.3,,,,
,,,,,,,,,,
4193,deip,"{""P0_Q0"":""dape""}",survey,14,1105854,0.0-4.0-1.3,[],practice,NA,FALSE
,,,,,,,,,,
1613,"<p style=""font-size:30px""> The word you heard is <br> ""dape"" <br> It may sound different depending on the person. <br> Write it down as it sounds.</p><p lang=""ko"">Press spacebar to continue</p>", ,html-keyboard-response,15,1107467,0.0-4.0-2.3,,,,
,,,,,,,,,,
2495,, ,html-keyboard-response,16,1109963,0.0-5.0,,,,
,,,,,,,,,,
3543,"<p style=""font-size:30px"">Now let's move on to the actual experiment.</p><p style=""font-size:30px"",lang=""ko"">During the experiment, you will hear each of the nonce words only once.", ,html-keyboard-response,17,1113506,0.0-6.0,,,,
,,,,,,,,,,
4343,"<p style=""font-size:30px"">After writing down the word, you will also rate the nonsense word you heard as a possible word of American English.</p><p>Press spacebar to continue</p>", ,html-keyboard-response,18,1117851,0.0-7.0,,,,
,,,,,,,,,,
2121,TestRecordings/druksan.wav,0,audio-button-response,19,1119978,0.0-8.0-0.0,,,,
,,,,,,,,,,
27568,,"{""P0_Q0"":""druksan"",""P0_Q1"":2}",survey,20,1147556,0.0-8.0-1.0,[],,,
,,,,,,,,,,
1662,TestRecordings/bnup.wav,0,audio-button-response,21,1149224,0.0-8.0-0.1,,,,
,,,,,,,,,,
8207,,"{""P0_Q0"":""gnoop"",""P0_Q1"":1}",survey,22,1157444,0.0-8.0-1.1,[],,,
,,,,,,,,,,
1408,TestRecordings/dlesbup.wav,0,audio-button-response,23,1158856,0.0-8.0-0.2,,,,
,,,,,,,,,,
17243,,"{""P0_Q0"":""blessbup"",""P0_Q1"":2}",survey,24,1176108,0.0-8.0-1.2,[],,,
,,,,,,,,,,
1086,TestRecordings/dlang.wav,0,audio-button-response,25,1177201,0.0-8.0-0.3,,,,
,,,,,,,,,,
5689,,"{""P0_Q0"":""blang"",""P0_Q1"":7}",survey,26,1182900,0.0-8.0-1.3,[],,,
,,,,,,,,,,
1287,TestRecordings/dletgin.wav,0,audio-button-response,27,1184192,0.0-8.0-0.4,,,,
,,,,,,,,,,
16290,,"{""P0_Q0"":""bletgen"",""P0_Q1"":2}",survey,28,1200491,0.0-8.0-1.4,[],,,
,,,,,,,,,,
1271,TestRecordings/sandup.wav,0,audio-button-response,29,1201768,0.0-8.0-0.5,,,,
,,,,,,,,,,
4683,,"{""P0_Q0"":""sandip"",""P0_Q1"":6}",survey,30,1206458,0.0-8.0-1.5,[],,,
,,,,,,,,,,
1440,TestRecordings/tlakgung.wav,0,audio-button-response,31,1207903,0.0-8.0-0.6,,,,
,,,,,,,,,,
11682,,"{""P0_Q0"":""platgoon"",""P0_Q1"":3}",survey,32,1219594,0.0-8.0-1.6,[],,,
,,,,,,,,,,
1175,TestRecordings/mpat.wav,0,audio-button-response,33,1220774,0.0-8.0-0.7,,,,
,,,,,,,,,,
11779,,"{""P0_Q0"":""mpat"",""P0_Q1"":1}",survey,34,1232561,0.0-8.0-1.7,[],,,
,,,,,,,,,,
1399,TestRecordings/beptus.wav,0,audio-button-response,35,1233965,0.0-8.0-0.8,,,,
,,,,,,,,,,
16747,,"{""P0_Q0"":""beptuss"",""P0_Q1"":2}",survey,36,1250720,0.0-8.0-1.8,[],,,
,,,,,,,,,,
1039,TestRecordings/dlupgik.wav,0,audio-button-response,37,1251765,0.0-8.0-0.9,,,,
,,,,,,,,,,
7071,,"{""P0_Q0"":""bloopgek"",""P0_Q1"":2}",survey,38,1258848,0.0-8.0-1.9,[],,,
,,,,,,,,,,
1149,TestRecordings/gatdum.wav,0,audio-button-response,39,1260005,0.0-8.0-0.10,,,,
,,,,,,,,,,
26410,,"{""P0_Q0"":""getdung"",""P0_Q1"":3}",survey,40,1286423,0.0-8.0-1.10,[],,,
,,,,,,,,,,
927,TestRecordings/daip.wav,0,audio-button-response,41,1287355,0.0-8.0-0.11,,,,
,,,,,,,,,,
15746,,"{""P0_Q0"":""daip"",""P0_Q1"":3}",survey,42,1303111,0.0-8.0-1.11,[],,,
,,,,,,,,,,
1405,TestRecordings/daum.wav,0,audio-button-response,43,1304523,0.0-8.0-0.12,,,,
,,,,,,,,,,
8764,,"{""P0_Q0"":""dowm"",""P0_Q1"":1}",survey,44,1313293,0.0-8.0-1.12,[],,,
,,,,,,,,,,
1950,TestRecordings/santem.wav,0,audio-button-response,45,1315251,0.0-8.0-0.13,,,,
,,,,,,,,,,
7139,,"{""P0_Q0"":""santin"",""P0_Q1"":6}",survey,46,1322398,0.0-8.0-1.13,[],,,
,,,,,,,,,,
1343,TestRecordings/gintep.wav,0,audio-button-response,47,1323746,0.0-8.0-0.14,,,,
,,,,,,,,,,
11109,,"{""P0_Q0"":""gintep"",""P0_Q1"":5}",survey,48,1334861,0.0-8.0-1.14,[],,,
,,,,,,,,,,
1230,TestRecordings/gakdum.wav,0,audio-button-response,49,1336097,0.0-8.0-0.15,,,,
,,,,,,,,,,
12436,,"{""P0_Q0"":""gaktun"",""P0_Q1"":4}",survey,50,1348540,0.0-8.0-1.15,[],,,
,,,,,,,,,,
1238,TestRecordings/stup.wav,0,audio-button-response,51,1349784,0.0-8.0-0.16,,,,
,,,,,,,,,,
5171,,"{""P0_Q0"":""stoop"",""P0_Q1"":6}",survey,52,1354964,0.0-8.0-1.16,[],,,
,,,,,,,,,,
951,TestRecordings/dlain.wav,0,audio-button-response,53,1355921,0.0-8.0-0.17,,,,
,,,,,,,,,,
14636,,"{""P0_Q0"":""bline"",""P0_Q1"":6}",survey,54,1370563,0.0-8.0-1.17,[],,,
,,,,,,,,,,
1061,TestRecordings/treng.wav,0,audio-button-response,55,1371631,0.0-8.0-0.18,,,,
,,,,,,,,,,
17827,,"{""P0_Q0"":""trang"",""P0_Q1"":1}",survey,56,1389466,0.0-8.0-1.18,[],,,
,,,,,,,,,,
1166,TestRecordings/gwas.wav,0,audio-button-response,57,1390639,0.0-8.0-0.19,,,,
,,,,,,,,,,
5035,,"{""P0_Q0"":""gwass"",""P0_Q1"":1}",survey,58,1395682,0.0-8.0-1.19,[],,,
,,,,,,,,,,
878,TestRecordings/gukpim.wav,0,audio-button-response,59,1396566,0.0-8.0-0.20,,,,
,,,,,,,,,,
12051,,"{""P0_Q0"":""gookpen"",""P0_Q1"":4}",survey,60,1408626,0.0-8.0-1.20,[],,,
,,,,,,,,,,
1190,TestRecordings/tlaip.wav,0,audio-button-response,61,1409821,0.0-8.0-0.21,,,,
,,,,,,,,,,
19508,,"{""P0_Q0"":""plaip"",""P0_Q1"":2}",survey,62,1429336,0.0-8.0-1.21,[],,,
,,,,,,,,,,
1054,TestRecordings/drensum.wav,0,audio-button-response,63,1430397,0.0-8.0-0.22,,,,
,,,,,,,,,,
9796,,"{""P0_Q0"":""drensen"",""P0_Q1"":5}",survey,64,1440200,0.0-8.0-1.22,[],,,
,,,,,,,,,,
805,TestRecordings/skup.wav,0,audio-button-response,65,1441012,0.0-8.0-0.23,,,,
,,,,,,,,,,
22140,,"{""P0_Q0"":""scup"",""P0_Q1"":5}",survey,66,1463158,0.0-8.0-1.23,[],,,
,,,,,,,,,,
1038,TestRecordings/kmuup.wav,0,audio-button-response,67,1464203,0.0-8.0-0.24,,,,
,,,,,,,,,,
4977,,"{""P0_Q0"":""kmoop"",""P0_Q1"":1}",survey,68,1469190,0.0-8.0-1.24,[],,,
,,,,,,,,,,
766,TestRecordings/draspung.wav,0,audio-button-response,69,1469963,0.0-8.0-0.25,,,,
,,,,,,,,,,
8483,,"{""P0_Q0"":""draspoong"",""P0_Q1"":2}",survey,70,1478453,0.0-8.0-1.25,[],,,
,,,,,,,,,,
797,TestRecordings/gwut.wav,0,audio-button-response,71,1479258,0.0-8.0-0.26,,,,
,,,,,,,,,,
18996,,"{""P0_Q0"":""gwut"",""P0_Q1"":2}",survey,72,1498261,0.0-8.0-1.26,[],,,
,,,,,,,,,,
927,TestRecordings/gekpup.wav,0,audio-button-response,73,1499194,0.0-8.0-0.27,,,,
,,,,,,,,,,
6844,,"{""P0_Q0"":""gekpup"",""P0_Q1"":2}",survey,74,1506045,0.0-8.0-1.27,[],,,
,,,,,,,,,,
1158,TestRecordings/tembip.wav,0,audio-button-response,75,1507209,0.0-8.0-0.28,,,,
,,,,,,,,,,
24405,,"{""P0_Q0"":""tembep"",""P0_Q1"":3}",survey,76,1531620,0.0-8.0-1.28,[],,,
,,,,,,,,,,
775,TestRecordings/keptus.wav,0,audio-button-response,77,1532400,0.0-8.0-0.29,,,,
,,,,,,,,,,
10036,,"{""P0_Q0"":""keptuss"",""P0_Q1"":3}",survey,78,1542443,0.0-8.0-1.29,[],,,
,,,,,,,,,,
830,TestRecordings/driksum.wav,0,audio-button-response,79,1543280,0.0-8.0-0.30,,,,
,,,,,,,,,,
6771,,"{""P0_Q0"":""driksoon"",""P0_Q1"":2}",survey,80,1550059,0.0-8.0-1.30,[],,,
,,,,,,,,,,
678,TestRecordings/douk.wav,0,audio-button-response,81,1550743,0.0-8.0-0.31,,,,
,,,,,,,,,,
7725,,"{""P0_Q0"":""douk"",""P0_Q1"":6}",survey,82,1558474,0.0-8.0-1.31,[],,,
,,,,,,,,,,
813,TestRecordings/genpum.wav,0,audio-button-response,83,1559295,0.0-8.0-0.32,,,,
,,,,,,,,,,
6019,,"{""P0_Q0"":""genpoon"",""P0_Q1"":5}",survey,84,1565320,0.0-8.0-1.32,[],,,
,,,,,,,,,,
677,TestRecordings/dmat.wav,0,audio-button-response,85,1566006,0.0-8.0-0.33,,,,
,,,,,,,,,,
4569,,"{""P0_Q0"":""dmat"",""P0_Q1"":1}",survey,86,1570600,0.0-8.0-1.33,[],,,
,,,,,,,,,,
797,TestRecordings/pesgut.wav,0,audio-button-response,87,1571406,0.0-8.0-0.34,,,,
,,,,,,,,,,
8363,,"{""P0_Q0"":""peskoot"",""P0_Q1"":6}",survey,88,1579794,0.0-8.0-1.34,[],,,
,,,,,,,,,,
707,TestRecordings/dliim.wav,0,audio-button-response,89,1580510,0.0-8.0-0.35,,,,
,,,,,,,,,,
8750,,"{""P0_Q0"":""dleam"",""P0_Q1"":1}",survey,90,1589273,0.0-8.0-1.35,[],,,
,,,,,,,,,,
708,TestRecordings/dunbem.wav,0,audio-button-response,91,1589990,0.0-8.0-0.36,,,,
,,,,,,,,,,
8609,,"{""P0_Q0"":""dunbem"",""P0_Q1"":5}",survey,92,1598608,0.0-8.0-1.36,[],,,
,,,,,,,,,,
694,TestRecordings/tlangduk.wav,0,audio-button-response,93,1599309,0.0-8.0-0.37,,,,
,,,,,,,,,,
6411,,"{""P0_Q0"":""plangdook"",""P0_Q1"":2}",survey,94,1605729,0.0-8.0-1.37,[],,,
,,,,,,,,,,
934,TestRecordings/ndek.wav,0,audio-button-response,95,1606668,0.0-8.0-0.38,,,,
,,,,,,,,,,
11315,,"{""P0_Q0"":""mdeck"",""P0_Q1"":1}",survey,96,1617992,0.0-8.0-1.38,[],,,
,,,,,,,,,,
766,TestRecordings/mdak.wav,0,audio-button-response,97,1618764,0.0-8.0-0.39,,,,
,,,,,,,,,,
4252,,"{""P0_Q0"":""mdack"",""P0_Q1"":1}",survey,98,1623023,0.0-8.0-1.39,[],,,
,,,,,,,,,,
942,TestRecordings/tlunpem.wav,0,audio-button-response,99,1623972,0.0-8.0-0.40,,,,
,,,,,,,,,,
4796,,"{""P0_Q0"":""tloonpen"",""P0_Q1"":1}",survey,100,1628775,0.0-8.0-1.40,[],,,
,,,,,,,,,,
1068,TestRecordings/guut.wav,0,audio-button-response,101,1629851,0.0-8.0-0.41,,,,
,,,,,,,,,,
9929,,"{""P0_Q0"":""goot"",""P0_Q1"":7}",survey,102,1639808,0.0-8.0-1.41,[],,,
,,,,,,,,,,
787,TestRecordings/bim.wav,0,audio-button-response,103,1640603,0.0-8.0-0.42,,,,
,,,,,,,,,,
17768,,"{""P0_Q0"":""bem"",""P0_Q1"":5}",survey,104,1658383,0.0-8.0-1.42,[],,,
,,,,,,,,,,
885,TestRecordings/nungtem.wav,0,audio-button-response,105,1659274,0.0-8.0-0.43,,,,
,,,,,,,,,,
5104,,"{""P0_Q0"":""nungtem"",""P0_Q1"":2}",survey,106,1664390,0.0-8.0-1.43,[],,,
,,,,,,,,,,
837,TestRecordings/dret.wav,0,audio-button-response,107,1665234,0.0-8.0-0.44,,,,
,,,,,,,,,,
4905,,"{""P0_Q0"":""dret"",""P0_Q1"":7}",survey,108,1670150,0.0-8.0-1.44,[],,,
,,,,,,,,,,
1126,TestRecordings/tlamsus.wav,0,audio-button-response,109,1671282,0.0-8.0-0.45,,,,
,,,,,,,,,,
6707,,"{""P0_Q0"":""tlamsoos"",""P0_Q1"":1}",survey,110,1677997,0.0-8.0-1.45,[],,,
,,,,,,,,,,
942,TestRecordings/bimkun.wav,0,audio-button-response,111,1678945,0.0-8.0-0.46,,,,
,,,,,,,,,,
7563,,"{""P0_Q0"":""bimkun"",""P0_Q1"":2}",survey,112,1686517,0.0-8.0-1.46,[],,,
,,,,,,,,,,
741,TestRecordings/pmaut.wav,0,audio-button-response,113,1687265,0.0-8.0-0.47,,,,
,,,,,,,,,,
4554,,"{""P0_Q0"":""pmount"",""P0_Q1"":1}",survey,114,1691827,0.0-8.0-1.47,[],,,
,,,,,,,,,,
823,TestRecordings/gmut.wav,0,audio-button-response,115,1692656,0.0-8.0-0.48,,,,
,,,,,,,,,,
4368,,"{""P0_Q0"":""gmut"",""P0_Q1"":1}",survey,116,1697050,0.0-8.0-1.48,[],,,
,,,,,,,,,,
1213,TestRecordings/bwus.wav,0,audio-button-response,117,1698273,0.0-8.0-0.49,,,,
,,,,,,,,,,
10372,,"{""P0_Q0"":""bwus"",""P0_Q1"":1}",survey,118,1708668,0.0-8.0-1.49,[],,,
,,,,,,,,,,
1140,TestRecordings/dwis.wav,0,audio-button-response,119,1709816,0.0-8.0-0.50,,,,
,,,,,,,,,,
4176,,"{""P0_Q0"":""dwiss"",""P0_Q1"":2}",survey,120,1714004,0.0-8.0-1.50,[],,,
,,,,,,,,,,
932,TestRecordings/nasgek.wav,0,audio-button-response,121,1714943,0.0-8.0-0.51,,,,
,,,,,,,,,,
11330,,"{""P0_Q0"":""nascack"",""P0_Q1"":7}",survey,122,1726283,0.0-8.0-1.51,[],,,
,,,,,,,,,,
773,TestRecordings/biptet.wav,0,audio-button-response,123,1727063,0.0-8.0-0.52,,,,
,,,,,,,,,,
6696,,"{""P0_Q0"":""biptet"",""P0_Q1"":7}",survey,124,1733770,0.0-8.0-1.52,[],,,
,,,,,,,,,,
1389,TestRecordings/mpahk.wav,0,audio-button-response,125,1735166,0.0-8.0-0.53,,,,
,,,,,,,,,,
5258,,"{""P0_Q0"":""mpock"",""P0_Q1"":1}",survey,126,1740434,0.0-8.0-1.53,[],,,
,,,,,,,,,,
878,TestRecordings/drembip.wav,0,audio-button-response,127,1741318,0.0-8.0-0.54,,,,
,,,,,,,,,,
7748,,"{""P0_Q0"":""drembip"",""P0_Q1"":4}",survey,128,1749074,0.0-8.0-1.54,[],,,
,,,,,,,,,,
997,TestRecordings/spen.wav,0,audio-button-response,129,1750078,0.0-8.0-0.55,,,,
,,,,,,,,,,
6808,,"{""P0_Q0"":""spen"",""P0_Q1"":6}",survey,130,1756895,0.0-8.0-1.55,[],,,
,,,,,,,,,,
709,TestRecordings/ndaik.wav,0,audio-button-response,131,1757614,0.0-8.0-0.56,,,,
,,,,,,,,,,
13694,,"{""P0_Q0"":""ndyke"",""P0_Q1"":1}",survey,132,1771340,0.0-8.0-1.56,[],,,
,,,,,,,,,,
979,TestRecordings/staik.wav,0,audio-button-response,133,1772325,0.0-8.0-0.57,,,,
,,,,,,,,,,
5473,,"{""P0_Q0"":""staik"",""P0_Q1"":5}",survey,134,1777810,0.0-8.0-1.57,[],,,
,,,,,,,,,,
1148,TestRecordings/tleik.wav,0,audio-button-response,135,1778965,0.0-8.0-0.58,,,,
,,,,,,,,,,
14961,,"{""P0_Q0"":""tlaek"",""P0_Q1"":1}",survey,136,1793936,0.0-8.0-1.58,[],,,
,,,,,,,,,,
813,TestRecordings/trindus.wav,0,audio-button-response,137,1794755,0.0-8.0-0.59,,,,
,,,,,,,,,,
4234,,"{""P0_Q0"":""trindus"",""P0_Q1"":7}",survey,138,1799000,0.0-8.0-1.59,[],,,
,,,,,,,,,,
2355,, ,html-keyboard-response,139,1801356,0.0-9.0,,,,
,,,,,,,,,,
91181,,"{""P0_Q0"":""27"",""P0_Q1"":""Male"",""P0_Q2"":""Yes"",""P0_Q3"":""Japanese"",""P0_Q4"":""I started at 24, so I have been learning for 3 years"",""P0_Q5"":""College courses and self-study""}",survey,140,1892548,0.0-10.0,[],,,
,,,,,,,,,,
17290,"<p style=""font-size:30px"">The experiment has ended</p><p style=""font-size:30px"",lang=""ko"">Thanks for participating in it!</p>", ,html-keyboard-response,141,1909840,0.0-11.0,,,,