rt,stimulus,response,trial_type,trial_index,time_elapsed,internal_node_id,accuracy,PracticeTest,ConsonantSequence,Grammaticality
,,,,,,,,,,
1069701,"<p style=""font-size:30px"">Welcome to the experiment</p><p>Press spacebar to continue</p>", ,html-keyboard-response,0,1069661,0.0-0.0,,,,
,,,,,,,,,,
1541,"<p style=""font-size:30px"">Please ensure that your headphones are on correctly</p><p>Press spacebar to continue</p>", ,html-keyboard-response,1,1071203,0.0-1.0,,,,
,,,,,,,,,,
3103,"<p style=""font-size:30px"">In this experiment, you will listen to nonsense words</p><p style=""font-size:30px"",lang=""ko"">Your task is to write down the word and then rate how good an English word it is</p><p>Press spacebar to continue</p>", ,html-keyboard-response,2,1074307,0.0-2.0,,,,
,,,,,,,,,,
1927,"<p style=""font-size:30px"">Let's practice with some nonsense words so that you understand the task</p><p>Press spacebar to continue</p>", ,html-keyboard-response,3,1076234,0.0-3.0,,,,
,,,,,,,,,,
7849,PracticeRecordings/bupkes.wav,0,audio-button-response,4,1084122,0.0-4.0-0.0,,,,
,,,,,,,,,,
7038,bupkes,"{""P0_Q0"":""BOBKIS""}",survey,5,1091199,0.0-4.0-1.0,[],practice,NA,TRUE
,,,,,,,,,,
3090,"<p style=""font-size:30px""> The word you heard is <br> ""bupkess"" <br> It may sound different depending on the person. <br> Write it down as it sounds.</p><p lang=""ko"">Press spacebar to continue</p>", ,html-keyboard-response,6,1094290,0.0-4.0-2.0,,,,
,,,,,,,,,,
3727,PracticeRecordings/dringgep.wav,0,audio-button-response,7,1098025,0.0-4.0-0.1,,,,
,,,,,,,,,,
5598,dringep,"{""P0_Q0"":""DRINGET""}",survey,8,1103637,0.0-4.0-1.1,[],practice,NA,FALSE
,,,,,,,,,,
2588,"<p style=""font-size:30px""> The word you heard is <br> ""dringep"" <br> It may sound different depending on the person. <br> Write it down as it sounds.</p><p lang=""ko"">Press spacebar to continue</p>", ,html-keyboard-response,9,1106226,0.0-4.0-2.1,,,,
,,,,,,,,,,
1719,PracticeRecordings/dunggem.wav,0,audio-button-response,10,1107952,0.0-4.0-0.2,,,,
,,,,,,,,,,
4473,dunggem,"{""P0_Q0"":""DUNGEN""}",survey,11,1112436,0.0-4.0-1.2,[],practice,NA,FALSE
,,,,,,,,,,
5764,"<p style=""font-size:30px""> The word you heard is <br> ""dungem"" (or) ""doongem"" <br> It may sound different depending on the person. <br> Write it down as it sounds.</p><p lang=""ko"">Press spacebar to continue</p>", ,html-keyboard-response,12,1118202,0.0-4.0-2.2,,,,
,,,,,,,,,,
1606,PracticeRecordings/deip.wav,0,audio-button-response,13,1119816,0.0-4.0-0.3,,,,
,,,,,,,,,,
3297,deip,"{""P0_Q0"":""DAPE""}",survey,14,1123124,0.0-4.0-1.3,[],practice,NA,FALSE
,,,,,,,,,,
1668,"<p style=""font-size:30px""> The word you heard is <br> ""dape"" <br> It may sound different depending on the person. <br> Write it down as it sounds.</p><p lang=""ko"">Press spacebar to continue</p>", ,html-keyboard-response,15,1124793,0.0-4.0-2.3,,,,
,,,,,,,,,,
2287,, ,html-keyboard-response,16,1127081,0.0-5.0,,,,
,,,,,,,,,,
3848,"<p style=""font-size:30px"">Now let's move on to the actual experiment.</p><p style=""font-size:30px"",lang=""ko"">During the experiment, you will hear each of the nonce words only once.", ,html-keyboard-response,17,1130928,0.0-6.0,,,,
,,,,,,,,,,
3591,"<p style=""font-size:30px"">After writing down the word, you will also rate the nonsense word you heard as a possible word of American English.</p><p>Press spacebar to continue</p>", ,html-keyboard-response,18,1134520,0.0-7.0,,,,
,,,,,,,,,,
3189,TestRecordings/druksan.wav,0,audio-button-response,19,1137719,0.0-8.0-0.0,,,,
,,,,,,,,,,
18881,,"{""P0_Q0"":""DRUXANNE"",""P0_Q1"":2}",survey,20,1156612,0.0-8.0-1.0,[],,,
,,,,,,,,,,
1808,TestRecordings/nungtem.wav,0,audio-button-response,21,1158431,0.0-8.0-0.1,,,,
,,,,,,,,,,
5368,,"{""P0_Q0"":""NUNTEM"",""P0_Q1"":3}",survey,22,1163811,0.0-8.0-1.1,[],,,
,,,,,,,,,,
1362,TestRecordings/ndaik.wav,0,audio-button-response,23,1165183,0.0-8.0-0.2,,,,
,,,,,,,,,,
10452,,"{""P0_Q0"":""DIKE"",""P0_Q1"":7}",survey,24,1175643,0.0-8.0-1.2,[],,,
,,,,,,,,,,
1275,TestRecordings/dlang.wav,0,audio-button-response,25,1176926,0.0-8.0-0.3,,,,
,,,,,,,,,,
6297,,"{""P0_Q0"":""DLANG"",""P0_Q1"":1}",survey,26,1183233,0.0-8.0-1.3,[],,,
,,,,,,,,,,
1555,TestRecordings/keptus.wav,0,audio-button-response,27,1184798,0.0-8.0-0.4,,,,
,,,,,,,,,,
9891,,"{""P0_Q0"":""KEPTUS"",""P0_Q1"":6}",survey,28,1194697,0.0-8.0-1.4,[],,,
,,,,,,,,,,
1299,TestRecordings/gwas.wav,0,audio-button-response,29,1196005,0.0-8.0-0.5,,,,
,,,,,,,,,,
5555,,"{""P0_Q0"":""GUASS"",""P0_Q1"":3}",survey,30,1201569,0.0-8.0-1.5,[],,,
,,,,,,,,,,
1114,TestRecordings/pmaut.wav,0,audio-button-response,31,1202693,0.0-8.0-0.6,,,,
,,,,,,,,,,
4225,,"{""P0_Q0"":""PNOUT"",""P0_Q1"":1}",survey,32,1206928,0.0-8.0-1.6,[],,,
,,,,,,,,,,
1068,TestRecordings/kmuup.wav,0,audio-button-response,33,1208005,0.0-8.0-0.7,,,,
,,,,,,,,,,
5068,,"{""P0_Q0"":""KNUP"",""P0_Q1"":1}",survey,34,1213081,0.0-8.0-1.7,[],,,
,,,,,,,,,,
1220,TestRecordings/stup.wav,0,audio-button-response,35,1214309,0.0-8.0-0.8,,,,
,,,,,,,,,,
10131,,"{""P0_Q0"":""STUP"",""P0_Q1"":4}",survey,36,1224447,0.0-8.0-1.8,[],,,
,,,,,,,,,,
1557,TestRecordings/gintep.wav,0,audio-button-response,37,1226012,0.0-8.0-0.9,,,,
,,,,,,,,,,
9404,,"{""P0_Q0"":""GYNTEP"",""P0_Q1"":5}",survey,38,1235424,0.0-8.0-1.9,[],,,
,,,,,,,,,,
1221,TestRecordings/dret.wav,0,audio-button-response,39,1236651,0.0-8.0-0.10,,,,
,,,,,,,,,,
5131,,"{""P0_Q0"":""DRET"",""P0_Q1"":6}",survey,40,1241790,0.0-8.0-1.10,[],,,
,,,,,,,,,,
1156,TestRecordings/bimkun.wav,0,audio-button-response,41,1242955,0.0-8.0-0.11,,,,
,,,,,,,,,,
7100,,"{""P0_Q0"":""BIMKUN"",""P0_Q1"":5}",survey,42,1250062,0.0-8.0-1.11,[],,,
,,,,,,,,,,
1139,TestRecordings/ndek.wav,0,audio-button-response,43,1251211,0.0-8.0-0.12,,,,
,,,,,,,,,,
4124,,"{""P0_Q0"":""DECK"",""P0_Q1"":7}",survey,44,1255342,0.0-8.0-1.12,[],,,
,,,,,,,,,,
1172,TestRecordings/daip.wav,0,audio-button-response,45,1256523,0.0-8.0-0.13,,,,
,,,,,,,,,,
3939,,"{""P0_Q0"":""DIPE"",""P0_Q1"":7}",survey,46,1260469,0.0-8.0-1.13,[],,,
,,,,,,,,,,
1950,TestRecordings/drensum.wav,0,audio-button-response,47,1262427,0.0-8.0-0.14,,,,
,,,,,,,,,,
5860,,"{""P0_Q0"":""DRANSOME"",""P0_Q1"":2}",survey,48,1268294,0.0-8.0-1.14,[],,,
,,,,,,,,,,
1134,TestRecordings/biptet.wav,0,audio-button-response,49,1269434,0.0-8.0-0.15,,,,
,,,,,,,,,,
10051,,"{""P0_Q0"":""BIPTEP"",""P0_Q1"":5}",survey,50,1279494,0.0-8.0-1.15,[],,,
,,,,,,,,,,
1740,TestRecordings/gakdum.wav,0,audio-button-response,51,1281241,0.0-8.0-0.16,,,,
,,,,,,,,,,
7212,,"{""P0_Q0"":""GAKTUM"",""P0_Q1"":3}",survey,52,1288462,0.0-8.0-1.16,[],,,
,,,,,,,,,,
1156,TestRecordings/gekpup.wav,0,audio-button-response,53,1289625,0.0-8.0-0.17,,,,
,,,,,,,,,,
4243,,"{""P0_Q0"":""GEKPUP"",""P0_Q1"":1}",survey,54,1293876,0.0-8.0-1.17,[],,,
,,,,,,,,,,
1116,TestRecordings/treng.wav,0,audio-button-response,55,1295001,0.0-8.0-0.18,,,,
,,,,,,,,,,
3980,,"{""P0_Q0"":""TRANG"",""P0_Q1"":6}",survey,56,1298989,0.0-8.0-1.18,[],,,
,,,,,,,,,,
1333,TestRecordings/tlangduk.wav,0,audio-button-response,57,1300329,0.0-8.0-0.19,,,,
,,,,,,,,,,
7597,,"{""P0_Q0"":""PLAINDUK"",""P0_Q1"":2}",survey,58,1307932,0.0-8.0-1.19,[],,,
,,,,,,,,,,
1118,TestRecordings/nasgek.wav,0,audio-button-response,59,1309056,0.0-8.0-0.20,,,,
,,,,,,,,,,
9996,,"{""P0_Q0"":""NASKEK"",""P0_Q1"":4}",survey,60,1319060,0.0-8.0-1.20,[],,,
,,,,,,,,,,
1397,TestRecordings/gwut.wav,0,audio-button-response,61,1320465,0.0-8.0-0.21,,,,
,,,,,,,,,,
5596,,"{""P0_Q0"":""GWUT"",""P0_Q1"":2}",survey,62,1326068,0.0-8.0-1.21,[],,,
,,,,,,,,,,
925,TestRecordings/gukpim.wav,0,audio-button-response,63,1327000,0.0-8.0-0.22,,,,
,,,,,,,,,,
6140,,"{""P0_Q0"":""GUKPIN"",""P0_Q1"":3}",survey,64,1333148,0.0-8.0-1.22,[],,,
,,,,,,,,,,
1140,TestRecordings/spen.wav,0,audio-button-response,65,1334296,0.0-8.0-0.23,,,,
,,,,,,,,,,
3516,,"{""P0_Q0"":""SPEN"",""P0_Q1"":7}",survey,66,1337819,0.0-8.0-1.23,[],,,
,,,,,,,,,,
989,TestRecordings/dliim.wav,0,audio-button-response,67,1338815,0.0-8.0-0.24,,,,
,,,,,,,,,,
4365,,"{""P0_Q0"":""DLEEN"",""P0_Q1"":2}",survey,68,1343187,0.0-8.0-1.24,[],,,
,,,,,,,,,,
957,TestRecordings/dwis.wav,0,audio-button-response,69,1344151,0.0-8.0-0.25,,,,
,,,,,,,,,,
7556,,"{""P0_Q0"":""DWISS"",""P0_Q1"":1}",survey,70,1351714,0.0-8.0-1.25,[],,,
,,,,,,,,,,
869,TestRecordings/dunbem.wav,0,audio-button-response,71,1352590,0.0-8.0-0.26,,,,
,,,,,,,,,,
6987,,"{""P0_Q0"":""DUNBAM"",""P0_Q1"":2}",survey,72,1359586,0.0-8.0-1.26,[],,,
,,,,,,,,,,
1125,TestRecordings/tlunpem.wav,0,audio-button-response,73,1360718,0.0-8.0-0.27,,,,
,,,,,,,,,,
5587,,"{""P0_Q0"":""TLUNPEN"",""P0_Q1"":1}",survey,74,1366314,0.0-8.0-1.27,[],,,
,,,,,,,,,,
1125,TestRecordings/bwus.wav,0,audio-button-response,75,1367446,0.0-8.0-0.28,,,,
,,,,,,,,,,
4565,,"{""P0_Q0"":""BWUS"",""P0_Q1"":2}",survey,76,1372017,0.0-8.0-1.28,[],,,
,,,,,,,,,,
876,TestRecordings/tlaip.wav,0,audio-button-response,77,1372902,0.0-8.0-0.29,,,,
,,,,,,,,,,
4629,,"{""P0_Q0"":""TLYPE"",""P0_Q1"":1}",survey,78,1377537,0.0-8.0-1.29,[],,,
,,,,,,,,,,
1020,TestRecordings/drembip.wav,0,audio-button-response,79,1378566,0.0-8.0-0.30,,,,
,,,,,,,,,,
12907,,"{""P0_Q0"":""DRAMPIT"",""P0_Q1"":5}",survey,80,1391481,0.0-8.0-1.30,[],,,
,,,,,,,,,,
1084,TestRecordings/guut.wav,0,audio-button-response,81,1392573,0.0-8.0-0.31,,,,
,,,,,,,,,,
12556,,"{""P0_Q0"":""GOOT"",""P0_Q1"":5}",survey,82,1405136,0.0-8.0-1.31,[],,,
,,,,,,,,,,
965,TestRecordings/skup.wav,0,audio-button-response,83,1406109,0.0-8.0-0.32,,,,
,,,,,,,,,,
4611,,"{""P0_Q0"":""SCUP"",""P0_Q1"":6}",survey,84,1410726,0.0-8.0-1.32,[],,,
,,,,,,,,,,
1020,TestRecordings/tleik.wav,0,audio-button-response,85,1411757,0.0-8.0-0.33,,,,
,,,,,,,,,,
5017,,"{""P0_Q0"":""TLAKE"",""P0_Q1"":1}",survey,86,1416799,0.0-8.0-1.33,[],,,
,,,,,,,,,,
1134,TestRecordings/dlupgik.wav,0,audio-button-response,87,1417940,0.0-8.0-0.34,,,,
,,,,,,,,,,
23846,,"{""P0_Q0"":""BELUKIP"",""P0_Q1"":4}",survey,88,1441810,0.0-8.0-1.34,[],,,
,,,,,,,,,,
1130,TestRecordings/daum.wav,0,audio-button-response,89,1442947,0.0-8.0-0.35,,,,
,,,,,,,,,,
7840,,"{""P0_Q0"":""DOWM"",""P0_Q1"":6}",survey,90,1450800,0.0-8.0-1.35,[],,,
,,,,,,,,,,
1003,TestRecordings/douk.wav,0,audio-button-response,91,1451811,0.0-8.0-0.36,,,,
,,,,,,,,,,
4097,,"{""P0_Q0"":""DOKE"",""P0_Q1"":7}",survey,92,1455919,0.0-8.0-1.36,[],,,
,,,,,,,,,,
979,TestRecordings/mdak.wav,0,audio-button-response,93,1456907,0.0-8.0-0.37,,,,
,,,,,,,,,,
5419,,"{""P0_Q0"":""DACK"",""P0_Q1"":7}",survey,94,1462334,0.0-8.0-1.37,[],,,
,,,,,,,,,,
1117,TestRecordings/mpat.wav,0,audio-button-response,95,1463458,0.0-8.0-0.38,,,,
,,,,,,,,,,
3786,,"{""P0_Q0"":""MPAT"",""P0_Q1"":1}",survey,96,1467254,0.0-8.0-1.38,[],,,
,,,,,,,,,,
1427,TestRecordings/genpum.wav,0,audio-button-response,97,1468690,0.0-8.0-0.39,,,,
,,,,,,,,,,
8123,,"{""P0_Q0"":""GENPUN"",""P0_Q1"":3}",survey,98,1476821,0.0-8.0-1.39,[],,,
,,,,,,,,,,
1194,TestRecordings/sandup.wav,0,audio-button-response,99,1478026,0.0-8.0-0.40,,,,
,,,,,,,,,,
13348,,"{""P0_Q0"":""SANDUP"",""P0_Q1"":3}",survey,100,1491398,0.0-8.0-1.40,[],,,
,,,,,,,,,,
1131,TestRecordings/draspung.wav,0,audio-button-response,101,1492537,0.0-8.0-0.41,,,,
,,,,,,,,,,
16624,,"{""P0_Q0"":""DRASSPOON"",""P0_Q1"":4}",survey,102,1509174,0.0-8.0-1.41,[],,,
,,,,,,,,,,
1051,TestRecordings/dletgin.wav,0,audio-button-response,103,1510232,0.0-8.0-0.42,,,,
,,,,,,,,,,
5899,,"{""P0_Q0"":""DLETKIN"",""P0_Q1"":1}",survey,104,1516141,0.0-8.0-1.42,[],,,
,,,,,,,,,,
1188,TestRecordings/bim.wav,0,audio-button-response,105,1517337,0.0-8.0-0.43,,,,
,,,,,,,,,,
5250,,"{""P0_Q0"":""BIM"",""P0_Q1"":7}",survey,106,1522596,0.0-8.0-1.43,[],,,
,,,,,,,,,,
1050,TestRecordings/dlain.wav,0,audio-button-response,107,1523656,0.0-8.0-0.44,,,,
,,,,,,,,,,
4059,,"{""P0_Q0"":""DLINE"",""P0_Q1"":1}",survey,108,1527723,0.0-8.0-1.44,[],,,
,,,,,,,,,,
1187,TestRecordings/gmut.wav,0,audio-button-response,109,1528920,0.0-8.0-0.45,,,,
,,,,,,,,,,
4065,,"{""P0_Q0"":""GMUT"",""P0_Q1"":1}",survey,110,1532995,0.0-8.0-1.45,[],,,
,,,,,,,,,,
939,TestRecordings/tlamsus.wav,0,audio-button-response,111,1533943,0.0-8.0-0.46,,,,
,,,,,,,,,,
5709,,"{""P0_Q0"":""TLAMSUS"",""P0_Q1"":1}",survey,112,1539660,0.0-8.0-1.46,[],,,
,,,,,,,,,,
1100,TestRecordings/mpahk.wav,0,audio-button-response,113,1540767,0.0-8.0-0.47,,,,
,,,,,,,,,,
3820,,"{""P0_Q0"":""MPAK"",""P0_Q1"":1}",survey,114,1544595,0.0-8.0-1.47,[],,,
,,,,,,,,,,
1012,TestRecordings/tlakgung.wav,0,audio-button-response,115,1545615,0.0-8.0-0.48,,,,
,,,,,,,,,,
6475,,"{""P0_Q0"":""TLAKUN"",""P0_Q1"":1}",survey,116,1552098,0.0-8.0-1.48,[],,,
,,,,,,,,,,
1253,TestRecordings/bnup.wav,0,audio-button-response,117,1553358,0.0-8.0-0.49,,,,
,,,,,,,,,,
9556,,"{""P0_Q0"":""GNUP"",""P0_Q1"":1}",survey,118,1562921,0.0-8.0-1.49,[],,,
,,,,,,,,,,
917,TestRecordings/tembip.wav,0,audio-button-response,119,1563847,0.0-8.0-0.50,,,,
,,,,,,,,,,
4260,,"{""P0_Q0"":""TEMBEP"",""P0_Q1"":4}",survey,120,1568113,0.0-8.0-1.50,[],,,
,,,,,,,,,,
869,TestRecordings/gatdum.wav,0,audio-button-response,121,1568990,0.0-8.0-0.51,,,,
,,,,,,,,,,
3731,,"{""P0_Q0"":""GETDUM"",""P0_Q1"":2}",survey,122,1572729,0.0-8.0-1.51,[],,,
,,,,,,,,,,
917,TestRecordings/trindus.wav,0,audio-button-response,123,1573654,0.0-8.0-0.52,,,,
,,,,,,,,,,
3876,,"{""P0_Q0"":""TRENDUS"",""P0_Q1"":7}",survey,124,1577537,0.0-8.0-1.52,[],,,
,,,,,,,,,,
924,TestRecordings/pesgut.wav,0,audio-button-response,125,1578470,0.0-8.0-0.53,,,,
,,,,,,,,,,
5676,,"{""P0_Q0"":""PESKUT"",""P0_Q1"":6}",survey,126,1584152,0.0-8.0-1.53,[],,,
,,,,,,,,,,
907,TestRecordings/beptus.wav,0,audio-button-response,127,1585069,0.0-8.0-0.54,,,,
,,,,,,,,,,
6124,,"{""P0_Q0"":""BEPTUS"",""P0_Q1"":6}",survey,128,1591201,0.0-8.0-1.54,[],,,
,,,,,,,,,,
877,TestRecordings/dmat.wav,0,audio-button-response,129,1592085,0.0-8.0-0.55,,,,
,,,,,,,,,,
4229,,"{""P0_Q0"":""DMAT"",""P0_Q1"":1}",survey,130,1596320,0.0-8.0-1.55,[],,,
,,,,,,,,,,
1062,TestRecordings/driksum.wav,0,audio-button-response,131,1597389,0.0-8.0-0.56,,,,
,,,,,,,,,,
5923,,"{""P0_Q0"":""DRIXUM"",""P0_Q1"":4}",survey,132,1603319,0.0-8.0-1.56,[],,,
,,,,,,,,,,
1101,TestRecordings/staik.wav,0,audio-button-response,133,1604428,0.0-8.0-0.57,,,,
,,,,,,,,,,
4956,,"{""P0_Q0"":""STIKE"",""P0_Q1"":7}",survey,134,1609392,0.0-8.0-1.57,[],,,
,,,,,,,,,,
1197,TestRecordings/dlesbup.wav,0,audio-button-response,135,1610597,0.0-8.0-0.58,,,,
,,,,,,,,,,
7994,,"{""P0_Q0"":""BLESSBUP"",""P0_Q1"":4}",survey,136,1618599,0.0-8.0-1.58,[],,,
,,,,,,,,,,
997,TestRecordings/santem.wav,0,audio-button-response,137,1619604,0.0-8.0-0.59,,,,
,,,,,,,,,,
5213,,"{""P0_Q0"":""SANTEM"",""P0_Q1"":6}",survey,138,1624823,0.0-8.0-1.59,[],,,
,,,,,,,,,,
2749,, ,html-keyboard-response,139,1627573,0.0-9.0,,,,
,,,,,,,,,,
81114,,"{""P0_Q0"":""22"",""P0_Q1"":""NONBINARY"",""P0_Q2"":""YES"",""P0_Q3"":""SPANISH"",""P0_Q4"":""LEARNED AT 3 YEARS, TOOK FORMAL CLASSES UNTIL HIGH SCHOOL"",""P0_Q5"":""IMMERSION SCHOOL THROUGH MIDDLE SCHOOL""}",survey,140,1708693,0.0-10.0,[],,,
,,,,,,,,,,
568347,"<p style=""font-size:30px"">The experiment has ended</p><p style=""font-size:30px"",lang=""ko"">Thanks for participating in it!</p>", ,html-keyboard-response,141,2277017,0.0-11.0,,,,