[
  {
    "onset1": "nd",
    "nucleus1": "aɪ",
    "coda1": "k",
    "shape": "NCVC",
    "transcription": "ndaɪk",
    "WordRomanisation": "ndaik",
    "consensus": "ndike",
    "Stimulus": "Is this a possible word of English? (choose a rating below) <br><br><br><br><b>ndike<br><br><br><br>"
  },
  {
    "onset1": "d",
    "nucleus1": "oʊ",
    "coda1": "k",
    "shape": "CVC",
    "transcription": "doʊk",
    "WordRomanisation": "douk",
    "consensus": "doke",
    "Stimulus": "Is this a possible word of English? (choose a rating below) <br><br><br><br><b>doke<br><br><br><br>"
  },
  {
    "onset1": "b",
    "nucleus1": "ɛ",
    "coda1": "p",
    "onset2": "t",
    "nucleus2": "ʊ",
    "coda2": "s",
    "shape": "CVC.CVC",
    "syllable.contact.code": "+OVA",
    "transcription": "bɛptʊs",
    "WordRomanisation": "beptus",
    "consensus": "beptus",
    "Stimulus": "Is this a possible word of English? (choose a rating below) <br><br><br><br><b>beptus<br><br><br><br>"
  },
  {
    "onset1": "g",
    "nucleus1": "æ",
    "coda1": "t",
    "onset2": "d",
    "nucleus2": "ʊ",
    "coda2": "m",
    "shape": "CVC.CVC",
    "syllable.contact.code": "-OVA",
    "transcription": "gætdʊm",
    "WordRomanisation": "gatdum",
    "consensus": "gatdoom",
    "Stimulus": "Is this a possible word of English? (choose a rating below) <br><br><br><br><b>gatdoom<br><br><br><br>"
  },
  {
    "onset1": "s",
    "nucleus1": "æ",
    "coda1": "n",
    "onset2": "t",
    "nucleus2": "ɛ",
    "coda2": "m",
    "shape": "CVC.CVC",
    "syllable.contact.code": "+NPA",
    "transcription": "sæntɛm",
    "WordRomanisation": "santem",
    "consensus": "santem",
    "Stimulus": "Is this a possible word of English? (choose a rating below) <br><br><br><br><b>santem<br><br><br><br>"
  },
  {
    "onset1": "dl",
    "nucleus1": "æ",
    "coda1": "ŋ",
    "shape": "TlVC",
    "transcription": "dlæŋ",
    "WordRomanisation": "dlang",
    "consensus": "dlang",
    "Stimulus": "Is this a possible word of English? (choose a rating below) <br><br><br><br><b>dlang<br><br><br><br>"
  },
  {
    "onset1": "d",
    "nucleus1": "aɪ",
    "coda1": "p",
    "shape": "CVC",
    "transcription": "daɪp",
    "WordRomanisation": "daip",
    "consensus": "dipe",
    "Stimulus": "Is this a possible word of English? (choose a rating below) <br><br><br><br><b>dipe<br><br><br><br>"
  },
  {
    "onset1": "p",
    "nucleus1": "ɛ",
    "coda1": "s",
    "onset2": "g",
    "nucleus2": "ʊ",
    "coda2": "t",
    "shape": "CVC.CVC",
    "syllable.contact.code": "-OVA",
    "transcription": "pɛsgʊt",
    "WordRomanisation": "pesgut",
    "consensus": "pesgoot",
    "Stimulus": "Is this a possible word of English? (choose a rating below) <br><br><br><br><b>pesgoot<br><br><br><br>"
  },
  {
    "onset1": "g",
    "nucleus1": "ɛ",
    "coda1": "k",
    "onset2": "p",
    "nucleus2": "ʊ",
    "coda2": "p",
    "shape": "CVC.CVC",
    "syllable.contact.code": "+OVA",
    "transcription": "gɛkpʊp",
    "WordRomanisation": "gekpup",
    "consensus": "gekpup",
    "Stimulus": "Is this a possible word of English? (choose a rating below) <br><br><br><br><b>gekpup<br><br><br><br>"
  },
  {
    "onset1": "t",
    "nucleus1": "ɛ",
    "coda1": "m",
    "onset2": "b",
    "nucleus2": "ɪ",
    "coda2": "p",
    "shape": "CVC.CVC",
    "syllable.contact.code": "+NPA",
    "transcription": "tɛmbɪp",
    "WordRomanisation": "tembip",
    "consensus": "tembip",
    "Stimulus": "Is this a possible word of English? (choose a rating below) <br><br><br><br><b>tembip<br><br><br><br>"
  },
  {
    "onset1": "gm",
    "nucleus1": "ʊ",
    "coda1": "t",
    "shape": "CNVC",
    "transcription": "gmʊt",
    "WordRomanisation": "gmut",
    "consensus": "gmoot",
    "Stimulus": "Is this a possible word of English? (choose a rating below) <br><br><br><br><b>gmoot<br><br><br><br>"
  },
  {
    "onset1": "st",
    "nucleus1": "aɪ",
    "coda1": "k",
    "shape": "sCVC",
    "transcription": "staɪk",
    "WordRomanisation": "staik",
    "consensus": "stike",
    "Stimulus": "Is this a possible word of English? (choose a rating below) <br><br><br><br><b>stike<br><br><br><br>"
  },
  {
    "onset1": "dl",
    "nucleus1": "aɪ",
    "coda1": "n",
    "shape": "TlVC",
    "transcription": "dlaɪn",
    "WordRomanisation": "dlain",
    "consensus": "dline",
    "Stimulus": "Is this a possible word of English? (choose a rating below) <br><br><br><br><b>dline<br><br><br><br>"
  },
  {
    "onset1": "dɹ",
    "nucleus1": "ɛ",
    "coda1": "m",
    "onset2": "b",
    "nucleus2": "ɪ",
    "coda2": "p",
    "shape": "TɹVC.CVC",
    "syllable.contact.code": "+NPA",
    "transcription": "dɹɛmbɪp",
    "WordRomanisation": "drembip",
    "consensus": "drembip",
    "Stimulus": "Is this a possible word of English? (choose a rating below) <br><br><br><br><b>drembip<br><br><br><br>"
  },
  {
    "onset1": "tɹ",
    "nucleus1": "ɛ",
    "coda1": "ŋ",
    "shape": "TɹVC",
    "transcription": "tɹɛŋ",
    "WordRomanisation": "treng",
    "consensus": "treng",
    "Stimulus": "Is this a possible word of English? (choose a rating below) <br><br><br><br><b>treng<br><br><br><br>"
  },
  {
    "onset1": "g",
    "nucleus1": "ɪ",
    "coda1": "n",
    "onset2": "t",
    "nucleus2": "ɛ",
    "coda2": "p",
    "shape": "CVC.CVC",
    "syllable.contact.code": "+NPA",
    "transcription": "gɪntɛp",
    "WordRomanisation": "gintep",
    "consensus": "gintep",
    "Stimulus": "Is this a possible word of English? (choose a rating below) <br><br><br><br><b>gintep<br><br><br><br>"
  },
  {
    "onset1": "dl",
    "nucleus1": "ɛ",
    "coda1": "t",
    "onset2": "g",
    "nucleus2": "ɪ",
    "coda2": "n",
    "shape": "TlVC.CVC",
    "syllable.contact.code": "-OVA",
    "transcription": "dlɛtgɪn",
    "WordRomanisation": "dletgin",
    "consensus": "dletgin",
    "Stimulus": "Is this a possible word of English? (choose a rating below) <br><br><br><br><b>dletgin<br><br><br><br>"
  },
  {
    "onset1": "tɹ",
    "nucleus1": "ɪ",
    "coda1": "n",
    "onset2": "d",
    "nucleus2": "ʊ",
    "coda2": "s",
    "shape": "TɹVC.CVC",
    "syllable.contact.code": "+NPA",
    "transcription": "tɹɪndʊs",
    "WordRomanisation": "trindus",
    "consensus": "trindus",
    "Stimulus": "Is this a possible word of English? (choose a rating below) <br><br><br><br><b>trindus<br><br><br><br>"
  },
  {
    "onset1": "n",
    "nucleus1": "ʊ",
    "coda1": "ŋ",
    "onset2": "t",
    "nucleus2": "ɛ",
    "coda2": "m",
    "shape": "CVC.CVC",
    "syllable.contact.code": "-NPA",
    "transcription": "nʊŋtɛm",
    "WordRomanisation": "nungtem",
    "consensus": "nungtem",
    "Stimulus": "Is this a possible word of English? (choose a rating below) <br><br><br><br><b>nungtem<br><br><br><br>"
  },
  {
    "onset1": "pm",
    "nucleus1": "aʊ",
    "coda1": "t",
    "shape": "CNVC",
    "transcription": "pmaʊt",
    "WordRomanisation": "pmaut",
    "consensus": "pmout",
    "Stimulus": "Is this a possible word of English? (choose a rating below) <br><br><br><br><b>pmout<br><br><br><br>"
  },
  {
    "onset1": "sk",
    "nucleus1": "ʊ",
    "coda1": "p",
    "shape": "sCVC",
    "transcription": "skʊp",
    "WordRomanisation": "skup",
    "consensus": "scup",
    "Stimulus": "Is this a possible word of English? (choose a rating below) <br><br><br><br><b>scup<br><br><br><br>"
  },
  {
    "onset1": "mp",
    "nucleus1": "ɑ",
    "coda1": "k",
    "shape": "NCVC",
    "transcription": "mpɑk",
    "WordRomanisation": "mpahk",
    "consensus": "mpock",
    "Stimulus": "Is this a possible word of English? (choose a rating below) <br><br><br><br><b>mpock<br><br><br><br>"
  },
  {
    "onset1": "dm",
    "nucleus1": "æ",
    "coda1": "t",
    "shape": "CNVC",
    "transcription": "dmæt",
    "WordRomanisation": "dmat",
    "consensus": "dmat",
    "Stimulus": "Is this a possible word of English? (choose a rating below) <br><br><br><br><b>dmat<br><br><br><br>"
  },
  {
    "onset1": "tl",
    "nucleus1": "æ",
    "coda1": "m",
    "onset2": "s",
    "nucleus2": "ʊ",
    "coda2": "s",
    "shape": "TlVC.CVC",
    "syllable.contact.code": "-NPA",
    "transcription": "tlæmsʊs",
    "WordRomanisation": "tlamsus",
    "consensus": "tlamsus",
    "Stimulus": "Is this a possible word of English? (choose a rating below) <br><br><br><br><b>tlamsus<br><br><br><br>"
  },
  {
    "onset1": "tl",
    "nucleus1": "aɪ",
    "coda1": "p",
    "shape": "TlVC",
    "transcription": "tlaɪp",
    "WordRomanisation": "tlaip",
    "consensus": "tlipe",
    "Stimulus": "Is this a possible word of English? (choose a rating below) <br><br><br><br><b>tlipe<br><br><br><br>"
  },
  {
    "onset1": "md",
    "nucleus1": "æ",
    "coda1": "k",
    "shape": "NCVC",
    "transcription": "mdæk",
    "WordRomanisation": "mdak",
    "consensus": "mdack",
    "Stimulus": "Is this a possible word of English? (choose a rating below) <br><br><br><br><b>mdack<br><br><br><br>"
  },
  {
    "onset1": "k",
    "nucleus1": "ɛ",
    "coda1": "p",
    "onset2": "t",
    "nucleus2": "ʊ",
    "coda2": "s",
    "shape": "CVC.CVC",
    "syllable.contact.code": "+OVA",
    "transcription": "kɛptʊs",
    "WordRomanisation": "keptus",
    "consensus": "keptus",
    "Stimulus": "Is this a possible word of English? (choose a rating below) <br><br><br><br><b>keptus<br><br><br><br>"
  },
  {
    "onset1": "st",
    "nucleus1": "ʊ",
    "coda1": "p",
    "shape": "sCVC",
    "transcription": "stʊp",
    "WordRomanisation": "stup",
    "consensus": "stup",
    "Stimulus": "Is this a possible word of English? (choose a rating below) <br><br><br><br><b>stup<br><br><br><br>"
  },
  {
    "onset1": "mp",
    "nucleus1": "æ",
    "coda1": "t",
    "shape": "NCVC",
    "transcription": "mpæt",
    "WordRomanisation": "mpat",
    "consensus": "mpat",
    "Stimulus": "Is this a possible word of English? (choose a rating below) <br><br><br><br><b>mpat<br><br><br><br>"
  },
  {
    "onset1": "b",
    "nucleus1": "ɪ",
    "coda1": "p",
    "onset2": "t",
    "nucleus2": "ɛ",
    "coda2": "t",
    "shape": "CVC.CVC",
    "syllable.contact.code": "+OVA",
    "transcription": "bɪptɛt",
    "WordRomanisation": "biptet",
    "consensus": "biptet",
    "Stimulus": "Is this a possible word of English? (choose a rating below) <br><br><br><br><b>biptet<br><br><br><br>"
  },
  {
    "onset1": "nd",
    "nucleus1": "ɛ",
    "coda1": "k",
    "shape": "NCVC",
    "transcription": "ndɛk",
    "WordRomanisation": "ndek",
    "consensus": "ndeck",
    "Stimulus": "Is this a possible word of English? (choose a rating below) <br><br><br><br><b>ndeck<br><br><br><br>"
  },
  {
    "onset1": "tl",
    "nucleus1": "æ",
    "coda1": "ŋ",
    "onset2": "d",
    "nucleus2": "ʊ",
    "coda2": "k",
    "shape": "TlVC.CVC",
    "syllable.contact.code": "-NPA",
    "transcription": "tlæŋdʊk",
    "WordRomanisation": "tlangduk",
    "consensus": "tlangdook",
    "Stimulus": "Is this a possible word of English? (choose a rating below) <br><br><br><br><b>tlangdook<br><br><br><br>"
  },
  {
    "onset1": "g",
    "nucleus1": "ɛ",
    "coda1": "n",
    "onset2": "p",
    "nucleus2": "ʊ",
    "coda2": "m",
    "shape": "CVC.CVC",
    "syllable.contact.code": "-NPA",
    "transcription": "gɛnpʊm",
    "WordRomanisation": "genpum",
    "consensus": "genpum",
    "Stimulus": "Is this a possible word of English? (choose a rating below) <br><br><br><br><b>genpum<br><br><br><br>"
  },
  {
    "onset1": "tl",
    "nucleus1": "eɪ",
    "coda1": "k",
    "shape": "TlVC",
    "transcription": "tleɪk",
    "WordRomanisation": "tleik",
    "consensus": "tlake",
    "Stimulus": "Is this a possible word of English? (choose a rating below) <br><br><br><br><b>tlake<br><br><br><br>"
  },
  {
    "onset1": "sp",
    "nucleus1": "ɛ",
    "coda1": "n",
    "shape": "sCVC",
    "transcription": "spɛn",
    "WordRomanisation": "spen",
    "consensus": "spen",
    "Stimulus": "Is this a possible word of English? (choose a rating below) <br><br><br><br><b>spen<br><br><br><br>"
  },
  {
    "onset1": "b",
    "nucleus1": "ɪ",
    "coda1": "m",
    "shape": "CVC",
    "transcription": "bɪm",
    "WordRomanisation": "bim",
    "consensus": "bim",
    "Stimulus": "Is this a possible word of English? (choose a rating below) <br><br><br><br><b>bim<br><br><br><br>"
  },
  {
    "onset1": "tl",
    "nucleus1": "ʊ",
    "coda1": "n",
    "onset2": "p",
    "nucleus2": "ɛ",
    "coda2": "m",
    "shape": "TlVC.CVC",
    "syllable.contact.code": "-NPA",
    "transcription": "tlʊnpɛm",
    "WordRomanisation": "tlunpem",
    "consensus": "tlunpem",
    "Stimulus": "Is this a possible word of English? (choose a rating below) <br><br><br><br><b>tlunpem<br><br><br><br>"
  },
  {
    "onset1": "dl",
    "nucleus1": "iː",
    "coda1": "m",
    "shape": "TlVC",
    "transcription": "dliːm",
    "WordRomanisation": "dliim",
    "consensus": "dleem",
    "Stimulus": "Is this a possible word of English? (choose a rating below) <br><br><br><br><b>dleem<br><br><br><br>"
  },
  {
    "onset1": "d",
    "nucleus1": "aʊ",
    "coda1": "m",
    "shape": "CVC",
    "transcription": "daʊm",
    "WordRomanisation": "daum",
    "consensus": "dowm",
    "Stimulus": "Is this a possible word of English? (choose a rating below) <br><br><br><br><b>dowm<br><br><br><br>"
  },
  {
    "onset1": "g",
    "nucleus1": "uː",
    "coda1": "t",
    "shape": "CVC",
    "transcription": "guːt",
    "WordRomanisation": "guut",
    "consensus": "goot",
    "Stimulus": "Is this a possible word of English? (choose a rating below) <br><br><br><br><b>goot<br><br><br><br>"
  },
  {
    "onset1": "dl",
    "nucleus1": "ʊ",
    "coda1": "p",
    "onset2": "g",
    "nucleus2": "ɪ",
    "coda2": "k",
    "shape": "TlVC.CVC",
    "syllable.contact.code": "-OVA",
    "transcription": "dlʊpgɪk",
    "WordRomanisation": "dlupgik",
    "consensus": "dlupgick",
    "Stimulus": "Is this a possible word of English? (choose a rating below) <br><br><br><br><b>dlupgick<br><br><br><br>"
  },
  {
    "onset1": "d",
    "nucleus1": "ʊ",
    "coda1": "n",
    "onset2": "b",
    "nucleus2": "ɛ",
    "coda2": "m",
    "shape": "CVC.CVC",
    "syllable.contact.code": "-NPA",
    "transcription": "dʊnbɛm",
    "WordRomanisation": "dunbem",
    "consensus": "doonbem",
    "Stimulus": "Is this a possible word of English? (choose a rating below) <br><br><br><br><b>doonbem<br><br><br><br>"
  },
  {
    "onset1": "bn",
    "nucleus1": "ʊ",
    "coda1": "p",
    "shape": "CNVC",
    "transcription": "bnʊp",
    "WordRomanisation": "bnup",
    "consensus": "bnoop",
    "Stimulus": "Is this a possible word of English? (choose a rating below) <br><br><br><br><b>bnoop<br><br><br><br>"
  },
  {
    "onset1": "n",
    "nucleus1": "æ",
    "coda1": "s",
    "onset2": "g",
    "nucleus2": "ɛ",
    "coda2": "k",
    "shape": "CVC.CVC",
    "syllable.contact.code": "-OVA",
    "transcription": "næsgɛk",
    "WordRomanisation": "nasgek",
    "consensus": "nasgeck",
    "Stimulus": "Is this a possible word of English? (choose a rating below) <br><br><br><br><b>nasgeck<br><br><br><br>"
  },
  {
    "onset1": "dw",
    "nucleus1": "ɪ",
    "coda1": "s",
    "shape": "CwVC",
    "transcription": "dwɪs",
    "WordRomanisation": "dwis",
    "consensus": "dwiss",
    "Stimulus": "Is this a possible word of English? (choose a rating below) <br><br><br><br><b>dwiss<br><br><br><br>"
  },
  {
    "onset1": "gw",
    "nucleus1": "æ",
    "coda1": "s",
    "shape": "CwVC",
    "transcription": "gwæs",
    "WordRomanisation": "gwas",
    "consensus": "gwass",
    "Stimulus": "Is this a possible word of English? (choose a rating below) <br><br><br><br><b>gwass<br><br><br><br>"
  },
  {
    "onset1": "g",
    "nucleus1": "æ",
    "coda1": "k",
    "onset2": "d",
    "nucleus2": "ʊ",
    "coda2": "m",
    "shape": "CVC.CVC",
    "syllable.contact.code": "-OVA",
    "transcription": "gækdʊm",
    "WordRomanisation": "gakdum",
    "consensus": "gackdum",
    "Stimulus": "Is this a possible word of English? (choose a rating below) <br><br><br><br><b>gackdum<br><br><br><br>"
  },
  {
    "onset1": "dɹ",
    "nucleus1": "æ",
    "coda1": "s",
    "onset2": "p",
    "nucleus2": "ʊ",
    "coda2": "ŋ",
    "shape": "TɹVC.CVC",
    "syllable.contact.code": "+OVA",
    "transcription": "dɹæspʊŋ",
    "WordRomanisation": "draspung",
    "consensus": "draspung",
    "Stimulus": "Is this a possible word of English? (choose a rating below) <br><br><br><br><b>draspung<br><br><br><br>"
  },
  {
    "onset1": "b",
    "nucleus1": "ɪ",
    "coda1": "m",
    "onset2": "k",
    "nucleus2": "ʊ",
    "coda2": "n",
    "shape": "CVC.CVC",
    "syllable.contact.code": "-NPA",
    "transcription": "bɪmkʊn",
    "WordRomanisation": "bimkun",
    "consensus": "bimkun",
    "Stimulus": "Is this a possible word of English? (choose a rating below) <br><br><br><br><b>bimkun<br><br><br><br>"
  },
  {
    "onset1": "dɹ",
    "nucleus1": "ɛ",
    "coda1": "n",
    "onset2": "s",
    "nucleus2": "ʊ",
    "coda2": "m",
    "shape": "TɹVC.CVC",
    "syllable.contact.code": "+NPA",
    "transcription": "dɹɛnsʊm",
    "WordRomanisation": "drensum",
    "consensus": "drensum",
    "Stimulus": "Is this a possible word of English? (choose a rating below) <br><br><br><br><b>drensum<br><br><br><br>"
  },
  {
    "onset1": "gw",
    "nucleus1": "ʊ",
    "coda1": "t",
    "shape": "CwVC",
    "transcription": "gwʊt",
    "WordRomanisation": "gwut",
    "consensus": "gwut",
    "Stimulus": "Is this a possible word of English? (choose a rating below) <br><br><br><br><b>gwut<br><br><br><br>"
  },
  {
    "onset1": "dɹ",
    "nucleus1": "ɛ",
    "coda1": "t",
    "shape": "TɹVC",
    "transcription": "dɹɛt",
    "WordRomanisation": "dret",
    "consensus": "dret",
    "Stimulus": "Is this a possible word of English? (choose a rating below) <br><br><br><br><b>dret<br><br><br><br>"
  },
  {
    "onset1": "dl",
    "nucleus1": "ɛ",
    "coda1": "s",
    "onset2": "b",
    "nucleus2": "ʊ",
    "coda2": "p",
    "shape": "TlVC.CVC",
    "syllable.contact.code": "-OVA",
    "transcription": "dlɛsbʊp",
    "WordRomanisation": "dlesbup",
    "consensus": "dlesbup",
    "Stimulus": "Is this a possible word of English? (choose a rating below) <br><br><br><br><b>dlesbup<br><br><br><br>"
  },
  {
    "onset1": "bw",
    "nucleus1": "ʊ",
    "coda1": "s",
    "shape": "CwVC",
    "transcription": "bwʊs",
    "WordRomanisation": "bwus",
    "consensus": "bwuss",
    "Stimulus": "Is this a possible word of English? (choose a rating below) <br><br><br><br><b>bwuss<br><br><br><br>"
  },
  {
    "onset1": "s",
    "nucleus1": "æ",
    "coda1": "n",
    "onset2": "d",
    "nucleus2": "ʊ",
    "coda2": "p",
    "shape": "CVC.CVC",
    "syllable.contact.code": "+NPA",
    "transcription": "sændʊp",
    "WordRomanisation": "sandup",
    "consensus": "sandoop",
    "Stimulus": "Is this a possible word of English? (choose a rating below) <br><br><br><br><b>sandoop<br><br><br><br>"
  },
  {
    "onset1": "km",
    "nucleus1": "uː",
    "coda1": "p",
    "shape": "CNVC",
    "transcription": "kmuːp",
    "WordRomanisation": "kmuup",
    "consensus": "kmoop",
    "Stimulus": "Is this a possible word of English? (choose a rating below) <br><br><br><br><b>kmoop<br><br><br><br>"
  },
  {
    "onset1": "dɹ",
    "nucleus1": "ʊ",
    "coda1": "k",
    "onset2": "s",
    "nucleus2": "æ",
    "coda2": "n",
    "shape": "TɹVC.CVC",
    "syllable.contact.code": "+OVA",
    "transcription": "dɹʊksæn",
    "WordRomanisation": "druksan",
    "consensus": "drooxan",
    "Stimulus": "Is this a possible word of English? (choose a rating below) <br><br><br><br><b>drooxan<br><br><br><br>"
  },
  {
    "onset1": "dɹ",
    "nucleus1": "ɪ",
    "coda1": "k",
    "onset2": "s",
    "nucleus2": "ʊ",
    "coda2": "m",
    "shape": "TɹVC.CVC",
    "syllable.contact.code": "+OVA",
    "transcription": "dɹɪksʊm",
    "WordRomanisation": "driksum",
    "consensus": "drixum",
    "Stimulus": "Is this a possible word of English? (choose a rating below) <br><br><br><br><b>drixum<br><br><br><br>"
  },
  {
    "onset1": "tl",
    "nucleus1": "æ",
    "coda1": "k",
    "onset2": "g",
    "nucleus2": "ʊ",
    "coda2": "ŋ",
    "shape": "TlVC.CVC",
    "syllable.contact.code": "-OVA",
    "transcription": "tlækgʊŋ",
    "WordRomanisation": "tlakgung",
    "consensus": "tlakgung",
    "Stimulus": "Is this a possible word of English? (choose a rating below) <br><br><br><br><b>tlakgung<br><br><br><br>"
  },
  {
    "onset1": "n",
    "nucleus1": "æ",
    "coda1": "s",
    "onset2": "t",
    "nucleus2": "ɛ",
    "coda2": "ŋ",
    "shape": "CVC.CVC",
    "syllable.contact.code": "+OVA",
    "transcription": "næstɛŋ",
    "WordRomanisation": "nasteng",
    "consensus": "nasteng",
    "Stimulus": "Is this a possible word of English? (choose a rating below) <br><br><br><br><b>nasteng<br><br><br><br>"
  }
]
