"rt","stimulus","response","trial_type","trial_index","time_elapsed","internal_node_id","accuracy","PracticeTest","ConsonantSequence","Grammaticality"
"19287","<p style=""font-size:30px"",lang=""ko"">실험에 오신 것을 환영합니다</p><p lang=""ko"">스페이스바를 누르면 다음 페이지로 넘어갑니다</p>"," ","html-keyboard-response","0","19288","0.0-0.0","","","",""
"1834","<p style=""font-size:30px"",lang=""ko"">해드폰을 본인에게 잘 맞게 착용하세요</p><p lang=""ko"">스페이스바를 누르면 다음 페이지로 넘어갑니다</p>"," ","html-keyboard-response","1","21123","0.0-1.0","","","",""
"3872","<p style=""font-size:30px"",lang=""ko"">이 실험에서는 새로 만든 한국 단어를 들으실 겁니다</p><p style=""font-size:30px"",lang=""ko"">단어를 들리는대로 쓰세요. 그런 다음 그 단어가 한국어 단어로 가능한지 평가하세요</p><p lang=""ko"">스페이스바를 누르면 다음 페이지로 넘어갑니다</p>"," ","html-keyboard-response","2","24996","0.0-2.0","","","",""
"3033","<p style=""font-size:30px"",lang=""ko"">원래 있는 단어로 예를 들어 봅시다</p><p lang=""ko"">스페이스바를 누르면 다음 페이지로 넘어갑니다</p>"," ","html-keyboard-response","3","28030","0.0-3.0","","","",""
"10459","PracticeRecordings/kom_bear.wav","0","audio-button-response","4","38525","0.0-4.0","","","",""
"2766","<p style=""font-size:30px"",lang=""ko"">이제 직접 단어를 듣고 쓰는 연습을 해봅시다. </p><p style=""font-size:30px"",lang=""ko"">스페이스바를 누르면 다음 페이지로 넘어갑니다</p>"," ","html-keyboard-response","5","41291","0.0-5.0","","","",""
"4180","PracticeRecordings/kirin_giraffe.wav","0","audio-button-response","6","45488","0.0-6.0-0.0","","","",""
"9326","kirin_giraffe","{""P0_Q0"":""ㄱ,ㅣ,ㄹ,ㅣ,ㄴ""}","survey","7","54841","0.0-6.0-1.0","[]","practice","NA","TRUE"
"2985","<p style=""font-size:30px"",lang=""ko"">방금 들으신 단어는 ""ㄱ,ㅣ,ㄹ,ㅣ,ㄴ"" 이라고 쓰시면 됩니다</p><p lang=""ko"">스페이스바를 누르면 다음 페이지로 넘어갑니다</p>"," ","html-keyboard-response","8","57826","0.0-6.0-2.0","","","",""
"2254","PracticeRecordings/saca_lion.wav","0","audio-button-response","9","60099","0.0-6.0-0.1","","","",""
"5166","saca_lion","{""P0_Q0"":""ㅅ,ㅏ,ㅈ,ㅏ""}","survey","10","65275","0.0-6.0-1.1","[]","practice","NA","FALSE"
"2293","<p style=""font-size:30px"",lang=""ko"">방금 들으신 단어는 ""ㅅ,ㅏ,ㅈ,ㅏ"" 라고 쓰시면 됩니다</p><p lang=""ko"">스페이스바를 누르면 다음 페이지로 넘어갑니다</p>"," ","html-keyboard-response","11","67569","0.0-6.0-2.1","","","",""
"1972","PracticeRecordings/saseum_deer.wav","0","audio-button-response","12","69558","0.0-6.0-0.2","","","",""
"6097","saseum_deer","{""P0_Q0"":""ㅅ,ㅏ,ㅅ,ㅡ,ㅁ""}","survey","13","75664","0.0-6.0-1.2","[]","practice","NA","FALSE"
"1702","<p style=""font-size:30px"",lang=""ko"">방금 들으신 단어는 ""ㅅ,ㅏ,ㅅ,ㅡ,ㅁ""이라고 쓰시면 됩니다</p><p lang=""ko"">스페이스바를 누르면 다음 페이지로 넘어갑니다</p>"," ","html-keyboard-response","14","77367","0.0-6.0-2.2","","","",""
"1666","PracticeRecordings/thokki_rabbit.wav","0","audio-button-response","15","79052","0.0-6.0-0.3","","","",""
"4226","thokki_rabbit","{""P0_Q0"":""ㅌ,ㅗ,ㄲ,ㅣ""}","survey","16","83288","0.0-6.0-1.3","[]","practice","NA","FALSE"
"1154","<p style=""font-size:30px"",lang=""ko"">방금 들으신 단어는 ""ㅌ,ㅗ,ㄲ,ㅣ"" 라고 쓰시면 됩니다</p><p lang=""ko"">스페이스바를 누르면 다음 페이지로 넘어갑니다</p>"," ","html-keyboard-response","17","84442","0.0-6.0-2.3","","","",""
"1485","<p style=""font-size:30px"",lang=""ko"">이제 만든 단어로 연습해봅시다.</p><p lang=""ko"">스페이스바를 누르면 다음 페이지로 넘어갑니다</p>"," ","html-keyboard-response","18","85928","0.0-7.0","","","",""
"7091","PracticeRecordings/snen.wav","0","audio-button-response","19","93037","0.0-8.0-0.0","","","",""
"7029","snen","{""P0_Q0"":""ㅅ,ㅡ,ㄴ,ㅔ,ㄴ""}","survey","20","100074","0.0-8.0-1.0","[]","practice","NA","TRUE"
"4947","<p style=""font-size:30px"",lang=""ko"">들으신 단어는 <br> ""ㅅ,ㅡ,ㄴ,ㅐ,ㄴ""  ""ㅅ,ㅡ,ㄴ,ㅐ"" ""ㅅ,ㄴ,ㅐ,ㄴ (""으"" 소리가 안 들리는 경우)"" 등 <br> 사람에 따라 다양하게 들릴 수 있습니다 <br> 본인에게 들리는대로 쓰시면 됩니다.</p><p lang=""ko"">스페이스바를 누르면 다음 페이지로 넘어갑니다</p>"," ","html-keyboard-response","21","105022","0.0-8.0-2.0","","","",""
"1861","PracticeRecordings/phrak.wav","0","audio-button-response","22","106902","0.0-8.0-0.1","","","",""
"5676","phrak","{""P0_Q0"":""ㅍ,ㅡ,ㄹ,ㅏ,ㄱ""}","survey","23","112583","0.0-8.0-1.1","[]","practice","NA","FALSE"
"1909","<p style=""font-size:30px"",lang=""ko"">들으신 단어는 <br> ""ㅍ,ㅡ,ㄹ,ㅏ,ㄱ"" ""ㅍ,ㅡ,ㄹ,ㅏ,ㅅ"" ""ㅋ,ㅡ,ㄹ,ㅏ,ㄱ"" ""ㅍ,ㄹ,ㅏ,ㄱ (""으"" 소리가 안 들리는 경우)"" 등 <br> 사람에 따라 다양하게 들릴 수 있습니다 <br> 본인에게 들리는대로 쓰시면 됩니다.</p><p lang=""ko"">스페이스바를 누르면 다음 페이지로 넘어갑니다</p>"," ","html-keyboard-response","24","114492","0.0-8.0-2.1","","","",""
"4583","PracticeRecordings/chka.wav","0","audio-button-response","25","119092","0.0-8.0-0.2","","","",""
"4077","chka","{""P0_Q0"":""ㅊ,ㅡ,ㄱ,ㅏ""}","survey","26","123174","0.0-8.0-1.2","[]","practice","NA","FALSE"
"2273","<p style=""font-size:30px"",lang=""ko"">들으신 단어는 ""ㅊ,ㅣ,ㄱ,ㅏ"", ""ㅊ,ㅡ,ㄱ,ㅏ"", ""ㅊ,ㄱ,ㅏ"", ""ㅊ,ㅟ,ㄱ,ㅏ"" 등 <br> 사람에 따라 다양하게 들릴 수 있습니다. <br> 본인에게 들리는대로 쓰시면 됩니다.</p><p lang=""ko"">스페이스바를 누르면 다음 페이지로 넘어갑니다</p>"," ","html-keyboard-response","27","125447","0.0-8.0-2.2","","","",""
"2495",""," ","html-keyboard-response","28","127943","0.0-9.0","","","",""
"2159","<p style=""font-size:30px"",lang=""ko"">이제 실험을 시작하겠습니다.</p><p style=""font-size:30px"",lang=""ko"">실전에서는 각각의 만든 단어를 한 번씩만 들을 수 있습니다.</p>"," ","html-keyboard-response","29","130102","0.0-10.0","","","",""
"19419","<p style=""font-size:30px"",lang=""ko"">단어를 풀어 쓰신 후에 그 단어가 한국어로 가능한 단어인지 평가해주세요</p><p lang=""ko"">스페이스바를 누르면 다음 페이지로 넘어갑니다</p>"," ","html-keyboard-response","30","149522","0.0-11.0","","","",""
"2837","TestRecordings/thukhat.wav","0","audio-button-response","31","152388","0.0-12.0-0.0","","","",""
"20078","","{""P0_Q0"":""ㅌ,ㅜ,ㅋ,ㅏ,ㅅ"",""P0_Q1"":""(가능)""}","survey","32","172483","0.0-12.0-1.0","[]","","",""
"4312","TestRecordings/tup.wav","0","audio-button-response","33","176824","0.0-12.0-0.1","","","",""
"6588","","{""P0_Q0"":""ㄷ,ㅜ,ㅂ"",""P0_Q1"":""(가능)""}","survey","34","183422","0.0-12.0-1.1","[]","","",""
"1815","TestRecordings/tin.wav","0","audio-button-response","35","185323","0.0-12.0-0.2","","","",""
"4528","","{""P0_Q0"":""ㄷ,ㅣ,ㄴ"",""P0_Q1"":""(가능)""}","survey","36","189859","0.0-12.0-1.2","[]","","",""
"2394","TestRecordings/phnokhing.wav","0","audio-button-response","37","192344","0.0-12.0-0.3","","","",""
"10719","","{""P0_Q0"":""ㅍ,ㅡ,ㄴ,ㅗ,ㅂ,ㅋ,ㅣ,ㅇ"",""P0_Q1"":""(불가능)""}","survey","38","203071","0.0-12.0-1.3","[]","","",""
"2247","TestRecordings/chakot.wav","0","audio-button-response","39","205353","0.0-12.0-0.4","","","",""
"7549","","{""P0_Q0"":""ㅊ,ㅏ,ㄱ,ㅗ,ㄷ"",""P0_Q1"":""(가능)""}","survey","40","212911","0.0-12.0-1.4","[]","","",""
"2109","TestRecordings/khin.wav","0","audio-button-response","41","215047","0.0-12.0-0.5","","","",""
"4749","","{""P0_Q0"":""ㅋ,ㅣ,ㄴ"",""P0_Q1"":""(가능)""}","survey","42","219804","0.0-12.0-1.5","[]","","",""
"1925","TestRecordings/knot.wav","0","audio-button-response","43","221753","0.0-12.0-0.6","","","",""
"11370","","{""P0_Q0"":""ㅋ,ㅡ,노,ㄷ"",""P0_Q1"":""(불가능)""}","survey","44","233131","0.0-12.0-1.6","[]","","",""
"1577","TestRecordings/khut.wav","0","audio-button-response","45","234790","0.0-12.0-0.7","","","",""
"7897","","{""P0_Q0"":""ㅋ,ㅜ,ㅅ"",""P0_Q1"":""(불가능)""}","survey","46","242692","0.0-12.0-1.7","[]","","",""
"1813","TestRecordings/nwimik.wav","0","audio-button-response","47","244593","0.0-12.0-0.8","","","",""
"11212","","{""P0_Q0"":""ㄴ,ㅜ,ㅇ,ㅡ,ㅣ,ㅁ,ㅣ,ㅋ"",""P0_Q1"":""(불가능)""}","survey","48","255813","0.0-12.0-1.8","[]","","",""
"1344","TestRecordings/twak.wav","0","audio-button-response","49","257240","0.0-12.0-0.9","","","",""
"10815","","{""P0_Q0"":""ㄷ,ㅡ,ㅇ,ㅗ,ㅏ,ㄱ"",""P0_Q1"":""(불가능)""}","survey","50","268062","0.0-12.0-1.9","[]","","",""
"2395","TestRecordings/swikhat.wav","0","audio-button-response","51","270533","0.0-12.0-0.10","","","",""
"12505","","{""P0_Q0"":""ㅅ,ㅟ,ㅋ,ㅏ,ㅅ"",""P0_Q1"":""(가능)""}","survey","52","283045","0.0-12.0-1.10","[]","","",""
"1562","TestRecordings/thwikhip.wav","0","audio-button-response","53","284696","0.0-12.0-0.11","","","",""
"50043","","{""P0_Q0"":""ㅌ,ㅟ,ㅋ,ㅣ,ㅂ"",""P0_Q1"":""(불가능)""}","survey","54","334752","0.0-12.0-1.11","[]","","",""
"3000","TestRecordings/cmoman.wav","0","audio-button-response","55","337786","0.0-12.0-0.12","","","",""
"8537","","{""P0_Q0"":""ㅊ,ㅡ,ㅁ,ㅗ,ㅁ,ㅏ,ㄴ"",""P0_Q1"":""(불가능)""}","survey","56","346330","0.0-12.0-1.12","[]","","",""
"1415","TestRecordings/tikut.wav","0","audio-button-response","57","347773","0.0-12.0-0.13","","","",""
"7613","","{""P0_Q0"":""ㄷ,ㅣ,ㄱ,ㅜ,ㄷ"",""P0_Q1"":""(가능)""}","survey","58","355394","0.0-12.0-1.13","[]","","",""
"1528","TestRecordings/khnothik.wav","0","audio-button-response","59","356953","0.0-12.0-0.14","","","",""
"12622","","{""P0_Q0"":""ㅋ,ㅡ,ㄴ,ㅗ,ㅌ,ㅣ,ㄱ"",""P0_Q1"":""(불가능)""}","survey","60","369582","0.0-12.0-1.14","[]","","",""
"1829","TestRecordings/mphosak.wav","0","audio-button-response","61","371441","0.0-12.0-0.15","","","",""
"8725","","{""P0_Q0"":""ㅇ,ㅡ,ㅁ,ㅍ,ㅗ,ㅅ,ㅏ,ㄱ"",""P0_Q1"":""(불가능)""}","survey","62","380172","0.0-12.0-1.15","[]","","",""
"1168","TestRecordings/taphik.wav","0","audio-button-response","63","381358","0.0-12.0-0.16","","","",""
"4992","","{""P0_Q0"":""ㄷ,ㅏ,ㅍ,ㅣ,ㄱ"",""P0_Q1"":""(가능)""}","survey","64","386357","0.0-12.0-1.16","[]","","",""
"1179","TestRecordings/nakhit.wav","0","audio-button-response","65","387585","0.0-12.0-0.17","","","",""
"7382","","{""P0_Q0"":""ㄴ,ㅏ,ㅋ,ㅣ,ㅅ"",""P0_Q1"":""(가능)""}","survey","66","394974","0.0-12.0-1.17","[]","","",""
"1338","TestRecordings/mkit.wav","0","audio-button-response","67","396334","0.0-12.0-0.18","","","",""
"8529","","{""P0_Q0"":""ㅇ,ㅡ,ㅁ,ㄱ,ㅣ,ㅅ"",""P0_Q1"":""(불가능)""}","survey","68","404869","0.0-12.0-1.18","[]","","",""
"1673","TestRecordings/phmiman.wav","0","audio-button-response","69","406564","0.0-12.0-0.19","","","",""
"6480","","{""P0_Q0"":""ㅍ,ㅡ,ㄴ,ㅣ,ㅁ,ㅏ,ㄴ"",""P0_Q1"":""(가능)""}","survey","70","413050","0.0-12.0-1.19","[]","","",""
"1002","TestRecordings/nkat.wav","0","audio-button-response","71","414076","0.0-12.0-0.20","","","",""
"6417","","{""P0_Q0"":""ㅇ,ㅡ,ㅁ,ㄱ,ㅏ,ㅅ"",""P0_Q1"":""(불가능)""}","survey","72","420499","0.0-12.0-1.20","[]","","",""
"1477","TestRecordings/khnap.wav","0","audio-button-response","73","422030","0.0-12.0-0.21","","","",""
"9028","","{""P0_Q0"":""ㅋ,ㅡ,ㄴ,ㅏ,ㅂ"",""P0_Q1"":""(불가능)""}","survey","74","431065","0.0-12.0-1.21","[]","","",""
"1344","TestRecordings/khwipot.wav","0","audio-button-response","75","432465","0.0-12.0-0.22","","","",""
"6784","","{""P0_Q0"":""ㅋ,ㅟ,ㅂ,ㅗ,ㅅ"",""P0_Q1"":""(가능)""}","survey","76","439255","0.0-12.0-1.22","[]","","",""
"1204","TestRecordings/mphuk.wav","0","audio-button-response","77","440516","0.0-12.0-0.23","","","",""
"6541","","{""P0_Q0"":""ㅇ,ㅡ,ㅁ,ㅍ,ㅜ"",""P0_Q1"":""(불가능)""}","survey","78","447064","0.0-12.0-1.23","[]","","",""
"2796","TestRecordings/khwichon.wav","0","audio-button-response","79","449917","0.0-12.0-0.24","","","",""
"6344","","{""P0_Q0"":""ㅋ,ㅟ,ㅊ,ㅗ,ㄴ"",""P0_Q1"":""(가능)""}","survey","80","456269","0.0-12.0-1.24","[]","","",""
"1442","TestRecordings/twamot.wav","0","audio-button-response","81","457767","0.0-12.0-0.25","","","",""
"8096","","{""P0_Q0"":""ㄷ,ㅡ,ㅇ,ㅘ,ㅁ,ㅗ,ㅅ"",""P0_Q1"":""(불가능)""}","survey","82","465869","0.0-12.0-1.25","[]","","",""
"1552","TestRecordings/pmochun.wav","0","audio-button-response","83","467479","0.0-12.0-0.26","","","",""
"11383","","{""P0_Q0"":""ㅋ,ㅡ,ㄴ,ㅗ,ㅊ,ㅜ,ㄴ"",""P0_Q1"":""(가능)""}","survey","84","478869","0.0-12.0-1.26","[]","","",""
"1811","TestRecordings/nkhuchom.wav","0","audio-button-response","85","480741","0.0-12.0-0.27","","","",""
"7638","","{""P0_Q0"":""ㅇ,ㅡ,ㅁ,ㅋ,ㅜ,ㅊ,ㅗ,ㄴ"",""P0_Q1"":""(불가능)""}","survey","86","488388","0.0-12.0-1.27","[]","","",""
"1219","TestRecordings/npucap.wav","0","audio-button-response","87","489664","0.0-12.0-0.28","","","",""
"9951","","{""P0_Q0"":""ㅇ,ㅡ,ㅁ,ㅂ,ㅜ,ㅈ,ㅏ,ㅂ"",""P0_Q1"":""(불가능)""}","survey","88","499622","0.0-12.0-1.28","[]","","",""
"1532","TestRecordings/kmamun.wav","0","audio-button-response","89","501210","0.0-12.0-0.29","","","",""
"7423","","{""P0_Q0"":""ㅋ,ㅡ,ㅁ,ㅏ,ㅁ,ㅜ,ㄴ"",""P0_Q1"":""(불가능)""}","survey","90","508640","0.0-12.0-1.29","[]","","",""
"2310","TestRecordings/tnunong.wav","0","audio-button-response","91","511007","0.0-12.0-0.30","","","",""
"7331","","{""P0_Q0"":""ㄷ,ㅡ,ㄴ,ㅜ,ㄴ,ㅗ,ㅇ"",""P0_Q1"":""(불가능)""}","survey","92","518344","0.0-12.0-1.30","[]","","",""
"1213","TestRecordings/nthimong.wav","0","audio-button-response","93","519614","0.0-12.0-0.31","","","",""
"8561","","{""P0_Q0"":""ㅇ,ㅡ,ㅁ,ㅌ,ㅣ,ㅁ,ㅗ,ㅇ"",""P0_Q1"":""(불가능)""}","survey","94","528183","0.0-12.0-1.31","[]","","",""
"1373","TestRecordings/mpukham.wav","0","audio-button-response","95","529612","0.0-12.0-0.32","","","",""
"8513","","{""P0_Q0"":""ㅇ,ㅡ,ㅁ,ㅂ,ㅜ,ㅋ,ㅏ,ㅁ"",""P0_Q1"":""(가능)""}","survey","96","538131","0.0-12.0-1.32","[]","","",""
"1311","TestRecordings/ntakhip.wav","0","audio-button-response","97","539497","0.0-12.0-0.33","","","",""
"8001","","{""P0_Q0"":""ㅇ,ㅡ,ㅁ,ㄷ,ㅏ,ㅋ,ㅣ,ㅂ"",""P0_Q1"":""(불가능)""}","survey","98","547500","0.0-12.0-1.33","[]","","",""
"1326","TestRecordings/chwiphin.wav","0","audio-button-response","99","548852","0.0-12.0-0.34","","","",""
"7274","","{""P0_Q0"":""ㅊ,ㅟ,ㅍ,ㅣ,ㄴ"",""P0_Q1"":""(가능)""}","survey","100","556133","0.0-12.0-1.34","[]","","",""
"1261","TestRecordings/twan.wav","0","audio-button-response","101","557451","0.0-12.0-0.35","","","",""
"7242","","{""P0_Q0"":""ㄷ,ㅡ,ㅇ,ㅘ,ㄴ"",""P0_Q1"":""(불가능)""}","survey","102","564699","0.0-12.0-1.35","[]","","",""
"1331","TestRecordings/chmop.wav","0","audio-button-response","103","566064","0.0-12.0-0.36","","","",""
"6326","","{""P0_Q0"":""ㅊ,ㅣ,ㅁ,ㅗ"",""P0_Q1"":""(불가능)""}","survey","104","572397","0.0-12.0-1.36","[]","","",""
"1844","TestRecordings/cwam.wav","0","audio-button-response","105","574297","0.0-12.0-0.37","","","",""
"3804","","{""P0_Q0"":""ㅈ,ㅘ,ㅁ"",""P0_Q1"":""(가능)""}","survey","106","578107","0.0-12.0-1.37","[]","","",""
"1345","TestRecordings/tmichut.wav","0","audio-button-response","107","579508","0.0-12.0-0.38","","","",""
"8285","","{""P0_Q0"":""ㄲ,ㅡ,ㄴ,ㅣ,ㅊ,ㅜ,ㄷ"",""P0_Q1"":""(불가능)""}","survey","108","587800","0.0-12.0-1.38","[]","","",""
"1408","TestRecordings/chwikhong.wav","0","audio-button-response","109","589233","0.0-12.0-0.39","","","",""
"5499","","{""P0_Q0"":""ㅊ,ㅟ,ㅋ,ㅗ,ㅇ"",""P0_Q1"":""(가능)""}","survey","110","594739","0.0-12.0-1.39","[]","","",""
"1079","TestRecordings/nchocip.wav","0","audio-button-response","111","595875","0.0-12.0-0.40","","","",""
"7869","","{""P0_Q0"":""ㅇ,ㅡ,ㅇ,ㅊ,ㅗ,ㅈ,ㅣ,ㅂ"",""P0_Q1"":""(불가능)""}","survey","112","603754","0.0-12.0-1.40","[]","","",""
"1734","TestRecordings/cwit.wav","0","audio-button-response","113","605544","0.0-12.0-0.41","","","",""
"7666","","{""P0_Q0"":""ㅈ,ㅟ,ㅅ"",""P0_Q1"":""(불가능)""}","survey","114","613216","0.0-12.0-1.41","[]","","",""
"1770","TestRecordings/mthik.wav","0","audio-button-response","115","615041","0.0-12.0-0.42","","","",""
"7637","","{""P0_Q0"":""ㅇ,ㅡ,ㅁ,ㅌ,ㅣ,ㄱ"",""P0_Q1"":""(불가능)""}","survey","116","622685","0.0-12.0-1.42","[]","","",""
"1518","TestRecordings/chumik.wav","0","audio-button-response","117","624259","0.0-12.0-0.43","","","",""
"6847","","{""P0_Q0"":""ㅊ,ㅠ,ㅁ,ㅣ,ㄱ"",""P0_Q1"":""(불가능)""}","survey","118","631112","0.0-12.0-1.43","[]","","",""
"1309","TestRecordings/mphutam.wav","0","audio-button-response","119","632477","0.0-12.0-0.44","","","",""
"5901","","{""P0_Q0"":""ㅇ,ㅡ,ㅁ,ㅍ,ㅜ,ㄷ,ㅏ,ㅁ"",""P0_Q1"":""(불가능)""}","survey","120","638385","0.0-12.0-1.44","[]","","",""
"1039","TestRecordings/nthaking.wav","0","audio-button-response","121","639479","0.0-12.0-0.45","","","",""
"7066","","{""P0_Q0"":""ㅇ,ㅡ,ㅁ,ㅌ,ㅏ,ㄱ,ㅣ,ㅇ"",""P0_Q1"":""(불가능)""}","survey","122","646552","0.0-12.0-1.45","[]","","",""
"2248","TestRecordings/mup.wav","0","audio-button-response","123","648856","0.0-12.0-0.46","","","",""
"4107","","{""P0_Q0"":""ㅁ,ㅜ,ㅂ"",""P0_Q1"":""(가능)""}","survey","124","652971","0.0-12.0-1.46","[]","","",""
"1371","TestRecordings/cnaphin.wav","0","audio-button-response","125","654398","0.0-12.0-0.47","","","",""
"5706","","{""P0_Q0"":""ㅊ,ㅡ,ㄴ,ㅏ,ㅍ,ㅣ,ㄴ"",""P0_Q1"":""(불가능)""}","survey","126","660110","0.0-12.0-1.47","[]","","",""
"1066","TestRecordings/thnok.wav","0","audio-button-response","127","661232","0.0-12.0-0.48","","","",""
"7791","","{""P0_Q0"":""ㅌ,ㅡ,ㄴ,ㅗ,ㄱ"",""P0_Q1"":""(불가능)""}","survey","128","669029","0.0-12.0-1.48","[]","","",""
"1004","TestRecordings/mtukin.wav","0","audio-button-response","129","670089","0.0-12.0-0.49","","","",""
"7548","","{""P0_Q0"":""ㅇ,ㅡ,ㅁ,ㄷ,ㅜ,ㄱ,ㅣ,ㄴ"",""P0_Q1"":""(불가능)""}","survey","130","677643","0.0-12.0-1.49","[]","","",""
"1531","TestRecordings/twaput.wav","0","audio-button-response","131","679230","0.0-12.0-0.50","","","",""
"9108","","{""P0_Q0"":""ㄷ,ㅘ,ㅂ,ㅜ,ㄷ"",""P0_Q1"":""(가능)""}","survey","132","688345","0.0-12.0-1.50","[]","","",""
"1484","TestRecordings/thinok.wav","0","audio-button-response","133","689884","0.0-12.0-0.51","","","",""
"4608","","{""P0_Q0"":""ㅋ,ㅣ,ㄴ,ㅗ,ㄱ"",""P0_Q1"":""(가능)""}","survey","134","694498","0.0-12.0-1.51","[]","","",""
"1407","TestRecordings/chunak.wav","0","audio-button-response","135","695960","0.0-12.0-0.52","","","",""
"4748","","{""P0_Q0"":""ㅊ,ㅜ,ㄴ,ㅏ,ㄱ"",""P0_Q1"":""(가능)""}","survey","136","700714","0.0-12.0-1.52","[]","","",""
"1391","TestRecordings/chnuk.wav","0","audio-button-response","137","702127","0.0-12.0-0.53","","","",""
"5518","","{""P0_Q0"":""ㅊ,ㅡ,ㄴ,ㅜ"",""P0_Q1"":""(불가능)""}","survey","138","707652","0.0-12.0-1.53","[]","","",""
"1499","TestRecordings/nchot.wav","0","audio-button-response","139","709177","0.0-12.0-0.54","","","",""
"7538","","{""P0_Q0"":""ㅇ,ㅡ,ㅇ,ㅊ,ㅛ,ㅅ"",""P0_Q1"":""(불가능)""}","survey","140","716722","0.0-12.0-1.54","[]","","",""
"1288","TestRecordings/thwam.wav","0","audio-button-response","141","718066","0.0-12.0-0.55","","","",""
"11379","","{""P0_Q0"":""ㅌ,ㅗ,ㅇ,ㅏ,ㅁ"",""P0_Q1"":""(가능)""}","survey","142","729452","0.0-12.0-1.55","[]","","",""
"1207","TestRecordings/khithuk.wav","0","audio-button-response","143","730713","0.0-12.0-0.56","","","",""
"6247","","{""P0_Q0"":""ㅋ,ㅣ,ㅌ,ㅜ,ㄱ"",""P0_Q1"":""(가능)""}","survey","144","736966","0.0-12.0-1.56","[]","","",""
"1319","TestRecordings/chnupot.wav","0","audio-button-response","145","738332","0.0-12.0-0.57","","","",""
"7885","","{""P0_Q0"":""ㅊ,ㅡ,ㄴ,ㅜ,ㅂ,ㅗ,ㅅ"",""P0_Q1"":""(불가능)""}","survey","146","746223","0.0-12.0-1.57","[]","","",""
"1122","TestRecordings/sikot.wav","0","audio-button-response","147","747401","0.0-12.0-0.58","","","",""
"4684","","{""P0_Q0"":""ㅅ,ㅣ,ㄱ,ㅗ,ㅅ"",""P0_Q1"":""(가능)""}","survey","148","752092","0.0-12.0-1.58","[]","","",""
"1572","TestRecordings/khwiphing.wav","0","audio-button-response","149","753721","0.0-12.0-0.59","","","",""
"8221","","{""P0_Q0"":""ㅋ,ㅜ,ㅇ,ㅣ,ㅍ,ㅣ,ㅇ"",""P0_Q1"":""(가능)""}","survey","150","761948","0.0-12.0-1.59","[]","","",""
"4601",""," ","html-keyboard-response","151","766550","0.0-13.0","","","",""
"115576","","{""P0_Q0"":""20"",""P0_Q1"":""남자"",""P0_Q2"":""7"",""P0_Q3"":""없음"",""P0_Q4"":""일본어, 중국어, 러시아어"",""P0_Q5"":""중국어 10살 1년 / 일본어 19살 1년 / 러시아어 20살 3개월"",""P0_Q6"":""없음""}","survey","152","882135","0.0-14.0","[]","","",""
"26430","<p style=""font-size:30px"",lang=""ko"">실험이 끝났습니다</p><p style=""font-size:30px"",lang=""ko"">참가해주셔서 고맙습니다</p>"," ","html-keyboard-response","153","908566","0.0-15.0","","","",""
