"rt","stimulus","response","trial_type","trial_index","time_elapsed","internal_node_id","accuracy","PracticeTest","ConsonantSequence","Grammaticality"
"9939","<p style=""font-size:30px"",lang=""ko"">실험에 오신 것을 환영합니다</p><p lang=""ko"">스페이스바를 누르면 다음 페이지로 넘어갑니다</p>"," ","html-keyboard-response","0","9941","0.0-0.0","","","",""
"1500","<p style=""font-size:30px"",lang=""ko"">해드폰을 본인에게 잘 맞게 착용하세요</p><p lang=""ko"">스페이스바를 누르면 다음 페이지로 넘어갑니다</p>"," ","html-keyboard-response","1","11442","0.0-1.0","","","",""
"5320","<p style=""font-size:30px"",lang=""ko"">이 실험에서는 새로 만든 한국 단어를 들으실 겁니다</p><p style=""font-size:30px"",lang=""ko"">단어를 들리는대로 쓰세요. 그런 다음 그 단어가 한국어 단어로 가능한지 평가하세요</p><p lang=""ko"">스페이스바를 누르면 다음 페이지로 넘어갑니다</p>"," ","html-keyboard-response","2","16762","0.0-2.0","","","",""
"1570","<p style=""font-size:30px"",lang=""ko"">원래 있는 단어로 예를 들어 봅시다</p><p lang=""ko"">스페이스바를 누르면 다음 페이지로 넘어갑니다</p>"," ","html-keyboard-response","3","18333","0.0-3.0","","","",""
"7711","PracticeRecordings/kom_bear.wav","0","audio-button-response","4","26078","0.0-4.0","","","",""
"1879","<p style=""font-size:30px"",lang=""ko"">이제 직접 단어를 듣고 쓰는 연습을 해봅시다. </p><p style=""font-size:30px"",lang=""ko"">스페이스바를 누르면 다음 페이지로 넘어갑니다</p>"," ","html-keyboard-response","5","27958","0.0-5.0","","","",""
"4196","PracticeRecordings/kirin_giraffe.wav","0","audio-button-response","6","32176","0.0-6.0-0.0","","","",""
"10823","kirin_giraffe","{""P0_Q0"":""ㄱ,ㅣ,ㄹ,ㅣ,ㄴ""}","survey","7","43035","0.0-6.0-1.0","[]","practice","NA","TRUE"
"1709","<p style=""font-size:30px"",lang=""ko"">방금 들으신 단어는 ""ㄱ,ㅣ,ㄹ,ㅣ,ㄴ"" 이라고 쓰시면 됩니다</p><p lang=""ko"">스페이스바를 누르면 다음 페이지로 넘어갑니다</p>"," ","html-keyboard-response","8","44745","0.0-6.0-2.0","","","",""
"1644","PracticeRecordings/saca_lion.wav","0","audio-button-response","9","46412","0.0-6.0-0.1","","","",""
"4741","saca_lion","{""P0_Q0"":""ㅅ,ㅏ,ㅈ,ㅏ""}","survey","10","51161","0.0-6.0-1.1","[]","practice","NA","FALSE"
"1399","<p style=""font-size:30px"",lang=""ko"">방금 들으신 단어는 ""ㅅ,ㅏ,ㅈ,ㅏ"" 라고 쓰시면 됩니다</p><p lang=""ko"">스페이스바를 누르면 다음 페이지로 넘어갑니다</p>"," ","html-keyboard-response","11","52561","0.0-6.0-2.1","","","",""
"2784","PracticeRecordings/saseum_deer.wav","0","audio-button-response","12","55367","0.0-6.0-0.2","","","",""
"5504","saseum_deer","{""P0_Q0"":""ㅅ,ㅏ,ㅅ,ㅡ,ㅁ""}","survey","13","60879","0.0-6.0-1.2","[]","practice","NA","FALSE"
"792","<p style=""font-size:30px"",lang=""ko"">방금 들으신 단어는 ""ㅅ,ㅏ,ㅅ,ㅡ,ㅁ""이라고 쓰시면 됩니다</p><p lang=""ko"">스페이스바를 누르면 다음 페이지로 넘어갑니다</p>"," ","html-keyboard-response","14","61672","0.0-6.0-2.2","","","",""
"1437","PracticeRecordings/thokki_rabbit.wav","0","audio-button-response","15","63134","0.0-6.0-0.3","","","",""
"16306","thokki_rabbit","{""P0_Q0"":""ㅌ,ㅗ,ㄲ,ㅣ""}","survey","16","79448","0.0-6.0-1.3","[]","practice","NA","FALSE"
"1065","<p style=""font-size:30px"",lang=""ko"">방금 들으신 단어는 ""ㅌ,ㅗ,ㄲ,ㅣ"" 라고 쓰시면 됩니다</p><p lang=""ko"">스페이스바를 누르면 다음 페이지로 넘어갑니다</p>"," ","html-keyboard-response","17","80514","0.0-6.0-2.3","","","",""
"2344","<p style=""font-size:30px"",lang=""ko"">이제 만든 단어로 연습해봅시다.</p><p lang=""ko"">스페이스바를 누르면 다음 페이지로 넘어갑니다</p>"," ","html-keyboard-response","18","82858","0.0-7.0","","","",""
"3509","PracticeRecordings/snen.wav","0","audio-button-response","19","86391","0.0-8.0-0.0","","","",""
"6643","snen","{""P0_Q0"":""ㅅ,ㅡ,ㄴ,ㅔ,ㄴ""}","survey","20","93042","0.0-8.0-1.0","[]","practice","NA","TRUE"
"6334","<p style=""font-size:30px"",lang=""ko"">들으신 단어는 <br> ""ㅅ,ㅡ,ㄴ,ㅐ,ㄴ""  ""ㅅ,ㅡ,ㄴ,ㅐ"" ""ㅅ,ㄴ,ㅐ,ㄴ (""으"" 소리가 안 들리는 경우)"" 등 <br> 사람에 따라 다양하게 들릴 수 있습니다 <br> 본인에게 들리는대로 쓰시면 됩니다.</p><p lang=""ko"">스페이스바를 누르면 다음 페이지로 넘어갑니다</p>"," ","html-keyboard-response","21","99377","0.0-8.0-2.0","","","",""
"1922","PracticeRecordings/phrak.wav","0","audio-button-response","22","101321","0.0-8.0-0.1","","","",""
"5691","phrak","{""P0_Q0"":""ㅍ,ㅡ,ㄹ,ㅏ,ㄱ""}","survey","23","107019","0.0-8.0-1.1","[]","practice","NA","FALSE"
"2542","<p style=""font-size:30px"",lang=""ko"">들으신 단어는 <br> ""ㅍ,ㅡ,ㄹ,ㅏ,ㄱ"" ""ㅍ,ㅡ,ㄹ,ㅏ,ㅅ"" ""ㅋ,ㅡ,ㄹ,ㅏ,ㄱ"" ""ㅍ,ㄹ,ㅏ,ㄱ (""으"" 소리가 안 들리는 경우)"" 등 <br> 사람에 따라 다양하게 들릴 수 있습니다 <br> 본인에게 들리는대로 쓰시면 됩니다.</p><p lang=""ko"">스페이스바를 누르면 다음 페이지로 넘어갑니다</p>"," ","html-keyboard-response","24","109562","0.0-8.0-2.1","","","",""
"2810","PracticeRecordings/chka.wav","0","audio-button-response","25","112393","0.0-8.0-0.2","","","",""
"4580","chka","{""P0_Q0"":""ㅅ,ㅡ,ㅋ,ㅏ""}","survey","26","116980","0.0-8.0-1.2","[]","practice","NA","FALSE"
"3364","<p style=""font-size:30px"",lang=""ko"">들으신 단어는 ""ㅊ,ㅣ,ㄱ,ㅏ"", ""ㅊ,ㅡ,ㄱ,ㅏ"", ""ㅊ,ㄱ,ㅏ"", ""ㅊ,ㅟ,ㄱ,ㅏ"" 등 <br> 사람에 따라 다양하게 들릴 수 있습니다. <br> 본인에게 들리는대로 쓰시면 됩니다.</p><p lang=""ko"">스페이스바를 누르면 다음 페이지로 넘어갑니다</p>"," ","html-keyboard-response","27","120345","0.0-8.0-2.2","","","",""
"4213",""," ","html-keyboard-response","28","124558","0.0-9.0","","","",""
"2743","<p style=""font-size:30px"",lang=""ko"">이제 실험을 시작하겠습니다.</p><p style=""font-size:30px"",lang=""ko"">실전에서는 각각의 만든 단어를 한 번씩만 들을 수 있습니다.</p>"," ","html-keyboard-response","29","127301","0.0-10.0","","","",""
"2611","<p style=""font-size:30px"",lang=""ko"">단어를 풀어 쓰신 후에 그 단어가 한국어로 가능한 단어인지 평가해주세요</p><p lang=""ko"">스페이스바를 누르면 다음 페이지로 넘어갑니다</p>"," ","html-keyboard-response","30","129913","0.0-11.0","","","",""
"2020","TestRecordings/knot.wav","0","audio-button-response","31","131955","0.0-12.0-0.0","","","",""
"19929","","{""P0_Q0"":""ㄲ,ㅡ,ㄴ,ㅗ,ㅊ"",""P0_Q1"":""(불가능)""}","survey","32","151899","0.0-12.0-1.0","[]","","",""
"2306","TestRecordings/kmamun.wav","0","audio-button-response","33","154231","0.0-12.0-0.1","","","",""
"7684","","{""P0_Q0"":""ㄱ,ㅡ,ㄴ,ㅏ,ㅁ,ㅜ,ㄴ"",""P0_Q1"":""(가능)""}","survey","34","161925","0.0-12.0-1.1","[]","","",""
"1279","TestRecordings/cwit.wav","0","audio-button-response","35","163227","0.0-12.0-0.2","","","",""
"17077","","{""P0_Q0"":""ㅈ,ㅟ,ㅅ"",""P0_Q1"":""(가능)""}","survey","36","180312","0.0-12.0-1.2","[]","","",""
"2032","TestRecordings/mphosak.wav","0","audio-button-response","37","182365","0.0-12.0-0.3","","","",""
"13834","","{""P0_Q0"":""ㅇ,ㅡ,ㅁ,ㅍ,ㅗ,ㅅ,ㅏ,ㄱ"",""P0_Q1"":""(가능)""}","survey","38","196206","0.0-12.0-1.3","[]","","",""
"1904","TestRecordings/chwikhong.wav","0","audio-button-response","39","198134","0.0-12.0-0.4","","","",""
"6332","","{""P0_Q0"":""ㅊ,ㅣ,ㅋ,ㅗ,ㅇ"",""P0_Q1"":""(가능)""}","survey","40","204473","0.0-12.0-1.4","[]","","",""
"1584","TestRecordings/khwichon.wav","0","audio-button-response","41","206081","0.0-12.0-0.5","","","",""
"8388","","{""P0_Q0"":""ㅋ,ㅟ,ㅊ,ㅗ,ㄴ"",""P0_Q1"":""(가능)""}","survey","42","214476","0.0-12.0-1.5","[]","","",""
"1379","TestRecordings/chunak.wav","0","audio-button-response","43","215876","0.0-12.0-0.6","","","",""
"7603","","{""P0_Q0"":""ㅊ,ㅜ,ㄴ,ㅏ,ㄱ"",""P0_Q1"":""(가능)""}","survey","44","223487","0.0-12.0-1.6","[]","","",""
"1426","TestRecordings/khwipot.wav","0","audio-button-response","45","224936","0.0-12.0-0.7","","","",""
"7485","","{""P0_Q0"":""ㅌ,ㅟ,ㅂ,ㅗ,ㅅ"",""P0_Q1"":""(가능)""}","survey","46","232428","0.0-12.0-1.7","[]","","",""
"2913","TestRecordings/khut.wav","0","audio-button-response","47","235363","0.0-12.0-0.8","","","",""
"14793","","{""P0_Q0"":""ㅋ,ㅜ,ㅅ"",""P0_Q1"":""(불가능)""}","survey","48","250164","0.0-12.0-1.8","[]","","",""
"3168","TestRecordings/mkit.wav","0","audio-button-response","49","253355","0.0-12.0-0.9","","","",""
"10450","","{""P0_Q0"":""ㅁ,ㅡ,ㄱ,ㅣ,ㅅ"",""P0_Q1"":""(불가능)""}","survey","50","263814","0.0-12.0-1.9","[]","","",""
"2107","TestRecordings/thnok.wav","0","audio-button-response","51","265943","0.0-12.0-0.10","","","",""
"9181","","{""P0_Q0"":""ㅍ,ㅡ,ㄴ,ㅗ,ㄱ"",""P0_Q1"":""(불가능)""}","survey","52","275131","0.0-12.0-1.10","[]","","",""
"1642","TestRecordings/khwiphing.wav","0","audio-button-response","53","276795","0.0-12.0-0.11","","","",""
"6576","","{""P0_Q0"":""ㅋ,ㅟ,ㅍ,ㅣ,ㅇ"",""P0_Q1"":""(불가능)""}","survey","54","283377","0.0-12.0-1.11","[]","","",""
"1828","TestRecordings/cwam.wav","0","audio-button-response","55","285228","0.0-12.0-0.12","","","",""
"5394","","{""P0_Q0"":""ㅈ,ㅘ,ㅁ"",""P0_Q1"":""(가능)""}","survey","56","290629","0.0-12.0-1.12","[]","","",""
"2664","TestRecordings/khithuk.wav","0","audio-button-response","57","293315","0.0-12.0-0.13","","","",""
"8110","","{""P0_Q0"":""ㅊ,ㅣ,ㅌ,ㅜ,ㄱ"",""P0_Q1"":""(불가능)""}","survey","58","301432","0.0-12.0-1.13","[]","","",""
"2399","TestRecordings/thwam.wav","0","audio-button-response","59","303853","0.0-12.0-0.14","","","",""
"6186","","{""P0_Q0"":""ㅌ,ㅘ,ㅁ"",""P0_Q1"":""(가능)""}","survey","60","310046","0.0-12.0-1.14","[]","","",""
"2316","TestRecordings/mphutam.wav","0","audio-button-response","61","312385","0.0-12.0-0.15","","","",""
"8103","","{""P0_Q0"":""ㅇ,ㅜ,ㅁ,ㅍ,ㅡ,ㄷ,ㅏ,ㅁ"",""P0_Q1"":""(가능)""}","survey","62","320495","0.0-12.0-1.15","[]","","",""
"7569","TestRecordings/nkat.wav","0","audio-button-response","63","328086","0.0-12.0-0.16","","","",""
"6471","","{""P0_Q0"":""ㅇ,ㅡ,ㅇ,ㄱ,ㅏ,ㅅ"",""P0_Q1"":""(불가능)""}","survey","64","334564","0.0-12.0-1.16","[]","","",""
"2496","TestRecordings/twamot.wav","0","audio-button-response","65","337083","0.0-12.0-0.17","","","",""
"9402","","{""P0_Q0"":""ㄷ,ㅘ,ㅂ,ㅗ,ㅅ"",""P0_Q1"":""(불가능)""}","survey","66","346493","0.0-12.0-1.17","[]","","",""
"1635","TestRecordings/nthaking.wav","0","audio-button-response","67","348149","0.0-12.0-0.18","","","",""
"12196","","{""P0_Q0"":""ㅇ,ㅡ,ㅇ,ㅌ,ㅏ,ㄱ,ㅣ,ㅇ"",""P0_Q1"":""(불가능)""}","survey","68","360352","0.0-12.0-1.18","[]","","",""
"1268","TestRecordings/chakot.wav","0","audio-button-response","69","361641","0.0-12.0-0.19","","","",""
"7686","","{""P0_Q0"":""ㅊ,ㅑ,ㄱ,ㅗ,ㅅ"",""P0_Q1"":""(불가능)""}","survey","70","369334","0.0-12.0-1.19","[]","","",""
"1412","TestRecordings/tmichut.wav","0","audio-button-response","71","370768","0.0-12.0-0.20","","","",""
"8050","","{""P0_Q0"":""ㅁ,ㅣ,ㅌ,ㅠ,ㅅ"",""P0_Q1"":""(불가능)""}","survey","72","378825","0.0-12.0-1.20","[]","","",""
"1204","TestRecordings/mphuk.wav","0","audio-button-response","73","380051","0.0-12.0-0.21","","","",""
"6743","","{""P0_Q0"":""ㅇ,ㅡ,ㅁ,ㅍ,ㅜ,ㄱ"",""P0_Q1"":""(가능)""}","survey","74","386800","0.0-12.0-1.21","[]","","",""
"1509","TestRecordings/nkhuchom.wav","0","audio-button-response","75","388332","0.0-12.0-0.22","","","",""
"12028","","{""P0_Q0"":""ㅇ,ㅡ,ㅇ,ㅋ,ㅜ,ㅊ,ㅓ,ㅁ"",""P0_Q1"":""(가능)""}","survey","76","400367","0.0-12.0-1.22","[]","","",""
"1434","TestRecordings/tnunong.wav","0","audio-button-response","77","401823","0.0-12.0-0.23","","","",""
"7275","","{""P0_Q0"":""ㅌ,ㅡ,ㄴ,ㅜ,ㄴ,ㅗ,ㅇ"",""P0_Q1"":""(불가능)""}","survey","78","409105","0.0-12.0-1.23","[]","","",""
"1296","TestRecordings/chnuk.wav","0","audio-button-response","79","410423","0.0-12.0-0.24","","","",""
"7450","","{""P0_Q0"":""ㅅ,ㅡ,ㄴ,ㅜ,ㄱ"",""P0_Q1"":""(가능)""}","survey","80","417880","0.0-12.0-1.24","[]","","",""
"1829","TestRecordings/tin.wav","0","audio-button-response","81","419732","0.0-12.0-0.25","","","",""
"4574","","{""P0_Q0"":""ㄷ,ㅣ,ㄴ"",""P0_Q1"":""(가능)""}","survey","82","424314","0.0-12.0-1.25","[]","","",""
"1051","TestRecordings/khin.wav","0","audio-button-response","83","425388","0.0-12.0-0.26","","","",""
"5292","","{""P0_Q0"":""ㅌ,ㅣ,ㄴ"",""P0_Q1"":""(가능)""}","survey","84","430685","0.0-12.0-1.26","[]","","",""
"2049","TestRecordings/khnothik.wav","0","audio-button-response","85","432758","0.0-12.0-0.27","","","",""
"9889","","{""P0_Q0"":""ㅋ,ㅡ,ㄴ,ㅗ,ㅅ,ㅌ,ㅣ,ㄱ"",""P0_Q1"":""(불가능)""}","survey","86","442654","0.0-12.0-1.27","[]","","",""
"1269","TestRecordings/mup.wav","0","audio-button-response","87","443943","0.0-12.0-0.28","","","",""
"5177","","{""P0_Q0"":""ㅁ,ㅜ,ㅅ"",""P0_Q1"":""(가능)""}","survey","88","449127","0.0-12.0-1.28","[]","","",""
"1149","TestRecordings/chumik.wav","0","audio-button-response","89","450299","0.0-12.0-0.29","","","",""
"5241","","{""P0_Q0"":""ㅊ,ㅠ,ㅁ,ㅣ,ㄱ"",""P0_Q1"":""(가능)""}","survey","90","455546","0.0-12.0-1.29","[]","","",""
"1217","TestRecordings/phmiman.wav","0","audio-button-response","91","456787","0.0-12.0-0.30","","","",""
"6422","","{""P0_Q0"":""ㅍ,ㅡ,ㅁ,ㅣ,ㅁ,ㅏ,ㄴ"",""P0_Q1"":""(불가능)""}","survey","92","463215","0.0-12.0-1.30","[]","","",""
"1121","TestRecordings/chmop.wav","0","audio-button-response","93","464358","0.0-12.0-0.31","","","",""
"8784","","{""P0_Q0"":""ㅊ,ㅡ,ㄴ,ㅗ,ㄱ"",""P0_Q1"":""(불가능)""}","survey","94","473149","0.0-12.0-1.31","[]","","",""
"1100","TestRecordings/ntakhip.wav","0","audio-button-response","95","474271","0.0-12.0-0.32","","","",""
"16036","","{""P0_Q0"":""ㅇ,ㅡ,ㅇ,ㄷ,ㅏ,ㅅ,ㅋ,ㅣ"",""P0_Q1"":""(가능)""}","survey","96","490314","0.0-12.0-1.32","[]","","",""
"1148","TestRecordings/cmoman.wav","0","audio-button-response","97","491484","0.0-12.0-0.33","","","",""
"8222","","{""P0_Q0"":""ㅊ,ㅡ,ㄴ,ㅗ,ㅁ,ㅏ,ㄴ"",""P0_Q1"":""(가능)""}","survey","98","499712","0.0-12.0-1.33","[]","","",""
"5268","TestRecordings/thwikhip.wav","0","audio-button-response","99","505002","0.0-12.0-0.34","","","",""
"7576","","{""P0_Q0"":""ㅌ,ㅟ,ㅋ,ㅣ,ㅅ"",""P0_Q1"":""(불가능)""}","survey","100","512585","0.0-12.0-1.34","[]","","",""
"1330","TestRecordings/twaput.wav","0","audio-button-response","101","513936","0.0-12.0-0.35","","","",""
"7852","","{""P0_Q0"":""ㄷ,ㅘ,ㅂ,ㅜ,ㅅ"",""P0_Q1"":""(불가능)""}","survey","102","521796","0.0-12.0-1.35","[]","","",""
"1316","TestRecordings/tup.wav","0","audio-button-response","103","523132","0.0-12.0-0.36","","","",""
"3998","","{""P0_Q0"":""ㄷ,ㅜ,ㅂ"",""P0_Q1"":""(가능)""}","survey","104","527138","0.0-12.0-1.36","[]","","",""
"1197","TestRecordings/twan.wav","0","audio-button-response","105","528357","0.0-12.0-0.37","","","",""
"4284","","{""P0_Q0"":""ㄷ,ㅘ,ㄴ"",""P0_Q1"":""(가능)""}","survey","106","532647","0.0-12.0-1.37","[]","","",""
"1967","TestRecordings/nchocip.wav","0","audio-button-response","107","534636","0.0-12.0-0.38","","","",""
"8408","","{""P0_Q0"":""ㅇ,ㅡ,ㅁ,ㅊ,ㅛ,ㅈ,ㅣ,ㅂ"",""P0_Q1"":""(불가능)""}","survey","108","543050","0.0-12.0-1.38","[]","","",""
"1219","TestRecordings/taphik.wav","0","audio-button-response","109","544291","0.0-12.0-0.39","","","",""
"7074","","{""P0_Q0"":""ㄷ,ㅏ,ㅍ,ㅣ,ㄱ"",""P0_Q1"":""(가능)""}","survey","110","551372","0.0-12.0-1.39","[]","","",""
"1662","TestRecordings/chnupot.wav","0","audio-button-response","111","553056","0.0-12.0-0.40","","","",""
"7180","","{""P0_Q0"":""ㅊ,ㅡ,ㄴ,ㅜ,ㅂ,ㅗ,ㅅ"",""P0_Q1"":""(가능)""}","survey","112","560243","0.0-12.0-1.40","[]","","",""
"1392","TestRecordings/swikhat.wav","0","audio-button-response","113","561657","0.0-12.0-0.41","","","",""
"7110","","{""P0_Q0"":""ㅅ,ㅟ,ㅋ,ㅏ,ㅅ"",""P0_Q1"":""(불가능)""}","survey","114","568773","0.0-12.0-1.41","[]","","",""
"1037","TestRecordings/pmochun.wav","0","audio-button-response","115","569832","0.0-12.0-0.42","","","",""
"7985","","{""P0_Q0"":""ㄱ,ㅡ,ㄴ,ㅜ,ㅊ,ㅜ,ㄴ"",""P0_Q1"":""(불가능)""}","survey","116","577823","0.0-12.0-1.42","[]","","",""
"1586","TestRecordings/phnokhing.wav","0","audio-button-response","117","579432","0.0-12.0-0.43","","","",""
"9240","","{""P0_Q0"":""ㅍ,ㅡ,ㄴ,ㅗ,ㅋ,ㅣ,ㅇ"",""P0_Q1"":""(불가능)""}","survey","118","588679","0.0-12.0-1.43","[]","","",""
"995","TestRecordings/mthik.wav","0","audio-button-response","119","589698","0.0-12.0-0.44","","","",""
"6143","","{""P0_Q0"":""ㅇ,ㅡ,ㅁ,ㅍ,ㅣ,ㄱ"",""P0_Q1"":""(불가능)""}","survey","120","595847","0.0-12.0-1.44","[]","","",""
"1830","TestRecordings/twak.wav","0","audio-button-response","121","597699","0.0-12.0-0.45","","","",""
"4018","","{""P0_Q0"":""ㄷ,ㅘ,ㄱ"",""P0_Q1"":""(불가능)""}","survey","122","601724","0.0-12.0-1.45","[]","","",""
"1142","TestRecordings/nakhit.wav","0","audio-button-response","123","602888","0.0-12.0-0.46","","","",""
"7699","","{""P0_Q0"":""ㄴ,ㅏ,ㄱ,ㅋ,ㅣ,ㅅ"",""P0_Q1"":""(불가능)""}","survey","124","610594","0.0-12.0-1.46","[]","","",""
"1835","TestRecordings/mpukham.wav","0","audio-button-response","125","612452","0.0-12.0-0.47","","","",""
"7102","","{""P0_Q0"":""ㅇ,ㅡ,ㅁ,ㅂ,ㅜ,ㅋ,ㅏ,ㄴ"",""P0_Q1"":""(불가능)""}","survey","126","619560","0.0-12.0-1.47","[]","","",""
"1260","TestRecordings/sikot.wav","0","audio-button-response","127","620842","0.0-12.0-0.48","","","",""
"6110","","{""P0_Q0"":""ㅅ,ㅣ,ㄱ,ㅗ,ㅅ"",""P0_Q1"":""(가능)""}","survey","128","626959","0.0-12.0-1.48","[]","","",""
"1148","TestRecordings/npucap.wav","0","audio-button-response","129","628129","0.0-12.0-0.49","","","",""
"9269","","{""P0_Q0"":""ㅇ,ㅡ,ㅁ,ㅂ,ㅜ,ㅈ,ㅏ,ㅂ"",""P0_Q1"":""(불가능)""}","survey","130","637404","0.0-12.0-1.49","[]","","",""
"1141","TestRecordings/cnaphin.wav","0","audio-button-response","131","638567","0.0-12.0-0.50","","","",""
"10150","","{""P0_Q0"":""ㅊ,ㅡ,ㄴ,ㅏ,ㅍ,ㅣ,ㄴ"",""P0_Q1"":""(불가능)""}","survey","132","648724","0.0-12.0-1.50","[]","","",""
"1079","TestRecordings/khnap.wav","0","audio-button-response","133","649826","0.0-12.0-0.51","","","",""
"5629","","{""P0_Q0"":""ㅋ,ㅡ,ㄴ,ㅏ,ㅂ"",""P0_Q1"":""(불가능)""}","survey","134","655462","0.0-12.0-1.51","[]","","",""
"2121","TestRecordings/thinok.wav","0","audio-button-response","135","657605","0.0-12.0-0.52","","","",""
"6414","","{""P0_Q0"":""ㅌ,ㅣ,ㄴ,ㅗ,ㄱ"",""P0_Q1"":""(가능)""}","survey","136","664025","0.0-12.0-1.52","[]","","",""
"1398","TestRecordings/nwimik.wav","0","audio-button-response","137","665444","0.0-12.0-0.53","","","",""
"6713","","{""P0_Q0"":""ㄴ,ㅟ,ㅁ,ㅣ,ㄱ"",""P0_Q1"":""(불가능)""}","survey","138","672164","0.0-12.0-1.53","[]","","",""
"1814","TestRecordings/chwiphin.wav","0","audio-button-response","139","674000","0.0-12.0-0.54","","","",""
"6228","","{""P0_Q0"":""ㅊ,ㅟ,ㅍ,ㅣ,ㄴ"",""P0_Q1"":""(불가능)""}","survey","140","680235","0.0-12.0-1.54","[]","","",""
"1340","TestRecordings/mtukin.wav","0","audio-button-response","141","681598","0.0-12.0-0.55","","","",""
"8887","","{""P0_Q0"":""ㅇ,ㅡ,ㅁ,ㄷ,ㅜ,ㄱ,ㅣ,ㄴ"",""P0_Q1"":""(불가능)""}","survey","142","690492","0.0-12.0-1.55","[]","","",""
"1084","TestRecordings/nthimong.wav","0","audio-button-response","143","691600","0.0-12.0-0.56","","","",""
"8720","","{""P0_Q0"":""ㅇ,ㅡ,ㅁ,ㅌ,ㅣ,ㅁ,ㅗ,ㅇ"",""P0_Q1"":""(불가능)""}","survey","144","700327","0.0-12.0-1.56","[]","","",""
"1281","TestRecordings/thukhat.wav","0","audio-button-response","145","701630","0.0-12.0-0.57","","","",""
"6372","","{""P0_Q0"":""ㅌ,ㅜ,ㅋ,ㅏ,ㅅ"",""P0_Q1"":""(가능)""}","survey","146","708009","0.0-12.0-1.57","[]","","",""
"1039","TestRecordings/tikut.wav","0","audio-button-response","147","709069","0.0-12.0-0.58","","","",""
"6066","","{""P0_Q0"":""ㄷ,ㅟ,ㄱ,ㅜ,ㅅ"",""P0_Q1"":""(가능)""}","survey","148","715142","0.0-12.0-1.58","[]","","",""
"1309","TestRecordings/nchot.wav","0","audio-button-response","149","716472","0.0-12.0-0.59","","","",""
"7512","","{""P0_Q0"":""ㅇ,ㅡ,ㅁ,ㅊ,ㅗ,ㅅ"",""P0_Q1"":""(불가능)""}","survey","150","723992","0.0-12.0-1.59","[]","","",""
"1797",""," ","html-keyboard-response","151","725790","0.0-13.0","","","",""
"35611","","{""P0_Q0"":""23"",""P0_Q1"":""남"",""P0_Q2"":""7"",""P0_Q3"":""없습니다."",""P0_Q4"":""중국어"",""P0_Q5"":""18살, 1년"",""P0_Q6"":""없습니다""}","survey","152","761409","0.0-14.0","[]","","",""
"731","<p style=""font-size:30px"",lang=""ko"">실험이 끝났습니다</p><p style=""font-size:30px"",lang=""ko"">참가해주셔서 고맙습니다</p>"," ","html-keyboard-response","153","762141","0.0-15.0","","","",""
