﻿"Subject","rt","stimulus","TranscriptionKorean","Rating","CodingForStimulus","responseType","Romanisation","Age","Gender","AgeOfL2Onset","LivedinEnglishSpeakingCountry","OtherForeignLanguages","AgeOfOtherL2Onset","DescribeOtherL2Experience"
"k3b_v2_002",24145,"nkhuchom","ㅡ,ㅋ,ㅜ,ㅊ,ㅗ,ㅁ","""(불가능)""",1,"ResponseActual","eu,kh,u,ch,o,m",18,"여",NA,"3년"," 중1-중3","P0_Q4:네덜란드어"," 스페인어 "
"k3b_v2_002",12009,"nwimik","ㄴ,ㅠ,ㅇ,ㅣ,ㅁ,ㅣ,ㄱ","""(불가능)""",2,"ResponseActual","n,yu,#,i,m,i,k",18,"여",NA,"3년"," 중1-중3","P0_Q4:네덜란드어"," 스페인어 "
"k3b_v2_002",6837,"khut","ㅋ,ㅜ,ㅅ","""(가능)""",3,"ResponseActual","kh,u,s",18,"여",NA,"3년"," 중1-중3","P0_Q4:네덜란드어"," 스페인어 "
"k3b_v2_002",9497,"kmamun","ㅋ,ㅡ,ㅁ,ㅏ,ㅁ,ㅜ,ㄴ","""(불가능)""",4,"ResponseActual","kh,eu,m,a,m,u,n",18,"여",NA,"3년"," 중1-중3","P0_Q4:네덜란드어"," 스페인어 "
"k3b_v2_002",7776,"chwikhong","ㅊ,ㅜ,ㅣ,ㅋ,ㅗ,ㅇ","""(가능)""",5,"ResponseActual","ch,u,i,kh,o,ng",18,"여",NA,"3년"," 중1-중3","P0_Q4:네덜란드어"," 스페인어 "
"k3b_v2_002",19213,"cnaphin","ㅈ,ㅡ,ㄴ,ㅏ,ㅍ,ㅣ,ㄴ","""(불가능)""",6,"ResponseActual","c,eu,n,a,ph,i,n",18,"여",NA,"3년"," 중1-중3","P0_Q4:네덜란드어"," 스페인어 "
"k3b_v2_002",9192,"twaput","ㄷ,ㅗ,ㅏ,ㅂ,ㅜ,ㅅ","""(불가능)""",7,"ResponseActual","t,o,a,p,u,s",18,"여",NA,"3년"," 중1-중3","P0_Q4:네덜란드어"," 스페인어 "
"k3b_v2_002",13121,"phmiman","ㅂ,ㅡ,ㄴ,ㅣ,ㅁ,ㅏ,ㄴ","""(불가능)""",8,"ResponseActual","p,eu,n,i,m,a,n",18,"여",NA,"3년"," 중1-중3","P0_Q4:네덜란드어"," 스페인어 "
"k3b_v2_002",6511,"twak","ㄷ,ㅗ,ㅏ,ㅅ","""(가능)""",9,"ResponseActual","t,o,a,s",18,"여",NA,"3년"," 중1-중3","P0_Q4:네덜란드어"," 스페인어 "
"k3b_v2_002",7842,"thwikhip","ㅌ,ㅜ,ㅣ,ㅋ,ㅣ,ㅂ","""(불가능)""",10,"ResponseActual","th,u,i,kh,i,p",18,"여",NA,"3년"," 중1-중3","P0_Q4:네덜란드어"," 스페인어 "
"k3b_v2_002",9078,"nchot","ㅁ,ㅡ,ㅊ,ㅗ,ㅅ","""(불가능)""",11,"ResponseActual","m,eu,ch,o,s",18,"여",NA,"3년"," 중1-중3","P0_Q4:네덜란드어"," 스페인어 "
"k3b_v2_002",8342,"nthimong","ㅁ,ㅡ,ㅌ,ㅣ,ㅁ,ㅗ,ㅇ","""(불가능)""",12,"ResponseActual","m,eu,th,i,m,o,ng",18,"여",NA,"3년"," 중1-중3","P0_Q4:네덜란드어"," 스페인어 "
"k3b_v2_002",6156,"thukhat","ㅌ,ㅜ,ㅋ,ㅏ,ㅅ","""(가능)""",13,"ResponseActual","th,u,kh,a,s",18,"여",NA,"3년"," 중1-중3","P0_Q4:네덜란드어"," 스페인어 "
"k3b_v2_002",7377,"cwam","ㅈ,ㅗ,ㅏ,ㅁ","""(가능)""",14,"ResponseActual","c,o,a,m",18,"여",NA,"3년"," 중1-중3","P0_Q4:네덜란드어"," 스페인어 "
"k3b_v2_002",11232,"cmoman","ㅈ,ㅡ,ㅁ,ㅗ,ㅁ,ㅏ,ㄴ","""(가능)""",15,"ResponseActual","c,eu,m,o,m,a,n",18,"여",NA,"3년"," 중1-중3","P0_Q4:네덜란드어"," 스페인어 "
"k3b_v2_002",8218,"nkat","ㅇ,ㅡ,ㅇ,ㄱ,ㅏ,ㅅ","""(불가능)""",16,"ResponseActual","#,eu,ng,k,a,s",18,"여",NA,"3년"," 중1-중3","P0_Q4:네덜란드어"," 스페인어 "
"k3b_v2_002",7649,"swikhat","ㅅ,ㅣ,ㅋ,ㅏ,ㅅ","""(가능)""",17,"ResponseActual","s,i,kh,a,s",18,"여",NA,"3년"," 중1-중3","P0_Q4:네덜란드어"," 스페인어 "
"k3b_v2_002",6760,"thinok","ㅌ,ㅣ,ㄴ,ㅗ,ㄱ","""(가능)""",18,"ResponseActual","th,i,n,o,k",18,"여",NA,"3년"," 중1-중3","P0_Q4:네덜란드어"," 스페인어 "
"k3b_v2_002",10171,"tmichut","ㄷ,ㅡ,ㅁ,ㅣ,ㅊ,ㅜ,ㅅ","""(불가능)""",19,"ResponseActual","t,eu,m,i,ch,u,s",18,"여",NA,"3년"," 중1-중3","P0_Q4:네덜란드어"," 스페인어 "
"k3b_v2_002",11746,"mthik","ㅁ,ㅡ,ㅌ,ㅣ,ㅅ","""(불가능)""",20,"ResponseActual","m,eu,th,i,s",18,"여",NA,"3년"," 중1-중3","P0_Q4:네덜란드어"," 스페인어 "
"k3b_v2_002",6218,"twan","ㄷ,ㅗ,ㅏ,ㄴ","""(가능)""",21,"ResponseActual","t,o,a,n",18,"여",NA,"3년"," 중1-중3","P0_Q4:네덜란드어"," 스페인어 "
"k3b_v2_002",6879,"pmochun","ㅁ,ㅗ,ㅊ,ㅜ,ㄴ","""(불가능)""",22,"ResponseActual","m,o,ch,u,n",18,"여",NA,"3년"," 중1-중3","P0_Q4:네덜란드어"," 스페인어 "
"k3b_v2_002",6607,"thnok","ㅌ,ㅡ,ㄴ,ㅗ,ㅅ","""(불가능)""",23,"ResponseActual","th,eu,n,o,s",18,"여",NA,"3년"," 중1-중3","P0_Q4:네덜란드어"," 스페인어 "
"k3b_v2_002",5774,"chakot","ㅊ,ㅏ,ㄱ,ㅗ,ㅅ","""(가능)""",24,"ResponseActual","ch,a,k,o,s",18,"여",NA,"3년"," 중1-중3","P0_Q4:네덜란드어"," 스페인어 "
"k3b_v2_002",5502,"thwam","ㅌ,ㅗ,ㅏ,ㅁ","""(가능)""",25,"ResponseActual","th,o,a,m",18,"여",NA,"3년"," 중1-중3","P0_Q4:네덜란드어"," 스페인어 "
"k3b_v2_002",7016,"twamot","ㄷ,ㅗ,ㅏ,ㅁ,ㅗ,ㅅ","""(가능)""",26,"ResponseActual","t,o,a,m,o,s",18,"여",NA,"3년"," 중1-중3","P0_Q4:네덜란드어"," 스페인어 "
"k3b_v2_002",8203,"mpukham","ㅇ,ㅡ,ㅂ,ㅗ,ㅋ,ㅏ,ㅁ","""(불가능)""",27,"ResponseActual","#,eu,p,o,kh,a,m",18,"여",NA,"3년"," 중1-중3","P0_Q4:네덜란드어"," 스페인어 "
"k3b_v2_002",7107,"chwiphin","ㅊ,ㅜ,ㅣ,ㅍ,ㅣ,ㄴ","""(가능)""",28,"ResponseActual","ch,u,i,ph,i,n",18,"여",NA,"3년"," 중1-중3","P0_Q4:네덜란드어"," 스페인어 "
"k3b_v2_002",10467,"chnuk","ㅅ,ㅡ,ㄴ,ㅜ,ㅅ","""(불가능)""",29,"ResponseActual","s,eu,n,u,s",18,"여",NA,"3년"," 중1-중3","P0_Q4:네덜란드어"," 스페인어 "
"k3b_v2_002",11702,"mphosak","ㅁ,ㅡ,ㅍ,ㅗ,ㅅ,ㅏ,ㅅ","""(불가능)""",30,"ResponseActual","m,eu,ph,o,s,a,s",18,"여",NA,"3년"," 중1-중3","P0_Q4:네덜란드어"," 스페인어 "
"k3b_v2_002",8516,"chnupot","ㅅ,ㅡ,ㄴ,ㅜ,ㅂ,ㅗ,ㅅ","""(불가능)""",31,"ResponseActual","s,eu,n,u,p,o,s",18,"여",NA,"3년"," 중1-중3","P0_Q4:네덜란드어"," 스페인어 "
"k3b_v2_002",6899,"khwiphing","ㅋ,ㅜ,ㅣ,ㅍ,ㅣ,ㅇ","""(가능)""",32,"ResponseActual","kh,u,i,ph,i,ng",18,"여",NA,"3년"," 중1-중3","P0_Q4:네덜란드어"," 스페인어 "
"k3b_v2_002",10633,"nthaking","ㅇ,ㅡ,ㅌ,ㅏ,ㄱ,ㅣ,ㅇ","""(불가능)""",33,"ResponseActual","#,eu,th,a,k,i,ng",18,"여",NA,"3년"," 중1-중3","P0_Q4:네덜란드어"," 스페인어 "
"k3b_v2_002",7051,"khnothik","ㅋ,ㅡ,ㄴ,ㅗ,ㅌ,ㅣ,ㄱ","""(가능)""",34,"ResponseActual","kh,eu,n,o,th,i,k",18,"여",NA,"3년"," 중1-중3","P0_Q4:네덜란드어"," 스페인어 "
"k3b_v2_002",10367,"mphutam","ㅇ,ㅡ,ㅍ,ㅡ,ㄷ,ㅏ,ㅁ","""(불가능)""",35,"ResponseActual","#,eu,ph,eu,t,a,m",18,"여",NA,"3년"," 중1-중3","P0_Q4:네덜란드어"," 스페인어 "
"k3b_v2_002",8216,"sikot","ㅅ,ㅣ,ㄱ,ㅗ,ㅅ","""(가능)""",36,"ResponseActual","s,i,k,o,s",18,"여",NA,"3년"," 중1-중3","P0_Q4:네덜란드어"," 스페인어 "
"k3b_v2_002",6932,"phnokhing","ㅍ,ㅡ,ㄴ,ㅗ,ㅋ,ㅣ,ㅇ","""(가능)""",37,"ResponseActual","ph,eu,n,o,kh,i,ng",18,"여",NA,"3년"," 중1-중3","P0_Q4:네덜란드어"," 스페인어 "
"k3b_v2_002",6335,"mkit","ㅇ,ㅡ,ㄱ,ㅣ,ㅅ","""(불가능)""",38,"ResponseActual","#,eu,k,i,s",18,"여",NA,"3년"," 중1-중3","P0_Q4:네덜란드어"," 스페인어 "
"k3b_v2_002",3886,"khin","ㅋ,ㅣ,ㄴ","""(가능)""",39,"ResponseActual","kh,i,n",18,"여",NA,"3년"," 중1-중3","P0_Q4:네덜란드어"," 스페인어 "
"k3b_v2_002",6718,"chunak","ㅊ,ㅜ,ㄴ,ㅏ,ㅅ","""(가능)""",40,"ResponseActual","ch,u,n,a,s",18,"여",NA,"3년"," 중1-중3","P0_Q4:네덜란드어"," 스페인어 "
"k3b_v2_002",7570,"mtukin","ㅇ,ㅡ,ㄷ,ㅜ,ㄱ,ㅣ,ㄴ","""(불가능)""",41,"ResponseActual","#,eu,t,u,k,i,n",18,"여",NA,"3년"," 중1-중3","P0_Q4:네덜란드어"," 스페인어 "
"k3b_v2_002",5259,"chumik","ㅊ,ㅜ,ㅁ,ㅣ,ㄱ","""(가능)""",42,"ResponseActual","ch,u,m,i,k",18,"여",NA,"3년"," 중1-중3","P0_Q4:네덜란드어"," 스페인어 "
"k3b_v2_002",4365,"tin","ㄷ,ㅣ,ㄴ","""(가능)""",43,"ResponseActual","t,i,n",18,"여",NA,"3년"," 중1-중3","P0_Q4:네덜란드어"," 스페인어 "
"k3b_v2_002",11112,"npucap","ㅇ,ㅜ,ㅂ,ㅜ,ㅈ,ㅏ,ㅅ","""(불가능)""",44,"ResponseActual","#,u,p,u,c,a,s",18,"여",NA,"3년"," 중1-중3","P0_Q4:네덜란드어"," 스페인어 "
"k3b_v2_002",5893,"tup","ㄷ,ㅜ,ㅂ","""(가능)""",45,"ResponseActual","t,u,p",18,"여",NA,"3년"," 중1-중3","P0_Q4:네덜란드어"," 스페인어 "
"k3b_v2_002",8746,"khwipot","ㅋ,ㅜ,ㅣ,ㅂ,ㅗ,ㅅ","""(가능)""",46,"ResponseActual","kh,u,i,p,o,s",18,"여",NA,"3년"," 중1-중3","P0_Q4:네덜란드어"," 스페인어 "
"k3b_v2_002",9092,"taphik","ㄷ,ㅏ,ㅍ,ㅣ,ㅅ","""(가능)""",47,"ResponseActual","t,a,ph,i,s",18,"여",NA,"3년"," 중1-중3","P0_Q4:네덜란드어"," 스페인어 "
"k3b_v2_002",6530,"khnap","ㅋ,ㅡ,ㄴ,ㅏ,ㅂ","""(가능)""",48,"ResponseActual","kh,eu,n,a,p",18,"여",NA,"3년"," 중1-중3","P0_Q4:네덜란드어"," 스페인어 "
"k3b_v2_002",9442,"tnunong","ㅂ,ㅡ,ㄴ,ㅜ,ㄴ,ㅗ,ㅇ","""(불가능)""",49,"ResponseActual","p,eu,n,u,n,o,ng",18,"여",NA,"3년"," 중1-중3","P0_Q4:네덜란드어"," 스페인어 "
"k3b_v2_002",11410,"ntakhip","ㅇ,ㅡ,ㅇ,ㄷ,ㅏ,ㅂ,ㅋ,ㅣ,ㅂ","""(불가능)""",50,"ResponseActual","#,eu,ng,t,a,p,kh,i,p",18,"여",NA,"3년"," 중1-중3","P0_Q4:네덜란드어"," 스페인어 "
"k3b_v2_002",6155,"nakhit","ㄴ,ㅏ,ㅋ,ㅣ,ㅅ","""(가능)""",51,"ResponseActual","n,a,kh,i,s",18,"여",NA,"3년"," 중1-중3","P0_Q4:네덜란드어"," 스페인어 "
"k3b_v2_002",5490,"knot","ㅋ,ㅡ,ㄴ,ㅗ,ㅅ","""(가능)""",52,"ResponseActual","kh,eu,n,o,s",18,"여",NA,"3년"," 중1-중3","P0_Q4:네덜란드어"," 스페인어 "
"k3b_v2_002",6611,"khwichon","ㅋ,ㅜ,ㅣ,ㅊ,ㅗ,ㄴ","""(가능)""",53,"ResponseActual","kh,u,i,ch,o,n",18,"여",NA,"3년"," 중1-중3","P0_Q4:네덜란드어"," 스페인어 "
"k3b_v2_002",7554,"tikut","ㄷ,ㅜ,ㅣ,ㄱ,ㅜ,ㅅ","""(가능)""",54,"ResponseActual","t,u,i,k,u,s",18,"여",NA,"3년"," 중1-중3","P0_Q4:네덜란드어"," 스페인어 "
"k3b_v2_002",7906,"chmop","ㅅ,ㅡ,ㅁ,ㅗ,ㄱ","""(가능)""",55,"ResponseActual","s,eu,m,o,k",18,"여",NA,"3년"," 중1-중3","P0_Q4:네덜란드어"," 스페인어 "
"k3b_v2_002",6428,"khithuk","ㅋ,ㅜ,ㅣ,ㅌ,ㅜ","""(가능)""",56,"ResponseActual","kh,u,i,th,u",18,"여",NA,"3년"," 중1-중3","P0_Q4:네덜란드어"," 스페인어 "
"k3b_v2_002",3829,"mup","ㅁ,ㅜ,ㅂ","""(가능)""",57,"ResponseActual","m,u,p",18,"여",NA,"3년"," 중1-중3","P0_Q4:네덜란드어"," 스페인어 "
"k3b_v2_002",4739,"mphuk","ㅁ,ㅡ,ㅍ,ㅜ","""(불가능)""",58,"ResponseActual","m,eu,ph,u",18,"여",NA,"3년"," 중1-중3","P0_Q4:네덜란드어"," 스페인어 "
"k3b_v2_002",12840,"nchocip","ㅁ,ㅜ,ㅊ,ㅗ,ㅈ,ㅣ,ㅂ","""(불가능)""",59,"ResponseActual","m,u,ch,o,c,i,p",18,"여",NA,"3년"," 중1-중3","P0_Q4:네덜란드어"," 스페인어 "
"k3b_v2_002",5125,"cwit","ㅈ,ㅜ,ㅣㅅ","""(가능)""",60,"ResponseActual","c,u,is",18,"여",NA,"3년"," 중1-중3","P0_Q4:네덜란드어"," 스페인어 "
"k3b_v2_003",14054,"nthaking","ㄴ,ㅣ,ㅌ,ㅏ,ㄱ,ㅣ,ㅇ","""(가능)""",1,"ResponseActual","n,i,th,a,k,i,ng",20,"남자",NA,"없어요.","일본어","19살 "," 1년"
"k3b_v2_003",5333,"mup","ㄴ,ㅣ,ㅅ","""(가능)""",2,"ResponseActual","n,i,s",20,"남자",NA,"없어요.","일본어","19살 "," 1년"
"k3b_v2_003",9709,"phnokhing","ㅍ,ㅡ,ㄴ,ㅗ,ㅋ,ㅣ,ㅇ","""(가능)""",3,"ResponseActual","ph,eu,n,o,kh,i,ng",20,"남자",NA,"없어요.","일본어","19살 "," 1년"
"k3b_v2_003",10199,"mphuk","ㅇ,ㅡ,ㅁ,ㅍ,ㅜ,ㄱ","""(불가능)""",4,"ResponseActual","#,eu,m,ph,u,k",20,"남자",NA,"없어요.","일본어","19살 "," 1년"
"k3b_v2_003",6494,"mkit","ㅇ,ㅡ,ㅁ,ㄱ,ㅣ,ㅅ","""(불가능)""",5,"ResponseActual","#,eu,m,k,i,s",20,"남자",NA,"없어요.","일본어","19살 "," 1년"
"k3b_v2_003",6660,"tmichut","ㄴ,ㅣ,ㅊ,ㅜ,ㅅ","""(불가능)""",6,"ResponseActual","n,i,ch,u,s",20,"남자",NA,"없어요.","일본어","19살 "," 1년"
"k3b_v2_003",7109,"cwit","ㅈ,ㅟ,ㅅ","""(가능)""",7,"ResponseActual","c,wi,s",20,"남자",NA,"없어요.","일본어","19살 "," 1년"
"k3b_v2_003",5195,"twak","ㄷ,ㅘ,ㄱ","""(가능)""",8,"ResponseActual","t,wa,k",20,"남자",NA,"없어요.","일본어","19살 "," 1년"
"k3b_v2_003",4600,"khin","ㅋ,ㅣ,ㄴ","""(가능)""",9,"ResponseActual","kh,i,n",20,"남자",NA,"없어요.","일본어","19살 "," 1년"
"k3b_v2_003",6181,"twamot","ㄷ,ㅘ,ㅁ,ㅗ,ㅅ","""(가능)""",10,"ResponseActual","t,wa,m,o,s",20,"남자",NA,"없어요.","일본어","19살 "," 1년"
"k3b_v2_003",4466,"sikot","ㅅ,ㅣ,ㄱ,ㅗ,ㅅ","""(가능)""",11,"ResponseActual","s,i,k,o,s",20,"남자",NA,"없어요.","일본어","19살 "," 1년"
"k3b_v2_003",4270,"chumik","ㅊ,ㅜ,ㅁ,ㅣ,ㄱ","""(가능)""",12,"ResponseActual","ch,u,m,i,k",20,"남자",NA,"없어요.","일본어","19살 "," 1년"
"k3b_v2_003",5093,"chmop","ㅊ,ㅡ,ㅁ,ㅗ,ㅂ","""(가능)""",13,"ResponseActual","ch,eu,m,o,p",20,"남자",NA,"없어요.","일본어","19살 "," 1년"
"k3b_v2_003",4596,"chakot","ㅊ,ㅏ,ㄱ,ㅗ,ㅅ","""(가능)""",14,"ResponseActual","ch,a,k,o,s",20,"남자",NA,"없어요.","일본어","19살 "," 1년"
"k3b_v2_003",4204,"thnok","ㅍ,ㅡ,ㄴ,ㅗ,ㅂ","""(가능)""",15,"ResponseActual","ph,eu,n,o,p",20,"남자",NA,"없어요.","일본어","19살 "," 1년"
"k3b_v2_003",4083,"khnap","ㅋ,ㅡ,ㄴ,ㅏ,ㅂ","""(가능)""",16,"ResponseActual","kh,eu,n,a,p",20,"남자",NA,"없어요.","일본어","19살 "," 1년"
"k3b_v2_003",6767,"mphutam","ㅁ,ㅣ,ㅍ,ㅜ,ㄷ,ㅏ,ㅁ","""(불가능)""",17,"ResponseActual","m,i,ph,u,t,a,m",20,"남자",NA,"없어요.","일본어","19살 "," 1년"
"k3b_v2_003",4550,"chunak","ㅊ,ㅜ,ㄴ,ㅏ,ㅋ","""(가능)""",18,"ResponseActual","ch,u,n,a,kh",20,"남자",NA,"없어요.","일본어","19살 "," 1년"
"k3b_v2_003",4704,"chwikhong","ㅊ,ㅟ,ㅋ,ㅗ,ㅇ","""(가능)""",19,"ResponseActual","ch,wi,kh,o,ng",20,"남자",NA,"없어요.","일본어","19살 "," 1년"
"k3b_v2_003",5395,"khwichon","ㅋ,ㅟ,ㅊ,ㅗ,ㄴ","""(가능)""",20,"ResponseActual","kh,wi,ch,o,n",20,"남자",NA,"없어요.","일본어","19살 "," 1년"
"k3b_v2_003",4994,"nthimong","ㄴ,ㅡ,ㅌ,ㅣ,ㅁ,ㅗ,ㅇ","""(불가능)""",21,"ResponseActual","n,eu,th,i,m,o,ng",20,"남자",NA,"없어요.","일본어","19살 "," 1년"
"k3b_v2_003",4706,"swikhat","ㅅ,ㅟ,ㄱ,ㅏ,ㅅ","""(가능)""",22,"ResponseActual","s,wi,k,a,s",20,"남자",NA,"없어요.","일본어","19살 "," 1년"
"k3b_v2_003",5422,"taphik","ㄷ,ㅏ,ㅍ,ㅣ,ㄱ","""(가능)""",23,"ResponseActual","t,a,ph,i,k",20,"남자",NA,"없어요.","일본어","19살 "," 1년"
"k3b_v2_003",5953,"cnaphin","ㅊ,ㅡ,ㄴ,ㅏ,ㅍ,ㅣ,ㄴ","""(가능)""",24,"ResponseActual","ch,eu,n,a,ph,i,n",20,"남자",NA,"없어요.","일본어","19살 "," 1년"
"k3b_v2_003",5057,"khnothik","ㅋ,ㅡ,ㄴ,ㅗ,ㅍ,ㅣ,ㄱ","""(가능)""",25,"ResponseActual","kh,eu,n,o,ph,i,k",20,"남자",NA,"없어요.","일본어","19살 "," 1년"
"k3b_v2_003",10881,"mpukham","ㅁ,ㅡ,ㅂ,ㅜ,ㅋ,ㅏ,ㅁ","""(가능)""",26,"ResponseActual","m,eu,p,u,kh,a,m",20,"남자",NA,"없어요.","일본어","19살 "," 1년"
"k3b_v2_003",6962,"khwipot","ㅋ,ㅟ,ㅂ,ㅗ,ㅅ","""(가능)""",27,"ResponseActual","kh,wi,p,o,s",20,"남자",NA,"없어요.","일본어","19살 "," 1년"
"k3b_v2_003",6686,"twaput","ㄷ,ㅘ,ㅂ,ㅜ,ㅅ","""(가능)""",28,"ResponseActual","t,wa,p,u,s",20,"남자",NA,"없어요.","일본어","19살 "," 1년"
"k3b_v2_003",7990,"kmamun","ㄱ,ㅡ,ㅁ,ㅏ,ㅁ,ㅜ,ㄴ","""(가능)""",29,"ResponseActual","k,eu,m,a,m,u,n",20,"남자",NA,"없어요.","일본어","19살 "," 1년"
"k3b_v2_003",9877,"ntakhip","ㅇ,ㅡ,ㅁ,ㄷ,ㅏ,ㅋ,ㅟ,ㅅ","""(불가능)""",30,"ResponseActual","#,eu,m,t,a,kh,wi,s",20,"남자",NA,"없어요.","일본어","19살 "," 1년"
"k3b_v2_003",8695,"nakhit","ㄴ,ㅏ,ㅋ,ㅟ,ㅅ","""(가능)""",31,"ResponseActual","n,a,kh,wi,s",20,"남자",NA,"없어요.","일본어","19살 "," 1년"
"k3b_v2_003",4925,"twan","ㄷ,ㅘ,ㄴ","""(가능)""",32,"ResponseActual","t,wa,n",20,"남자",NA,"없어요.","일본어","19살 "," 1년"
"k3b_v2_003",5227,"thinok","ㅍ,ㅣ,ㄴ,ㅗ,ㄱ","""(가능)""",33,"ResponseActual","ph,i,n,o,k",20,"남자",NA,"없어요.","일본어","19살 "," 1년"
"k3b_v2_003",5910,"mthik","ㅁ,ㅡ,ㅁ,ㅍ,ㅣ,ㄱ","""(불가능)""",34,"ResponseActual","m,eu,m,ph,i,k",20,"남자",NA,"없어요.","일본어","19살 "," 1년"
"k3b_v2_003",4499,"tup","ㄷ,ㅜ,ㅂ","""(가능)""",35,"ResponseActual","t,u,p",20,"남자",NA,"없어요.","일본어","19살 "," 1년"
"k3b_v2_003",3586,"khut","ㅋ,ㅜ,ㅅ","""(가능)""",36,"ResponseActual","kh,u,s",20,"남자",NA,"없어요.","일본어","19살 "," 1년"
"k3b_v2_003",7213,"nchocip","ㅁ,ㅡ,ㅁ,ㅊ,ㅗ,ㅈ,ㅣ,ㅂ","""(불가능)""",37,"ResponseActual","m,eu,m,ch,o,c,i,p",20,"남자",NA,"없어요.","일본어","19살 "," 1년"
"k3b_v2_003",4821,"cwam","ㅈ,ㅗ,ㅏ,ㅁ","""(가능)""",38,"ResponseActual","c,o,a,m",20,"남자",NA,"없어요.","일본어","19살 "," 1년"
"k3b_v2_003",8953,"mtukin","ㅇ,ㅡ,ㅁ,ㄷ,ㅜ,ㄱ,ㅣ,ㄴ","""(가능)""",39,"ResponseActual","#,eu,m,t,u,k,i,n",20,"남자",NA,"없어요.","일본어","19살 "," 1년"
"k3b_v2_003",7787,"knot","ㄱ,ㅡ,ㄴ,ㅗ,ㅅ","""(가능)""",40,"ResponseActual","k,eu,n,o,s",20,"남자",NA,"없어요.","일본어","19살 "," 1년"
"k3b_v2_003",6318,"mphosak","ㅁ,ㅡ,ㅁ,ㅍ,ㅗ,ㅅ,ㅏ,ㄱ","""(불가능)""",41,"ResponseActual","m,eu,m,ph,o,s,a,k",20,"남자",NA,"없어요.","일본어","19살 "," 1년"
"k3b_v2_003",5236,"thukhat","ㅌ,ㅜ,ㄱ,ㅏ,ㅅ","""(가능)""",42,"ResponseActual","th,u,k,a,s",20,"남자",NA,"없어요.","일본어","19살 "," 1년"
"k3b_v2_003",6167,"chnupot","ㅊ,ㅡ,ㄴ,ㅜ,ㅂ,ㅗ,ㅅ","""(가능)""",43,"ResponseActual","ch,eu,n,u,p,o,s",20,"남자",NA,"없어요.","일본어","19살 "," 1년"
"k3b_v2_003",5805,"nkat","ㅁ,ㅡ,ㅁ,ㄱ,ㅏ,ㅅ","""(불가능)""",44,"ResponseActual","m,eu,m,k,a,s",20,"남자",NA,"없어요.","일본어","19살 "," 1년"
"k3b_v2_003",5477,"cmoman","ㅊ,ㅡ,ㄴ,ㅗ,ㅁ,ㅏ,ㄴ","""(가능)""",45,"ResponseActual","ch,eu,n,o,m,a,n",20,"남자",NA,"없어요.","일본어","19살 "," 1년"
"k3b_v2_003",9941,"khithuk","ㅋ,ㅣ,ㅌ,ㅜ,ㄱ","""(가능)""",46,"ResponseActual","kh,i,th,u,k",20,"남자",NA,"없어요.","일본어","19살 "," 1년"
"k3b_v2_003",9324,"tnunong","ㅂ,ㅜ,ㄴ,ㅜ,ㄴ,ㅗ,ㅇ","""(가능)""",47,"ResponseActual","p,u,n,u,n,o,ng",20,"남자",NA,"없어요.","일본어","19살 "," 1년"
"k3b_v2_003",8069,"nkhuchom","ㅁ,ㅡ,ㅁ,ㅋ,ㅜ,ㅊ,ㅗ,ㅇ","""(불가능)""",48,"ResponseActual","m,eu,m,kh,u,ch,o,ng",20,"남자",NA,"없어요.","일본어","19살 "," 1년"
"k3b_v2_003",13694,"tikut","ㄷ,ㅟ,ㄱ,ㅜ,ㄷ","""(가능)""",49,"ResponseActual","t,wi,k,u,t",20,"남자",NA,"없어요.","일본어","19살 "," 1년"
"k3b_v2_003",5214,"khwiphing","ㅋ,ㅟ,ㅍ,ㅣ,ㅇ","""(가능)""",50,"ResponseActual","kh,wi,ph,i,ng",20,"남자",NA,"없어요.","일본어","19살 "," 1년"
"k3b_v2_003",5828,"phmiman","ㅍ,ㅡ,ㄴ,ㅣ,ㅁ,ㅏ,ㄴ","""(가능)""",51,"ResponseActual","ph,eu,n,i,m,a,n",20,"남자",NA,"없어요.","일본어","19살 "," 1년"
"k3b_v2_003",4274,"chwiphin","ㅊ,ㅟ,ㅍ,ㅣ,ㄴ","""(가능)""",52,"ResponseActual","ch,wi,ph,i,n",20,"남자",NA,"없어요.","일본어","19살 "," 1년"
"k3b_v2_003",4749,"nchot","ㅁ,ㅡ,ㅁ,ㅊ,ㅗ,ㅅ","""(가능)""",53,"ResponseActual","m,eu,m,ch,o,s",20,"남자",NA,"없어요.","일본어","19살 "," 1년"
"k3b_v2_003",5482,"npucap","ㅁ,ㅡ,ㅁ,ㅂ,ㅜ,ㅈ,ㅏ,ㅂ","""(불가능)""",54,"ResponseActual","m,eu,m,p,u,c,a,p",20,"남자",NA,"없어요.","일본어","19살 "," 1년"
"k3b_v2_003",5862,"nwimik","ㄴ,ㅟ,ㅁ,ㅣ,ㄱ","""(가능)""",55,"ResponseActual","n,wi,m,i,k",20,"남자",NA,"없어요.","일본어","19살 "," 1년"
"k3b_v2_003",4565,"thwikhip","ㅌ,ㅟ,ㅋ,ㅣ,ㅂ","""(가능)""",56,"ResponseActual","th,wi,kh,i,p",20,"남자",NA,"없어요.","일본어","19살 "," 1년"
"k3b_v2_003",7167,"thwam","ㅌ,ㅘ,ㅁ","""(가능)""",57,"ResponseActual","th,wa,m",20,"남자",NA,"없어요.","일본어","19살 "," 1년"
"k3b_v2_003",5043,"chnuk","ㅊ,ㅡ,ㄴ,ㅜ,ㅋ","""(가능)""",58,"ResponseActual","ch,eu,n,u,kh",20,"남자",NA,"없어요.","일본어","19살 "," 1년"
"k3b_v2_003",5391,"tin","ㅂ,ㅣ,ㄴ","""(가능)""",59,"ResponseActual","p,i,n",20,"남자",NA,"없어요.","일본어","19살 "," 1년"
"k3b_v2_003",11076,"pmochun","ㅃ,ㅡ,ㄴ,ㅜ,ㅊ,ㅜ,ㄴ","""(가능)""",60,"ResponseActual","pp,eu,n,u,ch,u,n",20,"남자",NA,"없어요.","일본어","19살 "," 1년"
"k3b_v2_004",14194,"chakot","ㅊ,ㅏ,ㄱ,ㅗ,ㅅ","""(가능)""",1,"ResponseActual","ch,a,k,o,s",18,"남",7,"없습니다","일본어","13세 5년","다년간 일본인과 교류하며 학습했었습니다."
"k3b_v2_004",7860,"twamot","ㄷ,ㅗ,ㅏ,ㅁ,ㅗ,ㅅ","""(불가능)""",2,"ResponseActual","t,o,a,m,o,s",18,"남",7,"없습니다","일본어","13세 5년","다년간 일본인과 교류하며 학습했었습니다."
"k3b_v2_004",4461,"khin","ㅋ,ㅣ,ㄴ","""(가능)""",3,"ResponseActual","kh,i,n",18,"남",7,"없습니다","일본어","13세 5년","다년간 일본인과 교류하며 학습했었습니다."
"k3b_v2_004",8154,"swikhat","ㅅ,ㅜ,ㅣ,ㅋ,ㅏ,ㅅ","""(가능)""",4,"ResponseActual","s,u,i,kh,a,s",18,"남",7,"없습니다","일본어","13세 5년","다년간 일본인과 교류하며 학습했었습니다."
"k3b_v2_004",8995,"chnupot","ㅅ,ㅡ,ㄴ,ㅜ,ㅂ,ㅜ,ㅅ","""(불가능)""",5,"ResponseActual","s,eu,n,u,p,u,s",18,"남",7,"없습니다","일본어","13세 5년","다년간 일본인과 교류하며 학습했었습니다."
"k3b_v2_004",16247,"nchocip","ㅇ,ㅡ,ㄴ,ㅊ,ㅗ,ㅈ,ㅣ,ㅂ","""(불가능)""",6,"ResponseActual","#,eu,n,ch,o,c,i,p",18,"남",7,"없습니다","일본어","13세 5년","다년간 일본인과 교류하며 학습했었습니다."
"k3b_v2_004",8779,"sikot","ㅅ,ㅣ,ㄱ,ㅗ,ㅅ","""(가능)""",7,"ResponseActual","s,i,k,o,s",18,"남",7,"없습니다","일본어","13세 5년","다년간 일본인과 교류하며 학습했었습니다."
"k3b_v2_004",8894,"chnuk","ㅊ,ㅡ,ㄴ,ㅜ","""(불가능)""",8,"ResponseActual","ch,eu,n,u",18,"남",7,"없습니다","일본어","13세 5년","다년간 일본인과 교류하며 학습했었습니다."
"k3b_v2_004",16835,"mphutam","ㅇ,ㅡ,ㅁ,ㅍ,ㅜ,ㅌ,ㄷ,ㅏ,ㅁ","""(불가능)""",9,"ResponseActual","#,eu,m,ph,u,th,t,a,m",18,"남",7,"없습니다","일본어","13세 5년","다년간 일본인과 교류하며 학습했었습니다."
"k3b_v2_004",13935,"cmoman","ㅊ,ㅡ,ㅁ,ㅗ,ㅁ,ㅏ,ㄴ","""(불가능)""",10,"ResponseActual","ch,eu,m,o,m,a,n",18,"남",7,"없습니다","일본어","13세 5년","다년간 일본인과 교류하며 학습했었습니다."
"k3b_v2_004",6332,"thukhat","ㅌ,ㅜ,ㅋ,ㅏ,ㅅ","""(가능)""",11,"ResponseActual","th,u,kh,a,s",18,"남",7,"없습니다","일본어","13세 5년","다년간 일본인과 교류하며 학습했었습니다."
"k3b_v2_004",7549,"twak","ㄷ,ㅗ,ㅏ,ㄹ,ㄱ","""(가능)""",12,"ResponseActual","t,o,a,l,k",18,"남",7,"없습니다","일본어","13세 5년","다년간 일본인과 교류하며 학습했었습니다."
"k3b_v2_004",11310,"nkhuchom","ㅇ,ㅡ,ㅁ,ㅋ,ㅜ,ㅊ,ㅗ,ㅁ","""(가능)""",13,"ResponseActual","#,eu,m,kh,u,ch,o,m",18,"남",7,"없습니다","일본어","13세 5년","다년간 일본인과 교류하며 학습했었습니다."
"k3b_v2_004",10569,"cnaphin","ㅊ,ㅡ,ㄴ,ㅏ,ㅍ,ㅣ,ㄴ","""(불가능)""",14,"ResponseActual","ch,eu,n,a,ph,i,n",18,"남",7,"없습니다","일본어","13세 5년","다년간 일본인과 교류하며 학습했었습니다."
"k3b_v2_004",7150,"thnok","ㅅ,ㅡ,ㄴ,ㅗ,ㄱ","""(가능)""",15,"ResponseActual","s,eu,n,o,k",18,"남",7,"없습니다","일본어","13세 5년","다년간 일본인과 교류하며 학습했었습니다."
"k3b_v2_004",4739,"thinok","ㅌ,ㅣ,ㄴ,ㅗ,ㄱ","""(가능)""",16,"ResponseActual","th,i,n,o,k",18,"남",7,"없습니다","일본어","13세 5년","다년간 일본인과 교류하며 학습했었습니다."
"k3b_v2_004",7029,"chwiphin","ㅊ,ㅜ,ㅣ,ㅍ,ㅣ,ㄴ","""(가능)""",17,"ResponseActual","ch,u,i,ph,i,n",18,"남",7,"없습니다","일본어","13세 5년","다년간 일본인과 교류하며 학습했었습니다."
"k3b_v2_004",7812,"tnunong","ㄷ,ㅡ,ㄴ,ㅜ,ㄴ,ㅗ,ㅇ","""(가능)""",18,"ResponseActual","t,eu,n,u,n,o,ng",18,"남",7,"없습니다","일본어","13세 5년","다년간 일본인과 교류하며 학습했었습니다."
"k3b_v2_004",14074,"mphosak","ㅇ,ㅜ,ㅁ,ㅍ,ㅗ,ㅅ,ㅏ,ㄺ","""(가능)""",19,"ResponseActual","#,u,m,ph,o,s,a,ㄺ",18,"남",7,"없습니다","일본어","13세 5년","다년간 일본인과 교류하며 학습했었습니다."
"k3b_v2_004",9026,"tmichut","ㄷ,ㅡ,ㅁ,ㅣ,ㅊ,ㅜ,ㅅ","""(가능)""",20,"ResponseActual","t,eu,m,i,ch,u,s",18,"남",7,"없습니다","일본어","13세 5년","다년간 일본인과 교류하며 학습했었습니다."
"k3b_v2_004",9692,"nthaking","ㅇ,ㅡ,ㅁ,ㅍ,ㅏ,ㄱ,ㅣ,ㅁ","""(불가능)""",21,"ResponseActual","#,eu,m,ph,a,k,i,m",18,"남",7,"없습니다","일본어","13세 5년","다년간 일본인과 교류하며 학습했었습니다."
"k3b_v2_004",5788,"chmop","ㅊ,ㅡ,ㅁ,ㅗ,ㅂ","""(가능)""",22,"ResponseActual","ch,eu,m,o,p",18,"남",7,"없습니다","일본어","13세 5년","다년간 일본인과 교류하며 학습했었습니다."
"k3b_v2_004",6738,"nakhit","ㄴ,ㅏ,ㅋ,ㅣ,ㅅ","""(가능)""",23,"ResponseActual","n,a,kh,i,s",18,"남",7,"없습니다","일본어","13세 5년","다년간 일본인과 교류하며 학습했었습니다."
"k3b_v2_004",11898,"khwichon","ㅋ,ㅜ,ㅣ,ㅊ,ㅗ,ㄴ","""(가능)""",24,"ResponseActual","kh,u,i,ch,o,n",18,"남",7,"없습니다","일본어","13세 5년","다년간 일본인과 교류하며 학습했었습니다."
"k3b_v2_004",7922,"khwiphing","ㅋ,ㅜ,ㅣ,ㅍ,ㅣ,ㄴ","""(가능)""",25,"ResponseActual","kh,u,i,ph,i,n",18,"남",7,"없습니다","일본어","13세 5년","다년간 일본인과 교류하며 학습했었습니다."
"k3b_v2_004",6331,"chwikhong","ㅊ,ㅜ,ㅣ,ㅋ,ㅗ,ㅇ","""(가능)""",26,"ResponseActual","ch,u,i,kh,o,ng",18,"남",7,"없습니다","일본어","13세 5년","다년간 일본인과 교류하며 학습했었습니다."
"k3b_v2_004",5113,"chunak","ㅊ,ㅜ,ㄴ,ㅏ,ㄱ","""(가능)""",27,"ResponseActual","ch,u,n,a,k",18,"남",7,"없습니다","일본어","13세 5년","다년간 일본인과 교류하며 학습했었습니다."
"k3b_v2_004",8280,"khwipot","ㅋ,ㅜ,ㅣ,ㅂ,ㅗ,ㅅ","""(가능)""",28,"ResponseActual","kh,u,i,p,o,s",18,"남",7,"없습니다","일본어","13세 5년","다년간 일본인과 교류하며 학습했었습니다."
"k3b_v2_004",8248,"mtukin","ㅇ,ㅡ,ㅁ,ㄷ,ㅜ,ㄱ,ㅣ,ㄴ","""(가능)""",29,"ResponseActual","#,eu,m,t,u,k,i,n",18,"남",7,"없습니다","일본어","13세 5년","다년간 일본인과 교류하며 학습했었습니다."
"k3b_v2_004",5487,"taphik","ㄷ,ㅏ,ㅍ,ㅣ,ㄱ","""(가능)""",30,"ResponseActual","t,a,ph,i,k",18,"남",7,"없습니다","일본어","13세 5년","다년간 일본인과 교류하며 학습했었습니다."
"k3b_v2_004",6440,"nwimik","ㄴ,ㅜ,ㅇ,ㅣ,ㅁ,ㅣ,ㄱ","""(가능)""",31,"ResponseActual","n,u,#,i,m,i,k",18,"남",7,"없습니다","일본어","13세 5년","다년간 일본인과 교류하며 학습했었습니다."
"k3b_v2_004",18508,"knot","ㅋ,ㅜ,ㄴ,ㅜ,ㅅ","""(불가능)""",32,"ResponseActual","kh,u,n,u,s",18,"남",7,"없습니다","일본어","13세 5년","다년간 일본인과 교류하며 학습했었습니다."
"k3b_v2_004",11320,"khnothik","ㅊ,ㅜ,ㄴ,ㅜ,ㅅ,ㅌ,ㅣ,ㄱ","""(가능)""",33,"ResponseActual","ch,u,n,u,s,th,i,k",18,"남",7,"없습니다","일본어","13세 5년","다년간 일본인과 교류하며 학습했었습니다."
"k3b_v2_004",6551,"nchot","ㅇ,ㅡ,ㅁ,ㅊ,ㅜ,ㅅ","""(불가능)""",34,"ResponseActual","#,eu,m,ch,u,s",18,"남",7,"없습니다","일본어","13세 5년","다년간 일본인과 교류하며 학습했었습니다."
"k3b_v2_004",5603,"cwam","ㅈ,ㅗ,ㅏ,ㅁ","""(가능)""",35,"ResponseActual","c,o,a,m",18,"남",7,"없습니다","일본어","13세 5년","다년간 일본인과 교류하며 학습했었습니다."
"k3b_v2_004",4156,"tup","ㄷ,ㅜ,ㅂ","""(가능)""",36,"ResponseActual","t,u,p",18,"남",7,"없습니다","일본어","13세 5년","다년간 일본인과 교류하며 학습했었습니다."
"k3b_v2_004",6005,"kmamun","ㅋ,ㅡ,ㅁ,ㅏ,ㅁ,ㅜ,ㄴ","""(가능)""",37,"ResponseActual","kh,eu,m,a,m,u,n",18,"남",7,"없습니다","일본어","13세 5년","다년간 일본인과 교류하며 학습했었습니다."
"k3b_v2_004",5942,"mkit","ㅇ,ㅡ,ㅁ,ㄱ,ㅣ,ㅅ","""(가능)""",38,"ResponseActual","#,eu,m,k,i,s",18,"남",7,"없습니다","일본어","13세 5년","다년간 일본인과 교류하며 학습했었습니다."
"k3b_v2_004",10603,"phnokhing","ㅋ,ㅡ,ㄴ,ㅗ,ㅋ,ㅣ,ㅇ","""(가능)""",39,"ResponseActual","kh,eu,n,o,kh,i,ng",18,"남",7,"없습니다","일본어","13세 5년","다년간 일본인과 교류하며 학습했었습니다."
"k3b_v2_004",6598,"npucap","ㅇ,ㅡ,ㅁ,ㅂ,ㅜ,ㅈ,ㅏ,ㅅ","""(가능)""",40,"ResponseActual","#,eu,m,p,u,c,a,s",18,"남",7,"없습니다","일본어","13세 5년","다년간 일본인과 교류하며 학습했었습니다."
"k3b_v2_004",4618,"cwit","ㅈ,ㅜ,ㅣ,ㅅ","""(가능)""",41,"ResponseActual","c,u,i,s",18,"남",7,"없습니다","일본어","13세 5년","다년간 일본인과 교류하며 학습했었습니다."
"k3b_v2_004",3746,"mup","ㅁ,ㅜ,ㅂ","""(가능)""",42,"ResponseActual","m,u,p",18,"남",7,"없습니다","일본어","13세 5년","다년간 일본인과 교류하며 학습했었습니다."
"k3b_v2_004",4839,"mphuk","ㅇ,ㅡ,ㅁ,ㅍ,ㅜ","""(불가능)""",43,"ResponseActual","#,eu,m,ph,u",18,"남",7,"없습니다","일본어","13세 5년","다년간 일본인과 교류하며 학습했었습니다."
"k3b_v2_004",7683,"tikut","ㄷ,ㅜ,ㅣ,ㄱ,ㅜ,ㅅ","""(가능)""",44,"ResponseActual","t,u,i,k,u,s",18,"남",7,"없습니다","일본어","13세 5년","다년간 일본인과 교류하며 학습했었습니다."
"k3b_v2_004",9880,"phmiman","ㅍ,ㅡ,ㅁ,ㅣ,ㅁ,ㅏ,ㄴ","""(가능)""",45,"ResponseActual","ph,eu,m,i,m,a,n",18,"남",7,"없습니다","일본어","13세 5년","다년간 일본인과 교류하며 학습했었습니다."
"k3b_v2_004",8398,"chumik","ㅊ,ㅜ,ㅁ,ㅣ,ㅋ","""(가능)""",46,"ResponseActual","ch,u,m,i,kh",18,"남",7,"없습니다","일본어","13세 5년","다년간 일본인과 교류하며 학습했었습니다."
"k3b_v2_004",5405,"thwam","ㅌ,ㅗ,ㅏ,ㅁ","""(가능)""",47,"ResponseActual","th,o,a,m",18,"남",7,"없습니다","일본어","13세 5년","다년간 일본인과 교류하며 학습했었습니다."
"k3b_v2_004",6972,"twaput","ㄷ,ㅗ,ㅏ,ㅂ,ㅜ,ㅅ","""(가능)""",48,"ResponseActual","t,o,a,p,u,s",18,"남",7,"없습니다","일본어","13세 5년","다년간 일본인과 교류하며 학습했었습니다."
"k3b_v2_004",5459,"khithuk","ㅋ,ㅣ,ㅌ,ㅜ","""(가능)""",49,"ResponseActual","kh,i,th,u",18,"남",7,"없습니다","일본어","13세 5년","다년간 일본인과 교류하며 학습했었습니다."
"k3b_v2_004",5970,"twan","ㄷ,ㅗ,ㅏ,ㄴ","""(가능)""",50,"ResponseActual","t,o,a,n",18,"남",7,"없습니다","일본어","13세 5년","다년간 일본인과 교류하며 학습했었습니다."
"k3b_v2_004",5993,"khut","ㅋ,ㅜ,ㅅ","""(가능)""",51,"ResponseActual","kh,u,s",18,"남",7,"없습니다","일본어","13세 5년","다년간 일본인과 교류하며 학습했었습니다."
"k3b_v2_004",8468,"khnap","ㅋ,ㅡ,ㄴ,ㅏ,ㅂ","""(가능)""",52,"ResponseActual","kh,eu,n,a,p",18,"남",7,"없습니다","일본어","13세 5년","다년간 일본인과 교류하며 학습했었습니다."
"k3b_v2_004",6886,"mpukham","ㅇ,ㅡ,ㅁ,ㅂ,ㅜ,ㅋ,ㅏ,ㅁ","""(불가능)""",53,"ResponseActual","#,eu,m,p,u,kh,a,m",18,"남",7,"없습니다","일본어","13세 5년","다년간 일본인과 교류하며 학습했었습니다."
"k3b_v2_004",7162,"nthimong","ㅇ,ㅡ,ㅁ,ㅌ,ㅣ,ㅁ,ㅗ,ㅇ","""(불가능)""",54,"ResponseActual","#,eu,m,th,i,m,o,ng",18,"남",7,"없습니다","일본어","13세 5년","다년간 일본인과 교류하며 학습했었습니다."
"k3b_v2_004",7588,"ntakhip","ㅇ,ㅡ,ㅁ,ㄷ,ㅏ,ㅋ,ㅣ,ㅂ","""(불가능)""",55,"ResponseActual","#,eu,m,t,a,kh,i,p",18,"남",7,"없습니다","일본어","13세 5년","다년간 일본인과 교류하며 학습했었습니다."
"k3b_v2_004",8530,"nkat","ㅇ,ㅡ,ㅁ,ㄱ,ㅏ,ㅅ","""(불가능)""",56,"ResponseActual","#,eu,m,k,a,s",18,"남",7,"없습니다","일본어","13세 5년","다년간 일본인과 교류하며 학습했었습니다."
"k3b_v2_004",5195,"mthik","ㅇ,ㅡ,ㅁ,ㅌ,ㅣ,ㄱ","""(불가능)""",57,"ResponseActual","#,eu,m,th,i,k",18,"남",7,"없습니다","일본어","13세 5년","다년간 일본인과 교류하며 학습했었습니다."
"k3b_v2_004",5024,"tin","ㄷ,ㅡ,ㅣ,ㄴ","""(가능)""",58,"ResponseActual","t,eu,i,n",18,"남",7,"없습니다","일본어","13세 5년","다년간 일본인과 교류하며 학습했었습니다."
"k3b_v2_004",5214,"thwikhip","ㅌ,ㅜ,ㅣ,ㅋ,ㅣ,ㅂ","""(가능)""",59,"ResponseActual","th,u,i,kh,i,p",18,"남",7,"없습니다","일본어","13세 5년","다년간 일본인과 교류하며 학습했었습니다."
"k3b_v2_004",7078,"pmochun","ㅂ,ㅡ,ㄴ,ㅜ,ㅊ,ㅜ,ㄴ","""(불가능)""",60,"ResponseActual","p,eu,n,u,ch,u,n",18,"남",7,"없습니다","일본어","13세 5년","다년간 일본인과 교류하며 학습했었습니다."
"k3b_v2_005",23102,"khnacin","ㅋ,ㅡ,ㄴ,ㅏ,ㅈ,ㅣ,ㄴ","""(가능)""",1,"ResponseActual","kh,eu,n,a,c,i,n",20,"여",5,"아니요","일본어","일본어: 15살","X"
"k3b_v2_005",14705,"takhut","ㄷ,ㅏ,ㅋ,ㅜ,ㅅ","""(불가능)""",2,"ResponseActual","t,a,kh,u,s",20,"여",5,"아니요","일본어","일본어: 15살","X"
"k3b_v2_005",15970,"nthiton","ㅇ,ㅣ,ㅌ,ㅣ,ㄷ,ㅗ,ㄴ","""(불가능)""",3,"ResponseActual","#,i,th,i,t,o,n",20,"여",5,"아니요","일본어","일본어: 15살","X"
"k3b_v2_005",12038,"siphuk","ㅅ,ㅣ,ㅍ,ㅜ","""(불가능)""",4,"ResponseActual","s,i,ph,u",20,"여",5,"아니요","일본어","일본어: 15살","X"
"k3b_v2_005",18150,"khmoting","ㅋ,ㅡ,ㄴ,ㅗ,ㄷ,ㅣ,ㅇ","""(불가능)""",5,"ResponseActual","kh,eu,n,o,t,i,ng",20,"여",5,"아니요","일본어","일본어: 15살","X"
"k3b_v2_005",7776,"niphak","ㄴ,ㅣ,ㅍ,ㅏ,ㄱ","""(가능)""",6,"ResponseActual","n,i,ph,a,k",20,"여",5,"아니요","일본어","일본어: 15살","X"
"k3b_v2_005",16169,"phmacot","ㅋ,ㅡ,ㅁ,ㅏ,ㅈ,ㅗ,ㅅ","""(불가능)""",7,"ResponseActual","kh,eu,m,a,c,o,s",20,"여",5,"아니요","일본어","일본어: 15살","X"
"k3b_v2_005",11678,"nchitam","ㅇ,ㅗ,ㅇ,ㅊ,ㅣ,ㄷ,ㅏ,ㅁ","""(가능)""",8,"ResponseActual","#,o,ng,ch,i,t,a,m",20,"여",5,"아니요","일본어","일본어: 15살","X"
"k3b_v2_005",8496,"thum","ㅌ,ㅜ,ㅁ","""(가능)""",9,"ResponseActual","th,u,m",20,"여",5,"아니요","일본어","일본어: 15살","X"
"k3b_v2_005",8868,"nchat","ㅇ,ㅡ,ㄴ,ㅊ,ㅏ,ㅅ","""(가능)""",10,"ResponseActual","#,eu,n,ch,a,s",20,"여",5,"아니요","일본어","일본어: 15살","X"
"k3b_v2_005",7165,"mip","ㅁ,ㅣ,ㅍ","""(가능)""",11,"ResponseActual","m,i,ph",20,"여",5,"아니요","일본어","일본어: 15살","X"
"k3b_v2_005",9593,"cwiphing","ㅈ,ㅟ, ㅍ,ㅣ,ㅇ","""(불가능)""",12,"ResponseActual","c,wi,ph,i,ng",20,"여",5,"아니요","일본어","일본어: 15살","X"
"k3b_v2_005",7514,"chwap","ㅊ,ㅘ,ㅍ","""(가능)""",13,"ResponseActual","ch,wa,ph",20,"여",5,"아니요","일본어","일본어: 15살","X"
"k3b_v2_005",6940,"chut","ㅊ,ㅜ, ㅊ","""(가능)""",14,"ResponseActual","ch,u,ch",20,"여",5,"아니요","일본어","일본어: 15살","X"
"k3b_v2_005",19197,"npokit","ㅁ,ㅜ, ㅁ, ㅂ, ㅜ, ㄱ,ㅣ","""(가능)""",15,"ResponseActual","m,u,m,p,u,k,i",20,"여",5,"아니요","일본어","일본어: 15살","X"
"k3b_v2_005",9030,"nchup","ㅇ, ㅡ, ㅁ, ㅊ, ㅜ","""(가능)""",16,"ResponseActual","#,eu,m,ch,u",20,"여",5,"아니요","일본어","일본어: 15살","X"
"k3b_v2_005",13534,"ntosin","ㄴ, ㅡ, ㄴ, ㄷ, ㅗ, ㅅ, ㅣ","""(가능)""",17,"ResponseActual","n,eu,n,t,o,s,i",20,"여",5,"아니요","일본어","일본어: 15살","X"
"k3b_v2_005",19343,"thnukip","ㅌ, ㅡ, ㄴ, ㅜ, ㄱ, ㅣ, ㅍ","""(가능)""",18,"ResponseActual","th,eu,n,u,k,i,ph",20,"여",5,"아니요","일본어","일본어: 15살","X"
"k3b_v2_005",7859,"khmip","ㅋ, ㅡ, ㅁ, ㅣ, ㅍ","""(불가능)""",19,"ResponseActual","kh,eu,m,i,ph",20,"여",5,"아니요","일본어","일본어: 15살","X"
"k3b_v2_005",14206,"ncuk","ㅇ, ㅡ, ㅇ, ㅈ, ㅜ, ㅂ","""(가능)""",20,"ResponseActual","#,eu,ng,c,u,p",20,"여",5,"아니요","일본어","일본어: 15살","X"
"k3b_v2_005",24633,"nthochap","ㄴ, ㅜ, ㄴ, ㅌ, ㅗ, ㅊ, ㅏ, ㅂ","""(가능)""",21,"ResponseActual","n,u,n,th,o,ch,a,p",20,"여",5,"아니요","일본어","일본어: 15살","X"
"k3b_v2_005",8778,"pathik","ㅂ, ㅏ, ㅌ, ㅣ, ㄱ","""(불가능)""",22,"ResponseActual","p,a,th,i,k",20,"여",5,"아니요","일본어","일본어: 15살","X"
"k3b_v2_005",6597,"swicit","ㅅ, ㅟ, ㅈ, ㅣ, ㅅ","""(불가능)""",23,"ResponseActual","s,wi,c,i,s",20,"여",5,"아니요","일본어","일본어: 15살","X"
"k3b_v2_005",14023,"mtunak","ㅇ, ㅡ, ㅁ, ㄷ, ㅜ, ㄴ, ㅏ","""(가능)""",24,"ResponseActual","#,eu,m,t,u,n,a",20,"여",5,"아니요","일본어","일본어: 15살","X"
"k3b_v2_005",7900,"cwasop","ㅈ, ㅘ, ㅅ, ㅗ, ㄱ","""(가능)""",25,"ResponseActual","c,wa,s,o,k",20,"여",5,"아니요","일본어","일본어: 15살","X"
"k3b_v2_005",6782,"swapong","ㅅ, ㅘ, ㅂ, ㅗ, ㅇ","""(가능)""",26,"ResponseActual","s,wa,p,o,ng",20,"여",5,"아니요","일본어","일본어: 15살","X"
"k3b_v2_005",9648,"khonik","ㅋ, ㅗ, ㄴ, ㅣ, ㄱ","""(불가능)""",27,"ResponseActual","kh,o,n,i,k",20,"여",5,"아니요","일본어","일본어: 15살","X"
"k3b_v2_005",11604,"knop","ㅋ, ㅡ, ㄴ, ,ㅗ, ㅂ","""(불가능)""",28,"ResponseActual","kh,eu,n,,o,p",20,"여",5,"아니요","일본어","일본어: 15살","X"
"k3b_v2_005",14384,"mtak","ㅇ, ㅡ, ㅁ, ㄷ, ㅏ, ㄱ","""(가능)""",29,"ResponseActual","#,eu,m,t,a,k",20,"여",5,"아니요","일본어","일본어: 15살","X"
"k3b_v2_005",15208,"phninot","ㅋ, ㅡ, ㄴ, ㅣ, ㄴ, ㅗ, ㅅ","""(불가능)""",30,"ResponseActual","kh,eu,n,i,n,o,s",20,"여",5,"아니요","일본어","일본어: 15살","X"
"k3b_v2_005",8318,"phmut","ㅋ, ㅡ, ㅁ, ㅜ, ㅅ","""(불가능)""",31,"ResponseActual","kh,eu,m,u,s",20,"여",5,"아니요","일본어","일본어: 15살","X"
"k3b_v2_005",6936,"chwakap","ㅊ, ㅘ, ㄱ, ㅏ, ㅍ","""(불가능)""",32,"ResponseActual","ch,wa,k,a,ph",20,"여",5,"아니요","일본어","일본어: 15살","X"
"k3b_v2_005",5221,"nucok","ㄴ, ㅜ, ㅈ, ㅗ, ㄱ","""(가능)""",33,"ResponseActual","n,u,c,o,k",20,"여",5,"아니요","일본어","일본어: 15살","X"
"k3b_v2_005",5117,"kwat","ㄱ, ㅘ, ㅅ","""(가능)""",34,"ResponseActual","k,wa,s",20,"여",5,"아니요","일본어","일본어: 15살","X"
"k3b_v2_005",5683,"cut","ㅊ, ㅜ, ㅅ","""(가능)""",35,"ResponseActual","ch,u,s",20,"여",5,"아니요","일본어","일본어: 15살","X"
"k3b_v2_005",6014,"masuk","ㅁ, ㅏ, ㅅ, ㅜ, ㄱ","""(가능)""",36,"ResponseActual","m,a,s,u,k",20,"여",5,"아니요","일본어","일본어: 15살","X"
"k3b_v2_005",8091,"phwing","ㅋ, ㅟ, ㅇ","""(불가능)""",37,"ResponseActual","kh,wi,ng",20,"여",5,"아니요","일본어","일본어: 15살","X"
"k3b_v2_005",10775,"pwacung","ㅂ, ㅘ, ㅈ, ㅜ, ㅇ","""(불가능)""",38,"ResponseActual","p,wa,c,u,ng",20,"여",5,"아니요","일본어","일본어: 15살","X"
"k3b_v2_005",11740,"thnakop","ㅋ, ㅡ, ㄴ, ㅏ, ㄱ, ㅗ, ㅅ","""(불가능)""",39,"ResponseActual","kh,eu,n,a,k,o,s",20,"여",5,"아니요","일본어","일본어: 15살","X"
"k3b_v2_005",9062,"pmuk","ㅂ, ㅡ, ㅁ, ㅜ, ㄱ","""(불가능)""",40,"ResponseActual","p,eu,m,u,k",20,"여",5,"아니요","일본어","일본어: 15살","X"
"k3b_v2_005",5996,"sutik","ㅅ, ㅠ, ㄷ, ㅣ, ㄱ","""(불가능)""",41,"ResponseActual","s,yu,t,i,k",20,"여",5,"아니요","일본어","일본어: 15살","X"
"k3b_v2_005",7571,"phwim","ㅍ, ㅟ, ㅁ","""(불가능)""",42,"ResponseActual","ph,wi,m",20,"여",5,"아니요","일본어","일본어: 15살","X"
"k3b_v2_005",12719,"nthunit","ㅇ, ㅡ, ㅇ, ㅌ, ㅜ, ㄴ, ㅣ, ㅅ","""(불가능)""",43,"ResponseActual","#,eu,ng,th,u,n,i,s",20,"여",5,"아니요","일본어","일본어: 15살","X"
"k3b_v2_005",6751,"phuthik","ㅍ, ㅜ, ㅌ, ㅟ, ㄱ","""(불가능)""",44,"ResponseActual","ph,u,th,wi,k",20,"여",5,"아니요","일본어","일본어: 15살","X"
"k3b_v2_005",18892,"khnichat","ㅋ, ㅡ, ㄴ, ㅣ, ㅅ, ㅊ, ㅏ, ㅅ","""(불가능)""",45,"ResponseActual","kh,eu,n,i,s,ch,a,s",20,"여",5,"아니요","일본어","일본어: 15살","X"
"k3b_v2_005",7383,"twikhit","ㄷ, ㅟ, ㅋ, ㅣ, ㅅ","""(불가능)""",46,"ResponseActual","t,wi,kh,i,s",20,"여",5,"아니요","일본어","일본어: 15살","X"
"k3b_v2_005",4009,"cwang","ㅈ, ㅘ, ㅇ","""(가능)""",47,"ResponseActual","c,wa,ng",20,"여",5,"아니요","일본어","일본어: 15살","X"
"k3b_v2_005",10870,"mphithup","ㅇ, ㅡ, ㅁ, ㅍ, ㅣ, ㅌ, ㅜ, ㅅ","""(불가능)""",48,"ResponseActual","#,eu,m,ph,i,th,u,s",20,"여",5,"아니요","일본어","일본어: 15살","X"
"k3b_v2_005",11597,"mciphom","ㅇ, ㅡ, ㅇ, ㅈ, ㅣ, ㅍ, ㅗ, ㅁ","""(불가능)""",49,"ResponseActual","#,eu,ng,c,i,ph,o,m",20,"여",5,"아니요","일본어","일본어: 15살","X"
"k3b_v2_005",7826,"pmathin","ㅂ, ㅡ, ㅁ, ㅏ, ㅌ, ㅣ, ㄴ","""(불가능)""",50,"ResponseActual","p,eu,m,a,th,i,n",20,"여",5,"아니요","일본어","일본어: 15살","X"
"k3b_v2_005",8338,"nchak","ㅇ, ㅡ, ㅇ, ㅊ, ㅏ, ㅅ","""(불가능)""",51,"ResponseActual","#,eu,ng,ch,a,s",20,"여",5,"아니요","일본어","일본어: 15살","X"
"k3b_v2_005",8771,"swakhing","ㅅ, ㅘ, ㅋ, ㅣ, ㅇ","""(불가능)""",52,"ResponseActual","s,wa,kh,i,ng",20,"여",5,"아니요","일본어","일본어: 15살","X"
"k3b_v2_005",6453,"kophak","ㄱ, ㅗ, ㅍ, ㅏ, ㄱ","""(가능)""",53,"ResponseActual","k,o,ph,a,k",20,"여",5,"아니요","일본어","일본어: 15살","X"
"k3b_v2_005",7252,"pmisung","ㅂ, ㅡ, ㄴ, ㅣ, ㅅ, ㅜ, ㅇ","""(불가능)""",54,"ResponseActual","p,eu,n,i,s,u,ng",20,"여",5,"아니요","일본어","일본어: 15살","X"
"k3b_v2_005",4281,"khun","ㅋ, ㅜ, ㄴ","""(불가능)""",55,"ResponseActual","kh,u,n",20,"여",5,"아니요","일본어","일본어: 15살","X"
"k3b_v2_005",8616,"thwicap","ㅌ, ㅟ, ㅈ, ㅏ, ㅂ","""(가능)""",56,"ResponseActual","th,wi,c,a,p",20,"여",5,"아니요","일본어","일본어: 15살","X"
"k3b_v2_005",8347,"knothing","ㄱ, ㅡ, ㄴ, ㅗ, ㅌ, ㅣ, ㅇ","""(불가능)""",57,"ResponseActual","k,eu,n,o,th,i,ng",20,"여",5,"아니요","일본어","일본어: 15살","X"
"k3b_v2_005",10531,"mkithun","ㅇ, ㅡ, ㅁ, ㄱ, ㅣ, ㅌ, ㅜ, ㄴ","""(불가능)""",58,"ResponseActual","#,eu,m,k,i,th,u,n",20,"여",5,"아니요","일본어","일본어: 15살","X"
"k3b_v2_005",6671,"khwapan","ㅋ, ㅘ, ㅂ, ㅏ, ㄴ","""(불가능)""",59,"ResponseActual","kh,wa,p,a,n",20,"여",5,"아니요","일본어","일본어: 15살","X"
"k3b_v2_005",7809,"cmot","ㅈ, ㅣ, ㅁ, ㅗ, ㅅ","""(가능)""",60,"ResponseActual","c,i,m,o,s",20,"여",5,"아니요","일본어","일본어: 15살","X"
"k3b_v2_006",14379,"thwikhip","ㅌ,ㅜ,ㅣ,ㅋ,ㅣ,ㅂ","""(불가능)""",1,"ResponseActual","th,u,i,kh,i,p",19,"남성",4,"없습니다","일본어","중국어","P0_Q5:17세 1년"
"k3b_v2_006",7173,"nkat","ㄴ,ㄱ,ㅏ,ㅅ","""(불가능)""",2,"ResponseActual","n,k,a,s",19,"남성",4,"없습니다","일본어","중국어","P0_Q5:17세 1년"
"k3b_v2_006",5339,"cnaphin","ㅅ,ㄴ,ㅏ,ㅍ,ㅣ,ㄴ","""(불가능)""",3,"ResponseActual","s,n,a,ph,i,n",19,"남성",4,"없습니다","일본어","중국어","P0_Q5:17세 1년"
"k3b_v2_006",7687,"chwikhong","ㅊ,ㅜ,ㅣ,ㅋ,ㅗ,ㅇ","""(가능)""",4,"ResponseActual","ch,u,i,kh,o,ng",19,"남성",4,"없습니다","일본어","중국어","P0_Q5:17세 1년"
"k3b_v2_006",6087,"thwam","ㅌ,ㅗ,ㅏ,ㅁ","""(가능)""",5,"ResponseActual","th,o,a,m",19,"남성",4,"없습니다","일본어","중국어","P0_Q5:17세 1년"
"k3b_v2_006",3573,"khin","ㅋ,ㅣ,ㄴ","""(가능)""",6,"ResponseActual","kh,i,n",19,"남성",4,"없습니다","일본어","중국어","P0_Q5:17세 1년"
"k3b_v2_006",9005,"chnupot","ㅅ,ㅡ,ㄴ,ㅜ,ㅂ,ㅗ,ㅅ","""(불가능)""",7,"ResponseActual","s,eu,n,u,p,o,s",19,"남성",4,"없습니다","일본어","중국어","P0_Q5:17세 1년"
"k3b_v2_006",4423,"khut","ㅋ,ㅜ,ㅅ","""(가능)""",8,"ResponseActual","kh,u,s",19,"남성",4,"없습니다","일본어","중국어","P0_Q5:17세 1년"
"k3b_v2_006",8255,"twan","ㄷ,ㅇ,ㅗ,ㅏ,ㄴ","""(불가능)""",9,"ResponseActual","t,ng,o,a,n",19,"남성",4,"없습니다","일본어","중국어","P0_Q5:17세 1년"
"k3b_v2_006",5408,"cwit","ㅈ,ㅜ,ㅣ,ㅅ","""(불가능)""",10,"ResponseActual","c,u,i,s",19,"남성",4,"없습니다","일본어","중국어","P0_Q5:17세 1년"
"k3b_v2_006",3787,"khnap","ㅋ,ㄴ,ㅏ,ㅍ","""(불가능)""",11,"ResponseActual","kh,n,a,ph",19,"남성",4,"없습니다","일본어","중국어","P0_Q5:17세 1년"
"k3b_v2_006",6382,"swikhat","ㅅ,ㅜ,ㅣ,ㅋ,ㅏ,ㅍ","""(불가능)""",12,"ResponseActual","s,u,i,kh,a,ph",19,"남성",4,"없습니다","일본어","중국어","P0_Q5:17세 1년"
"k3b_v2_006",5053,"mthik","ㅁ,ㅌ,ㅣ,ㅋ","""(불가능)""",13,"ResponseActual","m,th,i,kh",19,"남성",4,"없습니다","일본어","중국어","P0_Q5:17세 1년"
"k3b_v2_006",10118,"nchocip","ㄴ,ㅊ,ㅛ,ㅈ,ㅣ,ㅍ","""(불가능)""",14,"ResponseActual","n,ch,yo,c,i,ph",19,"남성",4,"없습니다","일본어","중국어","P0_Q5:17세 1년"
"k3b_v2_006",5520,"nthimong","ㄴ,ㅌ,ㅣ,ㅁ,ㅗ,ㅇ","""(불가능)""",15,"ResponseActual","n,th,i,m,o,ng",19,"남성",4,"없습니다","일본어","중국어","P0_Q5:17세 1년"
"k3b_v2_006",6092,"phmiman","ㅍ,ㅁ,ㅣ,ㅁ,ㅏ,ㅁ","""(불가능)""",16,"ResponseActual","ph,m,i,m,a,m",19,"남성",4,"없습니다","일본어","중국어","P0_Q5:17세 1년"
"k3b_v2_006",4189,"mphuk","ㅁ,ㅍ,ㅜ,ㅋ","""(불가능)""",17,"ResponseActual","m,ph,u,kh",19,"남성",4,"없습니다","일본어","중국어","P0_Q5:17세 1년"
"k3b_v2_006",11626,"thnok","ㅋ,ㄴ,ㅗ,ㅋ","""(불가능)""",18,"ResponseActual","kh,n,o,kh",19,"남성",4,"없습니다","일본어","중국어","P0_Q5:17세 1년"
"k3b_v2_006",5567,"tikut","ㄷ,ㅜ,ㅣ,ㄱ,ㅜ,ㅅ","""(가능)""",19,"ResponseActual","t,u,i,k,u,s",19,"남성",4,"없습니다","일본어","중국어","P0_Q5:17세 1년"
"k3b_v2_006",3597,"tup","ㄷ,ㅜ,ㅍ","""(가능)""",20,"ResponseActual","t,u,ph",19,"남성",4,"없습니다","일본어","중국어","P0_Q5:17세 1년"
"k3b_v2_006",5155,"nkhuchom","ㅁ,ㅋ,ㅜ,ㅊ,ㅗ,ㅁ","""(불가능)""",21,"ResponseActual","m,kh,u,ch,o,m",19,"남성",4,"없습니다","일본어","중국어","P0_Q5:17세 1년"
"k3b_v2_006",12065,"thukhat","ㅌ,ㅜ,ㅋ,ㅏ,ㅅ","""(불가능)""",22,"ResponseActual","th,u,kh,a,s",19,"남성",4,"없습니다","일본어","중국어","P0_Q5:17세 1년"
"k3b_v2_006",6085,"pmochun","ㅂ,ㅁ,ㅜ,ㅊ,ㅠ,ㄴ","""(불가능)""",23,"ResponseActual","p,m,u,ch,yu,n",19,"남성",4,"없습니다","일본어","중국어","P0_Q5:17세 1년"
"k3b_v2_006",4446,"mphutam","ㅁ,ㅍ,ㅜ,ㄷ,ㅏ,ㅁ","""(불가능)""",24,"ResponseActual","m,ph,u,t,a,m",19,"남성",4,"없습니다","일본어","중국어","P0_Q5:17세 1년"
"k3b_v2_006",7883,"phnokhing","ㅍ,ㄴ,ㅗ,ㅋ,ㅣ,ㅇ","""(불가능)""",25,"ResponseActual","ph,n,o,kh,i,ng",19,"남성",4,"없습니다","일본어","중국어","P0_Q5:17세 1년"
"k3b_v2_006",5701,"npucap","ㅁ,ㅂ,ㅜ,ㅈ,ㅏ,ㅂ","""(불가능)""",26,"ResponseActual","m,p,u,c,a,p",19,"남성",4,"없습니다","일본어","중국어","P0_Q5:17세 1년"
"k3b_v2_006",5936,"chunak","ㅊ,ㅜ,ㄴ,ㅏ,ㅋ","""(가능)""",27,"ResponseActual","ch,u,n,a,kh",19,"남성",4,"없습니다","일본어","중국어","P0_Q5:17세 1년"
"k3b_v2_006",5242,"chnuk","ㅊ,ㄴ,ㅜ","""(불가능)""",28,"ResponseActual","ch,n,u",19,"남성",4,"없습니다","일본어","중국어","P0_Q5:17세 1년"
"k3b_v2_006",4646,"kmamun","ㅋ,ㅁ,ㅏ,ㅁ,ㅜ,ㄴ","""(불가능)""",29,"ResponseActual","kh,m,a,m,u,n",19,"남성",4,"없습니다","일본어","중국어","P0_Q5:17세 1년"
"k3b_v2_006",4149,"chwiphin","ㅊ,ㅜ,ㅣ,ㅍ,ㅣ,ㄴ","""(가능)""",30,"ResponseActual","ch,u,i,ph,i,n",19,"남성",4,"없습니다","일본어","중국어","P0_Q5:17세 1년"
"k3b_v2_006",6515,"chmop","ㅊ,ㅁ,ㅗ,ㅂ","""(가능)""",31,"ResponseActual","ch,m,o,p",19,"남성",4,"없습니다","일본어","중국어","P0_Q5:17세 1년"
"k3b_v2_006",5204,"mpukham","ㅁ,ㅂ,ㅜ,ㅋ,ㅏ,ㅁ","""(불가능)""",32,"ResponseActual","m,p,u,kh,a,m",19,"남성",4,"없습니다","일본어","중국어","P0_Q5:17세 1년"
"k3b_v2_006",8843,"mkit","ㅁ,ㄱ,ㅣ,ㅇ,ㅣ,ㅌ","""(불가능)""",33,"ResponseActual","m,k,i,#,i,th",19,"남성",4,"없습니다","일본어","중국어","P0_Q5:17세 1년"
"k3b_v2_006",4823,"nakhit","ㄴ,ㅏ,ㅋ,ㅣ,ㅌ","""(불가능)""",34,"ResponseActual","n,a,kh,i,th",19,"남성",4,"없습니다","일본어","중국어","P0_Q5:17세 1년"
"k3b_v2_006",6270,"ntakhip","ㄴ,ㄷ,ㅏ,ㅋ,ㅣ,ㅂ","""(불가능)""",35,"ResponseActual","n,t,a,kh,i,p",19,"남성",4,"없습니다","일본어","중국어","P0_Q5:17세 1년"
"k3b_v2_006",5476,"tmichut","ㅋ,ㅁ,ㅣ,ㅊ,ㅠ,ㅂ","""(불가능)""",36,"ResponseActual","kh,m,i,ch,yu,p",19,"남성",4,"없습니다","일본어","중국어","P0_Q5:17세 1년"
"k3b_v2_006",4685,"cmoman","ㅊ,ㅁ,ㅗ,ㅁ,ㅏ,ㄴ","""(불가능)""",37,"ResponseActual","ch,m,o,m,a,n",19,"남성",4,"없습니다","일본어","중국어","P0_Q5:17세 1년"
"k3b_v2_006",5759,"twamot","ㄷ,ㅗ,ㅏ,ㅁ,ㅗ,ㅅ","""(가능)""",38,"ResponseActual","t,o,a,m,o,s",19,"남성",4,"없습니다","일본어","중국어","P0_Q5:17세 1년"
"k3b_v2_006",6359,"nthaking","ㄴ,ㅌ,ㅏ,ㄱ,ㅣ,ㅇ","""(불가능)""",39,"ResponseActual","n,th,a,k,i,ng",19,"남성",4,"없습니다","일본어","중국어","P0_Q5:17세 1년"
"k3b_v2_006",4514,"thinok","ㅌ,ㅣ,ㄴ,ㅗ,ㄱ","""(가능)""",40,"ResponseActual","th,i,n,o,k",19,"남성",4,"없습니다","일본어","중국어","P0_Q5:17세 1년"
"k3b_v2_006",5263,"khithuk","ㅋ,ㅣ,ㅌ,ㅜ","""(가능)""",41,"ResponseActual","kh,i,th,u",19,"남성",4,"없습니다","일본어","중국어","P0_Q5:17세 1년"
"k3b_v2_006",6469,"twaput","ㄷ,ㅗ,ㅏ,ㅂ,ㅜ,ㅅ","""(가능)""",42,"ResponseActual","t,o,a,p,u,s",19,"남성",4,"없습니다","일본어","중국어","P0_Q5:17세 1년"
"k3b_v2_006",4371,"khwipot","ㅋ,ㅜ,ㅣ,ㅂ,ㅗ,ㅅ","""(가능)""",43,"ResponseActual","kh,u,i,p,o,s",19,"남성",4,"없습니다","일본어","중국어","P0_Q5:17세 1년"
"k3b_v2_006",4684,"mup","ㅁ,ㅜ,ㅂ","""(가능)""",44,"ResponseActual","m,u,p",19,"남성",4,"없습니다","일본어","중국어","P0_Q5:17세 1년"
"k3b_v2_006",18456,"khnothik","ㅋ,ㅡ,ㄴ,ㅗ,ㅌ,ㅣ,ㅋ","""(불가능)""",45,"ResponseActual","kh,eu,n,o,th,i,kh",19,"남성",4,"없습니다","일본어","중국어","P0_Q5:17세 1년"
"k3b_v2_006",3380,"tin","ㄷ,ㅣ,ㄴ","""(가능)""",46,"ResponseActual","t,i,n",19,"남성",4,"없습니다","일본어","중국어","P0_Q5:17세 1년"
"k3b_v2_006",4575,"knot","ㅋ,ㄴ,ㅗ,ㅌ","""(불가능)""",47,"ResponseActual","kh,n,o,th",19,"남성",4,"없습니다","일본어","중국어","P0_Q5:17세 1년"
"k3b_v2_006",5391,"taphik","ㄷ,ㅏ,ㅍ,ㅣ,ㄱ","""(가능)""",48,"ResponseActual","t,a,ph,i,k",19,"남성",4,"없습니다","일본어","중국어","P0_Q5:17세 1년"
"k3b_v2_006",5863,"nchot","ㄴ,ㅊ,ㅛ,ㅌ","""(불가능)""",49,"ResponseActual","n,ch,yo,th",19,"남성",4,"없습니다","일본어","중국어","P0_Q5:17세 1년"
"k3b_v2_006",4908,"chumik","ㅊ,ㅠ,ㅁ,ㅣ,ㅋ","""(불가능)""",50,"ResponseActual","ch,yu,m,i,kh",19,"남성",4,"없습니다","일본어","중국어","P0_Q5:17세 1년"
"k3b_v2_006",11936,"tnunong","ㅋ,ㅡ,ㄴ,ㅜ,ㄴ,ㅗ,ㄴ","""(불가능)""",51,"ResponseActual","kh,eu,n,u,n,o,n",19,"남성",4,"없습니다","일본어","중국어","P0_Q5:17세 1년"
"k3b_v2_006",7172,"chakot","ㅊ,ㅏ,ㄱ,ㅗ,ㅅ","""(가능)""",52,"ResponseActual","ch,a,k,o,s",19,"남성",4,"없습니다","일본어","중국어","P0_Q5:17세 1년"
"k3b_v2_006",6566,"khwiphing","ㅋ,ㅜ,ㅣ,ㅍ,ㅣ,ㅇ","""(가능)""",53,"ResponseActual","kh,u,i,ph,i,ng",19,"남성",4,"없습니다","일본어","중국어","P0_Q5:17세 1년"
"k3b_v2_006",5541,"nwimik","ㄴ,ㅜ,ㅣ,ㅁ,ㅣ,ㄱ","""(가능)""",54,"ResponseActual","n,u,i,m,i,k",19,"남성",4,"없습니다","일본어","중국어","P0_Q5:17세 1년"
"k3b_v2_006",5052,"twak","ㄷ,ㅗ,ㅏ,ㄱ","""(가능)""",55,"ResponseActual","t,o,a,k",19,"남성",4,"없습니다","일본어","중국어","P0_Q5:17세 1년"
"k3b_v2_006",6494,"mtukin","ㄴ,ㄷ,ㅜ,ㄱ,ㅜ,ㅣ,ㄴ","""(불가능)""",56,"ResponseActual","n,t,u,k,u,i,n",19,"남성",4,"없습니다","일본어","중국어","P0_Q5:17세 1년"
"k3b_v2_006",6136,"mphosak","ㅇ,ㅍ,ㅗ,ㅅ,ㅏ,ㅋ","""(불가능)""",57,"ResponseActual","#,ph,o,s,a,kh",19,"남성",4,"없습니다","일본어","중국어","P0_Q5:17세 1년"
"k3b_v2_006",8537,"khwichon","ㅋ,ㅜ,ㅣ,ㅊ,ㅗ,ㄴ","""(가능)""",58,"ResponseActual","kh,u,i,ch,o,n",19,"남성",4,"없습니다","일본어","중국어","P0_Q5:17세 1년"
"k3b_v2_006",4045,"sikot","ㅅ,ㅣ,ㄱ,ㅗ,ㅅ","""(가능)""",59,"ResponseActual","s,i,k,o,s",19,"남성",4,"없습니다","일본어","중국어","P0_Q5:17세 1년"
"k3b_v2_006",3357,"cwam","ㅈ,ㅗ,ㅏ,ㅁ","""(가능)""",60,"ResponseActual","c,o,a,m",19,"남성",4,"없습니다","일본어","중국어","P0_Q5:17세 1년"
"k3b_v2_007",12493,"thwikhip","ㅌ,ㅜ,ㅣ,ㅋ,ㅣ,ㅂ","""(가능)""",1,"ResponseActual","th,u,i,kh,i,p",19,"남",NA,"아니요","일본어","17세","2년"
"k3b_v2_007",5355,"thukhat","ㅌ,ㅜ,ㅋ,ㅏ,ㄱ","""(불가능)""",2,"ResponseActual","th,u,kh,a,k",19,"남",NA,"아니요","일본어","17세","2년"
"k3b_v2_007",9574,"phmiman","ㅍ,ㅡ,ㄴ,ㅣ,ㅁ,ㅓ,ㄴ","""(가능)""",3,"ResponseActual","ph,eu,n,i,m,eo,n",19,"남",NA,"아니요","일본어","17세","2년"
"k3b_v2_007",5038,"nthimong","ㅌ,ㅣ,ㅁ,ㅗ,ㅇ","""(가능)""",4,"ResponseActual","th,i,m,o,ng",19,"남",NA,"아니요","일본어","17세","2년"
"k3b_v2_007",4428,"cwam","ㅈ,ㅗ,ㅏ,ㅁ","""(가능)""",5,"ResponseActual","c,o,a,m",19,"남",NA,"아니요","일본어","17세","2년"
"k3b_v2_007",9544,"nthaking","ㄴ,ㅡ,ㅌ,ㅏ,ㄱ,ㅣ,ㄴ","""(불가능)""",6,"ResponseActual","n,eu,th,a,k,i,n",19,"남",NA,"아니요","일본어","17세","2년"
"k3b_v2_007",7063,"twaput","ㄷ,ㅗ,ㅏ,ㅂ,ㅜ,ㅌ","""(불가능)""",7,"ResponseActual","t,o,a,p,u,th",19,"남",NA,"아니요","일본어","17세","2년"
"k3b_v2_007",5837,"chmop","ㅊ,ㅡ,ㅁ,ㅗ,ㅂ","""(가능)""",8,"ResponseActual","ch,eu,m,o,p",19,"남",NA,"아니요","일본어","17세","2년"
"k3b_v2_007",5723,"cnaphin","ㅊ,ㅡ,ㄴ,ㅏ,ㅍ,ㅣ,ㄴ","""(가능)""",9,"ResponseActual","ch,eu,n,a,ph,i,n",19,"남",NA,"아니요","일본어","17세","2년"
"k3b_v2_007",7431,"nkat","ㅇ,ㅡ,ㄴ,ㄱ,ㅏ,ㅅ","""(가능)""",10,"ResponseActual","#,eu,n,k,a,s",19,"남",NA,"아니요","일본어","17세","2년"
"k3b_v2_007",8544,"mpukham","ㅇ,ㅡ,ㄴ,ㅂ,ㅜ,ㅋ,ㅏ,ㅁ","""(불가능)""",11,"ResponseActual","#,eu,n,p,u,kh,a,m",19,"남",NA,"아니요","일본어","17세","2년"
"k3b_v2_007",5925,"khwipot","ㅋ,ㅜ,ㅣ,ㅂ,ㅗ,ㅅ","""(가능)""",12,"ResponseActual","kh,u,i,p,o,s",19,"남",NA,"아니요","일본어","17세","2년"
"k3b_v2_007",5377,"mphuk","ㅇ,ㅡ,ㄴ,ㅍ,ㅜ","""(가능)""",13,"ResponseActual","#,eu,n,ph,u",19,"남",NA,"아니요","일본어","17세","2년"
"k3b_v2_007",6286,"nchocip","ㅇ,ㅡ,ㄴ,ㅊ,ㅗ,ㅈ,ㅣ,ㅂ","""(가능)""",14,"ResponseActual","#,eu,n,ch,o,c,i,p",19,"남",NA,"아니요","일본어","17세","2년"
"k3b_v2_007",7332,"npucap","ㅇ,ㅡ,ㄴ,ㅂ,ㅜ,ㅈ,ㅏ,ㅂ","""(불가능)""",15,"ResponseActual","#,eu,n,p,u,c,a,p",19,"남",NA,"아니요","일본어","17세","2년"
"k3b_v2_007",6110,"mthik","ㅇ,ㅡ,ㄴ,ㅌ,ㅣ,ㅂ","""(불가능)""",16,"ResponseActual","#,eu,n,th,i,p",19,"남",NA,"아니요","일본어","17세","2년"
"k3b_v2_007",6231,"pmochun","ㅁ,ㅜ,ㅊ,ㅜ,ㄴ","""(가능)""",17,"ResponseActual","m,u,ch,u,n",19,"남",NA,"아니요","일본어","17세","2년"
"k3b_v2_007",4054,"mup","ㅁ,ㅜ,ㅂ","""(불가능)""",18,"ResponseActual","m,u,p",19,"남",NA,"아니요","일본어","17세","2년"
"k3b_v2_007",5745,"knot","ㅋ,ㅡ,ㄴ,ㅗ,ㅅ","""(불가능)""",19,"ResponseActual","kh,eu,n,o,s",19,"남",NA,"아니요","일본어","17세","2년"
"k3b_v2_007",6741,"chumik","ㅊ,ㅜ,ㅁ,ㅣ,ㅋ","""(불가능)""",20,"ResponseActual","ch,u,m,i,kh",19,"남",NA,"아니요","일본어","17세","2년"
"k3b_v2_007",5745,"tin","ㄷ,ㅣ,ㄴ","""(가능)""",21,"ResponseActual","t,i,n",19,"남",NA,"아니요","일본어","17세","2년"
"k3b_v2_007",5850,"twak","ㄷ,ㅗ,ㅏ,ㄺ","""(불가능)""",22,"ResponseActual","t,o,a,ㄺ",19,"남",NA,"아니요","일본어","17세","2년"
"k3b_v2_007",4621,"taphik","ㄷ,ㅏ,ㅍ,ㅣ,ㄱ","""(가능)""",23,"ResponseActual","t,a,ph,i,k",19,"남",NA,"아니요","일본어","17세","2년"
"k3b_v2_007",4278,"cwit","ㅈ,ㅜ,ㅣ,ㅅ","""(불가능)""",24,"ResponseActual","c,u,i,s",19,"남",NA,"아니요","일본어","17세","2년"
"k3b_v2_007",5153,"tmichut","ㅁ,ㅣ,ㅊ,ㅜ,ㅅ","""(가능)""",25,"ResponseActual","m,i,ch,u,s",19,"남",NA,"아니요","일본어","17세","2년"
"k3b_v2_007",4078,"khut","ㅋ,ㅜ,ㅅ","""(가능)""",26,"ResponseActual","kh,u,s",19,"남",NA,"아니요","일본어","17세","2년"
"k3b_v2_007",4582,"tup","ㄷ,ㅜ,ㅂ","""(가능)""",27,"ResponseActual","t,u,p",19,"남",NA,"아니요","일본어","17세","2년"
"k3b_v2_007",6992,"mphutam","ㅇ,ㅡ,ㄴ,ㅍ,ㅜ,ㄷ,ㅏ,ㅁ","""(가능)""",28,"ResponseActual","#,eu,n,ph,u,t,a,m",19,"남",NA,"아니요","일본어","17세","2년"
"k3b_v2_007",3759,"twan","ㄷ,ㅗ,ㅏ,ㄴ","""(가능)""",29,"ResponseActual","t,o,a,n",19,"남",NA,"아니요","일본어","17세","2년"
"k3b_v2_007",10182,"khwichon","ㅋ,ㅟ,ㅊ,ㅗ,ㄴ","""(가능)""",30,"ResponseActual","kh,wi,ch,o,n",19,"남",NA,"아니요","일본어","17세","2년"
"k3b_v2_007",5700,"khithuk","ㅊ,ㅣ,ㅌ,ㅜ","""(가능)""",31,"ResponseActual","ch,i,th,u",19,"남",NA,"아니요","일본어","17세","2년"
"k3b_v2_007",6402,"kmamun","ㅋ,ㅡ,ㅁ,ㅏ,ㅁ,ㅜ,ㄴ","""(불가능)""",32,"ResponseActual","kh,eu,m,a,m,u,n",19,"남",NA,"아니요","일본어","17세","2년"
"k3b_v2_007",7495,"mtukin","ㅇ,ㅡ,ㄴ,ㄷ,ㅜ,ㄱ,ㅣ,ㄴ","""(불가능)""",33,"ResponseActual","#,eu,n,t,u,k,i,n",19,"남",NA,"아니요","일본어","17세","2년"
"k3b_v2_007",8331,"nkhuchom","ㅇ,ㅡ,ㄴ,ㅋ,ㅜ,ㅊ,ㅗ,ㅁ","""(불가능)""",34,"ResponseActual","#,eu,n,kh,u,ch,o,m",19,"남",NA,"아니요","일본어","17세","2년"
"k3b_v2_007",9247,"chwikhong","ㅊ,ㅟ,ㅋ,ㅗ,ㅇ","""(가능)""",35,"ResponseActual","ch,wi,kh,o,ng",19,"남",NA,"아니요","일본어","17세","2년"
"k3b_v2_007",5221,"khnap","ㅋ,ㅡ,ㄴ,ㅏ,ㅂ","""(가능)""",36,"ResponseActual","kh,eu,n,a,p",19,"남",NA,"아니요","일본어","17세","2년"
"k3b_v2_007",7155,"mphosak","ㅇ,ㅡ,ㅁ,ㅍ,ㅗ,ㅅ,ㅏ,ㄺ","""(불가능)""",37,"ResponseActual","#,eu,m,ph,o,s,a,ㄺ",19,"남",NA,"아니요","일본어","17세","2년"
"k3b_v2_007",5427,"chnuk","ㅊ,ㅡ,ㄴ,ㅗ","""(가능)""",38,"ResponseActual","ch,eu,n,o",19,"남",NA,"아니요","일본어","17세","2년"
"k3b_v2_007",4477,"thinok","ㅋ,ㅟ,ㄴ,ㅗ","""(불가능)""",39,"ResponseActual","kh,wi,n,o",19,"남",NA,"아니요","일본어","17세","2년"
"k3b_v2_007",5732,"khwiphing","ㅋ,ㅟ,ㅍ,ㅣ,ㅇ","""(가능)""",40,"ResponseActual","kh,wi,ph,i,ng",19,"남",NA,"아니요","일본어","17세","2년"
"k3b_v2_007",5783,"ntakhip","ㅇ,ㅡ,ㄴ,ㄷ,ㅏ,ㅋ,ㅣ,ㅂ","""(가능)""",41,"ResponseActual","#,eu,n,t,a,kh,i,p",19,"남",NA,"아니요","일본어","17세","2년"
"k3b_v2_007",3573,"khin","ㅋ,ㅣ,ㄴ","""(가능)""",42,"ResponseActual","kh,i,n",19,"남",NA,"아니요","일본어","17세","2년"
"k3b_v2_007",4896,"khnothik","ㅋ,ㅡ,ㄴ,ㅗ,ㅌ,ㅣ,ㄱ","""(불가능)""",43,"ResponseActual","kh,eu,n,o,th,i,k",19,"남",NA,"아니요","일본어","17세","2년"
"k3b_v2_007",5404,"mkit","ㅇ,ㅡ,ㅁ,ㄱ,ㅣ,ㅅ","""(가능)""",44,"ResponseActual","#,eu,m,k,i,s",19,"남",NA,"아니요","일본어","17세","2년"
"k3b_v2_007",4766,"sikot","ㅅ,ㅣ,ㄱ,ㅗ,ㅅ","""(가능)""",45,"ResponseActual","s,i,k,o,s",19,"남",NA,"아니요","일본어","17세","2년"
"k3b_v2_007",5315,"chnupot","ㅊ,ㅡ,ㄴ,ㅜ,ㅂ,ㅗ,ㅅ","""(불가능)""",46,"ResponseActual","ch,eu,n,u,p,o,s",19,"남",NA,"아니요","일본어","17세","2년"
"k3b_v2_007",6120,"cmoman","ㅊ,ㅡ,ㅁ,ㅗ,ㅁ,ㅏ,ㄴ","""(가능)""",47,"ResponseActual","ch,eu,m,o,m,a,n",19,"남",NA,"아니요","일본어","17세","2년"
"k3b_v2_007",4566,"thwam","ㅌ,ㅗ,ㅏ,ㅁ","""(불가능)""",48,"ResponseActual","th,o,a,m",19,"남",NA,"아니요","일본어","17세","2년"
"k3b_v2_007",4182,"nakhit","ㄴ,ㅏ,ㅋ,ㅣ,ㅅ","""(가능)""",49,"ResponseActual","n,a,kh,i,s",19,"남",NA,"아니요","일본어","17세","2년"
"k3b_v2_007",5701,"tikut","ㄷ,ㅣ,ㄱ,ㅜ,ㅅ","""(불가능)""",50,"ResponseActual","t,i,k,u,s",19,"남",NA,"아니요","일본어","17세","2년"
"k3b_v2_007",5020,"twamot","ㄷ,ㅘ,ㅁ,ㅗ,ㅅ","""(가능)""",51,"ResponseActual","t,wa,m,o,s",19,"남",NA,"아니요","일본어","17세","2년"
"k3b_v2_007",5525,"tnunong","ㄷ,ㅡ,ㄴ,ㅜ,ㄴ,ㅗ,ㅇ","""(가능)""",52,"ResponseActual","t,eu,n,u,n,o,ng",19,"남",NA,"아니요","일본어","17세","2년"
"k3b_v2_007",10263,"chwiphin","ㅊ,ㅟ,ㅍ,ㅣ,ㄴ","""(불가능)""",53,"ResponseActual","ch,wi,ph,i,n",19,"남",NA,"아니요","일본어","17세","2년"
"k3b_v2_007",9125,"nchot","ㅇ,ㅡ,ㄴ,ㅊ,ㅗ,ㅅ","""(불가능)""",54,"ResponseActual","#,eu,n,ch,o,s",19,"남",NA,"아니요","일본어","17세","2년"
"k3b_v2_007",5920,"chunak","ㅊ,ㅜ,ㄴ,ㅏ,ㅅ","""(가능)""",55,"ResponseActual","ch,u,n,a,s",19,"남",NA,"아니요","일본어","17세","2년"
"k3b_v2_007",6249,"nwimik","ㄴ,ㅟ,ㅁ,ㅣ,ㅋ","""(가능)""",56,"ResponseActual","n,wi,m,i,kh",19,"남",NA,"아니요","일본어","17세","2년"
"k3b_v2_007",5990,"swikhat","ㅅ,ㅟ,ㅋ,ㅏ,ㅅ","""(가능)""",57,"ResponseActual","s,wi,kh,a,s",19,"남",NA,"아니요","일본어","17세","2년"
"k3b_v2_007",5470,"chakot","ㅊ,ㅏ,ㄱ,ㅗ,ㅅ","""(가능)""",58,"ResponseActual","ch,a,k,o,s",19,"남",NA,"아니요","일본어","17세","2년"
"k3b_v2_007",8814,"phnokhing","ㅋ,ㅡ,ㄴ,ㅗ,ㅋ,ㅣ,ㅇ","""(가능)""",59,"ResponseActual","kh,eu,n,o,kh,i,ng",19,"남",NA,"아니요","일본어","17세","2년"
"k3b_v2_007",5682,"thnok","ㅋ,ㅡ,ㄴ,ㅗ","""(가능)""",60,"ResponseActual","kh,eu,n,o",19,"남",NA,"아니요","일본어","17세","2년"
"k3b_v2_008",20078,"thukhat","ㅌ,ㅜ,ㅋ,ㅏ,ㅅ","""(가능)""",1,"ResponseActual","th,u,kh,a,s",20,"남자",7,"없음","일본어"," 중국어"," 러시아어"
"k3b_v2_008",6588,"tup","ㄷ,ㅜ,ㅂ","""(가능)""",2,"ResponseActual","t,u,p",20,"남자",7,"없음","일본어"," 중국어"," 러시아어"
"k3b_v2_008",4528,"tin","ㄷ,ㅣ,ㄴ","""(가능)""",3,"ResponseActual","t,i,n",20,"남자",7,"없음","일본어"," 중국어"," 러시아어"
"k3b_v2_008",10719,"phnokhing","ㅍ,ㅡ,ㄴ,ㅗ,ㅂ,ㅋ,ㅣ,ㅇ","""(불가능)""",4,"ResponseActual","ph,eu,n,o,p,kh,i,ng",20,"남자",7,"없음","일본어"," 중국어"," 러시아어"
"k3b_v2_008",7549,"chakot","ㅊ,ㅏ,ㄱ,ㅗ,ㄷ","""(가능)""",5,"ResponseActual","ch,a,k,o,t",20,"남자",7,"없음","일본어"," 중국어"," 러시아어"
"k3b_v2_008",4749,"khin","ㅋ,ㅣ,ㄴ","""(가능)""",6,"ResponseActual","kh,i,n",20,"남자",7,"없음","일본어"," 중국어"," 러시아어"
"k3b_v2_008",11370,"knot","ㅋ,ㅡ,노,ㄷ","""(불가능)""",7,"ResponseActual","kh,eu,노,t",20,"남자",7,"없음","일본어"," 중국어"," 러시아어"
"k3b_v2_008",7897,"khut","ㅋ,ㅜ,ㅅ","""(불가능)""",8,"ResponseActual","kh,u,s",20,"남자",7,"없음","일본어"," 중국어"," 러시아어"
"k3b_v2_008",11212,"nwimik","ㄴ,ㅜ,ㅇ,ㅡ,ㅣ,ㅁ,ㅣ,ㅋ","""(불가능)""",9,"ResponseActual","n,u,#,eu,i,m,i,kh",20,"남자",7,"없음","일본어"," 중국어"," 러시아어"
"k3b_v2_008",10815,"twak","ㄷ,ㅡ,ㅇ,ㅗ,ㅏ,ㄱ","""(불가능)""",10,"ResponseActual","t,eu,#,o,a,k",20,"남자",7,"없음","일본어"," 중국어"," 러시아어"
"k3b_v2_008",12505,"swikhat","ㅅ,ㅟ,ㅋ,ㅏ,ㅅ","""(가능)""",11,"ResponseActual","s,wi,kh,a,s",20,"남자",7,"없음","일본어"," 중국어"," 러시아어"
"k3b_v2_008",50043,"thwikhip","ㅌ,ㅟ,ㅋ,ㅣ,ㅂ","""(불가능)""",12,"ResponseActual","th,wi,kh,i,p",20,"남자",7,"없음","일본어"," 중국어"," 러시아어"
"k3b_v2_008",8537,"cmoman","ㅊ,ㅡ,ㅁ,ㅗ,ㅁ,ㅏ,ㄴ","""(불가능)""",13,"ResponseActual","ch,eu,m,o,m,a,n",20,"남자",7,"없음","일본어"," 중국어"," 러시아어"
"k3b_v2_008",7613,"tikut","ㄷ,ㅣ,ㄱ,ㅜ,ㄷ","""(가능)""",14,"ResponseActual","t,i,k,u,t",20,"남자",7,"없음","일본어"," 중국어"," 러시아어"
"k3b_v2_008",12622,"khnothik","ㅋ,ㅡ,ㄴ,ㅗ,ㅌ,ㅣ,ㄱ","""(불가능)""",15,"ResponseActual","kh,eu,n,o,th,i,k",20,"남자",7,"없음","일본어"," 중국어"," 러시아어"
"k3b_v2_008",8725,"mphosak","ㅇ,ㅡ,ㅁ,ㅍ,ㅗ,ㅅ,ㅏ,ㄱ","""(불가능)""",16,"ResponseActual","#,eu,m,ph,o,s,a,k",20,"남자",7,"없음","일본어"," 중국어"," 러시아어"
"k3b_v2_008",4992,"taphik","ㄷ,ㅏ,ㅍ,ㅣ,ㄱ","""(가능)""",17,"ResponseActual","t,a,ph,i,k",20,"남자",7,"없음","일본어"," 중국어"," 러시아어"
"k3b_v2_008",7382,"nakhit","ㄴ,ㅏ,ㅋ,ㅣ,ㅅ","""(가능)""",18,"ResponseActual","n,a,kh,i,s",20,"남자",7,"없음","일본어"," 중국어"," 러시아어"
"k3b_v2_008",8529,"mkit","ㅇ,ㅡ,ㅁ,ㄱ,ㅣ,ㅅ","""(불가능)""",19,"ResponseActual","#,eu,m,k,i,s",20,"남자",7,"없음","일본어"," 중국어"," 러시아어"
"k3b_v2_008",6480,"phmiman","ㅍ,ㅡ,ㄴ,ㅣ,ㅁ,ㅏ,ㄴ","""(가능)""",20,"ResponseActual","ph,eu,n,i,m,a,n",20,"남자",7,"없음","일본어"," 중국어"," 러시아어"
"k3b_v2_008",6417,"nkat","ㅇ,ㅡ,ㅁ,ㄱ,ㅏ,ㅅ","""(불가능)""",21,"ResponseActual","#,eu,m,k,a,s",20,"남자",7,"없음","일본어"," 중국어"," 러시아어"
"k3b_v2_008",9028,"khnap","ㅋ,ㅡ,ㄴ,ㅏ,ㅂ","""(불가능)""",22,"ResponseActual","kh,eu,n,a,p",20,"남자",7,"없음","일본어"," 중국어"," 러시아어"
"k3b_v2_008",6784,"khwipot","ㅋ,ㅟ,ㅂ,ㅗ,ㅅ","""(가능)""",23,"ResponseActual","kh,wi,p,o,s",20,"남자",7,"없음","일본어"," 중국어"," 러시아어"
"k3b_v2_008",6541,"mphuk","ㅇ,ㅡ,ㅁ,ㅍ,ㅜ","""(불가능)""",24,"ResponseActual","#,eu,m,ph,u",20,"남자",7,"없음","일본어"," 중국어"," 러시아어"
"k3b_v2_008",6344,"khwichon","ㅋ,ㅟ,ㅊ,ㅗ,ㄴ","""(가능)""",25,"ResponseActual","kh,wi,ch,o,n",20,"남자",7,"없음","일본어"," 중국어"," 러시아어"
"k3b_v2_008",8096,"twamot","ㄷ,ㅡ,ㅇ,ㅘ,ㅁ,ㅗ,ㅅ","""(불가능)""",26,"ResponseActual","t,eu,ng,wa,m,o,s",20,"남자",7,"없음","일본어"," 중국어"," 러시아어"
"k3b_v2_008",11383,"pmochun","ㅋ,ㅡ,ㄴ,ㅗ,ㅊ,ㅜ,ㄴ","""(가능)""",27,"ResponseActual","kh,eu,n,o,ch,u,n",20,"남자",7,"없음","일본어"," 중국어"," 러시아어"
"k3b_v2_008",7638,"nkhuchom","ㅇ,ㅡ,ㅁ,ㅋ,ㅜ,ㅊ,ㅗ,ㄴ","""(불가능)""",28,"ResponseActual","#,eu,m,kh,u,ch,o,n",20,"남자",7,"없음","일본어"," 중국어"," 러시아어"
"k3b_v2_008",9951,"npucap","ㅇ,ㅡ,ㅁ,ㅂ,ㅜ,ㅈ,ㅏ,ㅂ","""(불가능)""",29,"ResponseActual","#,eu,m,p,u,c,a,p",20,"남자",7,"없음","일본어"," 중국어"," 러시아어"
"k3b_v2_008",7423,"kmamun","ㅋ,ㅡ,ㅁ,ㅏ,ㅁ,ㅜ,ㄴ","""(불가능)""",30,"ResponseActual","kh,eu,m,a,m,u,n",20,"남자",7,"없음","일본어"," 중국어"," 러시아어"
"k3b_v2_008",7331,"tnunong","ㄷ,ㅡ,ㄴ,ㅜ,ㄴ,ㅗ,ㅇ","""(불가능)""",31,"ResponseActual","t,eu,n,u,n,o,ng",20,"남자",7,"없음","일본어"," 중국어"," 러시아어"
"k3b_v2_008",8561,"nthimong","ㅇ,ㅡ,ㅁ,ㅌ,ㅣ,ㅁ,ㅗ,ㅇ","""(불가능)""",32,"ResponseActual","#,eu,m,th,i,m,o,ng",20,"남자",7,"없음","일본어"," 중국어"," 러시아어"
"k3b_v2_008",8513,"mpukham","ㅇ,ㅡ,ㅁ,ㅂ,ㅜ,ㅋ,ㅏ,ㅁ","""(가능)""",33,"ResponseActual","#,eu,m,p,u,kh,a,m",20,"남자",7,"없음","일본어"," 중국어"," 러시아어"
"k3b_v2_008",8001,"ntakhip","ㅇ,ㅡ,ㅁ,ㄷ,ㅏ,ㅋ,ㅣ,ㅂ","""(불가능)""",34,"ResponseActual","#,eu,m,t,a,kh,i,p",20,"남자",7,"없음","일본어"," 중국어"," 러시아어"
"k3b_v2_008",7274,"chwiphin","ㅊ,ㅟ,ㅍ,ㅣ,ㄴ","""(가능)""",35,"ResponseActual","ch,wi,ph,i,n",20,"남자",7,"없음","일본어"," 중국어"," 러시아어"
"k3b_v2_008",7242,"twan","ㄷ,ㅡ,ㅇ,ㅘ,ㄴ","""(불가능)""",36,"ResponseActual","t,eu,ng,wa,n",20,"남자",7,"없음","일본어"," 중국어"," 러시아어"
"k3b_v2_008",6326,"chmop","ㅊ,ㅣ,ㅁ,ㅗ","""(불가능)""",37,"ResponseActual","ch,i,m,o",20,"남자",7,"없음","일본어"," 중국어"," 러시아어"
"k3b_v2_008",3804,"cwam","ㅈ,ㅘ,ㅁ","""(가능)""",38,"ResponseActual","c,wa,m",20,"남자",7,"없음","일본어"," 중국어"," 러시아어"
"k3b_v2_008",8285,"tmichut","ㄲ,ㅡ,ㄴ,ㅣ,ㅊ,ㅜ,ㄷ","""(불가능)""",39,"ResponseActual","kk,eu,n,i,ch,u,t",20,"남자",7,"없음","일본어"," 중국어"," 러시아어"
"k3b_v2_008",5499,"chwikhong","ㅊ,ㅟ,ㅋ,ㅗ,ㅇ","""(가능)""",40,"ResponseActual","ch,wi,kh,o,ng",20,"남자",7,"없음","일본어"," 중국어"," 러시아어"
"k3b_v2_008",7869,"nchocip","ㅇ,ㅡ,ㅇ,ㅊ,ㅗ,ㅈ,ㅣ,ㅂ","""(불가능)""",41,"ResponseActual","#,eu,ng,ch,o,c,i,p",20,"남자",7,"없음","일본어"," 중국어"," 러시아어"
"k3b_v2_008",7666,"cwit","ㅈ,ㅟ,ㅅ","""(불가능)""",42,"ResponseActual","c,wi,s",20,"남자",7,"없음","일본어"," 중국어"," 러시아어"
"k3b_v2_008",7637,"mthik","ㅇ,ㅡ,ㅁ,ㅌ,ㅣ,ㄱ","""(불가능)""",43,"ResponseActual","#,eu,m,th,i,k",20,"남자",7,"없음","일본어"," 중국어"," 러시아어"
"k3b_v2_008",6847,"chumik","ㅊ,ㅠ,ㅁ,ㅣ,ㄱ","""(불가능)""",44,"ResponseActual","ch,yu,m,i,k",20,"남자",7,"없음","일본어"," 중국어"," 러시아어"
"k3b_v2_008",5901,"mphutam","ㅇ,ㅡ,ㅁ,ㅍ,ㅜ,ㄷ,ㅏ,ㅁ","""(불가능)""",45,"ResponseActual","#,eu,m,ph,u,t,a,m",20,"남자",7,"없음","일본어"," 중국어"," 러시아어"
"k3b_v2_008",7066,"nthaking","ㅇ,ㅡ,ㅁ,ㅌ,ㅏ,ㄱ,ㅣ,ㅇ","""(불가능)""",46,"ResponseActual","#,eu,m,th,a,k,i,ng",20,"남자",7,"없음","일본어"," 중국어"," 러시아어"
"k3b_v2_008",4107,"mup","ㅁ,ㅜ,ㅂ","""(가능)""",47,"ResponseActual","m,u,p",20,"남자",7,"없음","일본어"," 중국어"," 러시아어"
"k3b_v2_008",5706,"cnaphin","ㅊ,ㅡ,ㄴ,ㅏ,ㅍ,ㅣ,ㄴ","""(불가능)""",48,"ResponseActual","ch,eu,n,a,ph,i,n",20,"남자",7,"없음","일본어"," 중국어"," 러시아어"
"k3b_v2_008",7791,"thnok","ㅌ,ㅡ,ㄴ,ㅗ,ㄱ","""(불가능)""",49,"ResponseActual","th,eu,n,o,k",20,"남자",7,"없음","일본어"," 중국어"," 러시아어"
"k3b_v2_008",7548,"mtukin","ㅇ,ㅡ,ㅁ,ㄷ,ㅜ,ㄱ,ㅣ,ㄴ","""(불가능)""",50,"ResponseActual","#,eu,m,t,u,k,i,n",20,"남자",7,"없음","일본어"," 중국어"," 러시아어"
"k3b_v2_008",9108,"twaput","ㄷ,ㅘ,ㅂ,ㅜ,ㄷ","""(가능)""",51,"ResponseActual","t,wa,p,u,t",20,"남자",7,"없음","일본어"," 중국어"," 러시아어"
"k3b_v2_008",4608,"thinok","ㅋ,ㅣ,ㄴ,ㅗ,ㄱ","""(가능)""",52,"ResponseActual","kh,i,n,o,k",20,"남자",7,"없음","일본어"," 중국어"," 러시아어"
"k3b_v2_008",4748,"chunak","ㅊ,ㅜ,ㄴ,ㅏ,ㄱ","""(가능)""",53,"ResponseActual","ch,u,n,a,k",20,"남자",7,"없음","일본어"," 중국어"," 러시아어"
"k3b_v2_008",5518,"chnuk","ㅊ,ㅡ,ㄴ,ㅜ","""(불가능)""",54,"ResponseActual","ch,eu,n,u",20,"남자",7,"없음","일본어"," 중국어"," 러시아어"
"k3b_v2_008",7538,"nchot","ㅇ,ㅡ,ㅇ,ㅊ,ㅛ,ㅅ","""(불가능)""",55,"ResponseActual","#,eu,ng,ch,yo,s",20,"남자",7,"없음","일본어"," 중국어"," 러시아어"
"k3b_v2_008",11379,"thwam","ㅌ,ㅗ,ㅇ,ㅏ,ㅁ","""(가능)""",56,"ResponseActual","th,o,#,a,m",20,"남자",7,"없음","일본어"," 중국어"," 러시아어"
"k3b_v2_008",6247,"khithuk","ㅋ,ㅣ,ㅌ,ㅜ,ㄱ","""(가능)""",57,"ResponseActual","kh,i,th,u,k",20,"남자",7,"없음","일본어"," 중국어"," 러시아어"
"k3b_v2_008",7885,"chnupot","ㅊ,ㅡ,ㄴ,ㅜ,ㅂ,ㅗ,ㅅ","""(불가능)""",58,"ResponseActual","ch,eu,n,u,p,o,s",20,"남자",7,"없음","일본어"," 중국어"," 러시아어"
"k3b_v2_008",4684,"sikot","ㅅ,ㅣ,ㄱ,ㅗ,ㅅ","""(가능)""",59,"ResponseActual","s,i,k,o,s",20,"남자",7,"없음","일본어"," 중국어"," 러시아어"
"k3b_v2_008",8221,"khwiphing","ㅋ,ㅜ,ㅇ,ㅣ,ㅍ,ㅣ,ㅇ","""(가능)""",60,"ResponseActual","kh,u,#,i,ph,i,ng",20,"남자",7,"없음","일본어"," 중국어"," 러시아어"
"k3b_v2_009",39374,"chnupot","ㅆ,ㅡ,ㄴ,ㅜ,ㅂ,ㅗ,ㅅ","""(불가능)""",1,"ResponseActual","ss,eu,n,u,p,o,s",18,"여",NA,"없음","일본어","중3때 1년"," 고2"
"k3b_v2_009",18463,"cwam","ㅈ,ㅘ,ㅁ","""(불가능)""",2,"ResponseActual","c,wa,m",18,"여",NA,"없음","일본어","중3때 1년"," 고2"
"k3b_v2_009",14654,"mphosak","ㅍ,ㅗ,ㅅ,ㅏ,ㄱ","""(가능)""",3,"ResponseActual","ph,o,s,a,k",18,"여",NA,"없음","일본어","중3때 1년"," 고2"
"k3b_v2_009",17193,"tup","ㄷ,ㅜ,ㅂ","""(가능)""",4,"ResponseActual","t,u,p",18,"여",NA,"없음","일본어","중3때 1년"," 고2"
"k3b_v2_009",43033,"chnuk","ㅅ,ㅡ,ㄴ,ㅜ,ㅂ","""(가능)""",5,"ResponseActual","s,eu,n,u,p",18,"여",NA,"없음","일본어","중3때 1년"," 고2"
"k3b_v2_009",15988,"khithuk","ㅋ,ㅣ,ㅌ,ㅜ,ㅂ","""(불가능)""",6,"ResponseActual","kh,i,th,u,p",18,"여",NA,"없음","일본어","중3때 1년"," 고2"
"k3b_v2_009",19031,"khwipot","ㅋ,ㅟ,ㅂ,ㅗ,ㅅ","""(불가능)""",7,"ResponseActual","kh,wi,p,o,s",18,"여",NA,"없음","일본어","중3때 1년"," 고2"
"k3b_v2_009",15931,"mphutam","ㅇ,ㅡ,ㅁ,ㅍ,ㅜ,ㄷ,ㅏ,ㅁ","""(불가능)""",8,"ResponseActual","#,eu,m,ph,u,t,a,m",18,"여",NA,"없음","일본어","중3때 1년"," 고2"
"k3b_v2_009",15068,"knot","ㄱ,ㅡ,ㄴ,ㅗ,ㅅ","""(불가능)""",9,"ResponseActual","k,eu,n,o,s",18,"여",NA,"없음","일본어","중3때 1년"," 고2"
"k3b_v2_009",17510,"mtukin","ㅇ,ㅡ,ㄴ,ㄷ,ㅜ,ㄱ,ㅣ,ㄴ","""(불가능)""",10,"ResponseActual","#,eu,n,t,u,k,i,n",18,"여",NA,"없음","일본어","중3때 1년"," 고2"
"k3b_v2_009",12530,"nkat","ㅇ,ㅣ,ㄱ,ㅏ,ㅅ","""(불가능)""",11,"ResponseActual","#,i,k,a,s",18,"여",NA,"없음","일본어","중3때 1년"," 고2"
"k3b_v2_009",12095,"twak","ㄷ,ㄹ,ㅘ,ㄱ","""(불가능)""",12,"ResponseActual","t,l,wa,k",18,"여",NA,"없음","일본어","중3때 1년"," 고2"
"k3b_v2_009",12844,"nwimik","ㄴ,ㅟ,ㅇ,ㅣ,ㅁ,ㅣ,ㅅ","""(불가능)""",13,"ResponseActual","n,wi,#,i,m,i,s",18,"여",NA,"없음","일본어","중3때 1년"," 고2"
"k3b_v2_009",12702,"swikhat","ㅅ,ㅟ,ㅋ,ㅏ,ㅅ","""(가능)""",14,"ResponseActual","s,wi,kh,a,s",18,"여",NA,"없음","일본어","중3때 1년"," 고2"
"k3b_v2_009",18960,"tnunong","ㅋ,ㅡ,ㄷ,ㅜ,ㄴ,ㅗ,ㅇ","""(불가능)""",15,"ResponseActual","kh,eu,t,u,n,o,ng",18,"여",NA,"없음","일본어","중3때 1년"," 고2"
"k3b_v2_009",21930,"phmiman","ㅍ,ㅡ,ㄴ,ㅣ,ㅁ,ㅏ,ㄴ","""(불가능)""",16,"ResponseActual","ph,eu,n,i,m,a,n",18,"여",NA,"없음","일본어","중3때 1년"," 고2"
"k3b_v2_009",12193,"chumik","ㅊ,ㅜ,ㅁ,ㅣ,ㄱ","""(가능)""",17,"ResponseActual","ch,u,m,i,k",18,"여",NA,"없음","일본어","중3때 1년"," 고2"
"k3b_v2_009",18260,"mpukham","ㅇ,ㅡ,ㅁ,ㅂ,ㅜ,ㅋ,ㅏ,ㅁ","""(불가능)""",18,"ResponseActual","#,eu,m,p,u,kh,a,m",18,"여",NA,"없음","일본어","중3때 1년"," 고2"
"k3b_v2_009",8979,"khnap","ㅋ,ㅡ,ㄴ,ㅏ,ㅂ","""(가능)""",19,"ResponseActual","kh,eu,n,a,p",18,"여",NA,"없음","일본어","중3때 1년"," 고2"
"k3b_v2_009",18024,"thukhat","ㅌ,ㅜ,ㅋ,ㅏ,ㅅ","""(가능)""",20,"ResponseActual","th,u,kh,a,s",18,"여",NA,"없음","일본어","중3때 1년"," 고2"
"k3b_v2_009",13473,"thinok","ㅋ,ㅣ,ㄴ,ㅗ,ㄱ","""(가능)""",21,"ResponseActual","kh,i,n,o,k",18,"여",NA,"없음","일본어","중3때 1년"," 고2"
"k3b_v2_009",9858,"cwit","ㅈ,ㅟ,ㅅ","""(불가능)""",22,"ResponseActual","c,wi,s",18,"여",NA,"없음","일본어","중3때 1년"," 고2"
"k3b_v2_009",14564,"thnok","ㅋ,ㅡ,ㄴ,ㅗ,ㅇ,ㅗ,ㄱ","""(가능)""",23,"ResponseActual","kh,eu,n,o,#,o,k",18,"여",NA,"없음","일본어","중3때 1년"," 고2"
"k3b_v2_009",8183,"sikot","ㅅ,ㅣ,ㄱ,ㅗ,ㅅ","""(가능)""",24,"ResponseActual","s,i,k,o,s",18,"여",NA,"없음","일본어","중3때 1년"," 고2"
"k3b_v2_009",17229,"tmichut","ㄷ,ㅡ,ㅁ,ㅣ,ㅊ,ㅜ,ㅅ","""(불가능)""",25,"ResponseActual","t,eu,m,i,ch,u,s",18,"여",NA,"없음","일본어","중3때 1년"," 고2"
"k3b_v2_009",13269,"khwiphing","ㅋ,ㅟ,ㅍ,ㅣ,ㅇ","""(가능)""",26,"ResponseActual","kh,wi,ph,i,ng",18,"여",NA,"없음","일본어","중3때 1년"," 고2"
"k3b_v2_009",19377,"chunak","ㅊ,ㅜ,ㄴ,ㅏ,ㅅ","""(가능)""",27,"ResponseActual","ch,u,n,a,s",18,"여",NA,"없음","일본어","중3때 1년"," 고2"
"k3b_v2_009",8635,"tin","ㄷ,ㅣ,ㄴ","""(가능)""",28,"ResponseActual","t,i,n",18,"여",NA,"없음","일본어","중3때 1년"," 고2"
"k3b_v2_009",14550,"khnothik","ㅋ,ㅡ,ㄴ,ㅗ,ㅌ,ㅣ,ㄱ","""(불가능)""",29,"ResponseActual","kh,eu,n,o,th,i,k",18,"여",NA,"없음","일본어","중3때 1년"," 고2"
"k3b_v2_009",9904,"chwikhong","ㅊ,ㅟ,ㅋ,ㅗ,ㅇ","""(가능)""",30,"ResponseActual","ch,wi,kh,o,ng",18,"여",NA,"없음","일본어","중3때 1년"," 고2"
"k3b_v2_009",14580,"chakot","ㅊ,ㅏ,ㄱ,ㅗ,ㅅ","""(가능)""",31,"ResponseActual","ch,a,k,o,s",18,"여",NA,"없음","일본어","중3때 1년"," 고2"
"k3b_v2_009",14996,"nkhuchom","ㅇ,ㅡ,ㅁ,ㄱ,ㅗ,ㅊ,ㅕ,ㅆ","""(불가능)""",32,"ResponseActual","#,eu,m,k,o,ch,yeo,ss",18,"여",NA,"없음","일본어","중3때 1년"," 고2"
"k3b_v2_009",13930,"twaput","ㄷ,ㅘ,ㅂ,ㅜ,ㅅ","""(불가능)""",33,"ResponseActual","t,wa,p,u,s",18,"여",NA,"없음","일본어","중3때 1년"," 고2"
"k3b_v2_009",8711,"mup","ㅁ,ㅜ,ㅂ","""(가능)""",34,"ResponseActual","m,u,p",18,"여",NA,"없음","일본어","중3때 1년"," 고2"
"k3b_v2_009",12180,"nchot","ㅇ,ㅡ,ㅁ,ㅊ,ㅜ,ㅅ","""(불가능)""",35,"ResponseActual","#,eu,m,ch,u,s",18,"여",NA,"없음","일본어","중3때 1년"," 고2"
"k3b_v2_009",11255,"nthaking","ㅇ,ㅡ,ㅁ,ㅌ,ㅏ,ㄱ,ㅣ,ㅇ","""(불가능)""",36,"ResponseActual","#,eu,m,th,a,k,i,ng",18,"여",NA,"없음","일본어","중3때 1년"," 고2"
"k3b_v2_009",11616,"cmoman","ㅊ,ㅡ,ㅁ,ㅗ,ㅁ,ㅏ,ㅇ","""(불가능)""",37,"ResponseActual","ch,eu,m,o,m,a,ng",18,"여",NA,"없음","일본어","중3때 1년"," 고2"
"k3b_v2_009",10700,"cnaphin","ㅊ,ㅡ,ㄴ,ㅏ,ㅍ,ㅣ,ㅇ","""(불가능)""",38,"ResponseActual","ch,eu,n,a,ph,i,ng",18,"여",NA,"없음","일본어","중3때 1년"," 고2"
"k3b_v2_009",11633,"npucap","ㅇ,ㅡ,ㅁ,ㅂ,ㅜ,ㅈ,ㅏ,ㅂ","""(가능)""",39,"ResponseActual","#,eu,m,p,u,c,a,p",18,"여",NA,"없음","일본어","중3때 1년"," 고2"
"k3b_v2_009",10729,"mphuk","ㅇ,ㅡ,ㅁ,ㅍ,ㅜ,ㄱ","""(가능)""",40,"ResponseActual","#,eu,m,ph,u,k",18,"여",NA,"없음","일본어","중3때 1년"," 고2"
"k3b_v2_009",10169,"pmochun","ㅂ,ㅡ,ㅁ,ㅡ,ㅊ,ㅜ,ㄴ","""(불가능)""",41,"ResponseActual","p,eu,m,eu,ch,u,n",18,"여",NA,"없음","일본어","중3때 1년"," 고2"
"k3b_v2_009",13916,"phnokhing","ㅍ,ㅡ,ㄴ,ㅗ,ㅋ,ㅣ,ㅇ","""(가능)""",42,"ResponseActual","ph,eu,n,o,kh,i,ng",18,"여",NA,"없음","일본어","중3때 1년"," 고2"
"k3b_v2_009",20120,"twan","ㄷ,ㅗ,ㅏ,ㄴ","""(불가능)""",43,"ResponseActual","t,o,a,n",18,"여",NA,"없음","일본어","중3때 1년"," 고2"
"k3b_v2_009",14172,"twamot","ㄷ,ㅘ,ㅁ,ㅗ,ㅅ","""(가능)""",44,"ResponseActual","t,wa,m,o,s",18,"여",NA,"없음","일본어","중3때 1년"," 고2"
"k3b_v2_009",17745,"thwikhip","ㅌ,ㅟ,ㅋ,ㅣ,ㅅ","""(불가능)""",45,"ResponseActual","th,wi,kh,i,s",18,"여",NA,"없음","일본어","중3때 1년"," 고2"
"k3b_v2_009",10596,"ntakhip","ㅇ,ㅡ,ㅁ,ㄷ,ㅏ,ㅋ,ㅣ,ㅅ","""(불가능)""",46,"ResponseActual","#,eu,m,t,a,kh,i,s",18,"여",NA,"없음","일본어","중3때 1년"," 고2"
"k3b_v2_009",6141,"khin","ㅋ,ㅣ,ㄴ","""(가능)""",47,"ResponseActual","kh,i,n",18,"여",NA,"없음","일본어","중3때 1년"," 고2"
"k3b_v2_009",12468,"kmamun","ㅋ,ㅡ,ㅁ,ㅏ,ㅁ,ㅜ,ㄴ","""(가능)""",48,"ResponseActual","kh,eu,m,a,m,u,n",18,"여",NA,"없음","일본어","중3때 1년"," 고2"
"k3b_v2_009",9815,"thwam","ㅌ,ㅘ,ㅁ","""(불가능)""",49,"ResponseActual","th,wa,m",18,"여",NA,"없음","일본어","중3때 1년"," 고2"
"k3b_v2_009",13012,"nchocip","ㅇ,ㅡ,ㅁ,ㅊ,ㅗ,ㅈ,ㅣ,ㅅ","""(불가능)""",50,"ResponseActual","#,eu,m,ch,o,c,i,s",18,"여",NA,"없음","일본어","중3때 1년"," 고2"
"k3b_v2_009",7514,"chmop","ㅊ,ㅡ,ㅁ,ㅗ,ㄱ","""(가능)""",51,"ResponseActual","ch,eu,m,o,k",18,"여",NA,"없음","일본어","중3때 1년"," 고2"
"k3b_v2_009",8062,"mthik","ㅇ,ㅡ,ㅁ,ㅌ,ㅣ,ㄱ","""(가능)""",52,"ResponseActual","#,eu,m,th,i,k",18,"여",NA,"없음","일본어","중3때 1년"," 고2"
"k3b_v2_009",9530,"tikut","ㄷ,ㅣ,ㄱ,ㅜ,ㅅ","""(가능)""",53,"ResponseActual","t,i,k,u,s",18,"여",NA,"없음","일본어","중3때 1년"," 고2"
"k3b_v2_009",12106,"nakhit","ㄴ,ㅏ,ㄱ,ㅋ,ㅣ,ㅅ","""(불가능)""",54,"ResponseActual","n,a,k,kh,i,s",18,"여",NA,"없음","일본어","중3때 1년"," 고2"
"k3b_v2_009",9869,"chwiphin","ㅊ,ㅟ,ㅍ,ㅣ,ㄴ","""(가능)""",55,"ResponseActual","ch,wi,ph,i,n",18,"여",NA,"없음","일본어","중3때 1년"," 고2"
"k3b_v2_009",10112,"khwichon","ㅋ,ㅟ,ㅊ,ㅗ,ㄴ","""(가능)""",56,"ResponseActual","kh,wi,ch,o,n",18,"여",NA,"없음","일본어","중3때 1년"," 고2"
"k3b_v2_009",9961,"mkit","ㅇ,ㅡ,ㅁ,ㄱ,ㅣ,ㅅ","""(불가능)""",57,"ResponseActual","#,eu,m,k,i,s",18,"여",NA,"없음","일본어","중3때 1년"," 고2"
"k3b_v2_009",7628,"taphik","ㄷ,ㅏ,ㅍ,ㅣ,ㄱ","""(가능)""",58,"ResponseActual","t,a,ph,i,k",18,"여",NA,"없음","일본어","중3때 1년"," 고2"
"k3b_v2_009",6586,"khut","ㅋ,ㅜ,ㅅ","""(가능)""",59,"ResponseActual","kh,u,s",18,"여",NA,"없음","일본어","중3때 1년"," 고2"
"k3b_v2_009",16490,"nthimong","ㅇ,ㅡ,ㅁ,ㅌ,ㅣ,ㅁ,ㅗ,ㅇ","""(불가능)""",60,"ResponseActual","#,eu,m,th,i,m,o,ng",18,"여",NA,"없음","일본어","중3때 1년"," 고2"
"k3b_v2_010",19929,"knot","ㄲ,ㅡ,ㄴ,ㅗ,ㅊ","""(불가능)""",1,"ResponseActual","kk,eu,n,o,ch",23,"남",7,"없습니다.","중국어","18살"," 1년"
"k3b_v2_010",7684,"kmamun","ㄱ,ㅡ,ㄴ,ㅏ,ㅁ,ㅜ,ㄴ","""(가능)""",2,"ResponseActual","k,eu,n,a,m,u,n",23,"남",7,"없습니다.","중국어","18살"," 1년"
"k3b_v2_010",17077,"cwit","ㅈ,ㅟ,ㅅ","""(가능)""",3,"ResponseActual","c,wi,s",23,"남",7,"없습니다.","중국어","18살"," 1년"
"k3b_v2_010",13834,"mphosak","ㅇ,ㅡ,ㅁ,ㅍ,ㅗ,ㅅ,ㅏ,ㄱ","""(가능)""",4,"ResponseActual","#,eu,m,ph,o,s,a,k",23,"남",7,"없습니다.","중국어","18살"," 1년"
"k3b_v2_010",6332,"chwikhong","ㅊ,ㅣ,ㅋ,ㅗ,ㅇ","""(가능)""",5,"ResponseActual","ch,i,kh,o,ng",23,"남",7,"없습니다.","중국어","18살"," 1년"
"k3b_v2_010",8388,"khwichon","ㅋ,ㅟ,ㅊ,ㅗ,ㄴ","""(가능)""",6,"ResponseActual","kh,wi,ch,o,n",23,"남",7,"없습니다.","중국어","18살"," 1년"
"k3b_v2_010",7603,"chunak","ㅊ,ㅜ,ㄴ,ㅏ,ㄱ","""(가능)""",7,"ResponseActual","ch,u,n,a,k",23,"남",7,"없습니다.","중국어","18살"," 1년"
"k3b_v2_010",7485,"khwipot","ㅌ,ㅟ,ㅂ,ㅗ,ㅅ","""(가능)""",8,"ResponseActual","th,wi,p,o,s",23,"남",7,"없습니다.","중국어","18살"," 1년"
"k3b_v2_010",14793,"khut","ㅋ,ㅜ,ㅅ","""(불가능)""",9,"ResponseActual","kh,u,s",23,"남",7,"없습니다.","중국어","18살"," 1년"
"k3b_v2_010",10450,"mkit","ㅁ,ㅡ,ㄱ,ㅣ,ㅅ","""(불가능)""",10,"ResponseActual","m,eu,k,i,s",23,"남",7,"없습니다.","중국어","18살"," 1년"
"k3b_v2_010",9181,"thnok","ㅍ,ㅡ,ㄴ,ㅗ,ㄱ","""(불가능)""",11,"ResponseActual","ph,eu,n,o,k",23,"남",7,"없습니다.","중국어","18살"," 1년"
"k3b_v2_010",6576,"khwiphing","ㅋ,ㅟ,ㅍ,ㅣ,ㅇ","""(불가능)""",12,"ResponseActual","kh,wi,ph,i,ng",23,"남",7,"없습니다.","중국어","18살"," 1년"
"k3b_v2_010",5394,"cwam","ㅈ,ㅘ,ㅁ","""(가능)""",13,"ResponseActual","c,wa,m",23,"남",7,"없습니다.","중국어","18살"," 1년"
"k3b_v2_010",8110,"khithuk","ㅊ,ㅣ,ㅌ,ㅜ,ㄱ","""(불가능)""",14,"ResponseActual","ch,i,th,u,k",23,"남",7,"없습니다.","중국어","18살"," 1년"
"k3b_v2_010",6186,"thwam","ㅌ,ㅘ,ㅁ","""(가능)""",15,"ResponseActual","th,wa,m",23,"남",7,"없습니다.","중국어","18살"," 1년"
"k3b_v2_010",8103,"mphutam","ㅇ,ㅜ,ㅁ,ㅍ,ㅡ,ㄷ,ㅏ,ㅁ","""(가능)""",16,"ResponseActual","#,u,m,ph,eu,t,a,m",23,"남",7,"없습니다.","중국어","18살"," 1년"
"k3b_v2_010",6471,"nkat","ㅇ,ㅡ,ㅇ,ㄱ,ㅏ,ㅅ","""(불가능)""",17,"ResponseActual","#,eu,ng,k,a,s",23,"남",7,"없습니다.","중국어","18살"," 1년"
"k3b_v2_010",9402,"twamot","ㄷ,ㅘ,ㅂ,ㅗ,ㅅ","""(불가능)""",18,"ResponseActual","t,wa,p,o,s",23,"남",7,"없습니다.","중국어","18살"," 1년"
"k3b_v2_010",12196,"nthaking","ㅇ,ㅡ,ㅇ,ㅌ,ㅏ,ㄱ,ㅣ,ㅇ","""(불가능)""",19,"ResponseActual","#,eu,ng,th,a,k,i,ng",23,"남",7,"없습니다.","중국어","18살"," 1년"
"k3b_v2_010",7686,"chakot","ㅊ,ㅑ,ㄱ,ㅗ,ㅅ","""(불가능)""",20,"ResponseActual","ch,ya,k,o,s",23,"남",7,"없습니다.","중국어","18살"," 1년"
"k3b_v2_010",8050,"tmichut","ㅁ,ㅣ,ㅌ,ㅠ,ㅅ","""(불가능)""",21,"ResponseActual","m,i,th,yu,s",23,"남",7,"없습니다.","중국어","18살"," 1년"
"k3b_v2_010",6743,"mphuk","ㅇ,ㅡ,ㅁ,ㅍ,ㅜ,ㄱ","""(가능)""",22,"ResponseActual","#,eu,m,ph,u,k",23,"남",7,"없습니다.","중국어","18살"," 1년"
"k3b_v2_010",12028,"nkhuchom","ㅇ,ㅡ,ㅇ,ㅋ,ㅜ,ㅊ,ㅓ,ㅁ","""(가능)""",23,"ResponseActual","#,eu,ng,kh,u,ch,eo,m",23,"남",7,"없습니다.","중국어","18살"," 1년"
"k3b_v2_010",7275,"tnunong","ㅌ,ㅡ,ㄴ,ㅜ,ㄴ,ㅗ,ㅇ","""(불가능)""",24,"ResponseActual","th,eu,n,u,n,o,ng",23,"남",7,"없습니다.","중국어","18살"," 1년"
"k3b_v2_010",7450,"chnuk","ㅅ,ㅡ,ㄴ,ㅜ,ㄱ","""(가능)""",25,"ResponseActual","s,eu,n,u,k",23,"남",7,"없습니다.","중국어","18살"," 1년"
"k3b_v2_010",4574,"tin","ㄷ,ㅣ,ㄴ","""(가능)""",26,"ResponseActual","t,i,n",23,"남",7,"없습니다.","중국어","18살"," 1년"
"k3b_v2_010",5292,"khin","ㅌ,ㅣ,ㄴ","""(가능)""",27,"ResponseActual","th,i,n",23,"남",7,"없습니다.","중국어","18살"," 1년"
"k3b_v2_010",9889,"khnothik","ㅋ,ㅡ,ㄴ,ㅗ,ㅅ,ㅌ,ㅣ,ㄱ","""(불가능)""",28,"ResponseActual","kh,eu,n,o,s,th,i,k",23,"남",7,"없습니다.","중국어","18살"," 1년"
"k3b_v2_010",5177,"mup","ㅁ,ㅜ,ㅅ","""(가능)""",29,"ResponseActual","m,u,s",23,"남",7,"없습니다.","중국어","18살"," 1년"
"k3b_v2_010",5241,"chumik","ㅊ,ㅠ,ㅁ,ㅣ,ㄱ","""(가능)""",30,"ResponseActual","ch,yu,m,i,k",23,"남",7,"없습니다.","중국어","18살"," 1년"
"k3b_v2_010",6422,"phmiman","ㅍ,ㅡ,ㅁ,ㅣ,ㅁ,ㅏ,ㄴ","""(불가능)""",31,"ResponseActual","ph,eu,m,i,m,a,n",23,"남",7,"없습니다.","중국어","18살"," 1년"
"k3b_v2_010",8784,"chmop","ㅊ,ㅡ,ㄴ,ㅗ,ㄱ","""(불가능)""",32,"ResponseActual","ch,eu,n,o,k",23,"남",7,"없습니다.","중국어","18살"," 1년"
"k3b_v2_010",16036,"ntakhip","ㅇ,ㅡ,ㅇ,ㄷ,ㅏ,ㅅ,ㅋ,ㅣ","""(가능)""",33,"ResponseActual","#,eu,ng,t,a,s,kh,i",23,"남",7,"없습니다.","중국어","18살"," 1년"
"k3b_v2_010",8222,"cmoman","ㅊ,ㅡ,ㄴ,ㅗ,ㅁ,ㅏ,ㄴ","""(가능)""",34,"ResponseActual","ch,eu,n,o,m,a,n",23,"남",7,"없습니다.","중국어","18살"," 1년"
"k3b_v2_010",7576,"thwikhip","ㅌ,ㅟ,ㅋ,ㅣ,ㅅ","""(불가능)""",35,"ResponseActual","th,wi,kh,i,s",23,"남",7,"없습니다.","중국어","18살"," 1년"
"k3b_v2_010",7852,"twaput","ㄷ,ㅘ,ㅂ,ㅜ,ㅅ","""(불가능)""",36,"ResponseActual","t,wa,p,u,s",23,"남",7,"없습니다.","중국어","18살"," 1년"
"k3b_v2_010",3998,"tup","ㄷ,ㅜ,ㅂ","""(가능)""",37,"ResponseActual","t,u,p",23,"남",7,"없습니다.","중국어","18살"," 1년"
"k3b_v2_010",4284,"twan","ㄷ,ㅘ,ㄴ","""(가능)""",38,"ResponseActual","t,wa,n",23,"남",7,"없습니다.","중국어","18살"," 1년"
"k3b_v2_010",8408,"nchocip","ㅇ,ㅡ,ㅁ,ㅊ,ㅛ,ㅈ,ㅣ,ㅂ","""(불가능)""",39,"ResponseActual","#,eu,m,ch,yo,c,i,p",23,"남",7,"없습니다.","중국어","18살"," 1년"
"k3b_v2_010",7074,"taphik","ㄷ,ㅏ,ㅍ,ㅣ,ㄱ","""(가능)""",40,"ResponseActual","t,a,ph,i,k",23,"남",7,"없습니다.","중국어","18살"," 1년"
"k3b_v2_010",7180,"chnupot","ㅊ,ㅡ,ㄴ,ㅜ,ㅂ,ㅗ,ㅅ","""(가능)""",41,"ResponseActual","ch,eu,n,u,p,o,s",23,"남",7,"없습니다.","중국어","18살"," 1년"
"k3b_v2_010",7110,"swikhat","ㅅ,ㅟ,ㅋ,ㅏ,ㅅ","""(불가능)""",42,"ResponseActual","s,wi,kh,a,s",23,"남",7,"없습니다.","중국어","18살"," 1년"
"k3b_v2_010",7985,"pmochun","ㄱ,ㅡ,ㄴ,ㅜ,ㅊ,ㅜ,ㄴ","""(불가능)""",43,"ResponseActual","k,eu,n,u,ch,u,n",23,"남",7,"없습니다.","중국어","18살"," 1년"
"k3b_v2_010",9240,"phnokhing","ㅍ,ㅡ,ㄴ,ㅗ,ㅋ,ㅣ,ㅇ","""(불가능)""",44,"ResponseActual","ph,eu,n,o,kh,i,ng",23,"남",7,"없습니다.","중국어","18살"," 1년"
"k3b_v2_010",6143,"mthik","ㅇ,ㅡ,ㅁ,ㅍ,ㅣ,ㄱ","""(불가능)""",45,"ResponseActual","#,eu,m,ph,i,k",23,"남",7,"없습니다.","중국어","18살"," 1년"
"k3b_v2_010",4018,"twak","ㄷ,ㅘ,ㄱ","""(불가능)""",46,"ResponseActual","t,wa,k",23,"남",7,"없습니다.","중국어","18살"," 1년"
"k3b_v2_010",7699,"nakhit","ㄴ,ㅏ,ㄱ,ㅋ,ㅣ,ㅅ","""(불가능)""",47,"ResponseActual","n,a,k,kh,i,s",23,"남",7,"없습니다.","중국어","18살"," 1년"
"k3b_v2_010",7102,"mpukham","ㅇ,ㅡ,ㅁ,ㅂ,ㅜ,ㅋ,ㅏ,ㄴ","""(불가능)""",48,"ResponseActual","#,eu,m,p,u,kh,a,n",23,"남",7,"없습니다.","중국어","18살"," 1년"
"k3b_v2_010",6110,"sikot","ㅅ,ㅣ,ㄱ,ㅗ,ㅅ","""(가능)""",49,"ResponseActual","s,i,k,o,s",23,"남",7,"없습니다.","중국어","18살"," 1년"
"k3b_v2_010",9269,"npucap","ㅇ,ㅡ,ㅁ,ㅂ,ㅜ,ㅈ,ㅏ,ㅂ","""(불가능)""",50,"ResponseActual","#,eu,m,p,u,c,a,p",23,"남",7,"없습니다.","중국어","18살"," 1년"
"k3b_v2_010",10150,"cnaphin","ㅊ,ㅡ,ㄴ,ㅏ,ㅍ,ㅣ,ㄴ","""(불가능)""",51,"ResponseActual","ch,eu,n,a,ph,i,n",23,"남",7,"없습니다.","중국어","18살"," 1년"
"k3b_v2_010",5629,"khnap","ㅋ,ㅡ,ㄴ,ㅏ,ㅂ","""(불가능)""",52,"ResponseActual","kh,eu,n,a,p",23,"남",7,"없습니다.","중국어","18살"," 1년"
"k3b_v2_010",6414,"thinok","ㅌ,ㅣ,ㄴ,ㅗ,ㄱ","""(가능)""",53,"ResponseActual","th,i,n,o,k",23,"남",7,"없습니다.","중국어","18살"," 1년"
"k3b_v2_010",6713,"nwimik","ㄴ,ㅟ,ㅁ,ㅣ,ㄱ","""(불가능)""",54,"ResponseActual","n,wi,m,i,k",23,"남",7,"없습니다.","중국어","18살"," 1년"
"k3b_v2_010",6228,"chwiphin","ㅊ,ㅟ,ㅍ,ㅣ,ㄴ","""(불가능)""",55,"ResponseActual","ch,wi,ph,i,n",23,"남",7,"없습니다.","중국어","18살"," 1년"
"k3b_v2_010",8887,"mtukin","ㅇ,ㅡ,ㅁ,ㄷ,ㅜ,ㄱ,ㅣ,ㄴ","""(불가능)""",56,"ResponseActual","#,eu,m,t,u,k,i,n",23,"남",7,"없습니다.","중국어","18살"," 1년"
"k3b_v2_010",8720,"nthimong","ㅇ,ㅡ,ㅁ,ㅌ,ㅣ,ㅁ,ㅗ,ㅇ","""(불가능)""",57,"ResponseActual","#,eu,m,th,i,m,o,ng",23,"남",7,"없습니다.","중국어","18살"," 1년"
"k3b_v2_010",6372,"thukhat","ㅌ,ㅜ,ㅋ,ㅏ,ㅅ","""(가능)""",58,"ResponseActual","th,u,kh,a,s",23,"남",7,"없습니다.","중국어","18살"," 1년"
"k3b_v2_010",6066,"tikut","ㄷ,ㅟ,ㄱ,ㅜ,ㅅ","""(가능)""",59,"ResponseActual","t,wi,k,u,s",23,"남",7,"없습니다.","중국어","18살"," 1년"
"k3b_v2_010",7512,"nchot","ㅇ,ㅡ,ㅁ,ㅊ,ㅗ,ㅅ","""(불가능)""",60,"ResponseActual","#,eu,m,ch,o,s",23,"남",7,"없습니다.","중국어","18살"," 1년"
"k3b_v2_011",14054,"nthaking","ㄴ,ㅣ,ㅌ,ㅏ,ㄱ,ㅣ,ㅇ","""(가능)""",1,"ResponseActual","n,i,th,a,k,i,ng",20,"남자",NA,"없어요.","일본어","19살 "," 1년"
"k3b_v2_011",5333,"mup","ㄴ,ㅣ,ㅅ","""(가능)""",2,"ResponseActual","n,i,s",20,"남자",NA,"없어요.","일본어","19살 "," 1년"
"k3b_v2_011",9709,"phnokhing","ㅍ,ㅡ,ㄴ,ㅗ,ㅋ,ㅣ,ㅇ","""(가능)""",3,"ResponseActual","ph,eu,n,o,kh,i,ng",20,"남자",NA,"없어요.","일본어","19살 "," 1년"
"k3b_v2_011",10199,"mphuk","ㅇ,ㅡ,ㅁ,ㅍ,ㅜ,ㄱ","""(불가능)""",4,"ResponseActual","#,eu,m,ph,u,k",20,"남자",NA,"없어요.","일본어","19살 "," 1년"
"k3b_v2_011",6494,"mkit","ㅇ,ㅡ,ㅁ,ㄱ,ㅣ,ㅅ","""(불가능)""",5,"ResponseActual","#,eu,m,k,i,s",20,"남자",NA,"없어요.","일본어","19살 "," 1년"
"k3b_v2_011",6660,"tmichut","ㄴ,ㅣ,ㅊ,ㅜ,ㅅ","""(불가능)""",6,"ResponseActual","n,i,ch,u,s",20,"남자",NA,"없어요.","일본어","19살 "," 1년"
"k3b_v2_011",7109,"cwit","ㅈ,ㅟ,ㅅ","""(가능)""",7,"ResponseActual","c,wi,s",20,"남자",NA,"없어요.","일본어","19살 "," 1년"
"k3b_v2_011",5195,"twak","ㄷ,ㅘ,ㄱ","""(가능)""",8,"ResponseActual","t,wa,k",20,"남자",NA,"없어요.","일본어","19살 "," 1년"
"k3b_v2_011",4600,"khin","ㅋ,ㅣ,ㄴ","""(가능)""",9,"ResponseActual","kh,i,n",20,"남자",NA,"없어요.","일본어","19살 "," 1년"
"k3b_v2_011",6181,"twamot","ㄷ,ㅘ,ㅁ,ㅗ,ㅅ","""(가능)""",10,"ResponseActual","t,wa,m,o,s",20,"남자",NA,"없어요.","일본어","19살 "," 1년"
"k3b_v2_011",4466,"sikot","ㅅ,ㅣ,ㄱ,ㅗ,ㅅ","""(가능)""",11,"ResponseActual","s,i,k,o,s",20,"남자",NA,"없어요.","일본어","19살 "," 1년"
"k3b_v2_011",4270,"chumik","ㅊ,ㅜ,ㅁ,ㅣ,ㄱ","""(가능)""",12,"ResponseActual","ch,u,m,i,k",20,"남자",NA,"없어요.","일본어","19살 "," 1년"
"k3b_v2_011",5093,"chmop","ㅊ,ㅡ,ㅁ,ㅗ,ㅂ","""(가능)""",13,"ResponseActual","ch,eu,m,o,p",20,"남자",NA,"없어요.","일본어","19살 "," 1년"
"k3b_v2_011",4596,"chakot","ㅊ,ㅏ,ㄱ,ㅗ,ㅅ","""(가능)""",14,"ResponseActual","ch,a,k,o,s",20,"남자",NA,"없어요.","일본어","19살 "," 1년"
"k3b_v2_011",4204,"thnok","ㅍ,ㅡ,ㄴ,ㅗ,ㅂ","""(가능)""",15,"ResponseActual","ph,eu,n,o,p",20,"남자",NA,"없어요.","일본어","19살 "," 1년"
"k3b_v2_011",4083,"khnap","ㅋ,ㅡ,ㄴ,ㅏ,ㅂ","""(가능)""",16,"ResponseActual","kh,eu,n,a,p",20,"남자",NA,"없어요.","일본어","19살 "," 1년"
"k3b_v2_011",6767,"mphutam","ㅁ,ㅣ,ㅍ,ㅜ,ㄷ,ㅏ,ㅁ","""(불가능)""",17,"ResponseActual","m,i,ph,u,t,a,m",20,"남자",NA,"없어요.","일본어","19살 "," 1년"
"k3b_v2_011",4550,"chunak","ㅊ,ㅜ,ㄴ,ㅏ,ㅋ","""(가능)""",18,"ResponseActual","ch,u,n,a,kh",20,"남자",NA,"없어요.","일본어","19살 "," 1년"
"k3b_v2_011",4704,"chwikhong","ㅊ,ㅟ,ㅋ,ㅗ,ㅇ","""(가능)""",19,"ResponseActual","ch,wi,kh,o,ng",20,"남자",NA,"없어요.","일본어","19살 "," 1년"
"k3b_v2_011",5395,"khwichon","ㅋ,ㅟ,ㅊ,ㅗ,ㄴ","""(가능)""",20,"ResponseActual","kh,wi,ch,o,n",20,"남자",NA,"없어요.","일본어","19살 "," 1년"
"k3b_v2_011",4994,"nthimong","ㄴ,ㅡ,ㅌ,ㅣ,ㅁ,ㅗ,ㅇ","""(불가능)""",21,"ResponseActual","n,eu,th,i,m,o,ng",20,"남자",NA,"없어요.","일본어","19살 "," 1년"
"k3b_v2_011",4706,"swikhat","ㅅ,ㅟ,ㄱ,ㅏ,ㅅ","""(가능)""",22,"ResponseActual","s,wi,k,a,s",20,"남자",NA,"없어요.","일본어","19살 "," 1년"
"k3b_v2_011",5422,"taphik","ㄷ,ㅏ,ㅍ,ㅣ,ㄱ","""(가능)""",23,"ResponseActual","t,a,ph,i,k",20,"남자",NA,"없어요.","일본어","19살 "," 1년"
"k3b_v2_011",5953,"cnaphin","ㅊ,ㅡ,ㄴ,ㅏ,ㅍ,ㅣ,ㄴ","""(가능)""",24,"ResponseActual","ch,eu,n,a,ph,i,n",20,"남자",NA,"없어요.","일본어","19살 "," 1년"
"k3b_v2_011",5057,"khnothik","ㅋ,ㅡ,ㄴ,ㅗ,ㅍ,ㅣ,ㄱ","""(가능)""",25,"ResponseActual","kh,eu,n,o,ph,i,k",20,"남자",NA,"없어요.","일본어","19살 "," 1년"
"k3b_v2_011",10881,"mpukham","ㅁ,ㅡ,ㅂ,ㅜ,ㅋ,ㅏ,ㅁ","""(가능)""",26,"ResponseActual","m,eu,p,u,kh,a,m",20,"남자",NA,"없어요.","일본어","19살 "," 1년"
"k3b_v2_011",6962,"khwipot","ㅋ,ㅟ,ㅂ,ㅗ,ㅅ","""(가능)""",27,"ResponseActual","kh,wi,p,o,s",20,"남자",NA,"없어요.","일본어","19살 "," 1년"
"k3b_v2_011",6686,"twaput","ㄷ,ㅘ,ㅂ,ㅜ,ㅅ","""(가능)""",28,"ResponseActual","t,wa,p,u,s",20,"남자",NA,"없어요.","일본어","19살 "," 1년"
"k3b_v2_011",7990,"kmamun","ㄱ,ㅡ,ㅁ,ㅏ,ㅁ,ㅜ,ㄴ","""(가능)""",29,"ResponseActual","k,eu,m,a,m,u,n",20,"남자",NA,"없어요.","일본어","19살 "," 1년"
"k3b_v2_011",9877,"ntakhip","ㅇ,ㅡ,ㅁ,ㄷ,ㅏ,ㅋ,ㅟ,ㅅ","""(불가능)""",30,"ResponseActual","#,eu,m,t,a,kh,wi,s",20,"남자",NA,"없어요.","일본어","19살 "," 1년"
"k3b_v2_011",8695,"nakhit","ㄴ,ㅏ,ㅋ,ㅟ,ㅅ","""(가능)""",31,"ResponseActual","n,a,kh,wi,s",20,"남자",NA,"없어요.","일본어","19살 "," 1년"
"k3b_v2_011",4925,"twan","ㄷ,ㅘ,ㄴ","""(가능)""",32,"ResponseActual","t,wa,n",20,"남자",NA,"없어요.","일본어","19살 "," 1년"
"k3b_v2_011",5227,"thinok","ㅍ,ㅣ,ㄴ,ㅗ,ㄱ","""(가능)""",33,"ResponseActual","ph,i,n,o,k",20,"남자",NA,"없어요.","일본어","19살 "," 1년"
"k3b_v2_011",5910,"mthik","ㅁ,ㅡ,ㅁ,ㅍ,ㅣ,ㄱ","""(불가능)""",34,"ResponseActual","m,eu,m,ph,i,k",20,"남자",NA,"없어요.","일본어","19살 "," 1년"
"k3b_v2_011",4499,"tup","ㄷ,ㅜ,ㅂ","""(가능)""",35,"ResponseActual","t,u,p",20,"남자",NA,"없어요.","일본어","19살 "," 1년"
"k3b_v2_011",3586,"khut","ㅋ,ㅜ,ㅅ","""(가능)""",36,"ResponseActual","kh,u,s",20,"남자",NA,"없어요.","일본어","19살 "," 1년"
"k3b_v2_011",7213,"nchocip","ㅁ,ㅡ,ㅁ,ㅊ,ㅗ,ㅈ,ㅣ,ㅂ","""(불가능)""",37,"ResponseActual","m,eu,m,ch,o,c,i,p",20,"남자",NA,"없어요.","일본어","19살 "," 1년"
"k3b_v2_011",4821,"cwam","ㅈ,ㅗ,ㅏ,ㅁ","""(가능)""",38,"ResponseActual","c,o,a,m",20,"남자",NA,"없어요.","일본어","19살 "," 1년"
"k3b_v2_011",8953,"mtukin","ㅇ,ㅡ,ㅁ,ㄷ,ㅜ,ㄱ,ㅣ,ㄴ","""(가능)""",39,"ResponseActual","#,eu,m,t,u,k,i,n",20,"남자",NA,"없어요.","일본어","19살 "," 1년"
"k3b_v2_011",7787,"knot","ㄱ,ㅡ,ㄴ,ㅗ,ㅅ","""(가능)""",40,"ResponseActual","k,eu,n,o,s",20,"남자",NA,"없어요.","일본어","19살 "," 1년"
"k3b_v2_011",6318,"mphosak","ㅁ,ㅡ,ㅁ,ㅍ,ㅗ,ㅅ,ㅏ,ㄱ","""(불가능)""",41,"ResponseActual","m,eu,m,ph,o,s,a,k",20,"남자",NA,"없어요.","일본어","19살 "," 1년"
"k3b_v2_011",5236,"thukhat","ㅌ,ㅜ,ㄱ,ㅏ,ㅅ","""(가능)""",42,"ResponseActual","th,u,k,a,s",20,"남자",NA,"없어요.","일본어","19살 "," 1년"
"k3b_v2_011",6167,"chnupot","ㅊ,ㅡ,ㄴ,ㅜ,ㅂ,ㅗ,ㅅ","""(가능)""",43,"ResponseActual","ch,eu,n,u,p,o,s",20,"남자",NA,"없어요.","일본어","19살 "," 1년"
"k3b_v2_011",5805,"nkat","ㅁ,ㅡ,ㅁ,ㄱ,ㅏ,ㅅ","""(불가능)""",44,"ResponseActual","m,eu,m,k,a,s",20,"남자",NA,"없어요.","일본어","19살 "," 1년"
"k3b_v2_011",5477,"cmoman","ㅊ,ㅡ,ㄴ,ㅗ,ㅁ,ㅏ,ㄴ","""(가능)""",45,"ResponseActual","ch,eu,n,o,m,a,n",20,"남자",NA,"없어요.","일본어","19살 "," 1년"
"k3b_v2_011",9941,"khithuk","ㅋ,ㅣ,ㅌ,ㅜ,ㄱ","""(가능)""",46,"ResponseActual","kh,i,th,u,k",20,"남자",NA,"없어요.","일본어","19살 "," 1년"
"k3b_v2_011",9324,"tnunong","ㅂ,ㅜ,ㄴ,ㅜ,ㄴ,ㅗ,ㅇ","""(가능)""",47,"ResponseActual","p,u,n,u,n,o,ng",20,"남자",NA,"없어요.","일본어","19살 "," 1년"
"k3b_v2_011",8069,"nkhuchom","ㅁ,ㅡ,ㅁ,ㅋ,ㅜ,ㅊ,ㅗ,ㅇ","""(불가능)""",48,"ResponseActual","m,eu,m,kh,u,ch,o,ng",20,"남자",NA,"없어요.","일본어","19살 "," 1년"
"k3b_v2_011",13694,"tikut","ㄷ,ㅟ,ㄱ,ㅜ,ㄷ","""(가능)""",49,"ResponseActual","t,wi,k,u,t",20,"남자",NA,"없어요.","일본어","19살 "," 1년"
"k3b_v2_011",5214,"khwiphing","ㅋ,ㅟ,ㅍ,ㅣ,ㅇ","""(가능)""",50,"ResponseActual","kh,wi,ph,i,ng",20,"남자",NA,"없어요.","일본어","19살 "," 1년"
"k3b_v2_011",5828,"phmiman","ㅍ,ㅡ,ㄴ,ㅣ,ㅁ,ㅏ,ㄴ","""(가능)""",51,"ResponseActual","ph,eu,n,i,m,a,n",20,"남자",NA,"없어요.","일본어","19살 "," 1년"
"k3b_v2_011",4274,"chwiphin","ㅊ,ㅟ,ㅍ,ㅣ,ㄴ","""(가능)""",52,"ResponseActual","ch,wi,ph,i,n",20,"남자",NA,"없어요.","일본어","19살 "," 1년"
"k3b_v2_011",4749,"nchot","ㅁ,ㅡ,ㅁ,ㅊ,ㅗ,ㅅ","""(가능)""",53,"ResponseActual","m,eu,m,ch,o,s",20,"남자",NA,"없어요.","일본어","19살 "," 1년"
"k3b_v2_011",5482,"npucap","ㅁ,ㅡ,ㅁ,ㅂ,ㅜ,ㅈ,ㅏ,ㅂ","""(불가능)""",54,"ResponseActual","m,eu,m,p,u,c,a,p",20,"남자",NA,"없어요.","일본어","19살 "," 1년"
"k3b_v2_011",5862,"nwimik","ㄴ,ㅟ,ㅁ,ㅣ,ㄱ","""(가능)""",55,"ResponseActual","n,wi,m,i,k",20,"남자",NA,"없어요.","일본어","19살 "," 1년"
"k3b_v2_011",4565,"thwikhip","ㅌ,ㅟ,ㅋ,ㅣ,ㅂ","""(가능)""",56,"ResponseActual","th,wi,kh,i,p",20,"남자",NA,"없어요.","일본어","19살 "," 1년"
"k3b_v2_011",7167,"thwam","ㅌ,ㅘ,ㅁ","""(가능)""",57,"ResponseActual","th,wa,m",20,"남자",NA,"없어요.","일본어","19살 "," 1년"
"k3b_v2_011",5043,"chnuk","ㅊ,ㅡ,ㄴ,ㅜ,ㅋ","""(가능)""",58,"ResponseActual","ch,eu,n,u,kh",20,"남자",NA,"없어요.","일본어","19살 "," 1년"
"k3b_v2_011",5391,"tin","ㅂ,ㅣ,ㄴ","""(가능)""",59,"ResponseActual","p,i,n",20,"남자",NA,"없어요.","일본어","19살 "," 1년"
"k3b_v2_011",11076,"pmochun","ㅃ,ㅡ,ㄴ,ㅜ,ㅊ,ㅜ,ㄴ","""(가능)""",60,"ResponseActual","pp,eu,n,u,ch,u,n",20,"남자",NA,"없어요.","일본어","19살 "," 1년"
