rt,stimulus,response,trial_type,trial_index,time_elapsed,internal_node_id,accuracy,PracticeTest,ConsonantSequence,Grammaticality
,,,,,,,,,,
231957,"<p style=""font-size:30px"">Welcome to the experiment</p><p>Press spacebar to continue</p>", ,html-keyboard-response,0,231951,0.0-0.0,,,,
,,,,,,,,,,
1110,"<p style=""font-size:30px"">Please ensure that your headphones are on correctly</p><p>Press spacebar to continue</p>", ,html-keyboard-response,1,233062,0.0-1.0,,,,
,,,,,,,,,,
2991,"<p style=""font-size:30px"">In this experiment, you will listen to nonsense words</p><p style=""font-size:30px"",lang=""ko"">Your task is to rate the nonsense word you heard as a possible word of American English</p><p>Press spacebar to continue</p>", ,html-keyboard-response,2,236054,0.0-2.0,,,,
,,,,,,,,,,
1904,, ,html-keyboard-response,3,237957,0.0-3.0,,,,
,,,,,,,,,,
2135,"<p style=""font-size:30px"">Now let's move on to the actual experiment.</p><p style=""font-size:30px"",lang=""ko"">During the experiment, you will hear each of the nonce words only once.</p><p>Press spacebar to continue</p>", ,html-keyboard-response,4,240093,0.0-4.0,,,,
,,,,,,,,,,
5644,TestRecordings/santem.wav,0,audio-button-response,5,245748,0.0-5.0-0.0,,,,
,,,,,,,,,,
12944,,"{""P0_Q0"":3}",survey,6,258730,0.0-5.0-1.0,[],,,
,,,,,,,,,,
1932,TestRecordings/ndek.wav,0,audio-button-response,7,260668,0.0-5.0-0.1,,,,
,,,,,,,,,,
3552,,"{""P0_Q0"":7}",survey,8,264232,0.0-5.0-1.1,[],,,
,,,,,,,,,,
1476,TestRecordings/bnup.wav,0,audio-button-response,9,265716,0.0-5.0-0.2,,,,
,,,,,,,,,,
2152,,"{""P0_Q0"":2}",survey,10,267879,0.0-5.0-1.2,[],,,
,,,,,,,,,,
1180,TestRecordings/dmat.wav,0,audio-button-response,11,269067,0.0-5.0-0.3,,,,
,,,,,,,,,,
1426,,"{""P0_Q0"":7}",survey,12,270503,0.0-5.0-1.3,[],,,
,,,,,,,,,,
1637,TestRecordings/guut.wav,0,audio-button-response,13,272147,0.0-5.0-0.4,,,,
,,,,,,,,,,
3195,,"{""P0_Q0"":4}",survey,14,275351,0.0-5.0-1.4,[],,,
,,,,,,,,,,
1310,TestRecordings/dlesbup.wav,0,audio-button-response,15,276668,0.0-5.0-0.5,,,,
,,,,,,,,,,
2450,,"{""P0_Q0"":2}",survey,16,279127,0.0-5.0-1.5,[],,,
,,,,,,,,,,
1098,TestRecordings/mdak.wav,0,audio-button-response,17,280235,0.0-5.0-0.6,,,,
,,,,,,,,,,
3979,,"{""P0_Q0"":3}",survey,18,284223,0.0-5.0-1.6,[],,,
,,,,,,,,,,
1821,TestRecordings/nasgek.wav,0,audio-button-response,19,286051,0.0-5.0-0.7,,,,
,,,,,,,,,,
3555,,"{""P0_Q0"":2}",survey,20,289614,0.0-5.0-1.7,[],,,
,,,,,,,,,,
1126,TestRecordings/stup.wav,0,audio-button-response,21,290746,0.0-5.0-0.8,,,,
,,,,,,,,,,
1756,,"{""P0_Q0"":5}",survey,22,292510,0.0-5.0-1.8,[],,,
,,,,,,,,,,
1365,TestRecordings/pesgut.wav,0,audio-button-response,23,293883,0.0-5.0-0.9,,,,
,,,,,,,,,,
2187,,"{""P0_Q0"":3}",survey,24,296078,0.0-5.0-1.9,[],,,
,,,,,,,,,,
1964,TestRecordings/tembip.wav,0,audio-button-response,25,298051,0.0-5.0-0.10,,,,
,,,,,,,,,,
4562,,"{""P0_Q0"":2}",survey,26,302622,0.0-5.0-1.10,[],,,
,,,,,,,,,,
1397,TestRecordings/pmaut.wav,0,audio-button-response,27,304026,0.0-5.0-0.11,,,,
,,,,,,,,,,
2356,,"{""P0_Q0"":4}",survey,28,306388,0.0-5.0-1.11,[],,,
,,,,,,,,,,
1540,TestRecordings/sandup.wav,0,audio-button-response,29,307938,0.0-5.0-0.12,,,,
,,,,,,,,,,
2579,,"{""P0_Q0"":3}",survey,30,310525,0.0-5.0-1.12,[],,,
,,,,,,,,,,
1398,TestRecordings/tlunpem.wav,0,audio-button-response,31,311930,0.0-5.0-0.13,,,,
,,,,,,,,,,
1500,,"{""P0_Q0"":2}",survey,32,313436,0.0-5.0-1.13,[],,,
,,,,,,,,,,
1903,TestRecordings/dletgin.wav,0,audio-button-response,33,315346,0.0-5.0-0.14,,,,
,,,,,,,,,,
1339,,"{""P0_Q0"":2}",survey,34,316692,0.0-5.0-1.14,[],,,
,,,,,,,,,,
1407,TestRecordings/dlupgik.wav,0,audio-button-response,35,318106,0.0-5.0-0.15,,,,
,,,,,,,,,,
1387,,"{""P0_Q0"":2}",survey,36,319500,0.0-5.0-1.15,[],,,
,,,,,,,,,,
1095,TestRecordings/kmuup.wav,0,audio-button-response,37,320601,0.0-5.0-0.16,,,,
,,,,,,,,,,
1636,,"{""P0_Q0"":2}",survey,38,322244,0.0-5.0-1.16,[],,,
,,,,,,,,,,
1407,TestRecordings/gakdum.wav,0,audio-button-response,39,323657,0.0-5.0-0.17,,,,
,,,,,,,,,,
1571,,"{""P0_Q0"":2}",survey,40,325236,0.0-5.0-1.17,[],,,
,,,,,,,,,,
2295,TestRecordings/drensum.wav,0,audio-button-response,41,327537,0.0-5.0-0.18,,,,
,,,,,,,,,,
1212,,"{""P0_Q0"":3}",survey,42,328756,0.0-5.0-1.18,[],,,
,,,,,,,,,,
2095,TestRecordings/gukpim.wav,0,audio-button-response,43,330857,0.0-5.0-0.19,,,,
,,,,,,,,,,
2981,,"{""P0_Q0"":3}",survey,44,333844,0.0-5.0-1.19,[],,,
,,,,,,,,,,
887,TestRecordings/bim.wav,0,audio-button-response,45,334737,0.0-5.0-0.20,,,,
,,,,,,,,,,
2106,,"{""P0_Q0"":4}",survey,46,336851,0.0-5.0-1.20,[],,,
,,,,,,,,,,
1206,TestRecordings/tlangduk.wav,0,audio-button-response,47,338064,0.0-5.0-0.21,,,,
,,,,,,,,,,
1659,,"{""P0_Q0"":2}",survey,48,339732,0.0-5.0-1.21,[],,,
,,,,,,,,,,
1374,TestRecordings/mpahk.wav,0,audio-button-response,49,341113,0.0-5.0-0.22,,,,
,,,,,,,,,,
1651,,"{""P0_Q0"":3}",survey,50,342771,0.0-5.0-1.22,[],,,
,,,,,,,,,,
1671,TestRecordings/bwus.wav,0,audio-button-response,51,344448,0.0-5.0-0.23,,,,
,,,,,,,,,,
1603,,"{""P0_Q0"":3}",survey,52,346059,0.0-5.0-1.23,[],,,
,,,,,,,,,,
1672,TestRecordings/trindus.wav,0,audio-button-response,53,347736,0.0-5.0-0.24,,,,
,,,,,,,,,,
1732,,"{""P0_Q0"":3}",survey,54,349476,0.0-5.0-1.24,[],,,
,,,,,,,,,,
1118,TestRecordings/mpat.wav,0,audio-button-response,55,350600,0.0-5.0-0.25,,,,
,,,,,,,,,,
2893,,"{""P0_Q0"":6}",survey,56,353500,0.0-5.0-1.25,[],,,
,,,,,,,,,,
1574,TestRecordings/gintep.wav,0,audio-button-response,57,355081,0.0-5.0-0.26,,,,
,,,,,,,,,,
2308,,"{""P0_Q0"":4}",survey,58,357395,0.0-5.0-1.26,[],,,
,,,,,,,,,,
1493,TestRecordings/dret.wav,0,audio-button-response,59,358896,0.0-5.0-0.27,,,,
,,,,,,,,,,
2611,,"{""P0_Q0"":3}",survey,60,361514,0.0-5.0-1.27,[],,,
,,,,,,,,,,
1189,TestRecordings/spen.wav,0,audio-button-response,61,362712,0.0-5.0-0.28,,,,
,,,,,,,,,,
3909,,"{""P0_Q0"":5}",survey,62,366627,0.0-5.0-1.28,[],,,
,,,,,,,,,,
1031,TestRecordings/skup.wav,0,audio-button-response,63,367664,0.0-5.0-0.29,,,,
,,,,,,,,,,
2381,,"{""P0_Q0"":3}",survey,64,370052,0.0-5.0-1.29,[],,,
,,,,,,,,,,
1755,TestRecordings/beptus.wav,0,audio-button-response,65,371815,0.0-5.0-0.30,,,,
,,,,,,,,,,
2341,,"{""P0_Q0"":3}",survey,66,374163,0.0-5.0-1.30,[],,,
,,,,,,,,,,
1173,TestRecordings/genpum.wav,0,audio-button-response,67,375344,0.0-5.0-0.31,,,,
,,,,,,,,,,
1405,,"{""P0_Q0"":2}",survey,68,376754,0.0-5.0-1.31,[],,,
,,,,,,,,,,
1238,TestRecordings/driksum.wav,0,audio-button-response,69,377999,0.0-5.0-0.32,,,,
,,,,,,,,,,
1436,,"{""P0_Q0"":2}",survey,70,379443,0.0-5.0-1.32,[],,,
,,,,,,,,,,
1262,TestRecordings/keptus.wav,0,audio-button-response,71,380711,0.0-5.0-0.33,,,,
,,,,,,,,,,
1878,,"{""P0_Q0"":3}",survey,72,382595,0.0-5.0-1.33,[],,,
,,,,,,,,,,
1284,TestRecordings/ndaik.wav,0,audio-button-response,73,383887,0.0-5.0-0.34,,,,
,,,,,,,,,,
1605,,"{""P0_Q0"":7}",survey,74,385498,0.0-5.0-1.34,[],,,
,,,,,,,,,,
1302,TestRecordings/drembip.wav,0,audio-button-response,75,386807,0.0-5.0-0.35,,,,
,,,,,,,,,,
2837,,"{""P0_Q0"":3}",survey,76,389650,0.0-5.0-1.35,[],,,
,,,,,,,,,,
1150,TestRecordings/dlang.wav,0,audio-button-response,77,390807,0.0-5.0-0.36,,,,
,,,,,,,,,,
1684,,"{""P0_Q0"":3}",survey,78,392497,0.0-5.0-1.36,[],,,
,,,,,,,,,,
1037,TestRecordings/tlaip.wav,0,audio-button-response,79,393543,0.0-5.0-0.37,,,,
,,,,,,,,,,
1700,,"{""P0_Q0"":2}",survey,80,395249,0.0-5.0-1.37,[],,,
,,,,,,,,,,
1901,TestRecordings/druksan.wav,0,audio-button-response,81,397159,0.0-5.0-0.38,,,,
,,,,,,,,,,
1796,,"{""P0_Q0"":2}",survey,82,398961,0.0-5.0-1.38,[],,,
,,,,,,,,,,
1176,TestRecordings/tlamsus.wav,0,audio-button-response,83,400143,0.0-5.0-0.39,,,,
,,,,,,,,,,
1459,,"{""P0_Q0"":2}",survey,84,401609,0.0-5.0-1.39,[],,,
,,,,,,,,,,
1350,TestRecordings/dunbem.wav,0,audio-button-response,85,402966,0.0-5.0-0.40,,,,
,,,,,,,,,,
1477,,"{""P0_Q0"":2}",survey,86,404449,0.0-5.0-1.40,[],,,
,,,,,,,,,,
951,TestRecordings/gwas.wav,0,audio-button-response,87,405407,0.0-5.0-0.41,,,,
,,,,,,,,,,
1310,,"{""P0_Q0"":5}",survey,88,406722,0.0-5.0-1.41,[],,,
,,,,,,,,,,
894,TestRecordings/tleik.wav,0,audio-button-response,89,407622,0.0-5.0-0.42,,,,
,,,,,,,,,,
3610,,"{""P0_Q0"":4}",survey,90,411241,0.0-5.0-1.42,[],,,
,,,,,,,,,,
1176,TestRecordings/draspung.wav,0,audio-button-response,91,412422,0.0-5.0-0.43,,,,
,,,,,,,,,,
2100,,"{""P0_Q0"":2}",survey,92,414529,0.0-5.0-1.43,[],,,
,,,,,,,,,,
1446,TestRecordings/gmut.wav,0,audio-button-response,93,415982,0.0-5.0-0.44,,,,
,,,,,,,,,,
1260,,"{""P0_Q0"":4}",survey,94,417248,0.0-5.0-1.44,[],,,
,,,,,,,,,,
1095,TestRecordings/biptet.wav,0,audio-button-response,95,418350,0.0-5.0-0.45,,,,
,,,,,,,,,,
3757,,"{""P0_Q0"":2}",survey,96,422112,0.0-5.0-1.45,[],,,
,,,,,,,,,,
1069,TestRecordings/gekpup.wav,0,audio-button-response,97,423189,0.0-5.0-0.46,,,,
,,,,,,,,,,
1532,,"{""P0_Q0"":1}",survey,98,424728,0.0-5.0-1.46,[],,,
,,,,,,,,,,
958,TestRecordings/dlain.wav,0,audio-button-response,99,425694,0.0-5.0-0.47,,,,
,,,,,,,,,,
1315,,"{""P0_Q0"":3}",survey,100,427016,0.0-5.0-1.47,[],,,
,,,,,,,,,,
949,TestRecordings/daum.wav,0,audio-button-response,101,427973,0.0-5.0-0.48,,,,
,,,,,,,,,,
1635,,"{""P0_Q0"":5}",survey,102,429616,0.0-5.0-1.48,[],,,
,,,,,,,,,,
935,TestRecordings/dliim.wav,0,audio-button-response,103,430557,0.0-5.0-0.49,,,,
,,,,,,,,,,
1914,,"{""P0_Q0"":5}",survey,104,432480,0.0-5.0-1.49,[],,,
,,,,,,,,,,
975,TestRecordings/daip.wav,0,audio-button-response,105,433461,0.0-5.0-0.50,,,,
,,,,,,,,,,
2243,,"{""P0_Q0"":5}",survey,106,435711,0.0-5.0-1.50,[],,,
,,,,,,,,,,
1157,TestRecordings/gatdum.wav,0,audio-button-response,107,436877,0.0-5.0-0.51,,,,
,,,,,,,,,,
3645,,"{""P0_Q0"":3}",survey,108,440528,0.0-5.0-1.51,[],,,
,,,,,,,,,,
926,TestRecordings/nungtem.wav,0,audio-button-response,109,441461,0.0-5.0-0.52,,,,
,,,,,,,,,,
3404,,"{""P0_Q0"":2}",survey,110,444871,0.0-5.0-1.52,[],,,
,,,,,,,,,,
878,TestRecordings/tlakgung.wav,0,audio-button-response,111,445757,0.0-5.0-0.53,,,,
,,,,,,,,,,
1619,,"{""P0_Q0"":1}",survey,112,447383,0.0-5.0-1.53,[],,,
,,,,,,,,,,
832,TestRecordings/douk.wav,0,audio-button-response,113,448221,0.0-5.0-0.54,,,,
,,,,,,,,,,
2652,,"{""P0_Q0"":5}",survey,114,450879,0.0-5.0-1.54,[],,,
,,,,,,,,,,
815,TestRecordings/gwut.wav,0,audio-button-response,115,451700,0.0-5.0-0.55,,,,
,,,,,,,,,,
1716,,"{""P0_Q0"":3}",survey,116,453422,0.0-5.0-1.55,[],,,
,,,,,,,,,,
951,TestRecordings/treng.wav,0,audio-button-response,117,454380,0.0-5.0-0.56,,,,
,,,,,,,,,,
2124,,"{""P0_Q0"":5}",survey,118,456511,0.0-5.0-1.56,[],,,
,,,,,,,,,,
847,TestRecordings/dwis.wav,0,audio-button-response,119,457364,0.0-5.0-0.57,,,,
,,,,,,,,,,
1765,,"{""P0_Q0"":2}",survey,120,459135,0.0-5.0-1.57,[],,,
,,,,,,,,,,
917,TestRecordings/bimkun.wav,0,audio-button-response,121,460060,0.0-5.0-0.58,,,,
,,,,,,,,,,
1204,,"{""P0_Q0"":1}",survey,122,461271,0.0-5.0-1.58,[],,,
,,,,,,,,,,
900,TestRecordings/staik.wav,0,audio-button-response,123,462180,0.0-5.0-0.59,,,,
,,,,,,,,,,
4470,,"{""P0_Q0"":6}",survey,124,466655,0.0-5.0-1.59,[],,,
,,,,,,,,,,
3380,, ,html-keyboard-response,125,470036,0.0-6.0,,,,
,,,,,,,,,,
69573,,"{""P0_Q0"":""21"",""P0_Q1"":""Female"",""P0_Q2"":""Yes"",""P0_Q3"":""French, a little bit"",""P0_Q4"":""13, 6 years"",""P0_Q5"":""Learned in high school, stopped learning after graduation""}",survey,126,539622,0.0-7.0,[],,,
,,,,,,,,,,
252578,"<p style=""font-size:30px"">The experiment has ended</p><p style=""font-size:30px"",lang=""ko"">Thanks for participating in it!</p>", ,html-keyboard-response,127,792192,0.0-8.0,,,,