rt,stimulus,response,trial_type,trial_index,time_elapsed,internal_node_id,accuracy,PracticeTest,ConsonantSequence,Grammaticality
,,,,,,,,,,
899232,"<p style=""font-size:30px"">Welcome to the experiment</p><p>Press spacebar to continue</p>", ,html-keyboard-response,0,899201,0.0-0.0,,,,
,,,,,,,,,,
2149,"<p style=""font-size:30px"">Please ensure that your headphones are on correctly</p><p>Press spacebar to continue</p>", ,html-keyboard-response,1,901351,0.0-1.0,,,,
,,,,,,,,,,
3679,"<p style=""font-size:30px"">In this experiment, you will listen to nonsense words</p><p style=""font-size:30px"",lang=""ko"">Your task is to rate the nonsense word you heard as a possible word of American English</p><p>Press spacebar to continue</p>", ,html-keyboard-response,2,905031,0.0-2.0,,,,
,,,,,,,,,,
1896,, ,html-keyboard-response,3,906926,0.0-3.0,,,,
,,,,,,,,,,
3392,"<p style=""font-size:30px"">Now let's move on to the actual experiment.</p><p style=""font-size:30px"",lang=""ko"">During the experiment, you will hear each of the nonce words only once.</p><p>Press spacebar to continue</p>", ,html-keyboard-response,4,910318,0.0-4.0,,,,
,,,,,,,,,,
4894,TestRecordings/skup.wav,0,audio-button-response,5,915222,0.0-5.0-0.0,,,,
,,,,,,,,,,
9425,,"{""P0_Q0"":6}",survey,6,924683,0.0-5.0-1.0,[],,,
,,,,,,,,,,
2940,TestRecordings/gintep.wav,0,audio-button-response,7,927629,0.0-5.0-0.1,,,,
,,,,,,,,,,
3695,,"{""P0_Q0"":2}",survey,8,931337,0.0-5.0-1.1,[],,,
,,,,,,,,,,
2053,TestRecordings/santem.wav,0,audio-button-response,9,933397,0.0-5.0-0.2,,,,
,,,,,,,,,,
3170,,"{""P0_Q0"":7}",survey,10,936577,0.0-5.0-1.2,[],,,
,,,,,,,,,,
2733,TestRecordings/bimkun.wav,0,audio-button-response,11,939317,0.0-5.0-0.3,,,,
,,,,,,,,,,
2714,,"{""P0_Q0"":4}",survey,12,942040,0.0-5.0-1.3,[],,,
,,,,,,,,,,
2526,TestRecordings/tembip.wav,0,audio-button-response,13,944572,0.0-5.0-0.4,,,,
,,,,,,,,,,
2746,,"{""P0_Q0"":3}",survey,14,947327,0.0-5.0-1.4,[],,,
,,,,,,,,,,
2752,TestRecordings/drembip.wav,0,audio-button-response,15,950084,0.0-5.0-0.5,,,,
,,,,,,,,,,
3169,,"{""P0_Q0"":3}",survey,16,953263,0.0-5.0-1.5,[],,,
,,,,,,,,,,
2000,TestRecordings/dmat.wav,0,audio-button-response,17,955268,0.0-5.0-0.6,,,,
,,,,,,,,,,
4347,,"{""P0_Q0"":7}",survey,18,959623,0.0-5.0-1.6,[],,,
,,,,,,,,,,
2007,TestRecordings/daum.wav,0,audio-button-response,19,961635,0.0-5.0-0.7,,,,
,,,,,,,,,,
2341,,"{""P0_Q0"":6}",survey,20,963981,0.0-5.0-1.7,[],,,
,,,,,,,,,,
1679,TestRecordings/staik.wav,0,audio-button-response,21,965667,0.0-5.0-0.8,,,,
,,,,,,,,,,
2515,,"{""P0_Q0"":4}",survey,22,968190,0.0-5.0-1.8,[],,,
,,,,,,,,,,
2527,TestRecordings/drensum.wav,0,audio-button-response,23,970722,0.0-5.0-0.9,,,,
,,,,,,,,,,
2460,,"{""P0_Q0"":4}",survey,24,973190,0.0-5.0-1.9,[],,,
,,,,,,,,,,
1432,TestRecordings/beptus.wav,0,audio-button-response,25,974626,0.0-5.0-0.10,,,,
,,,,,,,,,,
2978,,"{""P0_Q0"":7}",survey,26,977613,0.0-5.0-1.10,[],,,
,,,,,,,,,,
1567,TestRecordings/daip.wav,0,audio-button-response,27,979186,0.0-5.0-0.11,,,,
,,,,,,,,,,
2125,,"{""P0_Q0"":2}",survey,28,981317,0.0-5.0-1.11,[],,,
,,,,,,,,,,
1853,TestRecordings/tlamsus.wav,0,audio-button-response,29,983178,0.0-5.0-0.12,,,,
,,,,,,,,,,
2110,,"{""P0_Q0"":1}",survey,30,985293,0.0-5.0-1.12,[],,,
,,,,,,,,,,
2631,TestRecordings/tlakgung.wav,0,audio-button-response,31,987929,0.0-5.0-0.13,,,,
,,,,,,,,,,
2363,,"{""P0_Q0"":5}",survey,32,990301,0.0-5.0-1.13,[],,,
,,,,,,,,,,
1168,TestRecordings/pmaut.wav,0,audio-button-response,33,991473,0.0-5.0-0.14,,,,
,,,,,,,,,,
2315,,"{""P0_Q0"":7}",survey,34,993796,0.0-5.0-1.14,[],,,
,,,,,,,,,,
1316,TestRecordings/sandup.wav,0,audio-button-response,35,995121,0.0-5.0-0.15,,,,
,,,,,,,,,,
1748,,"{""P0_Q0"":3}",survey,36,996875,0.0-5.0-1.15,[],,,
,,,,,,,,,,
1448,TestRecordings/tlangduk.wav,0,audio-button-response,37,998329,0.0-5.0-0.16,,,,
,,,,,,,,,,
2140,,"{""P0_Q0"":1}",survey,38,1000475,0.0-5.0-1.16,[],,,
,,,,,,,,,,
1712,TestRecordings/gukpim.wav,0,audio-button-response,39,1002192,0.0-5.0-0.17,,,,
,,,,,,,,,,
1989,,"{""P0_Q0"":2}",survey,40,1004187,0.0-5.0-1.17,[],,,
,,,,,,,,,,
1864,TestRecordings/spen.wav,0,audio-button-response,41,1006057,0.0-5.0-0.18,,,,
,,,,,,,,,,
2803,,"{""P0_Q0"":7}",survey,42,1008867,0.0-5.0-1.18,[],,,
,,,,,,,,,,
1512,TestRecordings/treng.wav,0,audio-button-response,43,1010384,0.0-5.0-0.19,,,,
,,,,,,,,,,
2477,,"{""P0_Q0"":7}",survey,44,1012867,0.0-5.0-1.19,[],,,
,,,,,,,,,,
1199,TestRecordings/tleik.wav,0,audio-button-response,45,1014073,0.0-5.0-0.20,,,,
,,,,,,,,,,
2198,,"{""P0_Q0"":5}",survey,46,1016276,0.0-5.0-1.20,[],,,
,,,,,,,,,,
1334,TestRecordings/draspung.wav,0,audio-button-response,47,1017615,0.0-5.0-0.21,,,,
,,,,,,,,,,
2429,,"{""P0_Q0"":6}",survey,48,1020050,0.0-5.0-1.21,[],,,
,,,,,,,,,,
1177,TestRecordings/dunbem.wav,0,audio-button-response,49,1021232,0.0-5.0-0.22,,,,
,,,,,,,,,,
1797,,"{""P0_Q0"":2}",survey,50,1023034,0.0-5.0-1.22,[],,,
,,,,,,,,,,
1096,TestRecordings/bnup.wav,0,audio-button-response,51,1024136,0.0-5.0-0.23,,,,
,,,,,,,,,,
1477,,"{""P0_Q0"":1}",survey,52,1025618,0.0-5.0-1.23,[],,,
,,,,,,,,,,
1161,TestRecordings/bwus.wav,0,audio-button-response,53,1026783,0.0-5.0-0.24,,,,
,,,,,,,,,,
1828,,"{""P0_Q0"":5}",survey,54,1028617,0.0-5.0-1.24,[],,,
,,,,,,,,,,
1167,TestRecordings/mdak.wav,0,audio-button-response,55,1029791,0.0-5.0-0.25,,,,
,,,,,,,,,,
1886,,"{""P0_Q0"":1}",survey,56,1031681,0.0-5.0-1.25,[],,,
,,,,,,,,,,
1280,TestRecordings/stup.wav,0,audio-button-response,57,1032968,0.0-5.0-0.26,,,,
,,,,,,,,,,
2300,,"{""P0_Q0"":5}",survey,58,1035273,0.0-5.0-1.26,[],,,
,,,,,,,,,,
997,TestRecordings/ndek.wav,0,audio-button-response,59,1036279,0.0-5.0-0.27,,,,
,,,,,,,,,,
1772,,"{""P0_Q0"":3}",survey,60,1038058,0.0-5.0-1.27,[],,,
,,,,,,,,,,
1193,TestRecordings/nasgek.wav,0,audio-button-response,61,1039254,0.0-5.0-0.28,,,,
,,,,,,,,,,
2012,,"{""P0_Q0"":3}",survey,62,1041273,0.0-5.0-1.28,[],,,
,,,,,,,,,,
1415,TestRecordings/tlunpem.wav,0,audio-button-response,63,1042695,0.0-5.0-0.29,,,,
,,,,,,,,,,
1669,,"{""P0_Q0"":1}",survey,64,1044369,0.0-5.0-1.29,[],,,
,,,,,,,,,,
1112,TestRecordings/dliim.wav,0,audio-button-response,65,1045486,0.0-5.0-0.30,,,,
,,,,,,,,,,
1757,,"{""P0_Q0"":1}",survey,66,1047249,0.0-5.0-1.30,[],,,
,,,,,,,,,,
1191,TestRecordings/gmut.wav,0,audio-button-response,67,1048446,0.0-5.0-0.31,,,,
,,,,,,,,,,
2067,,"{""P0_Q0"":1}",survey,68,1050521,0.0-5.0-1.31,[],,,
,,,,,,,,,,
1215,TestRecordings/keptus.wav,0,audio-button-response,69,1051742,0.0-5.0-0.32,,,,
,,,,,,,,,,
2886,,"{""P0_Q0"":5}",survey,70,1054633,0.0-5.0-1.32,[],,,
,,,,,,,,,,
1231,TestRecordings/gekpup.wav,0,audio-button-response,71,1055870,0.0-5.0-0.33,,,,
,,,,,,,,,,
2060,,"{""P0_Q0"":3}",survey,72,1057937,0.0-5.0-1.33,[],,,
,,,,,,,,,,
1448,TestRecordings/mpahk.wav,0,audio-button-response,73,1059389,0.0-5.0-0.34,,,,
,,,,,,,,,,
1541,,"{""P0_Q0"":2}",survey,74,1060936,0.0-5.0-1.34,[],,,
,,,,,,,,,,
1216,TestRecordings/trindus.wav,0,audio-button-response,75,1062158,0.0-5.0-0.35,,,,
,,,,,,,,,,
1956,,"{""P0_Q0"":7}",survey,76,1064120,0.0-5.0-1.35,[],,,
,,,,,,,,,,
1566,TestRecordings/driksum.wav,0,audio-button-response,77,1065694,0.0-5.0-0.36,,,,
,,,,,,,,,,
2214,,"{""P0_Q0"":3}",survey,78,1067913,0.0-5.0-1.36,[],,,
,,,,,,,,,,
1247,TestRecordings/dletgin.wav,0,audio-button-response,79,1069165,0.0-5.0-0.37,,,,
,,,,,,,,,,
1549,,"{""P0_Q0"":1}",survey,80,1070720,0.0-5.0-1.37,[],,,
,,,,,,,,,,
1081,TestRecordings/douk.wav,0,audio-button-response,81,1071806,0.0-5.0-0.38,,,,
,,,,,,,,,,
2174,,"{""P0_Q0"":3}",survey,82,1073984,0.0-5.0-1.38,[],,,
,,,,,,,,,,
993,TestRecordings/mpat.wav,0,audio-button-response,83,1074981,0.0-5.0-0.39,,,,
,,,,,,,,,,
1420,,"{""P0_Q0"":1}",survey,84,1076407,0.0-5.0-1.39,[],,,
,,,,,,,,,,
1087,TestRecordings/dlesbup.wav,0,audio-button-response,85,1077501,0.0-5.0-0.40,,,,
,,,,,,,,,,
2085,,"{""P0_Q0"":2}",survey,86,1079591,0.0-5.0-1.40,[],,,
,,,,,,,,,,
1415,TestRecordings/gatdum.wav,0,audio-button-response,87,1081012,0.0-5.0-0.41,,,,
,,,,,,,,,,
2405,,"{""P0_Q0"":1}",survey,88,1083423,0.0-5.0-1.41,[],,,
,,,,,,,,,,
1477,TestRecordings/kmuup.wav,0,audio-button-response,89,1084908,0.0-5.0-0.42,,,,
,,,,,,,,,,
1357,,"{""P0_Q0"":1}",survey,90,1086271,0.0-5.0-1.42,[],,,
,,,,,,,,,,
1120,TestRecordings/dwis.wav,0,audio-button-response,91,1087396,0.0-5.0-0.43,,,,
,,,,,,,,,,
1916,,"{""P0_Q0"":2}",survey,92,1089318,0.0-5.0-1.43,[],,,
,,,,,,,,,,
1120,TestRecordings/tlaip.wav,0,audio-button-response,93,1090445,0.0-5.0-0.44,,,,
,,,,,,,,,,
2076,,"{""P0_Q0"":3}",survey,94,1092526,0.0-5.0-1.44,[],,,
,,,,,,,,,,
1104,TestRecordings/gwut.wav,0,audio-button-response,95,1093636,0.0-5.0-0.45,,,,
,,,,,,,,,,
2020,,"{""P0_Q0"":2}",survey,96,1095661,0.0-5.0-1.45,[],,,
,,,,,,,,,,
992,TestRecordings/biptet.wav,0,audio-button-response,97,1096659,0.0-5.0-0.46,,,,
,,,,,,,,,,
1628,,"{""P0_Q0"":3}",survey,98,1098294,0.0-5.0-1.46,[],,,
,,,,,,,,,,
1352,TestRecordings/druksan.wav,0,audio-button-response,99,1099652,0.0-5.0-0.47,,,,
,,,,,,,,,,
1357,,"{""P0_Q0"":4}",survey,100,1101014,0.0-5.0-1.47,[],,,
,,,,,,,,,,
953,TestRecordings/gwas.wav,0,audio-button-response,101,1101972,0.0-5.0-0.48,,,,
,,,,,,,,,,
1645,,"{""P0_Q0"":7}",survey,102,1103622,0.0-5.0-1.48,[],,,
,,,,,,,,,,
1216,TestRecordings/gakdum.wav,0,audio-button-response,103,1104844,0.0-5.0-0.49,,,,
,,,,,,,,,,
1876,,"{""P0_Q0"":5}",survey,104,1106726,0.0-5.0-1.49,[],,,
,,,,,,,,,,
1023,TestRecordings/dlupgik.wav,0,audio-button-response,105,1107755,0.0-5.0-0.50,,,,
,,,,,,,,,,
1821,,"{""P0_Q0"":1}",survey,106,1109582,0.0-5.0-1.50,[],,,
,,,,,,,,,,
1087,TestRecordings/guut.wav,0,audio-button-response,107,1110675,0.0-5.0-0.51,,,,
,,,,,,,,,,
2661,,"{""P0_Q0"":4}",survey,108,1113341,0.0-5.0-1.51,[],,,
,,,,,,,,,,
1207,TestRecordings/pesgut.wav,0,audio-button-response,109,1114555,0.0-5.0-0.52,,,,
,,,,,,,,,,
1876,,"{""P0_Q0"":3}",survey,110,1116437,0.0-5.0-1.52,[],,,
,,,,,,,,,,
1240,TestRecordings/ndaik.wav,0,audio-button-response,111,1117682,0.0-5.0-0.53,,,,
,,,,,,,,,,
1748,,"{""P0_Q0"":7}",survey,112,1119437,0.0-5.0-1.53,[],,,
,,,,,,,,,,
1016,TestRecordings/dlain.wav,0,audio-button-response,113,1120458,0.0-5.0-0.54,,,,
,,,,,,,,,,
1549,,"{""P0_Q0"":7}",survey,114,1122013,0.0-5.0-1.54,[],,,
,,,,,,,,,,
1103,TestRecordings/dret.wav,0,audio-button-response,115,1123122,0.0-5.0-0.55,,,,
,,,,,,,,,,
1574,,"{""P0_Q0"":5}",survey,116,1124701,0.0-5.0-1.55,[],,,
,,,,,,,,,,
1197,TestRecordings/dlang.wav,0,audio-button-response,117,1125907,0.0-5.0-0.56,,,,
,,,,,,,,,,
1917,,"{""P0_Q0"":1}",survey,118,1127828,0.0-5.0-1.56,[],,,
,,,,,,,,,,
1176,TestRecordings/genpum.wav,0,audio-button-response,119,1129010,0.0-5.0-0.57,,,,
,,,,,,,,,,
2495,,"{""P0_Q0"":1}",survey,120,1131510,0.0-5.0-1.57,[],,,
,,,,,,,,,,
1215,TestRecordings/nungtem.wav,0,audio-button-response,121,1132730,0.0-5.0-0.58,,,,
,,,,,,,,,,
2310,,"{""P0_Q0"":1}",survey,122,1135044,0.0-5.0-1.58,[],,,
,,,,,,,,,,
798,TestRecordings/bim.wav,0,audio-button-response,123,1135850,0.0-5.0-0.59,,,,
,,,,,,,,,,
2029,,"{""P0_Q0"":5}",survey,124,1137884,0.0-5.0-1.59,[],,,
,,,,,,,,,,
3013,, ,html-keyboard-response,125,1140898,0.0-6.0,,,,
,,,,,,,,,,
23725,,"{""P0_Q0"":""20"",""P0_Q1"":""Female"",""P0_Q2"":""Yes"",""P0_Q3"":""None"",""P0_Q4"":""N/A"",""P0_Q5"":""N/A""}",survey,126,1164637,0.0-7.0,[],,,
,,,,,,,,,,
158388,"<p style=""font-size:30px"">The experiment has ended</p><p style=""font-size:30px"",lang=""ko"">Thanks for participating in it!</p>", ,html-keyboard-response,127,1323016,0.0-8.0,,,,