rt,stimulus,response,trial_type,trial_index,time_elapsed,internal_node_id,accuracy,PracticeTest,ConsonantSequence,Grammaticality
,,,,,,,,,,
819926,"<p style=""font-size:30px"">Welcome to the experiment</p><p>Press spacebar to continue</p>", ,html-keyboard-response,0,819896,0.0-0.0,,,,
,,,,,,,,,,
1960,"<p style=""font-size:30px"">Please ensure that your headphones are on correctly</p><p>Press spacebar to continue</p>", ,html-keyboard-response,1,821857,0.0-1.0,,,,
,,,,,,,,,,
11365,"<p style=""font-size:30px"">In this experiment, you will listen to nonsense words</p><p style=""font-size:30px"",lang=""ko"">Your task is to rate the nonsense word you heard as a possible word of American English</p><p>Press spacebar to continue</p>", ,html-keyboard-response,2,833221,0.0-2.0,,,,
,,,,,,,,,,
3591,, ,html-keyboard-response,3,836814,0.0-3.0,,,,
,,,,,,,,,,
5887,"<p style=""font-size:30px"">Now let's move on to the actual experiment.</p><p style=""font-size:30px"",lang=""ko"">During the experiment, you will hear each of the nonce words only once.</p><p>Press spacebar to continue</p>", ,html-keyboard-response,4,842701,0.0-4.0,,,,
,,,,,,,,,,
4799,TestRecordings/bwus.wav,0,audio-button-response,5,847876,0.0-5.0-0.0,,,,
,,,,,,,,,,
36530,,"{""P0_Q0"":3}",survey,6,884448,0.0-5.0-1.0,[],,,
,,,,,,,,,,
3491,TestRecordings/bnup.wav,0,audio-button-response,7,887947,0.0-5.0-0.1,,,,
,,,,,,,,,,
33949,,"{""P0_Q0"":5}",survey,8,921909,0.0-5.0-1.1,[],,,
,,,,,,,,,,
3772,TestRecordings/beptus.wav,0,audio-button-response,9,925690,0.0-5.0-0.2,,,,
,,,,,,,,,,
2952,,"{""P0_Q0"":7}",survey,10,928653,0.0-5.0-1.2,[],,,
,,,,,,,,,,
4568,TestRecordings/treng.wav,0,audio-button-response,11,933232,0.0-5.0-0.3,,,,
,,,,,,,,,,
2615,,"{""P0_Q0"":5}",survey,12,935861,0.0-5.0-1.3,[],,,
,,,,,,,,,,
7969,TestRecordings/gekpup.wav,0,audio-button-response,13,943840,0.0-5.0-0.4,,,,
,,,,,,,,,,
2769,,"{""P0_Q0"":3}",survey,14,946619,0.0-5.0-1.4,[],,,
,,,,,,,,,,
7266,TestRecordings/pesgut.wav,0,audio-button-response,15,953896,0.0-5.0-0.5,,,,
,,,,,,,,,,
1866,,"{""P0_Q0"":5}",survey,16,955772,0.0-5.0-1.5,[],,,
,,,,,,,,,,
3300,TestRecordings/mpahk.wav,0,audio-button-response,17,959080,0.0-5.0-0.6,,,,
,,,,,,,,,,
2201,,"{""P0_Q0"":4}",survey,18,961291,0.0-5.0-1.6,[],,,
,,,,,,,,,,
5468,TestRecordings/gakdum.wav,0,audio-button-response,19,966767,0.0-5.0-0.7,,,,
,,,,,,,,,,
1915,,"{""P0_Q0"":5}",survey,20,968689,0.0-5.0-1.7,[],,,
,,,,,,,,,,
4407,TestRecordings/gintep.wav,0,audio-button-response,21,973103,0.0-5.0-0.8,,,,
,,,,,,,,,,
17370,,"{""P0_Q0"":4}",survey,22,990482,0.0-5.0-1.8,[],,,
,,,,,,,,,,
7243,TestRecordings/sandup.wav,0,audio-button-response,23,997734,0.0-5.0-0.9,,,,
,,,,,,,,,,
2001,,"{""P0_Q0"":3}",survey,24,999745,0.0-5.0-1.9,[],,,
,,,,,,,,,,
5363,TestRecordings/drensum.wav,0,audio-button-response,25,1005117,0.0-5.0-0.10,,,,
,,,,,,,,,,
4457,,"{""P0_Q0"":5}",survey,26,1009584,0.0-5.0-1.10,[],,,
,,,,,,,,,,
4909,TestRecordings/dliim.wav,0,audio-button-response,27,1014502,0.0-5.0-0.11,,,,
,,,,,,,,,,
1908,,"{""P0_Q0"":4}",survey,28,1016417,0.0-5.0-1.11,[],,,
,,,,,,,,,,
9180,TestRecordings/dlang.wav,0,audio-button-response,29,1025605,0.0-5.0-0.12,,,,
,,,,,,,,,,
2139,,"{""P0_Q0"":1}",survey,30,1027751,0.0-5.0-1.12,[],,,
,,,,,,,,,,
5974,TestRecordings/guut.wav,0,audio-button-response,31,1033733,0.0-5.0-0.13,,,,
,,,,,,,,,,
2908,,"{""P0_Q0"":3}",survey,32,1036647,0.0-5.0-1.13,[],,,
,,,,,,,,,,
4526,TestRecordings/stup.wav,0,audio-button-response,33,1041181,0.0-5.0-0.14,,,,
,,,,,,,,,,
4268,,"{""P0_Q0"":5}",survey,34,1045455,0.0-5.0-1.14,[],,,
,,,,,,,,,,
3413,TestRecordings/dlesbup.wav,0,audio-button-response,35,1048877,0.0-5.0-0.15,,,,
,,,,,,,,,,
5524,,"{""P0_Q0"":3}",survey,36,1054407,0.0-5.0-1.15,[],,,
,,,,,,,,,,
3708,TestRecordings/dlupgik.wav,0,audio-button-response,37,1058124,0.0-5.0-0.16,,,,
,,,,,,,,,,
3913,,"{""P0_Q0"":3}",survey,38,1062047,0.0-5.0-1.16,[],,,
,,,,,,,,,,
2500,TestRecordings/dlain.wav,0,audio-button-response,39,1064555,0.0-5.0-0.17,,,,
,,,,,,,,,,
2989,,"{""P0_Q0"":6}",survey,40,1067550,0.0-5.0-1.17,[],,,
,,,,,,,,,,
4955,TestRecordings/pmaut.wav,0,audio-button-response,41,1072515,0.0-5.0-0.18,,,,
,,,,,,,,,,
1627,,"{""P0_Q0"":4}",survey,42,1074150,0.0-5.0-1.18,[],,,
,,,,,,,,,,
3830,TestRecordings/tembip.wav,0,audio-button-response,43,1077987,0.0-5.0-0.19,,,,
,,,,,,,,,,
1987,,"{""P0_Q0"":2}",survey,44,1079982,0.0-5.0-1.19,[],,,
,,,,,,,,,,
1963,TestRecordings/tlakgung.wav,0,audio-button-response,45,1081955,0.0-5.0-0.20,,,,
,,,,,,,,,,
2427,,"{""P0_Q0"":2}",survey,46,1084389,0.0-5.0-1.20,[],,,
,,,,,,,,,,
4781,TestRecordings/mdak.wav,0,audio-button-response,47,1089179,0.0-5.0-0.21,,,,
,,,,,,,,,,
3468,,"{""P0_Q0"":3}",survey,48,1092653,0.0-5.0-1.21,[],,,
,,,,,,,,,,
1669,TestRecordings/gatdum.wav,0,audio-button-response,49,1094330,0.0-5.0-0.22,,,,
,,,,,,,,,,
2396,,"{""P0_Q0"":3}",survey,50,1096732,0.0-5.0-1.22,[],,,
,,,,,,,,,,
2636,TestRecordings/gukpim.wav,0,audio-button-response,51,1099379,0.0-5.0-0.23,,,,
,,,,,,,,,,
3580,,"{""P0_Q0"":4}",survey,52,1102964,0.0-5.0-1.23,[],,,
,,,,,,,,,,
2405,TestRecordings/douk.wav,0,audio-button-response,53,1105378,0.0-5.0-0.24,,,,
,,,,,,,,,,
3332,,"{""P0_Q0"":3}",survey,54,1108717,0.0-5.0-1.24,[],,,
,,,,,,,,,,
3916,TestRecordings/dunbem.wav,0,audio-button-response,55,1112641,0.0-5.0-0.25,,,,
,,,,,,,,,,
3269,,"{""P0_Q0"":3}",survey,56,1115917,0.0-5.0-1.25,[],,,
,,,,,,,,,,
5646,TestRecordings/spen.wav,0,audio-button-response,57,1121569,0.0-5.0-0.26,,,,
,,,,,,,,,,
2797,,"{""P0_Q0"":5}",survey,58,1124372,0.0-5.0-1.26,[],,,
,,,,,,,,,,
3759,TestRecordings/gwas.wav,0,audio-button-response,59,1128138,0.0-5.0-0.27,,,,
,,,,,,,,,,
1562,,"{""P0_Q0"":7}",survey,60,1129708,0.0-5.0-1.27,[],,,
,,,,,,,,,,
2749,TestRecordings/tleik.wav,0,audio-button-response,61,1132465,0.0-5.0-0.28,,,,
,,,,,,,,,,
7709,,"{""P0_Q0"":5}",survey,62,1140179,0.0-5.0-1.28,[],,,
,,,,,,,,,,
2437,TestRecordings/dmat.wav,0,audio-button-response,63,1142624,0.0-5.0-0.29,,,,
,,,,,,,,,,
1900,,"{""P0_Q0"":7}",survey,64,1144531,0.0-5.0-1.29,[],,,
,,,,,,,,,,
4499,TestRecordings/driksum.wav,0,audio-button-response,65,1149039,0.0-5.0-0.30,,,,
,,,,,,,,,,
3635,,"{""P0_Q0"":4}",survey,66,1152683,0.0-5.0-1.30,[],,,
,,,,,,,,,,
1685,TestRecordings/nungtem.wav,0,audio-button-response,67,1154376,0.0-5.0-0.31,,,,
,,,,,,,,,,
3195,,"{""P0_Q0"":2}",survey,68,1157578,0.0-5.0-1.31,[],,,
,,,,,,,,,,
3599,TestRecordings/ndaik.wav,0,audio-button-response,69,1161184,0.0-5.0-0.32,,,,
,,,,,,,,,,
5426,,"{""P0_Q0"":2}",survey,70,1166619,0.0-5.0-1.32,[],,,
,,,,,,,,,,
1774,TestRecordings/ndek.wav,0,audio-button-response,71,1168399,0.0-5.0-0.33,,,,
,,,,,,,,,,
1588,,"{""P0_Q0"":2}",survey,72,1169994,0.0-5.0-1.33,[],,,
,,,,,,,,,,
2155,TestRecordings/draspung.wav,0,audio-button-response,73,1172160,0.0-5.0-0.34,,,,
,,,,,,,,,,
4108,,"{""P0_Q0"":2}",survey,74,1176274,0.0-5.0-1.34,[],,,
,,,,,,,,,,
1541,TestRecordings/dret.wav,0,audio-button-response,75,1177823,0.0-5.0-0.35,,,,
,,,,,,,,,,
2996,,"{""P0_Q0"":6}",survey,76,1180826,0.0-5.0-1.35,[],,,
,,,,,,,,,,
3669,TestRecordings/druksan.wav,0,audio-button-response,77,1184502,0.0-5.0-0.36,,,,
,,,,,,,,,,
11325,,"{""P0_Q0"":4}",survey,78,1195833,0.0-5.0-1.36,[],,,
,,,,,,,,,,
2693,TestRecordings/dwis.wav,0,audio-button-response,79,1198534,0.0-5.0-0.37,,,,
,,,,,,,,,,
1804,,"{""P0_Q0"":3}",survey,80,1200345,0.0-5.0-1.37,[],,,
,,,,,,,,,,
1957,TestRecordings/keptus.wav,0,audio-button-response,81,1202310,0.0-5.0-0.38,,,,
,,,,,,,,,,
4742,,"{""P0_Q0"":4}",survey,82,1207057,0.0-5.0-1.38,[],,,
,,,,,,,,,,
1677,TestRecordings/dletgin.wav,0,audio-button-response,83,1208742,0.0-5.0-0.39,,,,
,,,,,,,,,,
1700,,"{""P0_Q0"":4}",survey,84,1210448,0.0-5.0-1.39,[],,,
,,,,,,,,,,
1462,TestRecordings/genpum.wav,0,audio-button-response,85,1211917,0.0-5.0-0.40,,,,
,,,,,,,,,,
7164,,"{""P0_Q0"":2}",survey,86,1219088,0.0-5.0-1.40,[],,,
,,,,,,,,,,
7430,TestRecordings/daip.wav,0,audio-button-response,87,1226526,0.0-5.0-0.41,,,,
,,,,,,,,,,
8506,,"{""P0_Q0"":4}",survey,88,1235040,0.0-5.0-1.41,[],,,
,,,,,,,,,,
2070,TestRecordings/skup.wav,0,audio-button-response,89,1237116,0.0-5.0-0.42,,,,
,,,,,,,,,,
1691,,"{""P0_Q0"":5}",survey,90,1238815,0.0-5.0-1.42,[],,,
,,,,,,,,,,
1765,TestRecordings/daum.wav,0,audio-button-response,91,1240588,0.0-5.0-0.43,,,,
,,,,,,,,,,
1980,,"{""P0_Q0"":5}",survey,92,1242575,0.0-5.0-1.43,[],,,
,,,,,,,,,,
1429,TestRecordings/bimkun.wav,0,audio-button-response,93,1244012,0.0-5.0-0.44,,,,
,,,,,,,,,,
2437,,"{""P0_Q0"":4}",survey,94,1246454,0.0-5.0-1.44,[],,,
,,,,,,,,,,
2230,TestRecordings/nasgek.wav,0,audio-button-response,95,1248693,0.0-5.0-0.45,,,,
,,,,,,,,,,
3035,,"{""P0_Q0"":4}",survey,96,1251735,0.0-5.0-1.45,[],,,
,,,,,,,,,,
2158,TestRecordings/tlamsus.wav,0,audio-button-response,97,1253900,0.0-5.0-0.46,,,,
,,,,,,,,,,
3428,,"{""P0_Q0"":5}",survey,98,1257335,0.0-5.0-1.46,[],,,
,,,,,,,,,,
1308,TestRecordings/staik.wav,0,audio-button-response,99,1258652,0.0-5.0-0.47,,,,
,,,,,,,,,,
1724,,"{""P0_Q0"":7}",survey,100,1260382,0.0-5.0-1.47,[],,,
,,,,,,,,,,
1525,TestRecordings/tlunpem.wav,0,audio-button-response,101,1261916,0.0-5.0-0.48,,,,
,,,,,,,,,,
3220,,"{""P0_Q0"":2}",survey,102,1265142,0.0-5.0-1.48,[],,,
,,,,,,,,,,
1373,TestRecordings/tlaip.wav,0,audio-button-response,103,1266524,0.0-5.0-0.49,,,,
,,,,,,,,,,
4316,,"{""P0_Q0"":3}",survey,104,1270847,0.0-5.0-1.49,[],,,
,,,,,,,,,,
1990,TestRecordings/trindus.wav,0,audio-button-response,105,1272843,0.0-5.0-0.50,,,,
,,,,,,,,,,
5821,,"{""P0_Q0"":5}",survey,106,1278670,0.0-5.0-1.50,[],,,
,,,,,,,,,,
1670,TestRecordings/gwut.wav,0,audio-button-response,107,1280347,0.0-5.0-0.51,,,,
,,,,,,,,,,
4124,,"{""P0_Q0"":3}",survey,108,1284478,0.0-5.0-1.51,[],,,
,,,,,,,,,,
2014,TestRecordings/biptet.wav,0,audio-button-response,109,1286499,0.0-5.0-0.52,,,,
,,,,,,,,,,
7563,,"{""P0_Q0"":1}",survey,110,1294067,0.0-5.0-1.52,[],,,
,,,,,,,,,,
6910,TestRecordings/gmut.wav,0,audio-button-response,111,1300986,0.0-5.0-0.53,,,,
,,,,,,,,,,
4257,,"{""P0_Q0"":3}",survey,112,1305271,0.0-5.0-1.53,[],,,
,,,,,,,,,,
2130,TestRecordings/kmuup.wav,0,audio-button-response,113,1307410,0.0-5.0-0.54,,,,
,,,,,,,,,,
3160,,"{""P0_Q0"":4}",survey,114,1310581,0.0-5.0-1.54,[],,,
,,,,,,,,,,
1869,TestRecordings/santem.wav,0,audio-button-response,115,1312458,0.0-5.0-0.55,,,,
,,,,,,,,,,
1804,,"{""P0_Q0"":4}",survey,116,1314270,0.0-5.0-1.55,[],,,
,,,,,,,,,,
1427,TestRecordings/tlangduk.wav,0,audio-button-response,117,1315706,0.0-5.0-0.56,,,,
,,,,,,,,,,
6019,,"{""P0_Q0"":2}",survey,118,1321732,0.0-5.0-1.56,[],,,
,,,,,,,,,,
1318,TestRecordings/drembip.wav,0,audio-button-response,119,1323057,0.0-5.0-0.57,,,,
,,,,,,,,,,
6283,,"{""P0_Q0"":2}",survey,120,1329348,0.0-5.0-1.57,[],,,
,,,,,,,,,,
972,TestRecordings/bim.wav,0,audio-button-response,121,1330329,0.0-5.0-0.58,,,,
,,,,,,,,,,
2739,,"{""P0_Q0"":3}",survey,122,1333076,0.0-5.0-1.58,[],,,
,,,,,,,,,,
1509,TestRecordings/mpat.wav,0,audio-button-response,123,1334593,0.0-5.0-0.59,,,,
,,,,,,,,,,
2404,,"{""P0_Q0"":3}",survey,124,1337003,0.0-5.0-1.59,[],,,
,,,,,,,,,,
3405,, ,html-keyboard-response,125,1340409,0.0-6.0,,,,
,,,,,,,,,,
57836,,"{""P0_Q0"":""27"",""P0_Q1"":""Female"",""P0_Q2"":""Yes"",""P0_Q3"":""French"",""P0_Q4"":""From 15-17, for 2.5 years"",""P0_Q5"":""Beginner-Intermediate""}",survey,126,1398264,0.0-7.0,[],,,
,,,,,,,,,,
102726,"<p style=""font-size:30px"">The experiment has ended</p><p style=""font-size:30px"",lang=""ko"">Thanks for participating in it!</p>", ,html-keyboard-response,127,1500989,0.0-8.0,,,,