rt,stimulus,response,trial_type,trial_index,time_elapsed,internal_node_id,accuracy,PracticeTest,ConsonantSequence,Grammaticality
,,,,,,,,,,
772753,"<p style=""font-size:30px"">Welcome to the experiment</p><p>Press spacebar to continue</p>", ,html-keyboard-response,0,772726,0.0-0.0,,,,
,,,,,,,,,,
2828,"<p style=""font-size:30px"">Please ensure that your headphones are on correctly</p><p>Press spacebar to continue</p>", ,html-keyboard-response,1,775556,0.0-1.0,,,,
,,,,,,,,,,
5367,"<p style=""font-size:30px"">In this experiment, you will listen to nonsense words</p><p style=""font-size:30px"",lang=""ko"">Your task is to rate the nonsense word you heard as a possible word of American English</p><p>Press spacebar to continue</p>", ,html-keyboard-response,2,780923,0.0-2.0,,,,
,,,,,,,,,,
2143,, ,html-keyboard-response,3,783067,0.0-3.0,,,,
,,,,,,,,,,
5000,"<p style=""font-size:30px"">Now let's move on to the actual experiment.</p><p style=""font-size:30px"",lang=""ko"">During the experiment, you will hear each of the nonce words only once.</p><p>Press spacebar to continue</p>", ,html-keyboard-response,4,788067,0.0-4.0,,,,
,,,,,,,,,,
5063,TestRecordings/ndek.wav,0,audio-button-response,5,793138,0.0-5.0-0.0,,,,
,,,,,,,,,,
10339,,"{""P0_Q0"":7}",survey,6,803512,0.0-5.0-1.0,[],,,
,,,,,,,,,,
3460,TestRecordings/drensum.wav,0,audio-button-response,7,806978,0.0-5.0-0.1,,,,
,,,,,,,,,,
7263,,"{""P0_Q0"":3}",survey,8,814254,0.0-5.0-1.1,[],,,
,,,,,,,,,,
1860,TestRecordings/bnup.wav,0,audio-button-response,9,816122,0.0-5.0-0.2,,,,
,,,,,,,,,,
6089,,"{""P0_Q0"":4}",survey,10,822222,0.0-5.0-1.2,[],,,
,,,,,,,,,,
2702,TestRecordings/gintep.wav,0,audio-button-response,11,824930,0.0-5.0-0.3,,,,
,,,,,,,,,,
6041,,"{""P0_Q0"":2}",survey,12,830981,0.0-5.0-1.3,[],,,
,,,,,,,,,,
3502,TestRecordings/trindus.wav,0,audio-button-response,13,834489,0.0-5.0-0.4,,,,
,,,,,,,,,,
4594,,"{""P0_Q0"":3}",survey,14,839092,0.0-5.0-1.4,[],,,
,,,,,,,,,,
3454,TestRecordings/bimkun.wav,0,audio-button-response,15,842553,0.0-5.0-0.5,,,,
,,,,,,,,,,
8035,,"{""P0_Q0"":3}",survey,16,850596,0.0-5.0-1.5,[],,,
,,,,,,,,,,
2622,TestRecordings/tlamsus.wav,0,audio-button-response,17,853224,0.0-5.0-0.6,,,,
,,,,,,,,,,
3187,,"{""P0_Q0"":2}",survey,18,856419,0.0-5.0-1.6,[],,,
,,,,,,,,,,
2111,TestRecordings/daip.wav,0,audio-button-response,19,858536,0.0-5.0-0.7,,,,
,,,,,,,,,,
4099,,"{""P0_Q0"":1}",survey,20,862643,0.0-5.0-1.7,[],,,
,,,,,,,,,,
1831,TestRecordings/dret.wav,0,audio-button-response,21,864480,0.0-5.0-0.8,,,,
,,,,,,,,,,
2635,,"{""P0_Q0"":6}",survey,22,867122,0.0-5.0-1.8,[],,,
,,,,,,,,,,
1822,TestRecordings/guut.wav,0,audio-button-response,23,868952,0.0-5.0-0.9,,,,
,,,,,,,,,,
2396,,"{""P0_Q0"":3}",survey,24,871354,0.0-5.0-1.9,[],,,
,,,,,,,,,,
1942,TestRecordings/gatdum.wav,0,audio-button-response,25,873303,0.0-5.0-0.10,,,,
,,,,,,,,,,
2347,,"{""P0_Q0"":1}",survey,26,875658,0.0-5.0-1.10,[],,,
,,,,,,,,,,
1854,TestRecordings/tlakgung.wav,0,audio-button-response,27,877519,0.0-5.0-0.11,,,,
,,,,,,,,,,
3156,,"{""P0_Q0"":1}",survey,28,880682,0.0-5.0-1.11,[],,,
,,,,,,,,,,
3271,TestRecordings/keptus.wav,0,audio-button-response,29,883959,0.0-5.0-0.12,,,,
,,,,,,,,,,
3267,,"{""P0_Q0"":2}",survey,30,887234,0.0-5.0-1.12,[],,,
,,,,,,,,,,
2344,TestRecordings/pesgut.wav,0,audio-button-response,31,889583,0.0-5.0-0.13,,,,
,,,,,,,,,,
2988,,"{""P0_Q0"":1}",survey,32,892577,0.0-5.0-1.13,[],,,
,,,,,,,,,,
1776,TestRecordings/skup.wav,0,audio-button-response,33,894359,0.0-5.0-0.14,,,,
,,,,,,,,,,
2579,,"{""P0_Q0"":2}",survey,34,896945,0.0-5.0-1.14,[],,,
,,,,,,,,,,
3327,TestRecordings/drembip.wav,0,audio-button-response,35,900279,0.0-5.0-0.15,,,,
,,,,,,,,,,
6740,,"{""P0_Q0"":2}",survey,36,907025,0.0-5.0-1.15,[],,,
,,,,,,,,,,
2510,TestRecordings/pmaut.wav,0,audio-button-response,37,909542,0.0-5.0-0.16,,,,
,,,,,,,,,,
2724,,"{""P0_Q0"":5}",survey,38,912273,0.0-5.0-1.16,[],,,
,,,,,,,,,,
2039,TestRecordings/kmuup.wav,0,audio-button-response,39,914318,0.0-5.0-0.17,,,,
,,,,,,,,,,
1788,,"{""P0_Q0"":2}",survey,40,916113,0.0-5.0-1.17,[],,,
,,,,,,,,,,
1103,TestRecordings/gukpim.wav,0,audio-button-response,41,917222,0.0-5.0-0.18,,,,
,,,,,,,,,,
10052,,"{""P0_Q0"":2}",survey,42,927280,0.0-5.0-1.18,[],,,
,,,,,,,,,,
1880,TestRecordings/spen.wav,0,audio-button-response,43,929166,0.0-5.0-0.19,,,,
,,,,,,,,,,
3357,,"{""P0_Q0"":6}",survey,44,932528,0.0-5.0-1.19,[],,,
,,,,,,,,,,
1830,TestRecordings/nasgek.wav,0,audio-button-response,45,934366,0.0-5.0-0.20,,,,
,,,,,,,,,,
3381,,"{""P0_Q0"":2}",survey,46,937752,0.0-5.0-1.20,[],,,
,,,,,,,,,,
1943,TestRecordings/dletgin.wav,0,audio-button-response,47,939701,0.0-5.0-0.21,,,,
,,,,,,,,,,
2539,,"{""P0_Q0"":2}",survey,48,942247,0.0-5.0-1.21,[],,,
,,,,,,,,,,
1383,TestRecordings/dlain.wav,0,audio-button-response,49,943637,0.0-5.0-0.22,,,,
,,,,,,,,,,
2372,,"{""P0_Q0"":6}",survey,50,946016,0.0-5.0-1.22,[],,,
,,,,,,,,,,
1575,TestRecordings/gwas.wav,0,audio-button-response,51,947597,0.0-5.0-0.23,,,,
,,,,,,,,,,
2244,,"{""P0_Q0"":5}",survey,52,949846,0.0-5.0-1.23,[],,,
,,,,,,,,,,
1679,TestRecordings/bwus.wav,0,audio-button-response,53,951533,0.0-5.0-0.24,,,,
,,,,,,,,,,
5395,,"{""P0_Q0"":5}",survey,54,956935,0.0-5.0-1.24,[],,,
,,,,,,,,,,
1591,TestRecordings/draspung.wav,0,audio-button-response,55,958533,0.0-5.0-0.25,,,,
,,,,,,,,,,
2244,,"{""P0_Q0"":2}",survey,56,960782,0.0-5.0-1.25,[],,,
,,,,,,,,,,
1192,TestRecordings/treng.wav,0,audio-button-response,57,961981,0.0-5.0-0.26,,,,
,,,,,,,,,,
4155,,"{""P0_Q0"":3}",survey,58,966143,0.0-5.0-1.26,[],,,
,,,,,,,,,,
1055,TestRecordings/daum.wav,0,audio-button-response,59,967204,0.0-5.0-0.27,,,,
,,,,,,,,,,
3102,,"{""P0_Q0"":3}",survey,60,970311,0.0-5.0-1.27,[],,,
,,,,,,,,,,
1215,TestRecordings/genpum.wav,0,audio-button-response,61,971532,0.0-5.0-0.28,,,,
,,,,,,,,,,
2156,,"{""P0_Q0"":2}",survey,62,973694,0.0-5.0-1.28,[],,,
,,,,,,,,,,
1456,TestRecordings/ndaik.wav,0,audio-button-response,63,975155,0.0-5.0-0.29,,,,
,,,,,,,,,,
3379,,"{""P0_Q0"":6}",survey,64,978542,0.0-5.0-1.29,[],,,
,,,,,,,,,,
1166,TestRecordings/douk.wav,0,audio-button-response,65,979715,0.0-5.0-0.30,,,,
,,,,,,,,,,
2518,,"{""P0_Q0"":3}",survey,66,982240,0.0-5.0-1.30,[],,,
,,,,,,,,,,
1163,TestRecordings/gakdum.wav,0,audio-button-response,67,983411,0.0-5.0-0.31,,,,
,,,,,,,,,,
3644,,"{""P0_Q0"":1}",survey,68,987062,0.0-5.0-1.31,[],,,
,,,,,,,,,,
1607,TestRecordings/tlunpem.wav,0,audio-button-response,69,988676,0.0-5.0-0.32,,,,
,,,,,,,,,,
2534,,"{""P0_Q0"":1}",survey,70,991214,0.0-5.0-1.32,[],,,
,,,,,,,,,,
1079,TestRecordings/gmut.wav,0,audio-button-response,71,992299,0.0-5.0-0.33,,,,
,,,,,,,,,,
5893,,"{""P0_Q0"":2}",survey,72,998197,0.0-5.0-1.33,[],,,
,,,,,,,,,,
2006,TestRecordings/dlupgik.wav,0,audio-button-response,73,1000211,0.0-5.0-0.34,,,,
,,,,,,,,,,
2244,,"{""P0_Q0"":1}",survey,74,1002462,0.0-5.0-1.34,[],,,
,,,,,,,,,,
1599,TestRecordings/nungtem.wav,0,audio-button-response,75,1004066,0.0-5.0-0.35,,,,
,,,,,,,,,,
2813,,"{""P0_Q0"":2}",survey,76,1006885,0.0-5.0-1.35,[],,,
,,,,,,,,,,
1839,TestRecordings/mdak.wav,0,audio-button-response,77,1008731,0.0-5.0-0.36,,,,
,,,,,,,,,,
2797,,"{""P0_Q0"":4}",survey,78,1011534,0.0-5.0-1.36,[],,,
,,,,,,,,,,
1254,TestRecordings/gwut.wav,0,audio-button-response,79,1012794,0.0-5.0-0.37,,,,
,,,,,,,,,,
1915,,"{""P0_Q0"":3}",survey,80,1014716,0.0-5.0-1.37,[],,,
,,,,,,,,,,
1112,TestRecordings/tembip.wav,0,audio-button-response,81,1015834,0.0-5.0-0.38,,,,
,,,,,,,,,,
2100,,"{""P0_Q0"":2}",survey,82,1017941,0.0-5.0-1.38,[],,,
,,,,,,,,,,
1087,TestRecordings/santem.wav,0,audio-button-response,83,1019034,0.0-5.0-0.39,,,,
,,,,,,,,,,
2228,,"{""P0_Q0"":2}",survey,84,1021268,0.0-5.0-1.39,[],,,
,,,,,,,,,,
1471,TestRecordings/mpat.wav,0,audio-button-response,85,1022746,0.0-5.0-0.40,,,,
,,,,,,,,,,
2205,,"{""P0_Q0"":6}",survey,86,1024957,0.0-5.0-1.40,[],,,
,,,,,,,,,,
1118,TestRecordings/staik.wav,0,audio-button-response,87,1026082,0.0-5.0-0.41,,,,
,,,,,,,,,,
3308,,"{""P0_Q0"":6}",survey,88,1029396,0.0-5.0-1.41,[],,,
,,,,,,,,,,
1254,TestRecordings/tleik.wav,0,audio-button-response,89,1030658,0.0-5.0-0.42,,,,
,,,,,,,,,,
1788,,"{""P0_Q0"":2}",survey,90,1032452,0.0-5.0-1.42,[],,,
,,,,,,,,,,
1359,TestRecordings/dlesbup.wav,0,audio-button-response,91,1033817,0.0-5.0-0.43,,,,
,,,,,,,,,,
2437,,"{""P0_Q0"":2}",survey,92,1036260,0.0-5.0-1.43,[],,,
,,,,,,,,,,
1790,TestRecordings/dliim.wav,0,audio-button-response,93,1038057,0.0-5.0-0.44,,,,
,,,,,,,,,,
2588,,"{""P0_Q0"":2}",survey,94,1040652,0.0-5.0-1.44,[],,,
,,,,,,,,,,
1647,TestRecordings/dunbem.wav,0,audio-button-response,95,1042306,0.0-5.0-0.45,,,,
,,,,,,,,,,
3309,,"{""P0_Q0"":2}",survey,96,1045620,0.0-5.0-1.45,[],,,
,,,,,,,,,,
1150,TestRecordings/biptet.wav,0,audio-button-response,97,1046777,0.0-5.0-0.46,,,,
,,,,,,,,,,
2013,,"{""P0_Q0"":1}",survey,98,1048795,0.0-5.0-1.46,[],,,
,,,,,,,,,,
1751,TestRecordings/stup.wav,0,audio-button-response,99,1050553,0.0-5.0-0.47,,,,
,,,,,,,,,,
4044,,"{""P0_Q0"":4}",survey,100,1054604,0.0-5.0-1.47,[],,,
,,,,,,,,,,
1150,TestRecordings/driksum.wav,0,audio-button-response,101,1055761,0.0-5.0-0.48,,,,
,,,,,,,,,,
1508,,"{""P0_Q0"":1}",survey,102,1057275,0.0-5.0-1.48,[],,,
,,,,,,,,,,
1005,TestRecordings/tlaip.wav,0,audio-button-response,103,1058289,0.0-5.0-0.49,,,,
,,,,,,,,,,
1851,,"{""P0_Q0"":3}",survey,104,1060147,0.0-5.0-1.49,[],,,
,,,,,,,,,,
1710,TestRecordings/dmat.wav,0,audio-button-response,105,1061864,0.0-5.0-0.50,,,,
,,,,,,,,,,
2492,,"{""P0_Q0"":6}",survey,106,1064363,0.0-5.0-1.50,[],,,
,,,,,,,,,,
1104,TestRecordings/gekpup.wav,0,audio-button-response,107,1065472,0.0-5.0-0.51,,,,
,,,,,,,,,,
1316,,"{""P0_Q0"":1}",survey,108,1066795,0.0-5.0-1.51,[],,,
,,,,,,,,,,
1065,TestRecordings/mpahk.wav,0,audio-button-response,109,1067865,0.0-5.0-0.52,,,,
,,,,,,,,,,
1885,,"{""P0_Q0"":1}",survey,110,1069755,0.0-5.0-1.52,[],,,
,,,,,,,,,,
3486,TestRecordings/druksan.wav,0,audio-button-response,111,1073248,0.0-5.0-0.53,,,,
,,,,,,,,,,
2261,,"{""P0_Q0"":2}",survey,112,1075515,0.0-5.0-1.53,[],,,
,,,,,,,,,,
1214,TestRecordings/dwis.wav,0,audio-button-response,113,1076735,0.0-5.0-0.54,,,,
,,,,,,,,,,
3333,,"{""P0_Q0"":3}",survey,114,1080074,0.0-5.0-1.54,[],,,
,,,,,,,,,,
1184,TestRecordings/dlang.wav,0,audio-button-response,115,1081264,0.0-5.0-0.55,,,,
,,,,,,,,,,
1541,,"{""P0_Q0"":2}",survey,116,1082810,0.0-5.0-1.55,[],,,
,,,,,,,,,,
1207,TestRecordings/beptus.wav,0,audio-button-response,117,1084024,0.0-5.0-0.56,,,,
,,,,,,,,,,
2421,,"{""P0_Q0"":4}",survey,118,1086450,0.0-5.0-1.56,[],,,
,,,,,,,,,,
1112,TestRecordings/sandup.wav,0,audio-button-response,119,1087568,0.0-5.0-0.57,,,,
,,,,,,,,,,
2236,,"{""P0_Q0"":2}",survey,120,1089809,0.0-5.0-1.57,[],,,
,,,,,,,,,,
1391,TestRecordings/tlangduk.wav,0,audio-button-response,121,1091207,0.0-5.0-0.58,,,,
,,,,,,,,,,
2380,,"{""P0_Q0"":2}",survey,122,1093594,0.0-5.0-1.58,[],,,
,,,,,,,,,,
1535,TestRecordings/bim.wav,0,audio-button-response,123,1095135,0.0-5.0-0.59,,,,
,,,,,,,,,,
1924,,"{""P0_Q0"":5}",survey,124,1097066,0.0-5.0-1.59,[],,,
,,,,,,,,,,
3813,, ,html-keyboard-response,125,1100881,0.0-6.0,,,,
,,,,,,,,,,
102709,,"{""P0_Q0"":""19"",""P0_Q1"":""Female"",""P0_Q2"":""Yes"",""P0_Q3"":""Arabic"",""P0_Q4"":""18, two years"",""P0_Q5"":""I have grandparents that fluently speak Arabic, but I had only learned phrases. I began studying Arabic in my first semester at College and have been studying it for four semesters now.""}",survey,126,1203634,0.0-7.0,[],,,
,,,,,,,,,,
550796,"<p style=""font-size:30px"">The experiment has ended</p><p style=""font-size:30px"",lang=""ko"">Thanks for participating in it!</p>", ,html-keyboard-response,127,1754412,0.0-8.0,,,,