rt,stimulus,response,trial_type,trial_index,time_elapsed,internal_node_id,accuracy,PracticeTest,ConsonantSequence,Grammaticality
,,,,,,,,,,
791520,"<p style=""font-size:30px"">Welcome to the experiment</p><p>Press spacebar to continue</p>", ,html-keyboard-response,0,791502,0.0-0.0,,,,
,,,,,,,,,,
2037,"<p style=""font-size:30px"">Please ensure that your headphones are on correctly</p><p>Press spacebar to continue</p>", ,html-keyboard-response,1,793540,0.0-1.0,,,,
,,,,,,,,,,
3832,"<p style=""font-size:30px"">In this experiment, you will listen to nonsense words</p><p style=""font-size:30px"",lang=""ko"">Your task is to rate the nonsense word you heard as a possible word of American English</p><p>Press spacebar to continue</p>", ,html-keyboard-response,2,797372,0.0-2.0,,,,
,,,,,,,,,,
1448,, ,html-keyboard-response,3,798820,0.0-3.0,,,,
,,,,,,,,,,
2311,"<p style=""font-size:30px"">Now let's move on to the actual experiment.</p><p style=""font-size:30px"",lang=""ko"">During the experiment, you will hear each of the nonce words only once.</p><p>Press spacebar to continue</p>", ,html-keyboard-response,4,801131,0.0-4.0,,,,
,,,,,,,,,,
5446,TestRecordings/dliim.wav,0,audio-button-response,5,806587,0.0-5.0-0.0,,,,
,,,,,,,,,,
7953,,"{""P0_Q0"":2}",survey,6,814576,0.0-5.0-1.0,[],,,
,,,,,,,,,,
2246,TestRecordings/skup.wav,0,audio-button-response,7,816827,0.0-5.0-0.1,,,,
,,,,,,,,,,
3486,,"{""P0_Q0"":5}",survey,8,820326,0.0-5.0-1.1,[],,,
,,,,,,,,,,
2070,TestRecordings/tlakgung.wav,0,audio-button-response,9,822402,0.0-5.0-0.2,,,,
,,,,,,,,,,
4601,,"{""P0_Q0"":1}",survey,10,827013,0.0-5.0-1.2,[],,,
,,,,,,,,,,
1630,TestRecordings/gukpim.wav,0,audio-button-response,11,828649,0.0-5.0-0.3,,,,
,,,,,,,,,,
4131,,"{""P0_Q0"":2}",survey,12,832789,0.0-5.0-1.3,[],,,
,,,,,,,,,,
1847,TestRecordings/mpat.wav,0,audio-button-response,13,834641,0.0-5.0-0.4,,,,
,,,,,,,,,,
3523,,"{""P0_Q0"":7}",survey,14,838172,0.0-5.0-1.4,[],,,
,,,,,,,,,,
2184,TestRecordings/genpum.wav,0,audio-button-response,15,840362,0.0-5.0-0.5,,,,
,,,,,,,,,,
3137,,"{""P0_Q0"":2}",survey,16,843508,0.0-5.0-1.5,[],,,
,,,,,,,,,,
2079,TestRecordings/gwut.wav,0,audio-button-response,17,845592,0.0-5.0-0.6,,,,
,,,,,,,,,,
3411,,"{""P0_Q0"":2}",survey,18,849011,0.0-5.0-1.6,[],,,
,,,,,,,,,,
1560,TestRecordings/guut.wav,0,audio-button-response,19,850576,0.0-5.0-0.7,,,,
,,,,,,,,,,
2780,,"{""P0_Q0"":5}",survey,20,853363,0.0-5.0-1.7,[],,,
,,,,,,,,,,
1517,TestRecordings/trindus.wav,0,audio-button-response,21,854888,0.0-5.0-0.8,,,,
,,,,,,,,,,
5170,,"{""P0_Q0"":7}",survey,22,860066,0.0-5.0-1.8,[],,,
,,,,,,,,,,
1264,TestRecordings/nungtem.wav,0,audio-button-response,23,861336,0.0-5.0-0.9,,,,
,,,,,,,,,,
4204,,"{""P0_Q0"":2}",survey,24,865547,0.0-5.0-1.9,[],,,
,,,,,,,,,,
1630,TestRecordings/sandup.wav,0,audio-button-response,25,867184,0.0-5.0-0.10,,,,
,,,,,,,,,,
2898,,"{""P0_Q0"":5}",survey,26,870090,0.0-5.0-1.10,[],,,
,,,,,,,,,,
1760,TestRecordings/stup.wav,0,audio-button-response,27,871855,0.0-5.0-0.11,,,,
,,,,,,,,,,
3940,,"{""P0_Q0"":5}",survey,28,875802,0.0-5.0-1.11,[],,,
,,,,,,,,,,
1224,TestRecordings/dlang.wav,0,audio-button-response,29,877031,0.0-5.0-0.12,,,,
,,,,,,,,,,
2163,,"{""P0_Q0"":6}",survey,30,879201,0.0-5.0-1.12,[],,,
,,,,,,,,,,
1416,TestRecordings/daum.wav,0,audio-button-response,31,880623,0.0-5.0-0.13,,,,
,,,,,,,,,,
2853,,"{""P0_Q0"":7}",survey,32,883481,0.0-5.0-1.13,[],,,
,,,,,,,,,,
1599,TestRecordings/gatdum.wav,0,audio-button-response,33,885086,0.0-5.0-0.14,,,,
,,,,,,,,,,
2508,,"{""P0_Q0"":3}",survey,34,887601,0.0-5.0-1.14,[],,,
,,,,,,,,,,
1080,TestRecordings/gmut.wav,0,audio-button-response,35,888687,0.0-5.0-0.15,,,,
,,,,,,,,,,
3877,,"{""P0_Q0"":5}",survey,36,892569,0.0-5.0-1.15,[],,,
,,,,,,,,,,
1537,TestRecordings/beptus.wav,0,audio-button-response,37,894110,0.0-5.0-0.16,,,,
,,,,,,,,,,
2140,,"{""P0_Q0"":7}",survey,38,896257,0.0-5.0-1.16,[],,,
,,,,,,,,,,
1343,TestRecordings/treng.wav,0,audio-button-response,39,897606,0.0-5.0-0.17,,,,
,,,,,,,,,,
1813,,"{""P0_Q0"":7}",survey,40,899424,0.0-5.0-1.17,[],,,
,,,,,,,,,,
1728,TestRecordings/pmaut.wav,0,audio-button-response,41,901158,0.0-5.0-0.18,,,,
,,,,,,,,,,
3061,,"{""P0_Q0"":2}",survey,42,904224,0.0-5.0-1.18,[],,,
,,,,,,,,,,
1592,TestRecordings/tlunpem.wav,0,audio-button-response,43,905821,0.0-5.0-0.19,,,,
,,,,,,,,,,
2940,,"{""P0_Q0"":2}",survey,44,908768,0.0-5.0-1.19,[],,,
,,,,,,,,,,
1807,TestRecordings/dlesbup.wav,0,audio-button-response,45,910581,0.0-5.0-0.20,,,,
,,,,,,,,,,
4300,,"{""P0_Q0"":2}",survey,46,914888,0.0-5.0-1.20,[],,,
,,,,,,,,,,
1433,TestRecordings/tlaip.wav,0,audio-button-response,47,916325,0.0-5.0-0.21,,,,
,,,,,,,,,,
1789,,"{""P0_Q0"":5}",survey,48,918120,0.0-5.0-1.21,[],,,
,,,,,,,,,,
1777,TestRecordings/kmuup.wav,0,audio-button-response,49,919901,0.0-5.0-0.22,,,,
,,,,,,,,,,
3396,,"{""P0_Q0"":5}",survey,50,923303,0.0-5.0-1.22,[],,,
,,,,,,,,,,
1710,TestRecordings/dunbem.wav,0,audio-button-response,51,925020,0.0-5.0-0.23,,,,
,,,,,,,,,,
2757,,"{""P0_Q0"":4}",survey,52,927783,0.0-5.0-1.23,[],,,
,,,,,,,,,,
2032,TestRecordings/dlain.wav,0,audio-button-response,53,929820,0.0-5.0-0.24,,,,
,,,,,,,,,,
3324,,"{""P0_Q0"":6}",survey,54,933151,0.0-5.0-1.24,[],,,
,,,,,,,,,,
1391,TestRecordings/tleik.wav,0,audio-button-response,55,934547,0.0-5.0-0.25,,,,
,,,,,,,,,,
4293,,"{""P0_Q0"":5}",survey,56,938847,0.0-5.0-1.25,[],,,
,,,,,,,,,,
1424,TestRecordings/mpahk.wav,0,audio-button-response,57,940276,0.0-5.0-0.26,,,,
,,,,,,,,,,
4636,,"{""P0_Q0"":3}",survey,58,944917,0.0-5.0-1.26,[],,,
,,,,,,,,,,
1631,TestRecordings/biptet.wav,0,audio-button-response,59,946555,0.0-5.0-0.27,,,,
,,,,,,,,,,
3060,,"{""P0_Q0"":5}",survey,60,949622,0.0-5.0-1.27,[],,,
,,,,,,,,,,
1224,TestRecordings/dret.wav,0,audio-button-response,61,950851,0.0-5.0-0.28,,,,
,,,,,,,,,,
2100,,"{""P0_Q0"":7}",survey,62,952958,0.0-5.0-1.28,[],,,
,,,,,,,,,,
1304,TestRecordings/dmat.wav,0,audio-button-response,63,954267,0.0-5.0-0.29,,,,
,,,,,,,,,,
1612,,"{""P0_Q0"":7}",survey,64,955885,0.0-5.0-1.29,[],,,
,,,,,,,,,,
1169,TestRecordings/ndaik.wav,0,audio-button-response,65,957058,0.0-5.0-0.30,,,,
,,,,,,,,,,
2252,,"{""P0_Q0"":7}",survey,66,959317,0.0-5.0-1.30,[],,,
,,,,,,,,,,
1784,TestRecordings/nasgek.wav,0,audio-button-response,67,961106,0.0-5.0-0.31,,,,
,,,,,,,,,,
3093,,"{""P0_Q0"":2}",survey,68,964205,0.0-5.0-1.31,[],,,
,,,,,,,,,,
1247,TestRecordings/dwis.wav,0,audio-button-response,69,965459,0.0-5.0-0.32,,,,
,,,,,,,,,,
2717,,"{""P0_Q0"":2}",survey,70,968181,0.0-5.0-1.32,[],,,
,,,,,,,,,,
1464,TestRecordings/spen.wav,0,audio-button-response,71,969650,0.0-5.0-0.33,,,,
,,,,,,,,,,
2518,,"{""P0_Q0"":6}",survey,72,972173,0.0-5.0-1.33,[],,,
,,,,,,,,,,
1773,TestRecordings/tembip.wav,0,audio-button-response,73,973954,0.0-5.0-0.34,,,,
,,,,,,,,,,
3637,,"{""P0_Q0"":6}",survey,74,977596,0.0-5.0-1.34,[],,,
,,,,,,,,,,
1239,TestRecordings/mdak.wav,0,audio-button-response,75,978841,0.0-5.0-0.35,,,,
,,,,,,,,,,
4638,,"{""P0_Q0"":5}",survey,76,983484,0.0-5.0-1.35,[],,,
,,,,,,,,,,
1328,TestRecordings/santem.wav,0,audio-button-response,77,984817,0.0-5.0-0.36,,,,
,,,,,,,,,,
2819,,"{""P0_Q0"":6}",survey,78,987643,0.0-5.0-1.36,[],,,
,,,,,,,,,,
1567,TestRecordings/gakdum.wav,0,audio-button-response,79,989217,0.0-5.0-0.37,,,,
,,,,,,,,,,
1941,,"{""P0_Q0"":1}",survey,80,991164,0.0-5.0-1.37,[],,,
,,,,,,,,,,
1393,TestRecordings/ndek.wav,0,audio-button-response,81,992561,0.0-5.0-0.38,,,,
,,,,,,,,,,
2860,,"{""P0_Q0"":7}",survey,82,995427,0.0-5.0-1.38,[],,,
,,,,,,,,,,
1049,TestRecordings/pesgut.wav,0,audio-button-response,83,996480,0.0-5.0-0.39,,,,
,,,,,,,,,,
3764,,"{""P0_Q0"":2}",survey,84,1000250,0.0-5.0-1.39,[],,,
,,,,,,,,,,
1344,TestRecordings/gekpup.wav,0,audio-button-response,85,1001600,0.0-5.0-0.40,,,,
,,,,,,,,,,
3692,,"{""P0_Q0"":2}",survey,86,1005298,0.0-5.0-1.40,[],,,
,,,,,,,,,,
841,TestRecordings/bim.wav,0,audio-button-response,87,1006144,0.0-5.0-0.41,,,,
,,,,,,,,,,
3885,,"{""P0_Q0"":7}",survey,88,1010035,0.0-5.0-1.41,[],,,
,,,,,,,,,,
1352,TestRecordings/staik.wav,0,audio-button-response,89,1011391,0.0-5.0-0.42,,,,
,,,,,,,,,,
2174,,"{""P0_Q0"":7}",survey,90,1013571,0.0-5.0-1.42,[],,,
,,,,,,,,,,
1111,TestRecordings/dletgin.wav,0,audio-button-response,91,1014688,0.0-5.0-0.43,,,,
,,,,,,,,,,
3380,,"{""P0_Q0"":1}",survey,92,1018074,0.0-5.0-1.43,[],,,
,,,,,,,,,,
1072,TestRecordings/daip.wav,0,audio-button-response,93,1019151,0.0-5.0-0.44,,,,
,,,,,,,,,,
2196,,"{""P0_Q0"":6}",survey,94,1021354,0.0-5.0-1.44,[],,,
,,,,,,,,,,
2153,TestRecordings/gintep.wav,0,audio-button-response,95,1023511,0.0-5.0-0.45,,,,
,,,,,,,,,,
1780,,"{""P0_Q0"":1}",survey,96,1025298,0.0-5.0-1.45,[],,,
,,,,,,,,,,
1561,TestRecordings/tlamsus.wav,0,audio-button-response,97,1026863,0.0-5.0-0.46,,,,
,,,,,,,,,,
1972,,"{""P0_Q0"":1}",survey,98,1028841,0.0-5.0-1.46,[],,,
,,,,,,,,,,
1590,TestRecordings/drensum.wav,0,audio-button-response,99,1030439,0.0-5.0-0.47,,,,
,,,,,,,,,,
2573,,"{""P0_Q0"":2}",survey,100,1033017,0.0-5.0-1.47,[],,,
,,,,,,,,,,
959,TestRecordings/bnup.wav,0,audio-button-response,101,1033983,0.0-5.0-0.48,,,,
,,,,,,,,,,
2854,,"{""P0_Q0"":1}",survey,102,1036841,0.0-5.0-1.48,[],,,
,,,,,,,,,,
1552,TestRecordings/keptus.wav,0,audio-button-response,103,1038398,0.0-5.0-0.49,,,,
,,,,,,,,,,
1756,,"{""P0_Q0"":5}",survey,104,1040161,0.0-5.0-1.49,[],,,
,,,,,,,,,,
975,TestRecordings/draspung.wav,0,audio-button-response,105,1041142,0.0-5.0-0.50,,,,
,,,,,,,,,,
3123,,"{""P0_Q0"":2}",survey,106,1044272,0.0-5.0-1.50,[],,,
,,,,,,,,,,
944,TestRecordings/driksum.wav,0,audio-button-response,107,1045222,0.0-5.0-0.51,,,,
,,,,,,,,,,
3797,,"{""P0_Q0"":2}",survey,108,1049024,0.0-5.0-1.51,[],,,
,,,,,,,,,,
1200,TestRecordings/bimkun.wav,0,audio-button-response,109,1050229,0.0-5.0-0.52,,,,
,,,,,,,,,,
3510,,"{""P0_Q0"":2}",survey,110,1053744,0.0-5.0-1.52,[],,,
,,,,,,,,,,
1176,TestRecordings/bwus.wav,0,audio-button-response,111,1054925,0.0-5.0-0.53,,,,
,,,,,,,,,,
4045,,"{""P0_Q0"":6}",survey,112,1058976,0.0-5.0-1.53,[],,,
,,,,,,,,,,
832,TestRecordings/drembip.wav,0,audio-button-response,113,1059813,0.0-5.0-0.54,,,,
,,,,,,,,,,
2140,,"{""P0_Q0"":6}",survey,114,1061959,0.0-5.0-1.54,[],,,
,,,,,,,,,,
1208,TestRecordings/druksan.wav,0,audio-button-response,115,1063172,0.0-5.0-0.55,,,,
,,,,,,,,,,
1717,,"{""P0_Q0"":2}",survey,116,1064895,0.0-5.0-1.55,[],,,
,,,,,,,,,,
1000,TestRecordings/dlupgik.wav,0,audio-button-response,117,1065901,0.0-5.0-0.56,,,,
,,,,,,,,,,
2173,,"{""P0_Q0"":2}",survey,118,1068079,0.0-5.0-1.56,[],,,
,,,,,,,,,,
1032,TestRecordings/douk.wav,0,audio-button-response,119,1069117,0.0-5.0-0.57,,,,
,,,,,,,,,,
2527,,"{""P0_Q0"":5}",survey,120,1071649,0.0-5.0-1.57,[],,,
,,,,,,,,,,
902,TestRecordings/gwas.wav,0,audio-button-response,121,1072556,0.0-5.0-0.58,,,,
,,,,,,,,,,
3798,,"{""P0_Q0"":6}",survey,122,1076359,0.0-5.0-1.58,[],,,
,,,,,,,,,,
1744,TestRecordings/tlangduk.wav,0,audio-button-response,123,1078108,0.0-5.0-0.59,,,,
,,,,,,,,,,
1928,,"{""P0_Q0"":1}",survey,124,1080041,0.0-5.0-1.59,[],,,
,,,,,,,,,,
3683,, ,html-keyboard-response,125,1083724,0.0-6.0,,,,
,,,,,,,,,,
29458,,"{""P0_Q0"":""24"",""P0_Q1"":""female"",""P0_Q2"":""yes"",""P0_Q3"":""none"",""P0_Q4"":""NA"",""P0_Q5"":""NA""}",survey,126,1113198,0.0-7.0,[],,,
,,,,,,,,,,
211556,"<p style=""font-size:30px"">The experiment has ended</p><p style=""font-size:30px"",lang=""ko"">Thanks for participating in it!</p>", ,html-keyboard-response,127,1324742,0.0-8.0,,,,