rt,stimulus,response,trial_type,trial_index,time_elapsed,internal_node_id,accuracy,PracticeTest,ConsonantSequence,Grammaticality
,,,,,,,,,,
107210,"<p style=""font-size:30px"">Welcome to the experiment</p><p>Press spacebar to continue</p>", ,html-keyboard-response,0,107206,0.0-0.0,,,,
,,,,,,,,,,
606953,"<p style=""font-size:30px"">Please ensure that your headphones are on correctly</p><p>Press spacebar to continue</p>", ,html-keyboard-response,1,714126,0.0-1.0,,,,
,,,,,,,,,,
4850,"<p style=""font-size:30px"">In this experiment, you will listen to nonsense words</p><p style=""font-size:30px"",lang=""ko"">Your task is to rate the nonsense word you heard as a possible word of American English</p><p>Press spacebar to continue</p>", ,html-keyboard-response,2,718977,0.0-2.0,,,,
,,,,,,,,,,
2799,, ,html-keyboard-response,3,721776,0.0-3.0,,,,
,,,,,,,,,,
5015,"<p style=""font-size:30px"">Now let's move on to the actual experiment.</p><p style=""font-size:30px"",lang=""ko"">During the experiment, you will hear each of the nonce words only once.</p><p>Press spacebar to continue</p>", ,html-keyboard-response,4,726793,0.0-4.0,,,,
,,,,,,,,,,
3933,TestRecordings/mpahk.wav,0,audio-button-response,5,731113,0.0-5.0-0.0,,,,
,,,,,,,,,,
17499,,"{""P0_Q0"":5}",survey,6,748652,0.0-5.0-1.0,[],,,
,,,,,,,,,,
3226,TestRecordings/daip.wav,0,audio-button-response,7,751887,0.0-5.0-0.1,,,,
,,,,,,,,,,
3924,,"{""P0_Q0"":7}",survey,8,755827,0.0-5.0-1.1,[],,,
,,,,,,,,,,
2148,TestRecordings/druksan.wav,0,audio-button-response,9,757982,0.0-5.0-0.2,,,,
,,,,,,,,,,
5047,,"{""P0_Q0"":4}",survey,10,763042,0.0-5.0-1.2,[],,,
,,,,,,,,,,
2275,TestRecordings/bimkun.wav,0,audio-button-response,11,765326,0.0-5.0-0.3,,,,
,,,,,,,,,,
4162,,"{""P0_Q0"":4}",survey,12,769498,0.0-5.0-1.3,[],,,
,,,,,,,,,,
2644,TestRecordings/drensum.wav,0,audio-button-response,13,772149,0.0-5.0-0.4,,,,
,,,,,,,,,,
2578,,"{""P0_Q0"":3}",survey,14,774736,0.0-5.0-1.4,[],,,
,,,,,,,,,,
2155,TestRecordings/gmut.wav,0,audio-button-response,15,776901,0.0-5.0-0.5,,,,
,,,,,,,,,,
3729,,"{""P0_Q0"":2}",survey,16,780640,0.0-5.0-1.5,[],,,
,,,,,,,,,,
1982,TestRecordings/gekpup.wav,0,audio-button-response,17,782629,0.0-5.0-0.6,,,,
,,,,,,,,,,
1963,,"{""P0_Q0"":4}",survey,18,784600,0.0-5.0-1.6,[],,,
,,,,,,,,,,
2397,TestRecordings/nasgek.wav,0,audio-button-response,19,787004,0.0-5.0-0.7,,,,
,,,,,,,,,,
4394,,"{""P0_Q0"":5}",survey,20,791407,0.0-5.0-1.7,[],,,
,,,,,,,,,,
2430,TestRecordings/dret.wav,0,audio-button-response,21,793845,0.0-5.0-0.8,,,,
,,,,,,,,,,
2427,,"{""P0_Q0"":7}",survey,22,796279,0.0-5.0-1.8,[],,,
,,,,,,,,,,
1436,TestRecordings/draspung.wav,0,audio-button-response,23,797724,0.0-5.0-0.9,,,,
,,,,,,,,,,
6610,,"{""P0_Q0"":4}",survey,24,804343,0.0-5.0-1.9,[],,,
,,,,,,,,,,
1334,TestRecordings/drembip.wav,0,audio-button-response,25,805684,0.0-5.0-0.10,,,,
,,,,,,,,,,
1675,,"{""P0_Q0"":4}",survey,26,807366,0.0-5.0-1.10,[],,,
,,,,,,,,,,
2741,TestRecordings/mpat.wav,0,audio-button-response,27,810115,0.0-5.0-0.11,,,,
,,,,,,,,,,
2261,,"{""P0_Q0"":5}",survey,28,812383,0.0-5.0-1.11,[],,,
,,,,,,,,,,
1708,TestRecordings/dletgin.wav,0,audio-button-response,29,814099,0.0-5.0-0.12,,,,
,,,,,,,,,,
1778,,"{""P0_Q0"":4}",survey,30,815885,0.0-5.0-1.12,[],,,
,,,,,,,,,,
1231,TestRecordings/bim.wav,0,audio-button-response,31,817123,0.0-5.0-0.13,,,,
,,,,,,,,,,
1780,,"{""P0_Q0"":7}",survey,32,818910,0.0-5.0-1.13,[],,,
,,,,,,,,,,
1277,TestRecordings/dlupgik.wav,0,audio-button-response,33,820194,0.0-5.0-0.14,,,,
,,,,,,,,,,
4469,,"{""P0_Q0"":3}",survey,34,824669,0.0-5.0-1.14,[],,,
,,,,,,,,,,
1364,TestRecordings/gintep.wav,0,audio-button-response,35,826042,0.0-5.0-0.15,,,,
,,,,,,,,,,
1628,,"{""P0_Q0"":4}",survey,36,827676,0.0-5.0-1.15,[],,,
,,,,,,,,,,
1868,TestRecordings/keptus.wav,0,audio-button-response,37,829554,0.0-5.0-0.16,,,,
,,,,,,,,,,
3893,,"{""P0_Q0"":5}",survey,38,833454,0.0-5.0-1.16,[],,,
,,,,,,,,,,
1379,TestRecordings/trindus.wav,0,audio-button-response,39,834842,0.0-5.0-0.17,,,,
,,,,,,,,,,
4644,,"{""P0_Q0"":6}",survey,40,839492,0.0-5.0-1.17,[],,,
,,,,,,,,,,
1463,TestRecordings/gwas.wav,0,audio-button-response,41,840962,0.0-5.0-0.18,,,,
,,,,,,,,,,
4500,,"{""P0_Q0"":4}",survey,42,845468,0.0-5.0-1.18,[],,,
,,,,,,,,,,
1326,TestRecordings/bwus.wav,0,audio-button-response,43,846801,0.0-5.0-0.19,,,,
,,,,,,,,,,
2340,,"{""P0_Q0"":3}",survey,44,849147,0.0-5.0-1.19,[],,,
,,,,,,,,,,
1763,TestRecordings/staik.wav,0,audio-button-response,45,850961,0.0-5.0-0.20,,,,
,,,,,,,,,,
1869,,"{""P0_Q0"":7}",survey,46,852835,0.0-5.0-1.20,[],,,
,,,,,,,,,,
1163,TestRecordings/kmuup.wav,0,audio-button-response,47,854008,0.0-5.0-0.21,,,,
,,,,,,,,,,
1579,,"{""P0_Q0"":2}",survey,48,855595,0.0-5.0-1.21,[],,,
,,,,,,,,,,
1501,TestRecordings/spen.wav,0,audio-button-response,49,857105,0.0-5.0-0.22,,,,
,,,,,,,,,,
1868,,"{""P0_Q0"":7}",survey,50,858979,0.0-5.0-1.22,[],,,
,,,,,,,,,,
1093,TestRecordings/ndaik.wav,0,audio-button-response,51,860081,0.0-5.0-0.23,,,,
,,,,,,,,,,
4061,,"{""P0_Q0"":2}",survey,52,864147,0.0-5.0-1.23,[],,,
,,,,,,,,,,
1211,TestRecordings/stup.wav,0,audio-button-response,53,865369,0.0-5.0-0.24,,,,
,,,,,,,,,,
4717,,"{""P0_Q0"":7}",survey,54,870092,0.0-5.0-1.24,[],,,
,,,,,,,,,,
1180,TestRecordings/dunbem.wav,0,audio-button-response,55,871280,0.0-5.0-0.25,,,,
,,,,,,,,,,
5836,,"{""P0_Q0"":4}",survey,56,877122,0.0-5.0-1.25,[],,,
,,,,,,,,,,
1095,TestRecordings/pmaut.wav,0,audio-button-response,57,878223,0.0-5.0-0.26,,,,
,,,,,,,,,,
3846,,"{""P0_Q0"":2}",survey,58,882074,0.0-5.0-1.26,[],,,
,,,,,,,,,,
1780,TestRecordings/gatdum.wav,0,audio-button-response,59,883863,0.0-5.0-0.27,,,,
,,,,,,,,,,
1876,,"{""P0_Q0"":3}",survey,60,885746,0.0-5.0-1.27,[],,,
,,,,,,,,,,
1213,TestRecordings/tlaip.wav,0,audio-button-response,61,886967,0.0-5.0-0.28,,,,
,,,,,,,,,,
1772,,"{""P0_Q0"":2}",survey,62,888746,0.0-5.0-1.28,[],,,
,,,,,,,,,,
1101,TestRecordings/skup.wav,0,audio-button-response,63,889855,0.0-5.0-0.29,,,,
,,,,,,,,,,
5396,,"{""P0_Q0"":5}",survey,64,895258,0.0-5.0-1.29,[],,,
,,,,,,,,,,
1262,TestRecordings/tlunpem.wav,0,audio-button-response,65,896527,0.0-5.0-0.30,,,,
,,,,,,,,,,
2043,,"{""P0_Q0"":2}",survey,66,898576,0.0-5.0-1.30,[],,,
,,,,,,,,,,
1694,TestRecordings/santem.wav,0,audio-button-response,67,900278,0.0-5.0-0.31,,,,
,,,,,,,,,,
3076,,"{""P0_Q0"":5}",survey,68,903361,0.0-5.0-1.31,[],,,
,,,,,,,,,,
1174,TestRecordings/gwut.wav,0,audio-button-response,69,904542,0.0-5.0-0.32,,,,
,,,,,,,,,,
6140,,"{""P0_Q0"":4}",survey,70,910689,0.0-5.0-1.32,[],,,
,,,,,,,,,,
1501,TestRecordings/tlakgung.wav,0,audio-button-response,71,912197,0.0-5.0-0.33,,,,
,,,,,,,,,,
1620,,"{""P0_Q0"":2}",survey,72,913824,0.0-5.0-1.33,[],,,
,,,,,,,,,,
1189,TestRecordings/dliim.wav,0,audio-button-response,73,915021,0.0-5.0-0.34,,,,
,,,,,,,,,,
2660,,"{""P0_Q0"":4}",survey,74,917688,0.0-5.0-1.34,[],,,
,,,,,,,,,,
1148,TestRecordings/mdak.wav,0,audio-button-response,75,918845,0.0-5.0-0.35,,,,
,,,,,,,,,,
2252,,"{""P0_Q0"":3}",survey,76,921103,0.0-5.0-1.35,[],,,
,,,,,,,,,,
1006,TestRecordings/dlang.wav,0,audio-button-response,77,922117,0.0-5.0-0.36,,,,
,,,,,,,,,,
3197,,"{""P0_Q0"":3}",survey,78,925320,0.0-5.0-1.36,[],,,
,,,,,,,,,,
1220,TestRecordings/gukpim.wav,0,audio-button-response,79,926548,0.0-5.0-0.37,,,,
,,,,,,,,,,
3205,,"{""P0_Q0"":3}",survey,80,929760,0.0-5.0-1.37,[],,,
,,,,,,,,,,
1110,TestRecordings/genpum.wav,0,audio-button-response,81,930876,0.0-5.0-0.38,,,,
,,,,,,,,,,
3677,,"{""P0_Q0"":3}",survey,82,934559,0.0-5.0-1.38,[],,,
,,,,,,,,,,
1246,TestRecordings/dlesbup.wav,0,audio-button-response,83,935813,0.0-5.0-0.39,,,,
,,,,,,,,,,
1532,,"{""P0_Q0"":3}",survey,84,937350,0.0-5.0-1.39,[],,,
,,,,,,,,,,
1317,TestRecordings/tlamsus.wav,0,audio-button-response,85,938676,0.0-5.0-0.40,,,,
,,,,,,,,,,
3387,,"{""P0_Q0"":2}",survey,86,942071,0.0-5.0-1.40,[],,,
,,,,,,,,,,
1069,TestRecordings/douk.wav,0,audio-button-response,87,943147,0.0-5.0-0.41,,,,
,,,,,,,,,,
3076,,"{""P0_Q0"":6}",survey,88,946230,0.0-5.0-1.41,[],,,
,,,,,,,,,,
1454,TestRecordings/treng.wav,0,audio-button-response,89,947691,0.0-5.0-0.42,,,,
,,,,,,,,,,
1819,,"{""P0_Q0"":5}",survey,90,949518,0.0-5.0-1.42,[],,,
,,,,,,,,,,
1429,TestRecordings/guut.wav,0,audio-button-response,91,950955,0.0-5.0-0.43,,,,
,,,,,,,,,,
1836,,"{""P0_Q0"":5}",survey,92,952798,0.0-5.0-1.43,[],,,
,,,,,,,,,,
1583,TestRecordings/pesgut.wav,0,audio-button-response,93,954387,0.0-5.0-0.44,,,,
,,,,,,,,,,
2077,,"{""P0_Q0"":4}",survey,94,956470,0.0-5.0-1.44,[],,,
,,,,,,,,,,
1165,TestRecordings/sandup.wav,0,audio-button-response,95,957642,0.0-5.0-0.45,,,,
,,,,,,,,,,
3389,,"{""P0_Q0"":3}",survey,96,961037,0.0-5.0-1.45,[],,,
,,,,,,,,,,
949,TestRecordings/tleik.wav,0,audio-button-response,97,961995,0.0-5.0-0.46,,,,
,,,,,,,,,,
1459,,"{""P0_Q0"":2}",survey,98,963461,0.0-5.0-1.46,[],,,
,,,,,,,,,,
1173,TestRecordings/dmat.wav,0,audio-button-response,99,964643,0.0-5.0-0.47,,,,
,,,,,,,,,,
3325,,"{""P0_Q0"":2}",survey,100,967974,0.0-5.0-1.47,[],,,
,,,,,,,,,,
924,TestRecordings/dlain.wav,0,audio-button-response,101,968907,0.0-5.0-0.48,,,,
,,,,,,,,,,
2670,,"{""P0_Q0"":2}",survey,102,971582,0.0-5.0-1.48,[],,,
,,,,,,,,,,
996,TestRecordings/daum.wav,0,audio-button-response,103,972586,0.0-5.0-0.49,,,,
,,,,,,,,,,
2619,,"{""P0_Q0"":6}",survey,104,975213,0.0-5.0-1.49,[],,,
,,,,,,,,,,
1067,TestRecordings/nungtem.wav,0,audio-button-response,105,976290,0.0-5.0-0.50,,,,
,,,,,,,,,,
3292,,"{""P0_Q0"":3}",survey,106,979588,0.0-5.0-1.50,[],,,
,,,,,,,,,,
1062,TestRecordings/driksum.wav,0,audio-button-response,107,980657,0.0-5.0-0.51,,,,
,,,,,,,,,,
1529,,"{""P0_Q0"":3}",survey,108,982196,0.0-5.0-1.51,[],,,
,,,,,,,,,,
959,TestRecordings/biptet.wav,0,audio-button-response,109,983162,0.0-5.0-0.52,,,,
,,,,,,,,,,
3084,,"{""P0_Q0"":4}",survey,110,986252,0.0-5.0-1.52,[],,,
,,,,,,,,,,
1022,TestRecordings/tembip.wav,0,audio-button-response,111,987281,0.0-5.0-0.53,,,,
,,,,,,,,,,
4412,,"{""P0_Q0"":4}",survey,112,991700,0.0-5.0-1.53,[],,,
,,,,,,,,,,
1533,TestRecordings/beptus.wav,0,audio-button-response,113,993242,0.0-5.0-0.54,,,,
,,,,,,,,,,
2285,,"{""P0_Q0"":5}",survey,114,995533,0.0-5.0-1.54,[],,,
,,,,,,,,,,
896,TestRecordings/bnup.wav,0,audio-button-response,115,996490,0.0-5.0-0.55,,,,
,,,,,,,,,,
2470,,"{""P0_Q0"":2}",survey,116,998983,0.0-5.0-1.55,[],,,
,,,,,,,,,,
1321,TestRecordings/gakdum.wav,0,audio-button-response,117,1000313,0.0-5.0-0.56,,,,
,,,,,,,,,,
5263,,"{""P0_Q0"":4}",survey,118,1005610,0.0-5.0-1.56,[],,,
,,,,,,,,,,
986,TestRecordings/dwis.wav,0,audio-button-response,119,1006608,0.0-5.0-0.57,,,,
,,,,,,,,,,
2654,,"{""P0_Q0"":3}",survey,120,1009284,0.0-5.0-1.57,[],,,
,,,,,,,,,,
1281,TestRecordings/tlangduk.wav,0,audio-button-response,121,1010576,0.0-5.0-0.58,,,,
,,,,,,,,,,
3834,,"{""P0_Q0"":2}",survey,122,1014420,0.0-5.0-1.58,[],,,
,,,,,,,,,,
917,TestRecordings/ndek.wav,0,audio-button-response,123,1015344,0.0-5.0-0.59,,,,
,,,,,,,,,,
2691,,"{""P0_Q0"":2}",survey,124,1018043,0.0-5.0-1.59,[],,,
,,,,,,,,,,
3908,, ,html-keyboard-response,125,1021952,0.0-6.0,,,,
,,,,,,,,,,
34740,,"{""P0_Q0"":""20"",""P0_Q1"":""Female"",""P0_Q2"":""Yes"",""P0_Q3"":""n/a"",""P0_Q4"":""n/a"",""P0_Q5"":""n/a""}",survey,126,1056708,0.0-7.0,[],,,
,,,,,,,,,,
97129,"<p style=""font-size:30px"">The experiment has ended</p><p style=""font-size:30px"",lang=""ko"">Thanks for participating in it!</p>", ,html-keyboard-response,127,1153834,0.0-8.0,,,,