rt,stimulus,response,trial_type,trial_index,time_elapsed,internal_node_id,accuracy,PracticeTest,ConsonantSequence,Grammaticality
,,,,,,,,,,
1108333,"<p style=""font-size:30px"">Welcome to the experiment</p><p>Press spacebar to continue</p>", ,html-keyboard-response,0,1108303,0.0-0.0,,,,
,,,,,,,,,,
2470,"<p style=""font-size:30px"">Please ensure that your headphones are on correctly</p><p>Press spacebar to continue</p>", ,html-keyboard-response,1,1110774,0.0-1.0,,,,
,,,,,,,,,,
7848,"<p style=""font-size:30px"">In this experiment, you will listen to nonsense words</p><p style=""font-size:30px"",lang=""ko"">Your task is to rate the nonsense word you heard as a possible word of American English</p><p>Press spacebar to continue</p>", ,html-keyboard-response,2,1118622,0.0-2.0,,,,
,,,,,,,,,,
1174,, ,html-keyboard-response,3,1119798,0.0-3.0,,,,
,,,,,,,,,,
4753,"<p style=""font-size:30px"">Now let's move on to the actual experiment.</p><p style=""font-size:30px"",lang=""ko"">During the experiment, you will hear each of the nonce words only once.</p><p>Press spacebar to continue</p>", ,html-keyboard-response,4,1124549,0.0-4.0,,,,
,,,,,,,,,,
4645,TestRecordings/gwas.wav,0,audio-button-response,5,1129204,0.0-5.0-0.0,,,,
,,,,,,,,,,
7082,,"{""P0_Q0"":6}",survey,6,1136321,0.0-5.0-1.0,[],,,
,,,,,,,,,,
2165,TestRecordings/spen.wav,0,audio-button-response,7,1138491,0.0-5.0-0.1,,,,
,,,,,,,,,,
3190,,"{""P0_Q0"":6}",survey,8,1141696,0.0-5.0-1.1,[],,,
,,,,,,,,,,
2463,TestRecordings/tlakgung.wav,0,audio-button-response,9,1144163,0.0-5.0-0.2,,,,
,,,,,,,,,,
2496,,"{""P0_Q0"":3}",survey,10,1146671,0.0-5.0-1.2,[],,,
,,,,,,,,,,
1902,TestRecordings/tembip.wav,0,audio-button-response,11,1148580,0.0-5.0-0.3,,,,
,,,,,,,,,,
2651,,"{""P0_Q0"":2}",survey,12,1151238,0.0-5.0-1.3,[],,,
,,,,,,,,,,
1814,TestRecordings/bimkun.wav,0,audio-button-response,13,1153058,0.0-5.0-0.4,,,,
,,,,,,,,,,
5858,,"{""P0_Q0"":3}",survey,14,1158926,0.0-5.0-1.4,[],,,
,,,,,,,,,,
2328,TestRecordings/dunbem.wav,0,audio-button-response,15,1161259,0.0-5.0-0.5,,,,
,,,,,,,,,,
2267,,"{""P0_Q0"":2}",survey,16,1163534,0.0-5.0-1.5,[],,,
,,,,,,,,,,
2320,TestRecordings/tlangduk.wav,0,audio-button-response,17,1165858,0.0-5.0-0.6,,,,
,,,,,,,,,,
3730,,"{""P0_Q0"":2}",survey,18,1169597,0.0-5.0-1.6,[],,,
,,,,,,,,,,
2079,TestRecordings/daum.wav,0,audio-button-response,19,1171682,0.0-5.0-0.7,,,,
,,,,,,,,,,
2475,,"{""P0_Q0"":4}",survey,20,1174165,0.0-5.0-1.7,[],,,
,,,,,,,,,,
1567,TestRecordings/gwut.wav,0,audio-button-response,21,1175737,0.0-5.0-0.8,,,,
,,,,,,,,,,
2867,,"{""P0_Q0"":2}",survey,22,1178613,0.0-5.0-1.8,[],,,
,,,,,,,,,,
1719,TestRecordings/kmuup.wav,0,audio-button-response,23,1180337,0.0-5.0-0.9,,,,
,,,,,,,,,,
3661,,"{""P0_Q0"":3}",survey,24,1184005,0.0-5.0-1.9,[],,,
,,,,,,,,,,
1680,TestRecordings/santem.wav,0,audio-button-response,25,1185689,0.0-5.0-0.10,,,,
,,,,,,,,,,
1683,,"{""P0_Q0"":5}",survey,26,1187380,0.0-5.0-1.10,[],,,
,,,,,,,,,,
1456,TestRecordings/draspung.wav,0,audio-button-response,27,1188841,0.0-5.0-0.11,,,,
,,,,,,,,,,
2212,,"{""P0_Q0"":4}",survey,28,1191060,0.0-5.0-1.11,[],,,
,,,,,,,,,,
1641,TestRecordings/sandup.wav,0,audio-button-response,29,1192704,0.0-5.0-0.12,,,,
,,,,,,,,,,
1874,,"{""P0_Q0"":3}",survey,30,1194588,0.0-5.0-1.12,[],,,
,,,,,,,,,,
1280,TestRecordings/bim.wav,0,audio-button-response,31,1195872,0.0-5.0-0.13,,,,
,,,,,,,,,,
1965,,"{""P0_Q0"":6}",survey,32,1197843,0.0-5.0-1.13,[],,,
,,,,,,,,,,
2182,TestRecordings/driksum.wav,0,audio-button-response,33,1200033,0.0-5.0-0.14,,,,
,,,,,,,,,,
1467,,"{""P0_Q0"":5}",survey,34,1201506,0.0-5.0-1.14,[],,,
,,,,,,,,,,
1664,TestRecordings/pesgut.wav,0,audio-button-response,35,1203176,0.0-5.0-0.15,,,,
,,,,,,,,,,
1812,,"{""P0_Q0"":4}",survey,36,1204994,0.0-5.0-1.15,[],,,
,,,,,,,,,,
1090,TestRecordings/dlain.wav,0,audio-button-response,37,1206088,0.0-5.0-0.16,,,,
,,,,,,,,,,
2004,,"{""P0_Q0"":6}",survey,38,1208099,0.0-5.0-1.16,[],,,
,,,,,,,,,,
1672,TestRecordings/dret.wav,0,audio-button-response,39,1209776,0.0-5.0-0.17,,,,
,,,,,,,,,,
1830,,"{""P0_Q0"":6}",survey,40,1211612,0.0-5.0-1.17,[],,,
,,,,,,,,,,
2005,TestRecordings/skup.wav,0,audio-button-response,41,1213624,0.0-5.0-0.18,,,,
,,,,,,,,,,
1788,,"{""P0_Q0"":5}",survey,42,1215419,0.0-5.0-1.18,[],,,
,,,,,,,,,,
2248,TestRecordings/gintep.wav,0,audio-button-response,43,1217671,0.0-5.0-0.19,,,,
,,,,,,,,,,
2765,,"{""P0_Q0"":3}",survey,44,1220443,0.0-5.0-1.19,[],,,
,,,,,,,,,,
1551,TestRecordings/tleik.wav,0,audio-button-response,45,1221999,0.0-5.0-0.20,,,,
,,,,,,,,,,
1749,,"{""P0_Q0"":2}",survey,46,1223753,0.0-5.0-1.20,[],,,
,,,,,,,,,,
1496,TestRecordings/tlamsus.wav,0,audio-button-response,47,1225255,0.0-5.0-0.21,,,,
,,,,,,,,,,
1876,,"{""P0_Q0"":2}",survey,48,1227137,0.0-5.0-1.21,[],,,
,,,,,,,,,,
1426,TestRecordings/gukpim.wav,0,audio-button-response,49,1228567,0.0-5.0-0.22,,,,
,,,,,,,,,,
2382,,"{""P0_Q0"":3}",survey,50,1230953,0.0-5.0-1.22,[],,,
,,,,,,,,,,
1560,TestRecordings/treng.wav,0,audio-button-response,51,1232520,0.0-5.0-0.23,,,,
,,,,,,,,,,
1787,,"{""P0_Q0"":5}",survey,52,1234313,0.0-5.0-1.23,[],,,
,,,,,,,,,,
1625,TestRecordings/nungtem.wav,0,audio-button-response,53,1235943,0.0-5.0-0.24,,,,
,,,,,,,,,,
1908,,"{""P0_Q0"":2}",survey,54,1237857,0.0-5.0-1.24,[],,,
,,,,,,,,,,
1392,TestRecordings/biptet.wav,0,audio-button-response,55,1239255,0.0-5.0-0.25,,,,
,,,,,,,,,,
1724,,"{""P0_Q0"":5}",survey,56,1240986,0.0-5.0-1.25,[],,,
,,,,,,,,,,
1921,TestRecordings/drembip.wav,0,audio-button-response,57,1242911,0.0-5.0-0.26,,,,
,,,,,,,,,,
4596,,"{""P0_Q0"":4}",survey,58,1247512,0.0-5.0-1.26,[],,,
,,,,,,,,,,
1518,TestRecordings/trindus.wav,0,audio-button-response,59,1249039,0.0-5.0-0.27,,,,
,,,,,,,,,,
2237,,"{""P0_Q0"":3}",survey,60,1251281,0.0-5.0-1.27,[],,,
,,,,,,,,,,
1465,TestRecordings/dlang.wav,0,audio-button-response,61,1252750,0.0-5.0-0.28,,,,
,,,,,,,,,,
2091,,"{""P0_Q0"":5}",survey,62,1254848,0.0-5.0-1.28,[],,,
,,,,,,,,,,
1560,TestRecordings/gmut.wav,0,audio-button-response,63,1256414,0.0-5.0-0.29,,,,
,,,,,,,,,,
1732,,"{""P0_Q0"":3}",survey,64,1258152,0.0-5.0-1.29,[],,,
,,,,,,,,,,
1017,TestRecordings/dmat.wav,0,audio-button-response,65,1259174,0.0-5.0-0.30,,,,
,,,,,,,,,,
1524,,"{""P0_Q0"":2}",survey,66,1260704,0.0-5.0-1.30,[],,,
,,,,,,,,,,
1425,TestRecordings/mdak.wav,0,audio-button-response,67,1262134,0.0-5.0-0.31,,,,
,,,,,,,,,,
2725,,"{""P0_Q0"":4}",survey,68,1264865,0.0-5.0-1.31,[],,,
,,,,,,,,,,
1455,TestRecordings/druksan.wav,0,audio-button-response,69,1266325,0.0-5.0-0.32,,,,
,,,,,,,,,,
2478,,"{""P0_Q0"":3}",survey,70,1268809,0.0-5.0-1.32,[],,,
,,,,,,,,,,
1295,TestRecordings/tlunpem.wav,0,audio-button-response,71,1270110,0.0-5.0-0.33,,,,
,,,,,,,,,,
1932,,"{""P0_Q0"":2}",survey,72,1272048,0.0-5.0-1.33,[],,,
,,,,,,,,,,
1048,TestRecordings/pmaut.wav,0,audio-button-response,73,1273101,0.0-5.0-0.34,,,,
,,,,,,,,,,
1838,,"{""P0_Q0"":4}",survey,74,1274944,0.0-5.0-1.34,[],,,
,,,,,,,,,,
1073,TestRecordings/staik.wav,0,audio-button-response,75,1276021,0.0-5.0-0.35,,,,
,,,,,,,,,,
2709,,"{""P0_Q0"":6}",survey,76,1278736,0.0-5.0-1.35,[],,,
,,,,,,,,,,
1377,TestRecordings/tlaip.wav,0,audio-button-response,77,1280117,0.0-5.0-0.36,,,,
,,,,,,,,,,
3988,,"{""P0_Q0"":4}",survey,78,1284111,0.0-5.0-1.36,[],,,
,,,,,,,,,,
1280,TestRecordings/drensum.wav,0,audio-button-response,79,1285396,0.0-5.0-0.37,,,,
,,,,,,,,,,
3037,,"{""P0_Q0"":4}",survey,80,1288440,0.0-5.0-1.37,[],,,
,,,,,,,,,,
1144,TestRecordings/ndaik.wav,0,audio-button-response,81,1289588,0.0-5.0-0.38,,,,
,,,,,,,,,,
2526,,"{""P0_Q0"":3}",survey,82,1292118,0.0-5.0-1.38,[],,,
,,,,,,,,,,
1328,TestRecordings/keptus.wav,0,audio-button-response,83,1293452,0.0-5.0-0.39,,,,
,,,,,,,,,,
1957,,"{""P0_Q0"":5}",survey,84,1295414,0.0-5.0-1.39,[],,,
,,,,,,,,,,
1488,TestRecordings/dletgin.wav,0,audio-button-response,85,1296908,0.0-5.0-0.40,,,,
,,,,,,,,,,
2132,,"{""P0_Q0"":3}",survey,86,1299046,0.0-5.0-1.40,[],,,
,,,,,,,,,,
1178,TestRecordings/ndek.wav,0,audio-button-response,87,1300227,0.0-5.0-0.41,,,,
,,,,,,,,,,
1468,,"{""P0_Q0"":3}",survey,88,1301702,0.0-5.0-1.41,[],,,
,,,,,,,,,,
1160,TestRecordings/douk.wav,0,audio-button-response,89,1302868,0.0-5.0-0.42,,,,
,,,,,,,,,,
1565,,"{""P0_Q0"":6}",survey,90,1304438,0.0-5.0-1.42,[],,,
,,,,,,,,,,
961,TestRecordings/bnup.wav,0,audio-button-response,91,1305404,0.0-5.0-0.43,,,,
,,,,,,,,,,
1477,,"{""P0_Q0"":3}",survey,92,1306886,0.0-5.0-1.43,[],,,
,,,,,,,,,,
1057,TestRecordings/dliim.wav,0,audio-button-response,93,1307947,0.0-5.0-0.44,,,,
,,,,,,,,,,
2164,,"{""P0_Q0"":2}",survey,94,1310118,0.0-5.0-1.44,[],,,
,,,,,,,,,,
978,TestRecordings/gatdum.wav,0,audio-button-response,95,1311101,0.0-5.0-0.45,,,,
,,,,,,,,,,
1387,,"{""P0_Q0"":4}",survey,96,1312494,0.0-5.0-1.45,[],,,
,,,,,,,,,,
1136,TestRecordings/mpat.wav,0,audio-button-response,97,1313636,0.0-5.0-0.46,,,,
,,,,,,,,,,
2060,,"{""P0_Q0"":3}",survey,98,1315702,0.0-5.0-1.46,[],,,
,,,,,,,,,,
1296,TestRecordings/beptus.wav,0,audio-button-response,99,1317003,0.0-5.0-0.47,,,,
,,,,,,,,,,
1236,,"{""P0_Q0"":6}",survey,100,1318246,0.0-5.0-1.47,[],,,
,,,,,,,,,,
1305,TestRecordings/dlupgik.wav,0,audio-button-response,101,1319555,0.0-5.0-0.48,,,,
,,,,,,,,,,
3205,,"{""P0_Q0"":2}",survey,102,1322766,0.0-5.0-1.48,[],,,
,,,,,,,,,,
1601,TestRecordings/genpum.wav,0,audio-button-response,103,1324371,0.0-5.0-0.49,,,,
,,,,,,,,,,
1459,,"{""P0_Q0"":4}",survey,104,1325837,0.0-5.0-1.49,[],,,
,,,,,,,,,,
3032,TestRecordings/mpahk.wav,0,audio-button-response,105,1328874,0.0-5.0-0.50,,,,
,,,,,,,,,,
2389,,"{""P0_Q0"":5}",survey,106,1331269,0.0-5.0-1.50,[],,,
,,,,,,,,,,
1303,TestRecordings/gakdum.wav,0,audio-button-response,107,1332578,0.0-5.0-0.51,,,,
,,,,,,,,,,
1965,,"{""P0_Q0"":6}",survey,108,1334548,0.0-5.0-1.51,[],,,
,,,,,,,,,,
1425,TestRecordings/stup.wav,0,audio-button-response,109,1335979,0.0-5.0-0.52,,,,
,,,,,,,,,,
2068,,"{""P0_Q0"":7}",survey,110,1338052,0.0-5.0-1.52,[],,,
,,,,,,,,,,
1161,TestRecordings/daip.wav,0,audio-button-response,111,1339218,0.0-5.0-0.53,,,,
,,,,,,,,,,
1526,,"{""P0_Q0"":6}",survey,112,1340748,0.0-5.0-1.53,[],,,
,,,,,,,,,,
2033,TestRecordings/bwus.wav,0,audio-button-response,113,1342786,0.0-5.0-0.54,,,,
,,,,,,,,,,
1933,,"{""P0_Q0"":4}",survey,114,1344724,0.0-5.0-1.54,[],,,
,,,,,,,,,,
1082,TestRecordings/dwis.wav,0,audio-button-response,115,1345810,0.0-5.0-0.55,,,,
,,,,,,,,,,
2301,,"{""P0_Q0"":4}",survey,116,1348116,0.0-5.0-1.55,[],,,
,,,,,,,,,,
1017,TestRecordings/dlesbup.wav,0,audio-button-response,117,1349138,0.0-5.0-0.56,,,,
,,,,,,,,,,
1406,,"{""P0_Q0"":2}",survey,118,1350548,0.0-5.0-1.56,[],,,
,,,,,,,,,,
918,TestRecordings/guut.wav,0,audio-button-response,119,1351473,0.0-5.0-0.57,,,,
,,,,,,,,,,
1612,,"{""P0_Q0"":6}",survey,120,1353092,0.0-5.0-1.57,[],,,
,,,,,,,,,,
1014,TestRecordings/gekpup.wav,0,audio-button-response,121,1354114,0.0-5.0-0.58,,,,
,,,,,,,,,,
1820,,"{""P0_Q0"":5}",survey,122,1355940,0.0-5.0-1.58,[],,,
,,,,,,,,,,
1121,TestRecordings/nasgek.wav,0,audio-button-response,123,1357066,0.0-5.0-0.59,,,,
,,,,,,,,,,
2652,,"{""P0_Q0"":4}",survey,124,1359724,0.0-5.0-1.59,[],,,
,,,,,,,,,,
3446,, ,html-keyboard-response,125,1363170,0.0-6.0,,,,
,,,,,,,,,,
124016,,"{""P0_Q0"":""19"",""P0_Q1"":""Female"",""P0_Q2"":""Yes"",""P0_Q3"":""Mandarin Chinese"",""P0_Q4"":""Started at age 14 and learned for 4 years"",""P0_Q5"":""Some Madarin Chinese was spoken by family around the house and picked up secondarily, but I didn't actually dedicate time to learning (taking a class) until I was 14. I am conversationally fluent. ""}",survey,126,1487194,0.0-7.0,[],,,
,,,,,,,,,,
115706,"<p style=""font-size:30px"">The experiment has ended</p><p style=""font-size:30px"",lang=""ko"">Thanks for participating in it!</p>", ,html-keyboard-response,127,1602895,0.0-8.0,,,,