rt,stimulus,response,trial_type,trial_index,time_elapsed,internal_node_id,accuracy,PracticeTest,ConsonantSequence,Grammaticality
,,,,,,,,,,
118623,"<p style=""font-size:30px"">Welcome to the experiment</p><p>Press spacebar to continue</p>", ,html-keyboard-response,0,118646,0.0-0.0,,,,
,,,,,,,,,,
3104,"<p style=""font-size:30px"">Please ensure that your headphones are on correctly</p><p>Press spacebar to continue</p>", ,html-keyboard-response,1,121750,0.0-1.0,,,,
,,,,,,,,,,
6884,"<p style=""font-size:30px"">In this experiment, you will listen to nonsense words</p><p style=""font-size:30px"",lang=""ko"">Your task is to rate the nonsense word you heard as a possible word of American English</p><p>Press spacebar to continue</p>", ,html-keyboard-response,2,128634,0.0-2.0,,,,
,,,,,,,,,,
1807,, ,html-keyboard-response,3,130442,0.0-3.0,,,,
,,,,,,,,,,
3104,"<p style=""font-size:30px"">Now let's move on to the actual experiment.</p><p style=""font-size:30px"",lang=""ko"">During the experiment, you will hear each of the nonce words only once.</p><p>Press spacebar to continue</p>", ,html-keyboard-response,4,133546,0.0-4.0,,,,
,,,,,,,,,,
5024,TestRecordings/guut.wav,0,audio-button-response,5,138882,0.0-5.0-0.0,,,,
,,,,,,,,,,
12545,,"{""P0_Q0"":5}",survey,6,151462,0.0-5.0-1.0,[],,,
,,,,,,,,,,
1698,TestRecordings/dmat.wav,0,audio-button-response,7,153169,0.0-5.0-0.1,,,,
,,,,,,,,,,
5135,,"{""P0_Q0"":7}",survey,8,158316,0.0-5.0-1.1,[],,,
,,,,,,,,,,
2100,TestRecordings/gakdum.wav,0,audio-button-response,9,160424,0.0-5.0-0.2,,,,
,,,,,,,,,,
3151,,"{""P0_Q0"":4}",survey,10,163588,0.0-5.0-1.2,[],,,
,,,,,,,,,,
1405,TestRecordings/bimkun.wav,0,audio-button-response,11,165000,0.0-5.0-0.3,,,,
,,,,,,,,,,
5754,,"{""P0_Q0"":3}",survey,12,170763,0.0-5.0-1.3,[],,,
,,,,,,,,,,
1918,TestRecordings/tlaip.wav,0,audio-button-response,13,172688,0.0-5.0-0.4,,,,
,,,,,,,,,,
1850,,"{""P0_Q0"":3}",survey,14,174548,0.0-5.0-1.4,[],,,
,,,,,,,,,,
1110,TestRecordings/treng.wav,0,audio-button-response,15,175664,0.0-5.0-0.5,,,,
,,,,,,,,,,
2842,,"{""P0_Q0"":4}",survey,16,178515,0.0-5.0-1.5,[],,,
,,,,,,,,,,
1341,TestRecordings/douk.wav,0,audio-button-response,17,179864,0.0-5.0-0.6,,,,
,,,,,,,,,,
3147,,"{""P0_Q0"":5}",survey,18,183019,0.0-5.0-1.6,[],,,
,,,,,,,,,,
1246,TestRecordings/bim.wav,0,audio-button-response,19,184272,0.0-5.0-0.7,,,,
,,,,,,,,,,
3716,,"{""P0_Q0"":6}",survey,20,187994,0.0-5.0-1.7,[],,,
,,,,,,,,,,
1550,TestRecordings/driksum.wav,0,audio-button-response,21,189551,0.0-5.0-0.8,,,,
,,,,,,,,,,
2212,,"{""P0_Q0"":4}",survey,22,191769,0.0-5.0-1.8,[],,,
,,,,,,,,,,
1279,TestRecordings/gekpup.wav,0,audio-button-response,23,193055,0.0-5.0-0.9,,,,
,,,,,,,,,,
4442,,"{""P0_Q0"":1}",survey,24,197506,0.0-5.0-1.9,[],,,
,,,,,,,,,,
1438,TestRecordings/dliim.wav,0,audio-button-response,25,198951,0.0-5.0-0.10,,,,
,,,,,,,,,,
2317,,"{""P0_Q0"":5}",survey,26,201276,0.0-5.0-1.10,[],,,
,,,,,,,,,,
1170,TestRecordings/dlang.wav,0,audio-button-response,27,202454,0.0-5.0-0.11,,,,
,,,,,,,,,,
2307,,"{""P0_Q0"":4}",survey,28,204769,0.0-5.0-1.11,[],,,
,,,,,,,,,,
1311,TestRecordings/tlangduk.wav,0,audio-button-response,29,206087,0.0-5.0-0.12,,,,
,,,,,,,,,,
2156,,"{""P0_Q0"":2}",survey,30,208249,0.0-5.0-1.12,[],,,
,,,,,,,,,,
1039,TestRecordings/gwut.wav,0,audio-button-response,31,209294,0.0-5.0-0.13,,,,
,,,,,,,,,,
3011,,"{""P0_Q0"":1}",survey,32,212313,0.0-5.0-1.13,[],,,
,,,,,,,,,,
1133,TestRecordings/dlupgik.wav,0,audio-button-response,33,213455,0.0-5.0-0.14,,,,
,,,,,,,,,,
2805,,"{""P0_Q0"":2}",survey,34,216265,0.0-5.0-1.14,[],,,
,,,,,,,,,,
1070,TestRecordings/dunbem.wav,0,audio-button-response,35,217342,0.0-5.0-0.15,,,,
,,,,,,,,,,
3661,,"{""P0_Q0"":3}",survey,36,221009,0.0-5.0-1.15,[],,,
,,,,,,,,,,
1254,TestRecordings/pmaut.wav,0,audio-button-response,37,222269,0.0-5.0-0.16,,,,
,,,,,,,,,,
3197,,"{""P0_Q0"":6}",survey,38,225473,0.0-5.0-1.16,[],,,
,,,,,,,,,,
1150,TestRecordings/santem.wav,0,audio-button-response,39,226629,0.0-5.0-0.17,,,,
,,,,,,,,,,
2518,,"{""P0_Q0"":4}",survey,40,229154,0.0-5.0-1.17,[],,,
,,,,,,,,,,
1092,TestRecordings/spen.wav,0,audio-button-response,41,230253,0.0-5.0-0.18,,,,
,,,,,,,,,,
2291,,"{""P0_Q0"":7}",survey,42,232552,0.0-5.0-1.18,[],,,
,,,,,,,,,,
1045,TestRecordings/skup.wav,0,audio-button-response,43,233606,0.0-5.0-0.19,,,,
,,,,,,,,,,
4316,,"{""P0_Q0"":7}",survey,44,237928,0.0-5.0-1.19,[],,,
,,,,,,,,,,
974,TestRecordings/dlain.wav,0,audio-button-response,45,238909,0.0-5.0-0.20,,,,
,,,,,,,,,,
1939,,"{""P0_Q0"":5}",survey,46,240856,0.0-5.0-1.20,[],,,
,,,,,,,,,,
1311,TestRecordings/druksan.wav,0,audio-button-response,47,242173,0.0-5.0-0.21,,,,
,,,,,,,,,,
3174,,"{""P0_Q0"":3}",survey,48,245352,0.0-5.0-1.21,[],,,
,,,,,,,,,,
1045,TestRecordings/tlamsus.wav,0,audio-button-response,49,246406,0.0-5.0-0.22,,,,
,,,,,,,,,,
1706,,"{""P0_Q0"":1}",survey,50,248119,0.0-5.0-1.22,[],,,
,,,,,,,,,,
934,TestRecordings/ndek.wav,0,audio-button-response,51,249061,0.0-5.0-0.23,,,,
,,,,,,,,,,
3981,,"{""P0_Q0"":6}",survey,52,253048,0.0-5.0-1.23,[],,,
,,,,,,,,,,
1023,TestRecordings/tembip.wav,0,audio-button-response,53,254077,0.0-5.0-0.24,,,,
,,,,,,,,,,
2445,,"{""P0_Q0"":4}",survey,54,256527,0.0-5.0-1.24,[],,,
,,,,,,,,,,
1014,TestRecordings/biptet.wav,0,audio-button-response,55,257548,0.0-5.0-0.25,,,,
,,,,,,,,,,
5077,,"{""P0_Q0"":3}",survey,56,262631,0.0-5.0-1.25,[],,,
,,,,,,,,,,
1405,TestRecordings/drensum.wav,0,audio-button-response,57,264044,0.0-5.0-0.26,,,,
,,,,,,,,,,
1940,,"{""P0_Q0"":4}",survey,58,265991,0.0-5.0-1.26,[],,,
,,,,,,,,,,
920,TestRecordings/daum.wav,0,audio-button-response,59,266916,0.0-5.0-0.27,,,,
,,,,,,,,,,
2548,,"{""P0_Q0"":7}",survey,60,269470,0.0-5.0-1.27,[],,,
,,,,,,,,,,
902,TestRecordings/nungtem.wav,0,audio-button-response,61,270380,0.0-5.0-0.28,,,,
,,,,,,,,,,
2140,,"{""P0_Q0"":2}",survey,62,272526,0.0-5.0-1.28,[],,,
,,,,,,,,,,
1125,TestRecordings/genpum.wav,0,audio-button-response,63,273660,0.0-5.0-0.29,,,,
,,,,,,,,,,
4420,,"{""P0_Q0"":1}",survey,64,278087,0.0-5.0-1.29,[],,,
,,,,,,,,,,
1023,TestRecordings/dlesbup.wav,0,audio-button-response,65,279116,0.0-5.0-0.30,,,,
,,,,,,,,,,
1923,,"{""P0_Q0"":2}",survey,66,281045,0.0-5.0-1.30,[],,,
,,,,,,,,,,
942,TestRecordings/beptus.wav,0,audio-button-response,67,281996,0.0-5.0-0.31,,,,
,,,,,,,,,,
2172,,"{""P0_Q0"":3}",survey,68,284174,0.0-5.0-1.31,[],,,
,,,,,,,,,,
820,TestRecordings/dret.wav,0,audio-button-response,69,285003,0.0-5.0-0.32,,,,
,,,,,,,,,,
1780,,"{""P0_Q0"":5}",survey,70,286790,0.0-5.0-1.32,[],,,
,,,,,,,,,,
934,TestRecordings/gwas.wav,0,audio-button-response,71,287731,0.0-5.0-0.33,,,,
,,,,,,,,,,
1867,,"{""P0_Q0"":4}",survey,72,289606,0.0-5.0-1.33,[],,,
,,,,,,,,,,
943,TestRecordings/gatdum.wav,0,audio-button-response,73,290556,0.0-5.0-0.34,,,,
,,,,,,,,,,
2216,,"{""P0_Q0"":2}",survey,74,292781,0.0-5.0-1.34,[],,,
,,,,,,,,,,
877,TestRecordings/ndaik.wav,0,audio-button-response,75,293667,0.0-5.0-0.35,,,,
,,,,,,,,,,
1971,,"{""P0_Q0"":2}",survey,76,295646,0.0-5.0-1.35,[],,,
,,,,,,,,,,
849,TestRecordings/gukpim.wav,0,audio-button-response,77,296500,0.0-5.0-0.36,,,,
,,,,,,,,,,
3151,,"{""P0_Q0"":3}",survey,78,299661,0.0-5.0-1.36,[],,,
,,,,,,,,,,
871,TestRecordings/tleik.wav,0,audio-button-response,79,300539,0.0-5.0-0.37,,,,
,,,,,,,,,,
1899,,"{""P0_Q0"":3}",survey,80,302445,0.0-5.0-1.37,[],,,
,,,,,,,,,,
1046,TestRecordings/daip.wav,0,audio-button-response,81,303498,0.0-5.0-0.38,,,,
,,,,,,,,,,
1636,,"{""P0_Q0"":3}",survey,82,305141,0.0-5.0-1.38,[],,,
,,,,,,,,,,
941,TestRecordings/kmuup.wav,0,audio-button-response,83,306090,0.0-5.0-0.39,,,,
,,,,,,,,,,
3341,,"{""P0_Q0"":2}",survey,84,309437,0.0-5.0-1.39,[],,,
,,,,,,,,,,
726,TestRecordings/gmut.wav,0,audio-button-response,85,310170,0.0-5.0-0.40,,,,
,,,,,,,,,,
1412,,"{""P0_Q0"":2}",survey,86,311589,0.0-5.0-1.40,[],,,
,,,,,,,,,,
983,TestRecordings/mpat.wav,0,audio-button-response,87,312578,0.0-5.0-0.41,,,,
,,,,,,,,,,
2462,,"{""P0_Q0"":5}",survey,88,315046,0.0-5.0-1.41,[],,,
,,,,,,,,,,
901,TestRecordings/gintep.wav,0,audio-button-response,89,315955,0.0-5.0-0.42,,,,
,,,,,,,,,,
2221,,"{""P0_Q0"":3}",survey,90,318181,0.0-5.0-1.42,[],,,
,,,,,,,,,,
1015,TestRecordings/drembip.wav,0,audio-button-response,91,319202,0.0-5.0-0.43,,,,
,,,,,,,,,,
2029,,"{""P0_Q0"":3}",survey,92,321237,0.0-5.0-1.43,[],,,
,,,,,,,,,,
711,TestRecordings/stup.wav,0,audio-button-response,93,321954,0.0-5.0-0.44,,,,
,,,,,,,,,,
3749,,"{""P0_Q0"":7}",survey,94,325708,0.0-5.0-1.44,[],,,
,,,,,,,,,,
959,TestRecordings/bwus.wav,0,audio-button-response,95,326674,0.0-5.0-0.45,,,,
,,,,,,,,,,
1972,,"{""P0_Q0"":3}",survey,96,328652,0.0-5.0-1.45,[],,,
,,,,,,,,,,
941,TestRecordings/draspung.wav,0,audio-button-response,97,329601,0.0-5.0-0.46,,,,
,,,,,,,,,,
2227,,"{""P0_Q0"":3}",survey,98,331836,0.0-5.0-1.46,[],,,
,,,,,,,,,,
807,TestRecordings/pesgut.wav,0,audio-button-response,99,332649,0.0-5.0-0.47,,,,
,,,,,,,,,,
2013,,"{""P0_Q0"":4}",survey,100,334668,0.0-5.0-1.47,[],,,
,,,,,,,,,,
966,TestRecordings/staik.wav,0,audio-button-response,101,335642,0.0-5.0-0.48,,,,
,,,,,,,,,,
1996,,"{""P0_Q0"":4}",survey,102,337644,0.0-5.0-1.48,[],,,
,,,,,,,,,,
877,TestRecordings/mpahk.wav,0,audio-button-response,103,338529,0.0-5.0-0.49,,,,
,,,,,,,,,,
2701,,"{""P0_Q0"":2}",survey,104,341238,0.0-5.0-1.49,[],,,
,,,,,,,,,,
811,TestRecordings/tlakgung.wav,0,audio-button-response,105,342057,0.0-5.0-0.50,,,,
,,,,,,,,,,
1548,,"{""P0_Q0"":1}",survey,106,343611,0.0-5.0-1.50,[],,,
,,,,,,,,,,
1015,TestRecordings/dwis.wav,0,audio-button-response,107,344633,0.0-5.0-0.51,,,,
,,,,,,,,,,
1833,,"{""P0_Q0"":4}",survey,108,346476,0.0-5.0-1.51,[],,,
,,,,,,,,,,
885,TestRecordings/mdak.wav,0,audio-button-response,109,347369,0.0-5.0-0.52,,,,
,,,,,,,,,,
1860,,"{""P0_Q0"":4}",survey,110,349235,0.0-5.0-1.52,[],,,
,,,,,,,,,,
920,TestRecordings/trindus.wav,0,audio-button-response,111,350161,0.0-5.0-0.53,,,,
,,,,,,,,,,
2140,,"{""P0_Q0"":3}",survey,112,352307,0.0-5.0-1.53,[],,,
,,,,,,,,,,
854,TestRecordings/tlunpem.wav,0,audio-button-response,113,353169,0.0-5.0-0.54,,,,
,,,,,,,,,,
1803,,"{""P0_Q0"":2}",survey,114,354980,0.0-5.0-1.54,[],,,
,,,,,,,,,,
1006,TestRecordings/keptus.wav,0,audio-button-response,115,355992,0.0-5.0-0.55,,,,
,,,,,,,,,,
1644,,"{""P0_Q0"":3}",survey,116,357643,0.0-5.0-1.55,[],,,
,,,,,,,,,,
879,TestRecordings/bnup.wav,0,audio-button-response,117,358528,0.0-5.0-0.56,,,,
,,,,,,,,,,
3573,,"{""P0_Q0"":4}",survey,118,362107,0.0-5.0-1.56,[],,,
,,,,,,,,,,
1174,TestRecordings/sandup.wav,0,audio-button-response,119,363288,0.0-5.0-0.57,,,,
,,,,,,,,,,
1620,,"{""P0_Q0"":4}",survey,120,364915,0.0-5.0-1.57,[],,,
,,,,,,,,,,
1367,TestRecordings/nasgek.wav,0,audio-button-response,121,366288,0.0-5.0-0.58,,,,
,,,,,,,,,,
1877,,"{""P0_Q0"":3}",survey,122,368170,0.0-5.0-1.58,[],,,
,,,,,,,,,,
856,TestRecordings/dletgin.wav,0,audio-button-response,123,369033,0.0-5.0-0.59,,,,
,,,,,,,,,,
2480,,"{""P0_Q0"":3}",survey,124,371520,0.0-5.0-1.59,[],,,
,,,,,,,,,,
6774,, ,html-keyboard-response,125,378297,0.0-6.0,,,,
,,,,,,,,,,
69769,,"{""P0_Q0"":""20"",""P0_Q1"":""male"",""P0_Q2"":""yes"",""P0_Q3"":""spanish/italian"",""P0_Q4"":""spanish- since 11 years old, italian 19 years old"",""P0_Q5"":""Learned basics for both languages, actively learning italian""}",survey,126,448106,0.0-7.0,[],,,
,,,,,,,,,,
399461,"<p style=""font-size:30px"">The experiment has ended</p><p style=""font-size:30px"",lang=""ko"">Thanks for participating in it!</p>", ,html-keyboard-response,127,847553,0.0-8.0,,,,