rt,stimulus,response,trial_type,trial_index,time_elapsed,internal_node_id,accuracy,PracticeTest,ConsonantSequence,Grammaticality
,,,,,,,,,,
855952,"<p style=""font-size:30px"">Welcome to the experiment</p><p>Press spacebar to continue</p>", ,html-keyboard-response,0,855943,0.0-0.0,,,,
,,,,,,,,,,
2045,"<p style=""font-size:30px"">Please ensure that your headphones are on correctly</p><p>Press spacebar to continue</p>", ,html-keyboard-response,1,857990,0.0-1.0,,,,
,,,,,,,,,,
3864,"<p style=""font-size:30px"">In this experiment, you will listen to nonsense words</p><p style=""font-size:30px"",lang=""ko"">Your task is to rate the nonsense word you heard as a possible word of American English</p><p>Press spacebar to continue</p>", ,html-keyboard-response,2,861853,0.0-2.0,,,,
,,,,,,,,,,
1504,, ,html-keyboard-response,3,863357,0.0-3.0,,,,
,,,,,,,,,,
6287,"<p style=""font-size:30px"">Now let's move on to the actual experiment.</p><p style=""font-size:30px"",lang=""ko"">During the experiment, you will hear each of the nonce words only once.</p><p>Press spacebar to continue</p>", ,html-keyboard-response,4,869645,0.0-4.0,,,,
,,,,,,,,,,
2254,TestRecordings/tlakgung.wav,0,audio-button-response,5,871909,0.0-5.0-0.0,,,,
,,,,,,,,,,
8666,,"{""P0_Q0"":5}",survey,6,880610,0.0-5.0-1.0,[],,,
,,,,,,,,,,
2068,TestRecordings/bimkun.wav,0,audio-button-response,7,882684,0.0-5.0-0.1,,,,
,,,,,,,,,,
5120,,"{""P0_Q0"":6}",survey,8,887816,0.0-5.0-1.1,[],,,
,,,,,,,,,,
1941,TestRecordings/santem.wav,0,audio-button-response,9,889764,0.0-5.0-0.2,,,,
,,,,,,,,,,
1872,,"{""P0_Q0"":7}",survey,10,891647,0.0-5.0-1.2,[],,,
,,,,,,,,,,
1150,TestRecordings/dret.wav,0,audio-button-response,11,892804,0.0-5.0-0.3,,,,
,,,,,,,,,,
1482,,"{""P0_Q0"":7}",survey,12,894295,0.0-5.0-1.3,[],,,
,,,,,,,,,,
1870,TestRecordings/sandup.wav,0,audio-button-response,13,896172,0.0-5.0-0.4,,,,
,,,,,,,,,,
2298,,"{""P0_Q0"":3}",survey,14,898479,0.0-5.0-1.4,[],,,
,,,,,,,,,,
1789,TestRecordings/dlang.wav,0,audio-button-response,15,900275,0.0-5.0-0.5,,,,
,,,,,,,,,,
3162,,"{""P0_Q0"":3}",survey,16,903446,0.0-5.0-1.5,[],,,
,,,,,,,,,,
1015,TestRecordings/skup.wav,0,audio-button-response,17,904467,0.0-5.0-0.6,,,,
,,,,,,,,,,
2146,,"{""P0_Q0"":6}",survey,18,906621,0.0-5.0-1.6,[],,,
,,,,,,,,,,
1392,TestRecordings/spen.wav,0,audio-button-response,19,908019,0.0-5.0-0.7,,,,
,,,,,,,,,,
4116,,"{""P0_Q0"":3}",survey,20,912141,0.0-5.0-1.7,[],,,
,,,,,,,,,,
2199,TestRecordings/dlesbup.wav,0,audio-button-response,21,914347,0.0-5.0-0.8,,,,
,,,,,,,,,,
4779,,"{""P0_Q0"":3}",survey,22,919133,0.0-5.0-1.8,[],,,
,,,,,,,,,,
1317,TestRecordings/trindus.wav,0,audio-button-response,23,920459,0.0-5.0-0.9,,,,
,,,,,,,,,,
2714,,"{""P0_Q0"":6}",survey,24,923182,0.0-5.0-1.9,[],,,
,,,,,,,,,,
1096,TestRecordings/genpum.wav,0,audio-button-response,25,924282,0.0-5.0-0.10,,,,
,,,,,,,,,,
2074,,"{""P0_Q0"":1}",survey,26,926365,0.0-5.0-1.10,[],,,
,,,,,,,,,,
1641,TestRecordings/pesgut.wav,0,audio-button-response,27,928010,0.0-5.0-0.11,,,,
,,,,,,,,,,
2788,,"{""P0_Q0"":1}",survey,28,930805,0.0-5.0-1.11,[],,,
,,,,,,,,,,
881,TestRecordings/dmat.wav,0,audio-button-response,29,931691,0.0-5.0-0.12,,,,
,,,,,,,,,,
2451,,"{""P0_Q0"":4}",survey,30,934149,0.0-5.0-1.12,[],,,
,,,,,,,,,,
1478,TestRecordings/tlunpem.wav,0,audio-button-response,31,935633,0.0-5.0-0.13,,,,
,,,,,,,,,,
1676,,"{""P0_Q0"":2}",survey,32,937316,0.0-5.0-1.13,[],,,
,,,,,,,,,,
1184,TestRecordings/ndek.wav,0,audio-button-response,33,938506,0.0-5.0-0.14,,,,
,,,,,,,,,,
2787,,"{""P0_Q0"":6}",survey,34,941300,0.0-5.0-1.14,[],,,
,,,,,,,,,,
1087,TestRecordings/driksum.wav,0,audio-button-response,35,942393,0.0-5.0-0.15,,,,
,,,,,,,,,,
2752,,"{""P0_Q0"":5}",survey,36,945150,0.0-5.0-1.15,[],,,
,,,,,,,,,,
1086,TestRecordings/gintep.wav,0,audio-button-response,37,946241,0.0-5.0-0.16,,,,
,,,,,,,,,,
2060,,"{""P0_Q0"":2}",survey,38,948308,0.0-5.0-1.16,[],,,
,,,,,,,,,,
1367,TestRecordings/mpat.wav,0,audio-button-response,39,949681,0.0-5.0-0.17,,,,
,,,,,,,,,,
1572,,"{""P0_Q0"":3}",survey,40,951260,0.0-5.0-1.17,[],,,
,,,,,,,,,,
1071,TestRecordings/guut.wav,0,audio-button-response,41,952338,0.0-5.0-0.18,,,,
,,,,,,,,,,
1843,,"{""P0_Q0"":3}",survey,42,954187,0.0-5.0-1.18,[],,,
,,,,,,,,,,
1398,TestRecordings/tlamsus.wav,0,audio-button-response,43,955593,0.0-5.0-0.19,,,,
,,,,,,,,,,
1469,,"{""P0_Q0"":2}",survey,44,957067,0.0-5.0-1.19,[],,,
,,,,,,,,,,
1247,TestRecordings/dletgin.wav,0,audio-button-response,45,958320,0.0-5.0-0.20,,,,
,,,,,,,,,,
2341,,"{""P0_Q0"":5}",survey,46,960668,0.0-5.0-1.20,[],,,
,,,,,,,,,,
927,TestRecordings/gukpim.wav,0,audio-button-response,47,961601,0.0-5.0-0.21,,,,
,,,,,,,,,,
1482,,"{""P0_Q0"":3}",survey,48,963091,0.0-5.0-1.21,[],,,
,,,,,,,,,,
985,TestRecordings/nasgek.wav,0,audio-button-response,49,964080,0.0-5.0-0.22,,,,
,,,,,,,,,,
2140,,"{""P0_Q0"":6}",survey,50,966227,0.0-5.0-1.22,[],,,
,,,,,,,,,,
1312,TestRecordings/kmuup.wav,0,audio-button-response,51,967544,0.0-5.0-0.23,,,,
,,,,,,,,,,
1533,,"{""P0_Q0"":2}",survey,52,969083,0.0-5.0-1.23,[],,,
,,,,,,,,,,
1836,TestRecordings/bim.wav,0,audio-button-response,53,970928,0.0-5.0-0.24,,,,
,,,,,,,,,,
2772,,"{""P0_Q0"":3}",survey,54,973707,0.0-5.0-1.24,[],,,
,,,,,,,,,,
4006,TestRecordings/nungtem.wav,0,audio-button-response,55,977720,0.0-5.0-0.25,,,,
,,,,,,,,,,
2356,,"{""P0_Q0"":2}",survey,56,980083,0.0-5.0-1.25,[],,,
,,,,,,,,,,
934,TestRecordings/mpahk.wav,0,audio-button-response,57,981024,0.0-5.0-0.26,,,,
,,,,,,,,,,
1620,,"{""P0_Q0"":3}",survey,58,982650,0.0-5.0-1.26,[],,,
,,,,,,,,,,
944,TestRecordings/biptet.wav,0,audio-button-response,59,983600,0.0-5.0-0.27,,,,
,,,,,,,,,,
1940,,"{""P0_Q0"":2}",survey,60,985546,0.0-5.0-1.27,[],,,
,,,,,,,,,,
1367,TestRecordings/daum.wav,0,audio-button-response,61,986920,0.0-5.0-0.28,,,,
,,,,,,,,,,
1779,,"{""P0_Q0"":1}",survey,62,988706,0.0-5.0-1.28,[],,,
,,,,,,,,,,
966,TestRecordings/stup.wav,0,audio-button-response,63,989680,0.0-5.0-0.29,,,,
,,,,,,,,,,
2077,,"{""P0_Q0"":5}",survey,64,991762,0.0-5.0-1.29,[],,,
,,,,,,,,,,
863,TestRecordings/tleik.wav,0,audio-button-response,65,992632,0.0-5.0-0.30,,,,
,,,,,,,,,,
1507,,"{""P0_Q0"":6}",survey,66,994146,0.0-5.0-1.30,[],,,
,,,,,,,,,,
1454,TestRecordings/tlangduk.wav,0,audio-button-response,67,995608,0.0-5.0-0.31,,,,
,,,,,,,,,,
1868,,"{""P0_Q0"":2}",survey,68,997482,0.0-5.0-1.31,[],,,
,,,,,,,,,,
1078,TestRecordings/beptus.wav,0,audio-button-response,69,998567,0.0-5.0-0.32,,,,
,,,,,,,,,,
1669,,"{""P0_Q0"":3}",survey,70,1000242,0.0-5.0-1.32,[],,,
,,,,,,,,,,
1591,TestRecordings/gwut.wav,0,audio-button-response,71,1001840,0.0-5.0-0.33,,,,
,,,,,,,,,,
3148,,"{""P0_Q0"":4}",survey,72,1004994,0.0-5.0-1.33,[],,,
,,,,,,,,,,
1208,TestRecordings/staik.wav,0,audio-button-response,73,1006208,0.0-5.0-0.34,,,,
,,,,,,,,,,
2797,,"{""P0_Q0"":6}",survey,74,1009010,0.0-5.0-1.34,[],,,
,,,,,,,,,,
1008,TestRecordings/dunbem.wav,0,audio-button-response,75,1010023,0.0-5.0-0.35,,,,
,,,,,,,,,,
2069,,"{""P0_Q0"":2}",survey,76,1012098,0.0-5.0-1.35,[],,,
,,,,,,,,,,
1270,TestRecordings/mdak.wav,0,audio-button-response,77,1013375,0.0-5.0-0.36,,,,
,,,,,,,,,,
2284,,"{""P0_Q0"":3}",survey,78,1015665,0.0-5.0-1.36,[],,,
,,,,,,,,,,
1432,TestRecordings/douk.wav,0,audio-button-response,79,1017103,0.0-5.0-0.37,,,,
,,,,,,,,,,
4926,,"{""P0_Q0"":5}",survey,80,1022034,0.0-5.0-1.37,[],,,
,,,,,,,,,,
1103,TestRecordings/gwas.wav,0,audio-button-response,81,1023143,0.0-5.0-0.38,,,,
,,,,,,,,,,
1988,,"{""P0_Q0"":7}",survey,82,1025137,0.0-5.0-1.38,[],,,
,,,,,,,,,,
1121,TestRecordings/bwus.wav,0,audio-button-response,83,1026263,0.0-5.0-0.39,,,,
,,,,,,,,,,
1908,,"{""P0_Q0"":4}",survey,84,1028177,0.0-5.0-1.39,[],,,
,,,,,,,,,,
1015,TestRecordings/dwis.wav,0,audio-button-response,85,1029198,0.0-5.0-0.40,,,,
,,,,,,,,,,
2004,,"{""P0_Q0"":5}",survey,86,1031208,0.0-5.0-1.40,[],,,
,,,,,,,,,,
856,TestRecordings/drensum.wav,0,audio-button-response,87,1032070,0.0-5.0-0.41,,,,
,,,,,,,,,,
4092,,"{""P0_Q0"":2}",survey,88,1036169,0.0-5.0-1.41,[],,,
,,,,,,,,,,
1008,TestRecordings/ndaik.wav,0,audio-button-response,89,1037182,0.0-5.0-0.42,,,,
,,,,,,,,,,
1435,,"{""P0_Q0"":3}",survey,90,1038624,0.0-5.0-1.42,[],,,
,,,,,,,,,,
1249,TestRecordings/keptus.wav,0,audio-button-response,91,1039878,0.0-5.0-0.43,,,,
,,,,,,,,,,
3750,,"{""P0_Q0"":5}",survey,92,1043633,0.0-5.0-1.43,[],,,
,,,,,,,,,,
1182,TestRecordings/dlupgik.wav,0,audio-button-response,93,1044822,0.0-5.0-0.44,,,,
,,,,,,,,,,
1573,,"{""P0_Q0"":2}",survey,94,1046400,0.0-5.0-1.44,[],,,
,,,,,,,,,,
1487,TestRecordings/gakdum.wav,0,audio-button-response,95,1047893,0.0-5.0-0.45,,,,
,,,,,,,,,,
1660,,"{""P0_Q0"":2}",survey,96,1049561,0.0-5.0-1.45,[],,,
,,,,,,,,,,
2775,TestRecordings/dlain.wav,0,audio-button-response,97,1052341,0.0-5.0-0.46,,,,
,,,,,,,,,,
2340,,"{""P0_Q0"":4}",survey,98,1054687,0.0-5.0-1.46,[],,,
,,,,,,,,,,
1072,TestRecordings/treng.wav,0,audio-button-response,99,1055765,0.0-5.0-0.47,,,,
,,,,,,,,,,
1467,,"{""P0_Q0"":6}",survey,100,1057240,0.0-5.0-1.47,[],,,
,,,,,,,,,,
1034,TestRecordings/gekpup.wav,0,audio-button-response,101,1058277,0.0-5.0-0.48,,,,
,,,,,,,,,,
1317,,"{""P0_Q0"":3}",survey,102,1059600,0.0-5.0-1.48,[],,,
,,,,,,,,,,
1245,TestRecordings/druksan.wav,0,audio-button-response,103,1060853,0.0-5.0-0.49,,,,
,,,,,,,,,,
1700,,"{""P0_Q0"":2}",survey,104,1062560,0.0-5.0-1.49,[],,,
,,,,,,,,,,
1296,TestRecordings/drembip.wav,0,audio-button-response,105,1063861,0.0-5.0-0.50,,,,
,,,,,,,,,,
1277,,"{""P0_Q0"":3}",survey,106,1065143,0.0-5.0-1.50,[],,,
,,,,,,,,,,
1208,TestRecordings/gmut.wav,0,audio-button-response,107,1066356,0.0-5.0-0.51,,,,
,,,,,,,,,,
1437,,"{""P0_Q0"":2}",survey,108,1067799,0.0-5.0-1.51,[],,,
,,,,,,,,,,
962,TestRecordings/daip.wav,0,audio-button-response,109,1068764,0.0-5.0-0.52,,,,
,,,,,,,,,,
2229,,"{""P0_Q0"":4}",survey,110,1070999,0.0-5.0-1.52,[],,,
,,,,,,,,,,
977,TestRecordings/tlaip.wav,0,audio-button-response,111,1071981,0.0-5.0-0.53,,,,
,,,,,,,,,,
2668,,"{""P0_Q0"":3}",survey,112,1074655,0.0-5.0-1.53,[],,,
,,,,,,,,,,
2487,TestRecordings/bnup.wav,0,audio-button-response,113,1077148,0.0-5.0-0.54,,,,
,,,,,,,,,,
2485,,"{""P0_Q0"":3}",survey,114,1079640,0.0-5.0-1.54,[],,,
,,,,,,,,,,
1406,TestRecordings/tembip.wav,0,audio-button-response,115,1081052,0.0-5.0-0.55,,,,
,,,,,,,,,,
1933,,"{""P0_Q0"":2}",survey,116,1082990,0.0-5.0-1.55,[],,,
,,,,,,,,,,
3430,TestRecordings/pmaut.wav,0,audio-button-response,117,1086428,0.0-5.0-0.56,,,,
,,,,,,,,,,
2130,,"{""P0_Q0"":2}",survey,118,1088567,0.0-5.0-1.56,[],,,
,,,,,,,,,,
1719,TestRecordings/gatdum.wav,0,audio-button-response,119,1090292,0.0-5.0-0.57,,,,
,,,,,,,,,,
1813,,"{""P0_Q0"":2}",survey,120,1092110,0.0-5.0-1.57,[],,,
,,,,,,,,,,
1088,TestRecordings/dliim.wav,0,audio-button-response,121,1093204,0.0-5.0-0.58,,,,
,,,,,,,,,,
2340,,"{""P0_Q0"":4}",survey,122,1095550,0.0-5.0-1.58,[],,,
,,,,,,,,,,
1064,TestRecordings/draspung.wav,0,audio-button-response,123,1096619,0.0-5.0-0.59,,,,
,,,,,,,,,,
1837,,"{""P0_Q0"":2}",survey,124,1098462,0.0-5.0-1.59,[],,,
,,,,,,,,,,
3140,, ,html-keyboard-response,125,1101604,0.0-6.0,,,,
,,,,,,,,,,
25805,,"{""P0_Q0"":""18"",""P0_Q1"":""Female"",""P0_Q2"":""Yes"",""P0_Q3"":""None"",""P0_Q4"":""N/A"",""P0_Q5"":""N/A""}",survey,126,1127424,0.0-7.0,[],,,
,,,,,,,,,,
196027,"<p style=""font-size:30px"">The experiment has ended</p><p style=""font-size:30px"",lang=""ko"">Thanks for participating in it!</p>", ,html-keyboard-response,127,1323444,0.0-8.0,,,,