rt,stimulus,response,trial_type,trial_index,time_elapsed,internal_node_id,accuracy,PracticeTest,ConsonantSequence,Grammaticality
,,,,,,,,,,
776558,"<p style=""font-size:30px"">Welcome to the experiment</p><p>Press spacebar to continue</p>", ,html-keyboard-response,0,776529,0.0-0.0,,,,
,,,,,,,,,,
4175,"<p style=""font-size:30px"">Please ensure that your headphones are on correctly</p><p>Press spacebar to continue</p>", ,html-keyboard-response,1,780705,0.0-1.0,,,,
,,,,,,,,,,
5335,"<p style=""font-size:30px"">In this experiment, you will listen to nonsense words</p><p style=""font-size:30px"",lang=""ko"">Your task is to rate the nonsense word you heard as a possible word of American English</p><p>Press spacebar to continue</p>", ,html-keyboard-response,2,786041,0.0-2.0,,,,
,,,,,,,,,,
1104,, ,html-keyboard-response,3,787144,0.0-3.0,,,,
,,,,,,,,,,
3903,"<p style=""font-size:30px"">Now let's move on to the actual experiment.</p><p style=""font-size:30px"",lang=""ko"">During the experiment, you will hear each of the nonce words only once.</p><p>Press spacebar to continue</p>", ,html-keyboard-response,4,791048,0.0-4.0,,,,
,,,,,,,,,,
5357,TestRecordings/santem.wav,0,audio-button-response,5,796415,0.0-5.0-0.0,,,,
,,,,,,,,,,
6841,,"{""P0_Q0"":5}",survey,6,803292,0.0-5.0-1.0,[],,,
,,,,,,,,,,
2217,TestRecordings/gwut.wav,0,audio-button-response,7,805518,0.0-5.0-0.1,,,,
,,,,,,,,,,
5047,,"{""P0_Q0"":2}",survey,8,810578,0.0-5.0-1.1,[],,,
,,,,,,,,,,
1940,TestRecordings/pmaut.wav,0,audio-button-response,9,812526,0.0-5.0-0.2,,,,
,,,,,,,,,,
3937,,"{""P0_Q0"":2}",survey,10,816474,0.0-5.0-1.2,[],,,
,,,,,,,,,,
3411,TestRecordings/keptus.wav,0,audio-button-response,11,819895,0.0-5.0-0.3,,,,
,,,,,,,,,,
2602,,"{""P0_Q0"":4}",survey,12,822506,0.0-5.0-1.3,[],,,
,,,,,,,,,,
2172,TestRecordings/daum.wav,0,audio-button-response,13,824686,0.0-5.0-0.4,,,,
,,,,,,,,,,
3706,,"{""P0_Q0"":6}",survey,14,828401,0.0-5.0-1.4,[],,,
,,,,,,,,,,
2164,TestRecordings/druksan.wav,0,audio-button-response,15,830574,0.0-5.0-0.5,,,,
,,,,,,,,,,
5225,,"{""P0_Q0"":4}",survey,16,835809,0.0-5.0-1.5,[],,,
,,,,,,,,,,
1363,TestRecordings/kmuup.wav,0,audio-button-response,17,837181,0.0-5.0-0.6,,,,
,,,,,,,,,,
2100,,"{""P0_Q0"":2}",survey,18,839289,0.0-5.0-1.6,[],,,
,,,,,,,,,,
1708,TestRecordings/bwus.wav,0,audio-button-response,19,841006,0.0-5.0-0.7,,,,
,,,,,,,,,,
2844,,"{""P0_Q0"":2}",survey,20,843856,0.0-5.0-1.7,[],,,
,,,,,,,,,,
1756,TestRecordings/dmat.wav,0,audio-button-response,21,845621,0.0-5.0-0.8,,,,
,,,,,,,,,,
2459,,"{""P0_Q0"":7}",survey,22,848088,0.0-5.0-1.8,[],,,
,,,,,,,,,,
2205,TestRecordings/beptus.wav,0,audio-button-response,23,850301,0.0-5.0-0.9,,,,
,,,,,,,,,,
2819,,"{""P0_Q0"":6}",survey,24,853128,0.0-5.0-1.9,[],,,
,,,,,,,,,,
2196,TestRecordings/spen.wav,0,audio-button-response,25,855332,0.0-5.0-0.10,,,,
,,,,,,,,,,
3394,,"{""P0_Q0"":4}",survey,26,858736,0.0-5.0-1.10,[],,,
,,,,,,,,,,
2436,TestRecordings/drembip.wav,0,audio-button-response,27,861181,0.0-5.0-0.11,,,,
,,,,,,,,,,
2244,,"{""P0_Q0"":3}",survey,28,863432,0.0-5.0-1.11,[],,,
,,,,,,,,,,
1827,TestRecordings/gatdum.wav,0,audio-button-response,29,865268,0.0-5.0-0.12,,,,
,,,,,,,,,,
1939,,"{""P0_Q0"":3}",survey,30,867214,0.0-5.0-1.12,[],,,
,,,,,,,,,,
1076,TestRecordings/bnup.wav,0,audio-button-response,31,868300,0.0-5.0-0.13,,,,
,,,,,,,,,,
1692,,"{""P0_Q0"":2}",survey,32,869998,0.0-5.0-1.13,[],,,
,,,,,,,,,,
1581,TestRecordings/sandup.wav,0,audio-button-response,33,871588,0.0-5.0-0.14,,,,
,,,,,,,,,,
4708,,"{""P0_Q0"":5}",survey,34,876302,0.0-5.0-1.14,[],,,
,,,,,,,,,,
1652,TestRecordings/dlesbup.wav,0,audio-button-response,35,877964,0.0-5.0-0.15,,,,
,,,,,,,,,,
1532,,"{""P0_Q0"":3}",survey,36,879502,0.0-5.0-1.15,[],,,
,,,,,,,,,,
1510,TestRecordings/guut.wav,0,audio-button-response,37,881020,0.0-5.0-0.16,,,,
,,,,,,,,,,
1963,,"{""P0_Q0"":4}",survey,38,882989,0.0-5.0-1.16,[],,,
,,,,,,,,,,
1357,TestRecordings/dunbem.wav,0,audio-button-response,39,884355,0.0-5.0-0.17,,,,
,,,,,,,,,,
1877,,"{""P0_Q0"":1}",survey,40,886238,0.0-5.0-1.17,[],,,
,,,,,,,,,,
1551,TestRecordings/trindus.wav,0,audio-button-response,41,887795,0.0-5.0-0.18,,,,
,,,,,,,,,,
3212,,"{""P0_Q0"":6}",survey,42,891014,0.0-5.0-1.18,[],,,
,,,,,,,,,,
1533,TestRecordings/gekpup.wav,0,audio-button-response,43,892555,0.0-5.0-0.19,,,,
,,,,,,,,,,
2332,,"{""P0_Q0"":2}",survey,44,894894,0.0-5.0-1.19,[],,,
,,,,,,,,,,
1438,TestRecordings/mpat.wav,0,audio-button-response,45,896339,0.0-5.0-0.20,,,,
,,,,,,,,,,
3205,,"{""P0_Q0"":4}",survey,46,899550,0.0-5.0-1.20,[],,,
,,,,,,,,,,
1350,TestRecordings/dwis.wav,0,audio-button-response,47,900906,0.0-5.0-0.21,,,,
,,,,,,,,,,
2374,,"{""P0_Q0"":3}",survey,48,903286,0.0-5.0-1.21,[],,,
,,,,,,,,,,
1588,TestRecordings/nasgek.wav,0,audio-button-response,49,904883,0.0-5.0-0.22,,,,
,,,,,,,,,,
2308,,"{""P0_Q0"":5}",survey,50,907198,0.0-5.0-1.22,[],,,
,,,,,,,,,,
1092,TestRecordings/gmut.wav,0,audio-button-response,51,908323,0.0-5.0-0.23,,,,
,,,,,,,,,,
1908,,"{""P0_Q0"":2}",survey,52,910237,0.0-5.0-1.23,[],,,
,,,,,,,,,,
1031,TestRecordings/dlang.wav,0,audio-button-response,53,911275,0.0-5.0-0.24,,,,
,,,,,,,,,,
1691,,"{""P0_Q0"":1}",survey,54,912972,0.0-5.0-1.24,[],,,
,,,,,,,,,,
1172,TestRecordings/pesgut.wav,0,audio-button-response,55,914154,0.0-5.0-0.25,,,,
,,,,,,,,,,
2421,,"{""P0_Q0"":4}",survey,56,916582,0.0-5.0-1.25,[],,,
,,,,,,,,,,
1649,TestRecordings/ndek.wav,0,audio-button-response,57,918242,0.0-5.0-0.26,,,,
,,,,,,,,,,
1724,,"{""P0_Q0"":6}",survey,58,919972,0.0-5.0-1.26,[],,,
,,,,,,,,,,
1142,TestRecordings/douk.wav,0,audio-button-response,59,921122,0.0-5.0-0.27,,,,
,,,,,,,,,,
1548,,"{""P0_Q0"":5}",survey,60,922676,0.0-5.0-1.27,[],,,
,,,,,,,,,,
950,TestRecordings/dret.wav,0,audio-button-response,61,923634,0.0-5.0-0.28,,,,
,,,,,,,,,,
2628,,"{""P0_Q0"":6}",survey,62,926268,0.0-5.0-1.28,[],,,
,,,,,,,,,,
1181,TestRecordings/mpahk.wav,0,audio-button-response,63,927457,0.0-5.0-0.29,,,,
,,,,,,,,,,
1500,,"{""P0_Q0"":2}",survey,64,928964,0.0-5.0-1.29,[],,,
,,,,,,,,,,
1533,TestRecordings/gakdum.wav,0,audio-button-response,65,930506,0.0-5.0-0.30,,,,
,,,,,,,,,,
1692,,"{""P0_Q0"":2}",survey,66,932203,0.0-5.0-1.30,[],,,
,,,,,,,,,,
1253,TestRecordings/tlamsus.wav,0,audio-button-response,67,933465,0.0-5.0-0.31,,,,
,,,,,,,,,,
2179,,"{""P0_Q0"":2}",survey,68,935652,0.0-5.0-1.31,[],,,
,,,,,,,,,,
1326,TestRecordings/stup.wav,0,audio-button-response,69,936986,0.0-5.0-0.32,,,,
,,,,,,,,,,
1716,,"{""P0_Q0"":6}",survey,70,938708,0.0-5.0-1.32,[],,,
,,,,,,,,,,
1245,TestRecordings/tlakgung.wav,0,audio-button-response,71,939961,0.0-5.0-0.33,,,,
,,,,,,,,,,
1677,,"{""P0_Q0"":1}",survey,72,941644,0.0-5.0-1.33,[],,,
,,,,,,,,,,
1181,TestRecordings/tlangduk.wav,0,audio-button-response,73,942833,0.0-5.0-0.34,,,,
,,,,,,,,,,
1965,,"{""P0_Q0"":1}",survey,74,944803,0.0-5.0-1.34,[],,,
,,,,,,,,,,
1526,TestRecordings/staik.wav,0,audio-button-response,75,946337,0.0-5.0-0.35,,,,
,,,,,,,,,,
2820,,"{""P0_Q0"":5}",survey,76,949163,0.0-5.0-1.35,[],,,
,,,,,,,,,,
1534,TestRecordings/genpum.wav,0,audio-button-response,77,950705,0.0-5.0-0.36,,,,
,,,,,,,,,,
1581,,"{""P0_Q0"":4}",survey,78,952292,0.0-5.0-1.36,[],,,
,,,,,,,,,,
989,TestRecordings/gwas.wav,0,audio-button-response,79,953288,0.0-5.0-0.37,,,,
,,,,,,,,,,
2124,,"{""P0_Q0"":3}",survey,80,955419,0.0-5.0-1.37,[],,,
,,,,,,,,,,
1165,TestRecordings/tlaip.wav,0,audio-button-response,81,956592,0.0-5.0-0.38,,,,
,,,,,,,,,,
1660,,"{""P0_Q0"":5}",survey,82,958259,0.0-5.0-1.38,[],,,
,,,,,,,,,,
2084,TestRecordings/nungtem.wav,0,audio-button-response,83,960352,0.0-5.0-0.39,,,,
,,,,,,,,,,
2323,,"{""P0_Q0"":4}",survey,84,962684,0.0-5.0-1.39,[],,,
,,,,,,,,,,
1396,TestRecordings/treng.wav,0,audio-button-response,85,964088,0.0-5.0-0.40,,,,
,,,,,,,,,,
3797,,"{""P0_Q0"":5}",survey,86,967891,0.0-5.0-1.40,[],,,
,,,,,,,,,,
2662,TestRecordings/gintep.wav,0,audio-button-response,87,970559,0.0-5.0-0.41,,,,
,,,,,,,,,,
1493,,"{""P0_Q0"":4}",survey,88,972059,0.0-5.0-1.41,[],,,
,,,,,,,,,,
1213,TestRecordings/skup.wav,0,audio-button-response,89,973280,0.0-5.0-0.42,,,,
,,,,,,,,,,
1549,,"{""P0_Q0"":2}",survey,90,974834,0.0-5.0-1.42,[],,,
,,,,,,,,,,
1102,TestRecordings/daip.wav,0,audio-button-response,91,975943,0.0-5.0-0.43,,,,
,,,,,,,,,,
1515,,"{""P0_Q0"":2}",survey,92,977466,0.0-5.0-1.43,[],,,
,,,,,,,,,,
1135,TestRecordings/gukpim.wav,0,audio-button-response,93,978608,0.0-5.0-0.44,,,,
,,,,,,,,,,
2300,,"{""P0_Q0"":2}",survey,94,980913,0.0-5.0-1.44,[],,,
,,,,,,,,,,
1052,TestRecordings/bimkun.wav,0,audio-button-response,95,981975,0.0-5.0-0.45,,,,
,,,,,,,,,,
1910,,"{""P0_Q0"":3}",survey,96,983890,0.0-5.0-1.45,[],,,
,,,,,,,,,,
1173,TestRecordings/biptet.wav,0,audio-button-response,97,985071,0.0-5.0-0.46,,,,
,,,,,,,,,,
1916,,"{""P0_Q0"":2}",survey,98,986994,0.0-5.0-1.46,[],,,
,,,,,,,,,,
1341,TestRecordings/tembip.wav,0,audio-button-response,99,988343,0.0-5.0-0.47,,,,
,,,,,,,,,,
1644,,"{""P0_Q0"":3}",survey,100,989994,0.0-5.0-1.47,[],,,
,,,,,,,,,,
1228,TestRecordings/dlain.wav,0,audio-button-response,101,991231,0.0-5.0-0.48,,,,
,,,,,,,,,,
1973,,"{""P0_Q0"":2}",survey,102,993209,0.0-5.0-1.48,[],,,
,,,,,,,,,,
869,TestRecordings/bim.wav,0,audio-button-response,103,994087,0.0-5.0-0.49,,,,
,,,,,,,,,,
2445,,"{""P0_Q0"":4}",survey,104,996538,0.0-5.0-1.49,[],,,
,,,,,,,,,,
1181,TestRecordings/dlupgik.wav,0,audio-button-response,105,997727,0.0-5.0-0.50,,,,
,,,,,,,,,,
2059,,"{""P0_Q0"":1}",survey,106,999793,0.0-5.0-1.50,[],,,
,,,,,,,,,,
1678,TestRecordings/drensum.wav,0,audio-button-response,107,1001479,0.0-5.0-0.51,,,,
,,,,,,,,,,
2877,,"{""P0_Q0"":1}",survey,108,1004361,0.0-5.0-1.51,[],,,
,,,,,,,,,,
958,TestRecordings/tleik.wav,0,audio-button-response,109,1005326,0.0-5.0-0.52,,,,
,,,,,,,,,,
1804,,"{""P0_Q0"":3}",survey,110,1007137,0.0-5.0-1.52,[],,,
,,,,,,,,,,
1373,TestRecordings/dletgin.wav,0,audio-button-response,111,1008518,0.0-5.0-0.53,,,,
,,,,,,,,,,
2453,,"{""P0_Q0"":2}",survey,112,1010976,0.0-5.0-1.53,[],,,
,,,,,,,,,,
1010,TestRecordings/dliim.wav,0,audio-button-response,113,1011998,0.0-5.0-0.54,,,,
,,,,,,,,,,
1971,,"{""P0_Q0"":7}",survey,114,1013976,0.0-5.0-1.54,[],,,
,,,,,,,,,,
1102,TestRecordings/draspung.wav,0,audio-button-response,115,1015086,0.0-5.0-0.55,,,,
,,,,,,,,,,
1836,,"{""P0_Q0"":1}",survey,116,1016928,0.0-5.0-1.55,[],,,
,,,,,,,,,,
1062,TestRecordings/driksum.wav,0,audio-button-response,117,1017998,0.0-5.0-0.56,,,,
,,,,,,,,,,
1693,,"{""P0_Q0"":1}",survey,118,1019696,0.0-5.0-1.56,[],,,
,,,,,,,,,,
1318,TestRecordings/mdak.wav,0,audio-button-response,119,1021022,0.0-5.0-0.57,,,,
,,,,,,,,,,
3062,,"{""P0_Q0"":4}",survey,120,1024114,0.0-5.0-1.57,[],,,
,,,,,,,,,,
1371,TestRecordings/tlunpem.wav,0,audio-button-response,121,1025494,0.0-5.0-0.58,,,,
,,,,,,,,,,
5644,,"{""P0_Q0"":4}",survey,122,1031162,0.0-5.0-1.58,[],,,
,,,,,,,,,,
1394,TestRecordings/ndaik.wav,0,audio-button-response,123,1032566,0.0-5.0-0.59,,,,
,,,,,,,,,,
2169,,"{""P0_Q0"":3}",survey,124,1034744,0.0-5.0-1.59,[],,,
,,,,,,,,,,
4060,, ,html-keyboard-response,125,1038806,0.0-6.0,,,,
,,,,,,,,,,
104607,,"{""P0_Q0"":""21"",""P0_Q1"":""Female"",""P0_Q2"":""Yes"",""P0_Q3"":""conversational french, a little bit of spanish"",""P0_Q4"":""spanish at 12, french at 20"",""P0_Q5"":""i took classes in middle school to highschool. for french i took 3 classes here at msu and can converse""}",survey,126,1143429,0.0-7.0,[],,,
,,,,,,,,,,
574084,"<p style=""font-size:30px"">The experiment has ended</p><p style=""font-size:30px"",lang=""ko"">Thanks for participating in it!</p>",meta,html-keyboard-response,127,1717492,0.0-8.0,,,,