rt,stimulus,response,trial_type,trial_index,time_elapsed,internal_node_id,accuracy,PracticeTest,ConsonantSequence,Grammaticality
,,,,,,,,,,
269021,"<p style=""font-size:30px"">Welcome to the experiment</p><p>Press spacebar to continue</p>", ,html-keyboard-response,0,269001,0.0-0.0,,,,
,,,,,,,,,,
2404,"<p style=""font-size:30px"">Please ensure that your headphones are on correctly</p><p>Press spacebar to continue</p>", ,html-keyboard-response,1,271406,0.0-1.0,,,,
,,,,,,,,,,
11507,"<p style=""font-size:30px"">In this experiment, you will listen to nonsense words</p><p style=""font-size:30px"",lang=""ko"">Your task is to rate the nonsense word you heard as a possible word of American English</p><p>Press spacebar to continue</p>", ,html-keyboard-response,2,282913,0.0-2.0,,,,
,,,,,,,,,,
1646,, ,html-keyboard-response,3,284561,0.0-3.0,,,,
,,,,,,,,,,
6016,"<p style=""font-size:30px"">Now let's move on to the actual experiment.</p><p style=""font-size:30px"",lang=""ko"">During the experiment, you will hear each of the nonce words only once.</p><p>Press spacebar to continue</p>", ,html-keyboard-response,4,290576,0.0-4.0,,,,
,,,,,,,,,,
5054,TestRecordings/gwut.wav,0,audio-button-response,5,295663,0.0-5.0-0.0,,,,
,,,,,,,,,,
17835,,"{""P0_Q0"":6}",survey,6,313540,0.0-5.0-1.0,[],,,
,,,,,,,,,,
2073,TestRecordings/tleik.wav,0,audio-button-response,7,315622,0.0-5.0-0.1,,,,
,,,,,,,,,,
4415,,"{""P0_Q0"":2}",survey,8,320051,0.0-5.0-1.1,[],,,
,,,,,,,,,,
1410,TestRecordings/kmuup.wav,0,audio-button-response,9,321470,0.0-5.0-0.2,,,,
,,,,,,,,,,
2730,,"{""P0_Q0"":1}",survey,10,324210,0.0-5.0-1.2,[],,,
,,,,,,,,,,
3395,TestRecordings/tlunpem.wav,0,audio-button-response,11,327614,0.0-5.0-0.3,,,,
,,,,,,,,,,
2771,,"{""P0_Q0"":3}",survey,12,330395,0.0-5.0-1.3,[],,,
,,,,,,,,,,
1963,TestRecordings/dlupgik.wav,0,audio-button-response,13,332366,0.0-5.0-0.4,,,,
,,,,,,,,,,
2611,,"{""P0_Q0"":2}",survey,14,334985,0.0-5.0-1.4,[],,,
,,,,,,,,,,
1676,TestRecordings/gmut.wav,0,audio-button-response,15,336670,0.0-5.0-0.5,,,,
,,,,,,,,,,
1930,,"{""P0_Q0"":5}",survey,16,338609,0.0-5.0-1.5,[],,,
,,,,,,,,,,
1859,TestRecordings/staik.wav,0,audio-button-response,17,340477,0.0-5.0-0.6,,,,
,,,,,,,,,,
2939,,"{""P0_Q0"":7}",survey,18,343425,0.0-5.0-1.6,[],,,
,,,,,,,,,,
1669,TestRecordings/tlamsus.wav,0,audio-button-response,19,345101,0.0-5.0-0.7,,,,
,,,,,,,,,,
1611,,"{""P0_Q0"":6}",survey,20,346719,0.0-5.0-1.7,[],,,
,,,,,,,,,,
1318,TestRecordings/douk.wav,0,audio-button-response,21,348045,0.0-5.0-0.8,,,,
,,,,,,,,,,
2563,,"{""P0_Q0"":6}",survey,22,350617,0.0-5.0-1.8,[],,,
,,,,,,,,,,
1628,TestRecordings/dlain.wav,0,audio-button-response,23,352253,0.0-5.0-0.9,,,,
,,,,,,,,,,
2050,,"{""P0_Q0"":5}",survey,24,354312,0.0-5.0-1.9,[],,,
,,,,,,,,,,
1397,TestRecordings/stup.wav,0,audio-button-response,25,355717,0.0-5.0-0.10,,,,
,,,,,,,,,,
2099,,"{""P0_Q0"":2}",survey,26,357825,0.0-5.0-1.10,[],,,
,,,,,,,,,,
1107,TestRecordings/bnup.wav,0,audio-button-response,27,358941,0.0-5.0-0.11,,,,
,,,,,,,,,,
3524,,"{""P0_Q0"":2}",survey,28,362471,0.0-5.0-1.11,[],,,
,,,,,,,,,,
1805,TestRecordings/trindus.wav,0,audio-button-response,29,364284,0.0-5.0-0.12,,,,
,,,,,,,,,,
2845,,"{""P0_Q0"":4}",survey,30,367136,0.0-5.0-1.12,[],,,
,,,,,,,,,,
1741,TestRecordings/gwas.wav,0,audio-button-response,31,368885,0.0-5.0-0.13,,,,
,,,,,,,,,,
3324,,"{""P0_Q0"":5}",survey,32,372215,0.0-5.0-1.13,[],,,
,,,,,,,,,,
1606,TestRecordings/mpahk.wav,0,audio-button-response,33,373828,0.0-5.0-0.14,,,,
,,,,,,,,,,
1570,,"{""P0_Q0"":4}",survey,34,375407,0.0-5.0-1.14,[],,,
,,,,,,,,,,
1411,TestRecordings/dlesbup.wav,0,audio-button-response,35,376828,0.0-5.0-0.15,,,,
,,,,,,,,,,
1867,,"{""P0_Q0"":2}",survey,36,378702,0.0-5.0-1.15,[],,,
,,,,,,,,,,
1486,TestRecordings/drembip.wav,0,audio-button-response,37,380195,0.0-5.0-0.16,,,,
,,,,,,,,,,
3259,,"{""P0_Q0"":2}",survey,38,383463,0.0-5.0-1.16,[],,,
,,,,,,,,,,
1187,TestRecordings/gekpup.wav,0,audio-button-response,39,384659,0.0-5.0-0.17,,,,
,,,,,,,,,,
3749,,"{""P0_Q0"":2}",survey,40,388414,0.0-5.0-1.17,[],,,
,,,,,,,,,,
1334,TestRecordings/nasgek.wav,0,audio-button-response,41,389755,0.0-5.0-0.18,,,,
,,,,,,,,,,
2757,,"{""P0_Q0"":3}",survey,42,392518,0.0-5.0-1.18,[],,,
,,,,,,,,,,
1181,TestRecordings/sandup.wav,0,audio-button-response,43,393707,0.0-5.0-0.19,,,,
,,,,,,,,,,
1884,,"{""P0_Q0"":4}",survey,44,395598,0.0-5.0-1.19,[],,,
,,,,,,,,,,
1437,TestRecordings/ndaik.wav,0,audio-button-response,45,397043,0.0-5.0-0.20,,,,
,,,,,,,,,,
8005,,"{""P0_Q0"":5}",survey,46,405053,0.0-5.0-1.20,[],,,
,,,,,,,,,,
1340,TestRecordings/spen.wav,0,audio-button-response,47,406403,0.0-5.0-0.21,,,,
,,,,,,,,,,
1980,,"{""P0_Q0"":7}",survey,48,408389,0.0-5.0-1.21,[],,,
,,,,,,,,,,
1125,TestRecordings/tlakgung.wav,0,audio-button-response,49,409523,0.0-5.0-0.22,,,,
,,,,,,,,,,
1916,,"{""P0_Q0"":1}",survey,50,411445,0.0-5.0-1.22,[],,,
,,,,,,,,,,
1038,TestRecordings/dret.wav,0,audio-button-response,51,412490,0.0-5.0-0.23,,,,
,,,,,,,,,,
2116,,"{""P0_Q0"":4}",survey,52,414613,0.0-5.0-1.23,[],,,
,,,,,,,,,,
1363,TestRecordings/gakdum.wav,0,audio-button-response,53,415985,0.0-5.0-0.24,,,,
,,,,,,,,,,
1860,,"{""P0_Q0"":2}",survey,54,417853,0.0-5.0-1.24,[],,,
,,,,,,,,,,
1445,TestRecordings/biptet.wav,0,audio-button-response,55,419306,0.0-5.0-0.25,,,,
,,,,,,,,,,
1613,,"{""P0_Q0"":4}",survey,56,420925,0.0-5.0-1.25,[],,,
,,,,,,,,,,
1493,TestRecordings/pesgut.wav,0,audio-button-response,57,422426,0.0-5.0-0.26,,,,
,,,,,,,,,,
1996,,"{""P0_Q0"":5}",survey,58,424428,0.0-5.0-1.26,[],,,
,,,,,,,,,,
1061,TestRecordings/bim.wav,0,audio-button-response,59,425498,0.0-5.0-0.27,,,,
,,,,,,,,,,
2506,,"{""P0_Q0"":3}",survey,60,428011,0.0-5.0-1.27,[],,,
,,,,,,,,,,
980,TestRecordings/guut.wav,0,audio-button-response,61,429002,0.0-5.0-0.28,,,,
,,,,,,,,,,
2020,,"{""P0_Q0"":3}",survey,62,431028,0.0-5.0-1.28,[],,,
,,,,,,,,,,
2486,TestRecordings/mdak.wav,0,audio-button-response,63,433522,0.0-5.0-0.29,,,,
,,,,,,,,,,
1997,,"{""P0_Q0"":5}",survey,64,435524,0.0-5.0-1.29,[],,,
,,,,,,,,,,
1005,TestRecordings/daum.wav,0,audio-button-response,65,436537,0.0-5.0-0.30,,,,
,,,,,,,,,,
1925,,"{""P0_Q0"":6}",survey,66,438467,0.0-5.0-1.30,[],,,
,,,,,,,,,,
1045,TestRecordings/dletgin.wav,0,audio-button-response,67,439521,0.0-5.0-0.31,,,,
,,,,,,,,,,
1748,,"{""P0_Q0"":2}",survey,68,441276,0.0-5.0-1.31,[],,,
,,,,,,,,,,
1052,TestRecordings/dliim.wav,0,audio-button-response,69,442338,0.0-5.0-0.32,,,,
,,,,,,,,,,
1380,,"{""P0_Q0"":2}",survey,70,443723,0.0-5.0-1.32,[],,,
,,,,,,,,,,
1038,TestRecordings/pmaut.wav,0,audio-button-response,71,444769,0.0-5.0-0.33,,,,
,,,,,,,,,,
2107,,"{""P0_Q0"":3}",survey,72,446884,0.0-5.0-1.33,[],,,
,,,,,,,,,,
1126,TestRecordings/genpum.wav,0,audio-button-response,73,448017,0.0-5.0-0.34,,,,
,,,,,,,,,,
1844,,"{""P0_Q0"":5}",survey,74,449867,0.0-5.0-1.34,[],,,
,,,,,,,,,,
1548,TestRecordings/santem.wav,0,audio-button-response,75,451425,0.0-5.0-0.35,,,,
,,,,,,,,,,
1540,,"{""P0_Q0"":5}",survey,76,452971,0.0-5.0-1.35,[],,,
,,,,,,,,,,
1309,TestRecordings/keptus.wav,0,audio-button-response,77,454289,0.0-5.0-0.36,,,,
,,,,,,,,,,
1547,,"{""P0_Q0"":2}",survey,78,455843,0.0-5.0-1.36,[],,,
,,,,,,,,,,
1036,TestRecordings/dmat.wav,0,audio-button-response,79,456889,0.0-5.0-0.37,,,,
,,,,,,,,,,
2677,,"{""P0_Q0"":7}",survey,80,459571,0.0-5.0-1.37,[],,,
,,,,,,,,,,
1939,TestRecordings/druksan.wav,0,audio-button-response,81,461520,0.0-5.0-0.38,,,,
,,,,,,,,,,
3619,,"{""P0_Q0"":6}",survey,82,465147,0.0-5.0-1.38,[],,,
,,,,,,,,,,
1334,TestRecordings/nungtem.wav,0,audio-button-response,83,466488,0.0-5.0-0.39,,,,
,,,,,,,,,,
1828,,"{""P0_Q0"":2}",survey,84,468323,0.0-5.0-1.39,[],,,
,,,,,,,,,,
1357,TestRecordings/bwus.wav,0,audio-button-response,85,469688,0.0-5.0-0.40,,,,
,,,,,,,,,,
1733,,"{""P0_Q0"":2}",survey,86,471426,0.0-5.0-1.40,[],,,
,,,,,,,,,,
1285,TestRecordings/tlangduk.wav,0,audio-button-response,87,472720,0.0-5.0-0.41,,,,
,,,,,,,,,,
2069,,"{""P0_Q0"":1}",survey,88,474795,0.0-5.0-1.41,[],,,
,,,,,,,,,,
1252,TestRecordings/treng.wav,0,audio-button-response,89,476056,0.0-5.0-0.42,,,,
,,,,,,,,,,
1956,,"{""P0_Q0"":6}",survey,90,478018,0.0-5.0-1.42,[],,,
,,,,,,,,,,
1357,TestRecordings/mpat.wav,0,audio-button-response,91,479383,0.0-5.0-0.43,,,,
,,,,,,,,,,
2070,,"{""P0_Q0"":7}",survey,92,481460,0.0-5.0-1.43,[],,,
,,,,,,,,,,
1227,TestRecordings/dunbem.wav,0,audio-button-response,93,482695,0.0-5.0-0.44,,,,
,,,,,,,,,,
1885,,"{""P0_Q0"":1}",survey,94,484586,0.0-5.0-1.44,[],,,
,,,,,,,,,,
1167,TestRecordings/gatdum.wav,0,audio-button-response,95,485759,0.0-5.0-0.45,,,,
,,,,,,,,,,
1541,,"{""P0_Q0"":1}",survey,96,487306,0.0-5.0-1.45,[],,,
,,,,,,,,,,
1292,TestRecordings/beptus.wav,0,audio-button-response,97,488607,0.0-5.0-0.46,,,,
,,,,,,,,,,
2574,,"{""P0_Q0"":7}",survey,98,491187,0.0-5.0-1.46,[],,,
,,,,,,,,,,
1380,TestRecordings/daip.wav,0,audio-button-response,99,492576,0.0-5.0-0.47,,,,
,,,,,,,,,,
4045,,"{""P0_Q0"":3}",survey,100,496626,0.0-5.0-1.47,[],,,
,,,,,,,,,,
1957,TestRecordings/dlang.wav,0,audio-button-response,101,498591,0.0-5.0-0.48,,,,
,,,,,,,,,,
2117,,"{""P0_Q0"":4}",survey,102,500714,0.0-5.0-1.48,[],,,
,,,,,,,,,,
1525,TestRecordings/tembip.wav,0,audio-button-response,103,502247,0.0-5.0-0.49,,,,
,,,,,,,,,,
2763,,"{""P0_Q0"":5}",survey,104,505019,0.0-5.0-1.49,[],,,
,,,,,,,,,,
956,TestRecordings/draspung.wav,0,audio-button-response,105,505982,0.0-5.0-0.50,,,,
,,,,,,,,,,
1491,,"{""P0_Q0"":2}",survey,106,507480,0.0-5.0-1.50,[],,,
,,,,,,,,,,
1254,TestRecordings/drensum.wav,0,audio-button-response,107,508742,0.0-5.0-0.51,,,,
,,,,,,,,,,
2004,,"{""P0_Q0"":2}",survey,108,510752,0.0-5.0-1.51,[],,,
,,,,,,,,,,
1244,TestRecordings/dwis.wav,0,audio-button-response,109,512006,0.0-5.0-0.52,,,,
,,,,,,,,,,
2076,,"{""P0_Q0"":2}",survey,110,514088,0.0-5.0-1.52,[],,,
,,,,,,,,,,
1205,TestRecordings/ndek.wav,0,audio-button-response,111,515302,0.0-5.0-0.53,,,,
,,,,,,,,,,
4709,,"{""P0_Q0"":7}",survey,112,520017,0.0-5.0-1.53,[],,,
,,,,,,,,,,
1156,TestRecordings/driksum.wav,0,audio-button-response,113,521181,0.0-5.0-0.54,,,,
,,,,,,,,,,
2461,,"{""P0_Q0"":1}",survey,114,523649,0.0-5.0-1.54,[],,,
,,,,,,,,,,
943,TestRecordings/gukpim.wav,0,audio-button-response,115,524605,0.0-5.0-0.55,,,,
,,,,,,,,,,
1570,,"{""P0_Q0"":2}",survey,116,526184,0.0-5.0-1.55,[],,,
,,,,,,,,,,
948,TestRecordings/bimkun.wav,0,audio-button-response,117,527142,0.0-5.0-0.56,,,,
,,,,,,,,,,
1549,,"{""P0_Q0"":2}",survey,118,528696,0.0-5.0-1.56,[],,,
,,,,,,,,,,
1172,TestRecordings/tlaip.wav,0,audio-button-response,119,529877,0.0-5.0-0.57,,,,
,,,,,,,,,,
2132,,"{""P0_Q0"":3}",survey,120,532015,0.0-5.0-1.57,[],,,
,,,,,,,,,,
950,TestRecordings/skup.wav,0,audio-button-response,121,532973,0.0-5.0-0.58,,,,
,,,,,,,,,,
2390,,"{""P0_Q0"":6}",survey,122,535368,0.0-5.0-1.58,[],,,
,,,,,,,,,,
1028,TestRecordings/gintep.wav,0,audio-button-response,123,536406,0.0-5.0-0.59,,,,
,,,,,,,,,,
1421,,"{""P0_Q0"":2}",survey,124,537832,0.0-5.0-1.59,[],,,
,,,,,,,,,,
3102,, ,html-keyboard-response,125,540934,0.0-6.0,,,,
,,,,,,,,,,
73731,,"{""P0_Q0"":""22"",""P0_Q1"":""Female"",""P0_Q2"":""Yes"",""P0_Q3"":""some spanish"",""P0_Q4"":""14-19, 5(years)"",""P0_Q5"":""high school and college classes, got to spanish 3 in college ""}",survey,126,614679,0.0-7.0,[],,,
,,,,,,,,,,
201179,"<p style=""font-size:30px"">The experiment has ended</p><p style=""font-size:30px"",lang=""ko"">Thanks for participating in it!</p>", ,html-keyboard-response,127,815850,0.0-8.0,,,,