rt,stimulus,response,trial_type,trial_index,time_elapsed,internal_node_id,accuracy,PracticeTest,ConsonantSequence,Grammaticality
,,,,,,,,,,
2066785,"<p style=""font-size:30px"">Welcome to the experiment</p><p>Press spacebar to continue</p>", ,html-keyboard-response,0,2066716,0.0-0.0,,,,
,,,,,,,,,,
4269,"<p style=""font-size:30px"">Please ensure that your headphones are on correctly</p><p>Press spacebar to continue</p>", ,html-keyboard-response,1,2070985,0.0-1.0,,,,
,,,,,,,,,,
8259,"<p style=""font-size:30px"">In this experiment, you will listen to nonsense words</p><p style=""font-size:30px"",lang=""ko"">Your task is to rate the nonsense word you heard as a possible word of American English</p><p>Press spacebar to continue</p>", ,html-keyboard-response,2,2079245,0.0-2.0,,,,
,,,,,,,,,,
1503,, ,html-keyboard-response,3,2080749,0.0-3.0,,,,
,,,,,,,,,,
10608,"<p style=""font-size:30px"">Now let's move on to the actual experiment.</p><p style=""font-size:30px"",lang=""ko"">During the experiment, you will hear each of the nonce words only once.</p><p>Press spacebar to continue</p>", ,html-keyboard-response,4,2091357,0.0-4.0,,,,
,,,,,,,,,,
3641,TestRecordings/mpat.wav,0,audio-button-response,5,2095349,0.0-5.0-0.0,,,,
,,,,,,,,,,
11728,,"{""P0_Q0"":7}",survey,6,2107120,0.0-5.0-1.0,[],,,
,,,,,,,,,,
1913,TestRecordings/bnup.wav,0,audio-button-response,7,2109044,0.0-5.0-0.1,,,,
,,,,,,,,,,
7007,,"{""P0_Q0"":1}",survey,8,2116063,0.0-5.0-1.1,[],,,
,,,,,,,,,,
2577,TestRecordings/staik.wav,0,audio-button-response,9,2118651,0.0-5.0-0.2,,,,
,,,,,,,,,,
5426,,"{""P0_Q0"":4}",survey,10,2124087,0.0-5.0-1.2,[],,,
,,,,,,,,,,
3098,TestRecordings/dlupgik.wav,0,audio-button-response,11,2127195,0.0-5.0-0.3,,,,
,,,,,,,,,,
3762,,"{""P0_Q0"":3}",survey,12,2130966,0.0-5.0-1.3,[],,,
,,,,,,,,,,
1579,TestRecordings/nungtem.wav,0,audio-button-response,13,2132555,0.0-5.0-0.4,,,,
,,,,,,,,,,
2132,,"{""P0_Q0"":1}",survey,14,2134695,0.0-5.0-1.4,[],,,
,,,,,,,,,,
1579,TestRecordings/beptus.wav,0,audio-button-response,15,2136282,0.0-5.0-0.5,,,,
,,,,,,,,,,
2291,,"{""P0_Q0"":7}",survey,16,2138582,0.0-5.0-1.5,[],,,
,,,,,,,,,,
2595,TestRecordings/gukpim.wav,0,audio-button-response,17,2141186,0.0-5.0-0.6,,,,
,,,,,,,,,,
2115,,"{""P0_Q0"":4}",survey,18,2143309,0.0-5.0-1.6,[],,,
,,,,,,,,,,
2940,TestRecordings/draspung.wav,0,audio-button-response,19,2146258,0.0-5.0-0.7,,,,
,,,,,,,,,,
2235,,"{""P0_Q0"":2}",survey,20,2148500,0.0-5.0-1.7,[],,,
,,,,,,,,,,
1733,TestRecordings/tlaip.wav,0,audio-button-response,21,2150242,0.0-5.0-0.8,,,,
,,,,,,,,,,
2164,,"{""P0_Q0"":1}",survey,22,2152413,0.0-5.0-1.8,[],,,
,,,,,,,,,,
1428,TestRecordings/dlain.wav,0,audio-button-response,23,2153849,0.0-5.0-0.9,,,,
,,,,,,,,,,
2324,,"{""P0_Q0"":7}",survey,24,2156181,0.0-5.0-1.9,[],,,
,,,,,,,,,,
1307,TestRecordings/tleik.wav,0,audio-button-response,25,2157497,0.0-5.0-0.10,,,,
,,,,,,,,,,
3163,,"{""P0_Q0"":6}",survey,26,2160669,0.0-5.0-1.10,[],,,
,,,,,,,,,,
1571,TestRecordings/dwis.wav,0,audio-button-response,27,2162249,0.0-5.0-0.11,,,,
,,,,,,,,,,
2059,,"{""P0_Q0"":2}",survey,28,2164315,0.0-5.0-1.11,[],,,
,,,,,,,,,,
1786,TestRecordings/santem.wav,0,audio-button-response,29,2166113,0.0-5.0-0.12,,,,
,,,,,,,,,,
2540,,"{""P0_Q0"":6}",survey,30,2168660,0.0-5.0-1.12,[],,,
,,,,,,,,,,
1556,TestRecordings/nasgek.wav,0,audio-button-response,31,2170225,0.0-5.0-0.13,,,,
,,,,,,,,,,
1636,,"{""P0_Q0"":1}",survey,32,2171867,0.0-5.0-1.13,[],,,
,,,,,,,,,,
1925,TestRecordings/gwas.wav,0,audio-button-response,33,2173801,0.0-5.0-0.14,,,,
,,,,,,,,,,
2508,,"{""P0_Q0"":3}",survey,34,2176315,0.0-5.0-1.14,[],,,
,,,,,,,,,,
1668,TestRecordings/dret.wav,0,audio-button-response,35,2177992,0.0-5.0-0.15,,,,
,,,,,,,,,,
1700,,"{""P0_Q0"":6}",survey,36,2179698,0.0-5.0-1.15,[],,,
,,,,,,,,,,
1516,TestRecordings/dletgin.wav,0,audio-button-response,37,2181224,0.0-5.0-0.16,,,,
,,,,,,,,,,
2533,,"{""P0_Q0"":1}",survey,38,2183763,0.0-5.0-1.16,[],,,
,,,,,,,,,,
1555,TestRecordings/pmaut.wav,0,audio-button-response,39,2185328,0.0-5.0-0.17,,,,
,,,,,,,,,,
1532,,"{""P0_Q0"":7}",survey,40,2186866,0.0-5.0-1.17,[],,,
,,,,,,,,,,
1438,TestRecordings/gakdum.wav,0,audio-button-response,41,2188311,0.0-5.0-0.18,,,,
,,,,,,,,,,
2236,,"{""P0_Q0"":1}",survey,42,2190555,0.0-5.0-1.18,[],,,
,,,,,,,,,,
1614,TestRecordings/tlunpem.wav,0,audio-button-response,43,2192176,0.0-5.0-0.19,,,,
,,,,,,,,,,
2116,,"{""P0_Q0"":3}",survey,44,2194298,0.0-5.0-1.19,[],,,
,,,,,,,,,,
1258,TestRecordings/kmuup.wav,0,audio-button-response,45,2195568,0.0-5.0-0.20,,,,
,,,,,,,,,,
3180,,"{""P0_Q0"":1}",survey,46,2198754,0.0-5.0-1.20,[],,,
,,,,,,,,,,
1445,TestRecordings/mpahk.wav,0,audio-button-response,47,2200208,0.0-5.0-0.21,,,,
,,,,,,,,,,
2045,,"{""P0_Q0"":7}",survey,48,2202259,0.0-5.0-1.21,[],,,
,,,,,,,,,,
1760,TestRecordings/bim.wav,0,audio-button-response,49,2204040,0.0-5.0-0.22,,,,
,,,,,,,,,,
2324,,"{""P0_Q0"":5}",survey,50,2206370,0.0-5.0-1.22,[],,,
,,,,,,,,,,
1292,TestRecordings/gintep.wav,0,audio-button-response,51,2207671,0.0-5.0-0.23,,,,
,,,,,,,,,,
1532,,"{""P0_Q0"":1}",survey,52,2209209,0.0-5.0-1.23,[],,,
,,,,,,,,,,
1557,TestRecordings/daum.wav,0,audio-button-response,53,2210775,0.0-5.0-0.24,,,,
,,,,,,,,,,
2012,,"{""P0_Q0"":7}",survey,54,2212793,0.0-5.0-1.24,[],,,
,,,,,,,,,,
1214,TestRecordings/gwut.wav,0,audio-button-response,55,2214015,0.0-5.0-0.25,,,,
,,,,,,,,,,
3490,,"{""P0_Q0"":4}",survey,56,2217514,0.0-5.0-1.25,[],,,
,,,,,,,,,,
1525,TestRecordings/skup.wav,0,audio-button-response,57,2219047,0.0-5.0-0.26,,,,
,,,,,,,,,,
1804,,"{""P0_Q0"":6}",survey,58,2220856,0.0-5.0-1.26,[],,,
,,,,,,,,,,
1405,TestRecordings/stup.wav,0,audio-button-response,59,2222270,0.0-5.0-0.27,,,,
,,,,,,,,,,
1612,,"{""P0_Q0"":2}",survey,60,2223889,0.0-5.0-1.27,[],,,
,,,,,,,,,,
1661,TestRecordings/sandup.wav,0,audio-button-response,61,2225558,0.0-5.0-0.28,,,,
,,,,,,,,,,
2083,,"{""P0_Q0"":1}",survey,62,2227648,0.0-5.0-1.28,[],,,
,,,,,,,,,,
1083,TestRecordings/dmat.wav,0,audio-button-response,63,2228742,0.0-5.0-0.29,,,,
,,,,,,,,,,
1772,,"{""P0_Q0"":7}",survey,64,2230520,0.0-5.0-1.29,[],,,
,,,,,,,,,,
1973,TestRecordings/tembip.wav,0,audio-button-response,65,2232502,0.0-5.0-0.30,,,,
,,,,,,,,,,
3307,,"{""P0_Q0"":1}",survey,66,2235816,0.0-5.0-1.30,[],,,
,,,,,,,,,,
1717,TestRecordings/mdak.wav,0,audio-button-response,67,2237542,0.0-5.0-0.31,,,,
,,,,,,,,,,
1869,,"{""P0_Q0"":3}",survey,68,2239417,0.0-5.0-1.31,[],,,
,,,,,,,,,,
1555,TestRecordings/pesgut.wav,0,audio-button-response,69,2240981,0.0-5.0-0.32,,,,
,,,,,,,,,,
1876,,"{""P0_Q0"":1}",survey,70,2242865,0.0-5.0-1.32,[],,,
,,,,,,,,,,
1532,TestRecordings/dlang.wav,0,audio-button-response,71,2244405,0.0-5.0-0.33,,,,
,,,,,,,,,,
4973,,"{""P0_Q0"":3}",survey,72,2249385,0.0-5.0-1.33,[],,,
,,,,,,,,,,
1463,TestRecordings/gmut.wav,0,audio-button-response,73,2250853,0.0-5.0-0.34,,,,
,,,,,,,,,,
2164,,"{""P0_Q0"":1}",survey,74,2253023,0.0-5.0-1.34,[],,,
,,,,,,,,,,
1085,TestRecordings/daip.wav,0,audio-button-response,75,2254117,0.0-5.0-0.35,,,,
,,,,,,,,,,
1419,,"{""P0_Q0"":1}",survey,76,2255544,0.0-5.0-1.35,[],,,
,,,,,,,,,,
1235,TestRecordings/ndaik.wav,0,audio-button-response,77,2256789,0.0-5.0-0.36,,,,
,,,,,,,,,,
1877,,"{""P0_Q0"":6}",survey,78,2258671,0.0-5.0-1.36,[],,,
,,,,,,,,,,
1029,TestRecordings/douk.wav,0,audio-button-response,79,2259709,0.0-5.0-0.37,,,,
,,,,,,,,,,
2524,,"{""P0_Q0"":7}",survey,80,2262240,0.0-5.0-1.37,[],,,
,,,,,,,,,,
1076,TestRecordings/guut.wav,0,audio-button-response,81,2263325,0.0-5.0-0.38,,,,
,,,,,,,,,,
2350,,"{""P0_Q0"":2}",survey,82,2265682,0.0-5.0-1.38,[],,,
,,,,,,,,,,
1092,TestRecordings/tlamsus.wav,0,audio-button-response,83,2266780,0.0-5.0-0.39,,,,
,,,,,,,,,,
1555,,"{""P0_Q0"":1}",survey,84,2268342,0.0-5.0-1.39,[],,,
,,,,,,,,,,
1204,TestRecordings/tlakgung.wav,0,audio-button-response,85,2269556,0.0-5.0-0.40,,,,
,,,,,,,,,,
2075,,"{""P0_Q0"":1}",survey,86,2271639,0.0-5.0-1.40,[],,,
,,,,,,,,,,
1101,TestRecordings/dliim.wav,0,audio-button-response,87,2272749,0.0-5.0-0.41,,,,
,,,,,,,,,,
3572,,"{""P0_Q0"":7}",survey,88,2276327,0.0-5.0-1.41,[],,,
,,,,,,,,,,
1157,TestRecordings/gatdum.wav,0,audio-button-response,89,2277493,0.0-5.0-0.42,,,,
,,,,,,,,,,
1932,,"{""P0_Q0"":1}",survey,90,2279430,0.0-5.0-1.42,[],,,
,,,,,,,,,,
1365,TestRecordings/drensum.wav,0,audio-button-response,91,2280804,0.0-5.0-0.43,,,,
,,,,,,,,,,
1827,,"{""P0_Q0"":1}",survey,92,2282638,0.0-5.0-1.43,[],,,
,,,,,,,,,,
2068,TestRecordings/druksan.wav,0,audio-button-response,93,2284716,0.0-5.0-0.44,,,,
,,,,,,,,,,
2258,,"{""P0_Q0"":1}",survey,94,2286983,0.0-5.0-1.44,[],,,
,,,,,,,,,,
1277,TestRecordings/biptet.wav,0,audio-button-response,95,2288268,0.0-5.0-0.45,,,,
,,,,,,,,,,
1660,,"{""P0_Q0"":1}",survey,96,2289934,0.0-5.0-1.45,[],,,
,,,,,,,,,,
1012,TestRecordings/dunbem.wav,0,audio-button-response,97,2290956,0.0-5.0-0.46,,,,
,,,,,,,,,,
1946,,"{""P0_Q0"":1}",survey,98,2292909,0.0-5.0-1.46,[],,,
,,,,,,,,,,
2029,TestRecordings/keptus.wav,0,audio-button-response,99,2294947,0.0-5.0-0.47,,,,
,,,,,,,,,,
2571,,"{""P0_Q0"":5}",survey,100,2297526,0.0-5.0-1.47,[],,,
,,,,,,,,,,
1278,TestRecordings/genpum.wav,0,audio-button-response,101,2298811,0.0-5.0-0.48,,,,
,,,,,,,,,,
1900,,"{""P0_Q0"":1}",survey,102,2300718,0.0-5.0-1.48,[],,,
,,,,,,,,,,
2374,TestRecordings/bwus.wav,0,audio-button-response,103,2303099,0.0-5.0-0.49,,,,
,,,,,,,,,,
4252,,"{""P0_Q0"":5}",survey,104,2307358,0.0-5.0-1.49,[],,,
,,,,,,,,,,
1261,TestRecordings/driksum.wav,0,audio-button-response,105,2308627,0.0-5.0-0.50,,,,
,,,,,,,,,,
1875,,"{""P0_Q0"":1}",survey,106,2310509,0.0-5.0-1.50,[],,,
,,,,,,,,,,
1286,TestRecordings/gekpup.wav,0,audio-button-response,107,2311803,0.0-5.0-0.51,,,,
,,,,,,,,,,
1900,,"{""P0_Q0"":1}",survey,108,2313709,0.0-5.0-1.51,[],,,
,,,,,,,,,,
1219,TestRecordings/bimkun.wav,0,audio-button-response,109,2314938,0.0-5.0-0.52,,,,
,,,,,,,,,,
1724,,"{""P0_Q0"":1}",survey,110,2316669,0.0-5.0-1.52,[],,,
,,,,,,,,,,
965,TestRecordings/ndek.wav,0,audio-button-response,111,2317642,0.0-5.0-0.53,,,,
,,,,,,,,,,
1796,,"{""P0_Q0"":7}",survey,112,2319445,0.0-5.0-1.53,[],,,
,,,,,,,,,,
1493,TestRecordings/spen.wav,0,audio-button-response,113,2320946,0.0-5.0-0.54,,,,
,,,,,,,,,,
4740,,"{""P0_Q0"":7}",survey,114,2325692,0.0-5.0-1.54,[],,,
,,,,,,,,,,
1948,TestRecordings/tlangduk.wav,0,audio-button-response,115,2327650,0.0-5.0-0.55,,,,
,,,,,,,,,,
1972,,"{""P0_Q0"":2}",survey,116,2329629,0.0-5.0-1.55,[],,,
,,,,,,,,,,
1564,TestRecordings/treng.wav,0,audio-button-response,117,2331202,0.0-5.0-0.56,,,,
,,,,,,,,,,
2013,,"{""P0_Q0"":7}",survey,118,2333221,0.0-5.0-1.56,[],,,
,,,,,,,,,,
1916,TestRecordings/trindus.wav,0,audio-button-response,119,2335146,0.0-5.0-0.57,,,,
,,,,,,,,,,
1774,,"{""P0_Q0"":1}",survey,120,2336925,0.0-5.0-1.57,[],,,
,,,,,,,,,,
1316,TestRecordings/drembip.wav,0,audio-button-response,121,2338250,0.0-5.0-0.58,,,,
,,,,,,,,,,
1852,,"{""P0_Q0"":1}",survey,122,2340108,0.0-5.0-1.58,[],,,
,,,,,,,,,,
2348,TestRecordings/dlesbup.wav,0,audio-button-response,123,2342465,0.0-5.0-0.59,,,,
,,,,,,,,,,
2686,,"{""P0_Q0"":2}",survey,124,2345156,0.0-5.0-1.59,[],,,
,,,,,,,,,,
4964,, ,html-keyboard-response,125,2350122,0.0-6.0,,,,
,,,,,,,,,,
126211,,"{""P0_Q0"":""21"",""P0_Q1"":""Female"",""P0_Q2"":""Yes"",""P0_Q3"":""A little bit of spanish"",""P0_Q4"":""16-17, I took spanish for two years."",""P0_Q5"":""Learning spanish was tricky, I feel like some words are similar to english however, so it wasn't too bad. I am sure if I continued for longer, it would have been very challenging.""}",survey,126,2476344,0.0-7.0,[],,,
,,,,,,,,,,
247420,"<p style=""font-size:30px"">The experiment has ended</p><p style=""font-size:30px"",lang=""ko"">Thanks for participating in it!</p>", ,html-keyboard-response,127,2723756,0.0-8.0,,,,