rt,stimulus,response,trial_type,trial_index,time_elapsed,internal_node_id,accuracy,PracticeTest,ConsonantSequence,Grammaticality
,,,,,,,,,,
1007117,"<p style=""font-size:30px"">Welcome to the experiment</p><p>Press spacebar to continue</p>", ,html-keyboard-response,0,1007073,0.0-0.0,,,,
,,,,,,,,,,
4053,"<p style=""font-size:30px"">Please ensure that your headphones are on correctly</p><p>Press spacebar to continue</p>", ,html-keyboard-response,1,1011127,0.0-1.0,,,,
,,,,,,,,,,
5335,"<p style=""font-size:30px"">In this experiment, you will listen to nonsense words</p><p style=""font-size:30px"",lang=""ko"">Your task is to rate the nonsense word you heard as a possible word of American English</p><p>Press spacebar to continue</p>", ,html-keyboard-response,2,1016462,0.0-2.0,,,,
,,,,,,,,,,
2071,, ,html-keyboard-response,3,1018535,0.0-3.0,,,,
,,,,,,,,,,
2862,"<p style=""font-size:30px"">Now let's move on to the actual experiment.</p><p style=""font-size:30px"",lang=""ko"">During the experiment, you will hear each of the nonce words only once.</p><p>Press spacebar to continue</p>", ,html-keyboard-response,4,1021398,0.0-4.0,,,,
,,,,,,,,,,
3817,TestRecordings/spen.wav,0,audio-button-response,5,1025223,0.0-5.0-0.0,,,,
,,,,,,,,,,
13595,,"{""P0_Q0"":7}",survey,6,1038859,0.0-5.0-1.0,[],,,
,,,,,,,,,,
2149,TestRecordings/dlupgik.wav,0,audio-button-response,7,1041013,0.0-5.0-0.1,,,,
,,,,,,,,,,
6958,,"{""P0_Q0"":3}",survey,8,1047985,0.0-5.0-1.1,[],,,
,,,,,,,,,,
4357,TestRecordings/sandup.wav,0,audio-button-response,9,1052348,0.0-5.0-0.2,,,,
,,,,,,,,,,
3538,,"{""P0_Q0"":4}",survey,10,1055895,0.0-5.0-1.2,[],,,
,,,,,,,,,,
2207,TestRecordings/beptus.wav,0,audio-button-response,11,1058108,0.0-5.0-0.3,,,,
,,,,,,,,,,
2611,,"{""P0_Q0"":7}",survey,12,1060728,0.0-5.0-1.3,[],,,
,,,,,,,,,,
1871,TestRecordings/mdak.wav,0,audio-button-response,13,1062604,0.0-5.0-0.4,,,,
,,,,,,,,,,
10842,,"{""P0_Q0"":4}",survey,14,1073454,0.0-5.0-1.4,[],,,
,,,,,,,,,,
1720,TestRecordings/treng.wav,0,audio-button-response,15,1075179,0.0-5.0-0.5,,,,
,,,,,,,,,,
3242,,"{""P0_Q0"":7}",survey,16,1078430,0.0-5.0-1.5,[],,,
,,,,,,,,,,
1903,TestRecordings/ndaik.wav,0,audio-button-response,17,1080339,0.0-5.0-0.6,,,,
,,,,,,,,,,
3667,,"{""P0_Q0"":3}",survey,18,1084013,0.0-5.0-1.6,[],,,
,,,,,,,,,,
5591,TestRecordings/dletgin.wav,0,audio-button-response,19,1089610,0.0-5.0-0.7,,,,
,,,,,,,,,,
3828,,"{""P0_Q0"":3}",survey,20,1093445,0.0-5.0-1.7,[],,,
,,,,,,,,,,
1927,TestRecordings/gmut.wav,0,audio-button-response,21,1095377,0.0-5.0-0.8,,,,
,,,,,,,,,,
2868,,"{""P0_Q0"":6}",survey,22,1098253,0.0-5.0-1.8,[],,,
,,,,,,,,,,
1703,TestRecordings/draspung.wav,0,audio-button-response,23,1099962,0.0-5.0-0.9,,,,
,,,,,,,,,,
3243,,"{""P0_Q0"":1}",survey,24,1103212,0.0-5.0-1.9,[],,,
,,,,,,,,,,
1951,TestRecordings/dwis.wav,0,audio-button-response,25,1105170,0.0-5.0-0.10,,,,
,,,,,,,,,,
6994,,"{""P0_Q0"":5}",survey,26,1112172,0.0-5.0-1.10,[],,,
,,,,,,,,,,
1943,TestRecordings/drensum.wav,0,audio-button-response,27,1114121,0.0-5.0-0.11,,,,
,,,,,,,,,,
4668,,"{""P0_Q0"":2}",survey,28,1118795,0.0-5.0-1.11,[],,,
,,,,,,,,,,
1952,TestRecordings/nungtem.wav,0,audio-button-response,29,1120753,0.0-5.0-0.12,,,,
,,,,,,,,,,
2716,,"{""P0_Q0"":1}",survey,30,1123475,0.0-5.0-1.12,[],,,
,,,,,,,,,,
1960,TestRecordings/tembip.wav,0,audio-button-response,31,1125441,0.0-5.0-0.13,,,,
,,,,,,,,,,
4643,,"{""P0_Q0"":2}",survey,32,1130090,0.0-5.0-1.13,[],,,
,,,,,,,,,,
2033,TestRecordings/dlesbup.wav,0,audio-button-response,33,1132128,0.0-5.0-0.14,,,,
,,,,,,,,,,
2132,,"{""P0_Q0"":1}",survey,34,1134267,0.0-5.0-1.14,[],,,
,,,,,,,,,,
1631,TestRecordings/biptet.wav,0,audio-button-response,35,1135904,0.0-5.0-0.15,,,,
,,,,,,,,,,
5108,,"{""P0_Q0"":1}",survey,36,1141019,0.0-5.0-1.15,[],,,
,,,,,,,,,,
1448,TestRecordings/daip.wav,0,audio-button-response,37,1142472,0.0-5.0-0.16,,,,
,,,,,,,,,,
2940,,"{""P0_Q0"":7}",survey,38,1145419,0.0-5.0-1.16,[],,,
,,,,,,,,,,
1744,TestRecordings/staik.wav,0,audio-button-response,39,1147167,0.0-5.0-0.17,,,,
,,,,,,,,,,
3133,,"{""P0_Q0"":7}",survey,40,1150307,0.0-5.0-1.17,[],,,
,,,,,,,,,,
4112,TestRecordings/tlunpem.wav,0,audio-button-response,41,1154423,0.0-5.0-0.18,,,,
,,,,,,,,,,
4076,,"{""P0_Q0"":3}",survey,42,1158507,0.0-5.0-1.18,[],,,
,,,,,,,,,,
1245,TestRecordings/stup.wav,0,audio-button-response,43,1159759,0.0-5.0-0.19,,,,
,,,,,,,,,,
2764,,"{""P0_Q0"":7}",survey,44,1162530,0.0-5.0-1.19,[],,,
,,,,,,,,,,
1529,TestRecordings/douk.wav,0,audio-button-response,45,1164063,0.0-5.0-0.20,,,,
,,,,,,,,,,
5510,,"{""P0_Q0"":5}",survey,46,1169578,0.0-5.0-1.20,[],,,
,,,,,,,,,,
1816,TestRecordings/gakdum.wav,0,audio-button-response,47,1171399,0.0-5.0-0.21,,,,
,,,,,,,,,,
3197,,"{""P0_Q0"":4}",survey,48,1174601,0.0-5.0-1.21,[],,,
,,,,,,,,,,
2464,TestRecordings/drembip.wav,0,audio-button-response,49,1177070,0.0-5.0-0.22,,,,
,,,,,,,,,,
3645,,"{""P0_Q0"":3}",survey,50,1180721,0.0-5.0-1.22,[],,,
,,,,,,,,,,
5015,TestRecordings/dunbem.wav,0,audio-button-response,51,1185742,0.0-5.0-0.23,,,,
,,,,,,,,,,
4644,,"{""P0_Q0"":2}",survey,52,1190393,0.0-5.0-1.23,[],,,
,,,,,,,,,,
2024,TestRecordings/tlakgung.wav,0,audio-button-response,53,1192422,0.0-5.0-0.24,,,,
,,,,,,,,,,
2413,,"{""P0_Q0"":2}",survey,54,1194840,0.0-5.0-1.24,[],,,
,,,,,,,,,,
3281,TestRecordings/gatdum.wav,0,audio-button-response,55,1198125,0.0-5.0-0.25,,,,
,,,,,,,,,,
9389,,"{""P0_Q0"":1}",survey,56,1207520,0.0-5.0-1.25,[],,,
,,,,,,,,,,
2208,TestRecordings/dliim.wav,0,audio-button-response,57,1209733,0.0-5.0-0.26,,,,
,,,,,,,,,,
3957,,"{""P0_Q0"":3}",survey,58,1213695,0.0-5.0-1.26,[],,,
,,,,,,,,,,
1736,TestRecordings/trindus.wav,0,audio-button-response,59,1215436,0.0-5.0-0.27,,,,
,,,,,,,,,,
2325,,"{""P0_Q0"":7}",survey,60,1217767,0.0-5.0-1.27,[],,,
,,,,,,,,,,
1480,TestRecordings/dret.wav,0,audio-button-response,61,1219253,0.0-5.0-0.28,,,,
,,,,,,,,,,
2636,,"{""P0_Q0"":7}",survey,62,1221895,0.0-5.0-1.28,[],,,
,,,,,,,,,,
3225,TestRecordings/dlain.wav,0,audio-button-response,63,1225124,0.0-5.0-0.29,,,,
,,,,,,,,,,
3308,,"{""P0_Q0"":7}",survey,64,1228439,0.0-5.0-1.29,[],,,
,,,,,,,,,,
1617,TestRecordings/tlangduk.wav,0,audio-button-response,65,1230060,0.0-5.0-0.30,,,,
,,,,,,,,,,
3509,,"{""P0_Q0"":2}",survey,66,1233575,0.0-5.0-1.30,[],,,
,,,,,,,,,,
1847,TestRecordings/tlamsus.wav,0,audio-button-response,67,1235428,0.0-5.0-0.31,,,,
,,,,,,,,,,
4748,,"{""P0_Q0"":2}",survey,68,1240182,0.0-5.0-1.31,[],,,
,,,,,,,,,,
1313,TestRecordings/pmaut.wav,0,audio-button-response,69,1241499,0.0-5.0-0.32,,,,
,,,,,,,,,,
3885,,"{""P0_Q0"":5}",survey,70,1245391,0.0-5.0-1.32,[],,,
,,,,,,,,,,
1598,TestRecordings/gintep.wav,0,audio-button-response,71,1246995,0.0-5.0-0.33,,,,
,,,,,,,,,,
6181,,"{""P0_Q0"":2}",survey,72,1253181,0.0-5.0-1.33,[],,,
,,,,,,,,,,
2088,TestRecordings/mpat.wav,0,audio-button-response,73,1255275,0.0-5.0-0.34,,,,
,,,,,,,,,,
5348,,"{""P0_Q0"":1}",survey,74,1260629,0.0-5.0-1.34,[],,,
,,,,,,,,,,
1320,TestRecordings/gukpim.wav,0,audio-button-response,75,1261954,0.0-5.0-0.35,,,,
,,,,,,,,,,
2117,,"{""P0_Q0"":1}",survey,76,1264077,0.0-5.0-1.35,[],,,
,,,,,,,,,,
1352,TestRecordings/pesgut.wav,0,audio-button-response,77,1265434,0.0-5.0-0.36,,,,
,,,,,,,,,,
2588,,"{""P0_Q0"":4}",survey,78,1268029,0.0-5.0-1.36,[],,,
,,,,,,,,,,
3704,TestRecordings/gwut.wav,0,audio-button-response,79,1271738,0.0-5.0-0.37,,,,
,,,,,,,,,,
3293,,"{""P0_Q0"":3}",survey,80,1275036,0.0-5.0-1.37,[],,,
,,,,,,,,,,
1072,TestRecordings/bim.wav,0,audio-button-response,81,1276114,0.0-5.0-0.38,,,,
,,,,,,,,,,
2653,,"{""P0_Q0"":7}",survey,82,1278773,0.0-5.0-1.38,[],,,
,,,,,,,,,,
3352,TestRecordings/dlang.wav,0,audio-button-response,83,1282130,0.0-5.0-0.39,,,,
,,,,,,,,,,
2156,,"{""P0_Q0"":3}",survey,84,1284292,0.0-5.0-1.39,[],,,
,,,,,,,,,,
1622,TestRecordings/bimkun.wav,0,audio-button-response,85,1285921,0.0-5.0-0.40,,,,
,,,,,,,,,,
1876,,"{""P0_Q0"":1}",survey,86,1287803,0.0-5.0-1.40,[],,,
,,,,,,,,,,
1601,TestRecordings/driksum.wav,0,audio-button-response,87,1289408,0.0-5.0-0.41,,,,
,,,,,,,,,,
7173,,"{""P0_Q0"":2}",survey,88,1296588,0.0-5.0-1.41,[],,,
,,,,,,,,,,
1527,TestRecordings/gwas.wav,0,audio-button-response,89,1298120,0.0-5.0-0.42,,,,
,,,,,,,,,,
2725,,"{""P0_Q0"":3}",survey,90,1300851,0.0-5.0-1.42,[],,,
,,,,,,,,,,
1639,TestRecordings/druksan.wav,0,audio-button-response,91,1302496,0.0-5.0-0.43,,,,
,,,,,,,,,,
3141,,"{""P0_Q0"":7}",survey,92,1305644,0.0-5.0-1.43,[],,,
,,,,,,,,,,
2116,TestRecordings/mpahk.wav,0,audio-button-response,93,1307768,0.0-5.0-0.44,,,,
,,,,,,,,,,
5691,,"{""P0_Q0"":2}",survey,94,1313467,0.0-5.0-1.44,[],,,
,,,,,,,,,,
2184,TestRecordings/daum.wav,0,audio-button-response,95,1315656,0.0-5.0-0.45,,,,
,,,,,,,,,,
12804,,"{""P0_Q0"":3}",survey,96,1328466,0.0-5.0-1.45,[],,,
,,,,,,,,,,
1432,TestRecordings/bwus.wav,0,audio-button-response,97,1329903,0.0-5.0-0.46,,,,
,,,,,,,,,,
2541,,"{""P0_Q0"":4}",survey,98,1332451,0.0-5.0-1.46,[],,,
,,,,,,,,,,
3215,TestRecordings/tleik.wav,0,audio-button-response,99,1335671,0.0-5.0-0.47,,,,
,,,,,,,,,,
3812,,"{""P0_Q0"":7}",survey,100,1339489,0.0-5.0-1.47,[],,,
,,,,,,,,,,
1768,TestRecordings/keptus.wav,0,audio-button-response,101,1341262,0.0-5.0-0.48,,,,
,,,,,,,,,,
2844,,"{""P0_Q0"":5}",survey,102,1344114,0.0-5.0-1.48,[],,,
,,,,,,,,,,
1647,TestRecordings/dmat.wav,0,audio-button-response,103,1345767,0.0-5.0-0.49,,,,
,,,,,,,,,,
2436,,"{""P0_Q0"":3}",survey,104,1348210,0.0-5.0-1.49,[],,,
,,,,,,,,,,
1528,TestRecordings/gekpup.wav,0,audio-button-response,105,1349742,0.0-5.0-0.50,,,,
,,,,,,,,,,
2907,,"{""P0_Q0"":1}",survey,106,1352656,0.0-5.0-1.50,[],,,
,,,,,,,,,,
1536,TestRecordings/santem.wav,0,audio-button-response,107,1354198,0.0-5.0-0.51,,,,
,,,,,,,,,,
2970,,"{""P0_Q0"":7}",survey,108,1357191,0.0-5.0-1.51,[],,,
,,,,,,,,,,
2096,TestRecordings/bnup.wav,0,audio-button-response,109,1359294,0.0-5.0-0.52,,,,
,,,,,,,,,,
3591,,"{""P0_Q0"":3}",survey,110,1362906,0.0-5.0-1.52,[],,,
,,,,,,,,,,
1430,TestRecordings/guut.wav,0,audio-button-response,111,1364342,0.0-5.0-0.53,,,,
,,,,,,,,,,
4017,,"{""P0_Q0"":4}",survey,112,1368369,0.0-5.0-1.53,[],,,
,,,,,,,,,,
1550,TestRecordings/nasgek.wav,0,audio-button-response,113,1369925,0.0-5.0-0.54,,,,
,,,,,,,,,,
2939,,"{""P0_Q0"":1}",survey,114,1372873,0.0-5.0-1.54,[],,,
,,,,,,,,,,
1719,TestRecordings/genpum.wav,0,audio-button-response,115,1374597,0.0-5.0-0.55,,,,
,,,,,,,,,,
2171,,"{""P0_Q0"":1}",survey,116,1376776,0.0-5.0-1.55,[],,,
,,,,,,,,,,
1423,TestRecordings/skup.wav,0,audio-button-response,117,1378205,0.0-5.0-0.56,,,,
,,,,,,,,,,
2874,,"{""P0_Q0"":6}",survey,118,1381088,0.0-5.0-1.56,[],,,
,,,,,,,,,,
1518,TestRecordings/ndek.wav,0,audio-button-response,119,1382613,0.0-5.0-0.57,,,,
,,,,,,,,,,
2972,,"{""P0_Q0"":7}",survey,120,1385592,0.0-5.0-1.57,[],,,
,,,,,,,,,,
4663,TestRecordings/tlaip.wav,0,audio-button-response,121,1390261,0.0-5.0-0.58,,,,
,,,,,,,,,,
2388,,"{""P0_Q0"":4}",survey,122,1392655,0.0-5.0-1.58,[],,,
,,,,,,,,,,
1368,TestRecordings/kmuup.wav,0,audio-button-response,123,1394028,0.0-5.0-0.59,,,,
,,,,,,,,,,
4268,,"{""P0_Q0"":1}",survey,124,1398303,0.0-5.0-1.59,[],,,
,,,,,,,,,,
6156,, ,html-keyboard-response,125,1404460,0.0-6.0,,,,
,,,,,,,,,,
60961,,"{""P0_Q0"":""18"",""P0_Q1"":""female"",""P0_Q2"":""yes"",""P0_Q3"":""none"",""P0_Q4"":""N/A"",""P0_Q5"":""N/A""}",survey,126,1465437,0.0-7.0,[],,,
,,,,,,,,,,
29061,"<p style=""font-size:30px"">The experiment has ended</p><p style=""font-size:30px"",lang=""ko"">Thanks for participating in it!</p>", ,html-keyboard-response,127,1494498,0.0-8.0,,,,