rt,stimulus,response,trial_type,trial_index,time_elapsed,internal_node_id,accuracy,PracticeTest,ConsonantSequence,Grammaticality
,,,,,,,,,,
87601,"<p style=""font-size:30px"">Welcome to the experiment</p><p>Press spacebar to continue</p>", ,html-keyboard-response,0,87629,0.0-0.0,,,,
,,,,,,,,,,
2126,"<p style=""font-size:30px"">Please ensure that your headphones are on correctly</p><p>Press spacebar to continue</p>", ,html-keyboard-response,1,89756,0.0-1.0,,,,
,,,,,,,,,,
5375,"<p style=""font-size:30px"">In this experiment, you will listen to nonsense words</p><p style=""font-size:30px"",lang=""ko"">Your task is to rate the nonsense word you heard as a possible word of American English</p><p>Press spacebar to continue</p>", ,html-keyboard-response,2,95132,0.0-2.0,,,,
,,,,,,,,,,
1624,, ,html-keyboard-response,3,96755,0.0-3.0,,,,
,,,,,,,,,,
5025,"<p style=""font-size:30px"">Now let's move on to the actual experiment.</p><p style=""font-size:30px"",lang=""ko"">During the experiment, you will hear each of the nonce words only once.</p><p>Press spacebar to continue</p>", ,html-keyboard-response,4,101781,0.0-4.0,,,,
,,,,,,,,,,
3222,TestRecordings/dletgin.wav,0,audio-button-response,5,105010,0.0-5.0-0.0,,,,
,,,,,,,,,,
8969,,"{""P0_Q0"":2}",survey,6,114016,0.0-5.0-1.0,[],,,
,,,,,,,,,,
2717,TestRecordings/druksan.wav,0,audio-button-response,7,116738,0.0-5.0-0.1,,,,
,,,,,,,,,,
6766,,"{""P0_Q0"":4}",survey,8,123518,0.0-5.0-1.1,[],,,
,,,,,,,,,,
1854,TestRecordings/gintep.wav,0,audio-button-response,9,125378,0.0-5.0-0.2,,,,
,,,,,,,,,,
6096,,"{""P0_Q0"":4}",survey,10,131485,0.0-5.0-1.2,[],,,
,,,,,,,,,,
2191,TestRecordings/gwut.wav,0,audio-button-response,11,133681,0.0-5.0-0.3,,,,
,,,,,,,,,,
2547,,"{""P0_Q0"":6}",survey,12,136238,0.0-5.0-1.3,[],,,
,,,,,,,,,,
1662,TestRecordings/keptus.wav,0,audio-button-response,13,137905,0.0-5.0-0.4,,,,
,,,,,,,,,,
3907,,"{""P0_Q0"":6}",survey,14,141820,0.0-5.0-1.4,[],,,
,,,,,,,,,,
2575,TestRecordings/tlangduk.wav,0,audio-button-response,15,144400,0.0-5.0-0.5,,,,
,,,,,,,,,,
4555,,"{""P0_Q0"":1}",survey,16,148965,0.0-5.0-1.5,[],,,
,,,,,,,,,,
1694,TestRecordings/trindus.wav,0,audio-button-response,17,150665,0.0-5.0-0.6,,,,
,,,,,,,,,,
2300,,"{""P0_Q0"":7}",survey,18,152972,0.0-5.0-1.6,[],,,
,,,,,,,,,,
2215,TestRecordings/gakdum.wav,0,audio-button-response,19,155193,0.0-5.0-0.7,,,,
,,,,,,,,,,
3628,,"{""P0_Q0"":2}",survey,20,158827,0.0-5.0-1.7,[],,,
,,,,,,,,,,
1823,TestRecordings/dlain.wav,0,audio-button-response,21,160657,0.0-5.0-0.8,,,,
,,,,,,,,,,
3123,,"{""P0_Q0"":7}",survey,22,163787,0.0-5.0-1.8,[],,,
,,,,,,,,,,
1520,TestRecordings/gekpup.wav,0,audio-button-response,23,165312,0.0-5.0-0.9,,,,
,,,,,,,,,,
1971,,"{""P0_Q0"":1}",survey,24,167291,0.0-5.0-1.9,[],,,
,,,,,,,,,,
1513,TestRecordings/dwis.wav,0,audio-button-response,25,168809,0.0-5.0-0.10,,,,
,,,,,,,,,,
7850,,"{""P0_Q0"":5}",survey,26,176667,0.0-5.0-1.10,[],,,
,,,,,,,,,,
1831,TestRecordings/gwas.wav,0,audio-button-response,27,178503,0.0-5.0-0.11,,,,
,,,,,,,,,,
3173,,"{""P0_Q0"":7}",survey,28,181683,0.0-5.0-1.11,[],,,
,,,,,,,,,,
1536,TestRecordings/treng.wav,0,audio-button-response,29,183223,0.0-5.0-0.12,,,,
,,,,,,,,,,
1715,,"{""P0_Q0"":7}",survey,30,184946,0.0-5.0-1.12,[],,,
,,,,,,,,,,
1383,TestRecordings/gatdum.wav,0,audio-button-response,31,186335,0.0-5.0-0.13,,,,
,,,,,,,,,,
5301,,"{""P0_Q0"":1}",survey,32,191643,0.0-5.0-1.13,[],,,
,,,,,,,,,,
1655,TestRecordings/beptus.wav,0,audio-button-response,33,193303,0.0-5.0-0.14,,,,
,,,,,,,,,,
4939,,"{""P0_Q0"":5}",survey,34,198250,0.0-5.0-1.14,[],,,
,,,,,,,,,,
2761,TestRecordings/nungtem.wav,0,audio-button-response,35,201015,0.0-5.0-0.15,,,,
,,,,,,,,,,
6676,,"{""P0_Q0"":1}",survey,36,207698,0.0-5.0-1.15,[],,,
,,,,,,,,,,
1552,TestRecordings/dliim.wav,0,audio-button-response,37,209255,0.0-5.0-0.16,,,,
,,,,,,,,,,
9299,,"{""P0_Q0"":1}",survey,38,218561,0.0-5.0-1.16,[],,,
,,,,,,,,,,
1408,TestRecordings/sandup.wav,0,audio-button-response,39,219974,0.0-5.0-0.17,,,,
,,,,,,,,,,
1996,,"{""P0_Q0"":7}",survey,40,221977,0.0-5.0-1.17,[],,,
,,,,,,,,,,
1288,TestRecordings/dlesbup.wav,0,audio-button-response,41,223270,0.0-5.0-0.18,,,,
,,,,,,,,,,
2548,,"{""P0_Q0"":3}",survey,42,225825,0.0-5.0-1.18,[],,,
,,,,,,,,,,
1852,TestRecordings/dlupgik.wav,0,audio-button-response,43,227686,0.0-5.0-0.19,,,,
,,,,,,,,,,
3693,,"{""P0_Q0"":3}",survey,44,231385,0.0-5.0-1.19,[],,,
,,,,,,,,,,
1271,TestRecordings/bim.wav,0,audio-button-response,45,232661,0.0-5.0-0.20,,,,
,,,,,,,,,,
3853,,"{""P0_Q0"":5}",survey,46,236521,0.0-5.0-1.20,[],,,
,,,,,,,,,,
1264,TestRecordings/daip.wav,0,audio-button-response,47,237789,0.0-5.0-0.21,,,,
,,,,,,,,,,
5277,,"{""P0_Q0"":7}",survey,48,243072,0.0-5.0-1.21,[],,,
,,,,,,,,,,
1584,TestRecordings/drensum.wav,0,audio-button-response,49,244661,0.0-5.0-0.22,,,,
,,,,,,,,,,
3884,,"{""P0_Q0"":5}",survey,50,248552,0.0-5.0-1.22,[],,,
,,,,,,,,,,
1185,TestRecordings/tembip.wav,0,audio-button-response,51,249741,0.0-5.0-0.23,,,,
,,,,,,,,,,
1620,,"{""P0_Q0"":2}",survey,52,251368,0.0-5.0-1.23,[],,,
,,,,,,,,,,
1111,TestRecordings/santem.wav,0,audio-button-response,53,252486,0.0-5.0-0.24,,,,
,,,,,,,,,,
1555,,"{""P0_Q0"":7}",survey,54,254048,0.0-5.0-1.24,[],,,
,,,,,,,,,,
1384,TestRecordings/tleik.wav,0,audio-button-response,55,255437,0.0-5.0-0.25,,,,
,,,,,,,,,,
7148,,"{""P0_Q0"":6}",survey,56,262591,0.0-5.0-1.25,[],,,
,,,,,,,,,,
1144,TestRecordings/douk.wav,0,audio-button-response,57,263741,0.0-5.0-0.26,,,,
,,,,,,,,,,
1964,,"{""P0_Q0"":7}",survey,58,265710,0.0-5.0-1.26,[],,,
,,,,,,,,,,
1152,TestRecordings/spen.wav,0,audio-button-response,59,266868,0.0-5.0-0.27,,,,
,,,,,,,,,,
1780,,"{""P0_Q0"":7}",survey,60,268655,0.0-5.0-1.27,[],,,
,,,,,,,,,,
1039,TestRecordings/driksum.wav,0,audio-button-response,61,269700,0.0-5.0-0.28,,,,
,,,,,,,,,,
1340,,"{""P0_Q0"":2}",survey,62,271047,0.0-5.0-1.28,[],,,
,,,,,,,,,,
1192,TestRecordings/gukpim.wav,0,audio-button-response,63,272244,0.0-5.0-0.29,,,,
,,,,,,,,,,
1413,,"{""P0_Q0"":1}",survey,64,273663,0.0-5.0-1.29,[],,,
,,,,,,,,,,
967,TestRecordings/ndek.wav,0,audio-button-response,65,274636,0.0-5.0-0.30,,,,
,,,,,,,,,,
2172,,"{""P0_Q0"":4}",survey,66,276815,0.0-5.0-1.30,[],,,
,,,,,,,,,,
1240,TestRecordings/drembip.wav,0,audio-button-response,67,278061,0.0-5.0-0.31,,,,
,,,,,,,,,,
11085,,"{""P0_Q0"":5}",survey,68,289151,0.0-5.0-1.31,[],,,
,,,,,,,,,,
1504,TestRecordings/bwus.wav,0,audio-button-response,69,290660,0.0-5.0-0.32,,,,
,,,,,,,,,,
2621,,"{""P0_Q0"":6}",survey,70,293287,0.0-5.0-1.32,[],,,
,,,,,,,,,,
1239,TestRecordings/pesgut.wav,0,audio-button-response,71,294531,0.0-5.0-0.33,,,,
,,,,,,,,,,
3148,,"{""P0_Q0"":3}",survey,72,297687,0.0-5.0-1.33,[],,,
,,,,,,,,,,
943,TestRecordings/staik.wav,0,audio-button-response,73,298635,0.0-5.0-0.34,,,,
,,,,,,,,,,
2347,,"{""P0_Q0"":7}",survey,74,300989,0.0-5.0-1.34,[],,,
,,,,,,,,,,
1256,TestRecordings/mpahk.wav,0,audio-button-response,75,302251,0.0-5.0-0.35,,,,
,,,,,,,,,,
1612,,"{""P0_Q0"":1}",survey,76,303870,0.0-5.0-1.35,[],,,
,,,,,,,,,,
1113,TestRecordings/dmat.wav,0,audio-button-response,77,304987,0.0-5.0-0.36,,,,
,,,,,,,,,,
2838,,"{""P0_Q0"":2}",survey,78,307829,0.0-5.0-1.36,[],,,
,,,,,,,,,,
1095,TestRecordings/skup.wav,0,audio-button-response,79,308930,0.0-5.0-0.37,,,,
,,,,,,,,,,
4084,,"{""P0_Q0"":5}",survey,80,313022,0.0-5.0-1.37,[],,,
,,,,,,,,,,
1184,TestRecordings/ndaik.wav,0,audio-button-response,81,314211,0.0-5.0-0.38,,,,
,,,,,,,,,,
1516,,"{""P0_Q0"":7}",survey,82,315734,0.0-5.0-1.38,[],,,
,,,,,,,,,,
1544,TestRecordings/dlang.wav,0,audio-button-response,83,317283,0.0-5.0-0.39,,,,
,,,,,,,,,,
3093,,"{""P0_Q0"":3}",survey,84,320381,0.0-5.0-1.39,[],,,
,,,,,,,,,,
1128,TestRecordings/stup.wav,0,audio-button-response,85,321515,0.0-5.0-0.40,,,,
,,,,,,,,,,
1621,,"{""P0_Q0"":7}",survey,86,323141,0.0-5.0-1.40,[],,,
,,,,,,,,,,
1088,TestRecordings/mdak.wav,0,audio-button-response,87,324235,0.0-5.0-0.41,,,,
,,,,,,,,,,
2108,,"{""P0_Q0"":2}",survey,88,326348,0.0-5.0-1.41,[],,,
,,,,,,,,,,
1184,TestRecordings/guut.wav,0,audio-button-response,89,327538,0.0-5.0-0.42,,,,
,,,,,,,,,,
2549,,"{""P0_Q0"":7}",survey,90,330093,0.0-5.0-1.42,[],,,
,,,,,,,,,,
1192,TestRecordings/tlaip.wav,0,audio-button-response,91,331290,0.0-5.0-0.43,,,,
,,,,,,,,,,
1916,,"{""P0_Q0"":2}",survey,92,333212,0.0-5.0-1.43,[],,,
,,,,,,,,,,
1240,TestRecordings/tlunpem.wav,0,audio-button-response,93,334458,0.0-5.0-0.44,,,,
,,,,,,,,,,
1436,,"{""P0_Q0"":1}",survey,94,335900,0.0-5.0-1.44,[],,,
,,,,,,,,,,
1112,TestRecordings/dunbem.wav,0,audio-button-response,95,337018,0.0-5.0-0.45,,,,
,,,,,,,,,,
1932,,"{""P0_Q0"":1}",survey,96,338956,0.0-5.0-1.45,[],,,
,,,,,,,,,,
1432,TestRecordings/nasgek.wav,0,audio-button-response,97,340393,0.0-5.0-0.46,,,,
,,,,,,,,,,
5020,,"{""P0_Q0"":2}",survey,98,345420,0.0-5.0-1.46,[],,,
,,,,,,,,,,
2440,TestRecordings/bnup.wav,0,audio-button-response,99,347866,0.0-5.0-0.47,,,,
,,,,,,,,,,
3501,,"{""P0_Q0"":4}",survey,100,351372,0.0-5.0-1.47,[],,,
,,,,,,,,,,
1041,TestRecordings/kmuup.wav,0,audio-button-response,101,352417,0.0-5.0-0.48,,,,
,,,,,,,,,,
2725,,"{""P0_Q0"":1}",survey,102,355148,0.0-5.0-1.48,[],,,
,,,,,,,,,,
1200,TestRecordings/tlakgung.wav,0,audio-button-response,103,356353,0.0-5.0-0.49,,,,
,,,,,,,,,,
1789,,"{""P0_Q0"":1}",survey,104,358148,0.0-5.0-1.49,[],,,
,,,,,,,,,,
1216,TestRecordings/mpat.wav,0,audio-button-response,105,359369,0.0-5.0-0.50,,,,
,,,,,,,,,,
1796,,"{""P0_Q0"":5}",survey,106,361172,0.0-5.0-1.50,[],,,
,,,,,,,,,,
1009,TestRecordings/biptet.wav,0,audio-button-response,107,362185,0.0-5.0-0.51,,,,
,,,,,,,,,,
1286,,"{""P0_Q0"":3}",survey,108,363476,0.0-5.0-1.51,[],,,
,,,,,,,,,,
953,TestRecordings/gmut.wav,0,audio-button-response,109,364433,0.0-5.0-0.52,,,,
,,,,,,,,,,
6253,,"{""P0_Q0"":7}",survey,110,370691,0.0-5.0-1.52,[],,,
,,,,,,,,,,
1184,TestRecordings/dret.wav,0,audio-button-response,111,371881,0.0-5.0-0.53,,,,
,,,,,,,,,,
1924,,"{""P0_Q0"":7}",survey,112,373811,0.0-5.0-1.53,[],,,
,,,,,,,,,,
976,TestRecordings/bimkun.wav,0,audio-button-response,113,374792,0.0-5.0-0.54,,,,
,,,,,,,,,,
1933,,"{""P0_Q0"":3}",survey,114,376731,0.0-5.0-1.54,[],,,
,,,,,,,,,,
1049,TestRecordings/pmaut.wav,0,audio-button-response,115,377784,0.0-5.0-0.55,,,,
,,,,,,,,,,
2211,,"{""P0_Q0"":2}",survey,116,380002,0.0-5.0-1.55,[],,,
,,,,,,,,,,
1006,TestRecordings/daum.wav,0,audio-button-response,117,381016,0.0-5.0-0.56,,,,
,,,,,,,,,,
1457,,"{""P0_Q0"":7}",survey,118,382501,0.0-5.0-1.56,[],,,
,,,,,,,,,,
1175,TestRecordings/tlamsus.wav,0,audio-button-response,119,383681,0.0-5.0-0.57,,,,
,,,,,,,,,,
1797,,"{""P0_Q0"":2}",survey,120,385488,0.0-5.0-1.57,[],,,
,,,,,,,,,,
1520,TestRecordings/draspung.wav,0,audio-button-response,121,387016,0.0-5.0-0.58,,,,
,,,,,,,,,,
4523,,"{""P0_Q0"":3}",survey,122,391562,0.0-5.0-1.58,[],,,
,,,,,,,,,,
1222,TestRecordings/genpum.wav,0,audio-button-response,123,392791,0.0-5.0-0.59,,,,
,,,,,,,,,,
1710,,"{""P0_Q0"":2}",survey,124,394524,0.0-5.0-1.59,[],,,
,,,,,,,,,,
3620,, ,html-keyboard-response,125,398144,0.0-6.0,,,,
,,,,,,,,,,
239256,,"{""P0_Q0"":""22"",""P0_Q1"":""Nonbinary"",""P0_Q2"":""Yes"",""P0_Q3"":""Some german, some welsh, some spanish"",""P0_Q4"":""18 and ~3yrs for german, 18 and less than a year for Welsh, 15 and ~1 year for spanish"",""P0_Q5"":""Welsh was self-taught via duolingo, I have had 2 intro courses at MSU and self-taught via Duolingo for german, and took 2 classes in middle school for spanish. I recall the german language best of these three since the MSU courses were more structured.""}",survey,126,637412,0.0-7.0,[],,,
,,,,,,,,,,
12603,"<p style=""font-size:30px"">The experiment has ended</p><p style=""font-size:30px"",lang=""ko"">Thanks for participating in it!</p>", ,html-keyboard-response,127,650016,0.0-8.0,,,,