rt,stimulus,response,trial_type,trial_index,time_elapsed,internal_node_id,accuracy,PracticeTest,ConsonantSequence,Grammaticality
,,,,,,,,,,
2615588,"<p style=""font-size:30px"">Welcome to the experiment</p><p>Press spacebar to continue</p>", ,html-keyboard-response,0,2615440,0.0-0.0,,,,
,,,,,,,,,,
2340,"<p style=""font-size:30px"">Please ensure that your headphones are on correctly</p><p>Press spacebar to continue</p>", ,html-keyboard-response,1,2617780,0.0-1.0,,,,
,,,,,,,,,,
3531,"<p style=""font-size:30px"">In this experiment, you will listen to nonsense words</p><p style=""font-size:30px"",lang=""ko"">Your task is to write down the word and then rate how good an English word it is</p><p>Press spacebar to continue</p>", ,html-keyboard-response,2,2621312,0.0-2.0,,,,
,,,,,,,,,,
2167,"<p style=""font-size:30px"">Let's practice with some nonsense words so that you understand the task</p><p>Press spacebar to continue</p>", ,html-keyboard-response,3,2623480,0.0-3.0,,,,
,,,,,,,,,,
1940,PracticeRecordings/bupkes.wav,0,audio-button-response,4,2625759,0.0-4.0-0.0,,,,
,,,,,,,,,,
4369,bupkes,"{""P0_Q0"":""bubkus""}",survey,5,2630164,0.0-4.0-1.0,[],practice,NA,TRUE
,,,,,,,,,,
7540,"<p style=""font-size:30px""> The word you heard is <br> ""bupkess"" <br> It may sound different depending on the person. <br> Write it down as it sounds.</p><p lang=""ko"">Press spacebar to continue</p>", ,html-keyboard-response,6,2637703,0.0-4.0-2.0,,,,
,,,,,,,,,,
1488,PracticeRecordings/dringgep.wav,0,audio-button-response,7,2639199,0.0-4.0-0.1,,,,
,,,,,,,,,,
3407,dringep,"{""P0_Q0"":""trinket""}",survey,8,2642617,0.0-4.0-1.1,[],practice,NA,FALSE
,,,,,,,,,,
4101,"<p style=""font-size:30px""> The word you heard is <br> ""dringep"" <br> It may sound different depending on the person. <br> Write it down as it sounds.</p><p lang=""ko"">Press spacebar to continue</p>", ,html-keyboard-response,9,2646719,0.0-4.0-2.1,,,,
,,,,,,,,,,
4609,PracticeRecordings/dunggem.wav,0,audio-button-response,10,2651333,0.0-4.0-0.2,,,,
,,,,,,,,,,
6416,dunggem,"{""P0_Q0"":""dunegame""}",survey,11,2657761,0.0-4.0-1.2,[],practice,NA,FALSE
,,,,,,,,,,
4485,"<p style=""font-size:30px""> The word you heard is <br> ""dungem"" (or) ""doongem"" <br> It may sound different depending on the person. <br> Write it down as it sounds.</p><p lang=""ko"">Press spacebar to continue</p>", ,html-keyboard-response,12,2662246,0.0-4.0-2.2,,,,
,,,,,,,,,,
1217,PracticeRecordings/deip.wav,0,audio-button-response,13,2663469,0.0-4.0-0.3,,,,
,,,,,,,,,,
3130,deip,"{""P0_Q0"":""dape""}",survey,14,2666608,0.0-4.0-1.3,[],practice,NA,FALSE
,,,,,,,,,,
1620,"<p style=""font-size:30px""> The word you heard is <br> ""dape"" <br> It may sound different depending on the person. <br> Write it down as it sounds.</p><p lang=""ko"">Press spacebar to continue</p>", ,html-keyboard-response,15,2668230,0.0-4.0-2.3,,,,
,,,,,,,,,,
3839,, ,html-keyboard-response,16,2672070,0.0-5.0,,,,
,,,,,,,,,,
12784,"<p style=""font-size:30px"">Now let's move on to the actual experiment.</p><p style=""font-size:30px"",lang=""ko"">During the experiment, you will hear each of the nonce words only once.", ,html-keyboard-response,17,2684853,0.0-6.0,,,,
,,,,,,,,,,
6415,"<p style=""font-size:30px"">After writing down the word, you will also rate the nonsense word you heard as a possible word of American English.</p><p>Press spacebar to continue</p>", ,html-keyboard-response,18,2691269,0.0-7.0,,,,
,,,,,,,,,,
1855,TestRecordings/dlemkus.wav,0,audio-button-response,19,2693131,0.0-8.0-0.0,,,,
,,,,,,,,,,
6288,,"{""P0_Q0"":""blamkus"",""P0_Q1"":2}",survey,20,2699431,0.0-8.0-1.0,[],,,
,,,,,,,,,,
1221,TestRecordings/tlemkun.wav,0,audio-button-response,21,2700658,0.0-8.0-0.1,,,,
,,,,,,,,,,
4647,,"{""P0_Q0"":""thalmkun"",""P0_Q1"":1}",survey,22,2705319,0.0-8.0-1.1,[],,,
,,,,,,,,,,
933,TestRecordings/dlahm.wav,0,audio-button-response,23,2706258,0.0-8.0-0.2,,,,
,,,,,,,,,,
4626,,"{""P0_Q0"":""thlom"",""P0_Q1"":2}",survey,24,2710894,0.0-8.0-1.2,[],,,
,,,,,,,,,,
1398,TestRecordings/tlik.wav,0,audio-button-response,25,2712298,0.0-8.0-0.3,,,,
,,,,,,,,,,
5562,,"{""P0_Q0"":""tlick"",""P0_Q1"":3}",survey,26,2717870,0.0-8.0-1.3,[],,,
,,,,,,,,,,
1158,TestRecordings/ntek.wav,0,audio-button-response,27,2719034,0.0-8.0-0.4,,,,
,,,,,,,,,,
7489,,"{""P0_Q0"":""ntack"",""P0_Q1"":1}",survey,28,2726532,0.0-8.0-1.4,[],,,
,,,,,,,,,,
1237,TestRecordings/stauk.wav,0,audio-button-response,29,2727778,0.0-8.0-0.5,,,,
,,,,,,,,,,
5251,,"{""P0_Q0"":""stouk"",""P0_Q1"":4}",survey,30,2733036,0.0-8.0-1.5,[],,,
,,,,,,,,,,
1206,TestRecordings/tempuk.wav,0,audio-button-response,31,2734249,0.0-8.0-0.6,,,,
,,,,,,,,,,
6002,,"{""P0_Q0"":""tempuk"",""P0_Q1"":3}",survey,32,2740260,0.0-8.0-1.6,[],,,
,,,,,,,,,,
1078,TestRecordings/suntem.wav,0,audio-button-response,33,2741345,0.0-8.0-0.7,,,,
,,,,,,,,,,
5211,,"{""P0_Q0"":""tsutem"",""P0_Q1"":2}",survey,34,2746564,0.0-8.0-1.7,[],,,
,,,,,,,,,,
1189,TestRecordings/stahm.wav,0,audio-button-response,35,2747760,0.0-8.0-0.8,,,,
,,,,,,,,,,
5035,,"{""P0_Q0"":""stahm"",""P0_Q1"":3}",survey,36,2752803,0.0-8.0-1.8,[],,,
,,,,,,,,,,
1357,TestRecordings/pwuk.wav,0,audio-button-response,37,2754168,0.0-8.0-0.9,,,,
,,,,,,,,,,
9588,,"{""P0_Q0"":""pwuck"",""P0_Q1"":2}",survey,38,2763762,0.0-8.0-1.9,[],,,
,,,,,,,,,,
1024,TestRecordings/kmeip.wav,0,audio-button-response,39,2764791,0.0-8.0-0.10,,,,
,,,,,,,,,,
5371,,"{""P0_Q0"":""cmape"",""P0_Q1"":1}",survey,40,2770170,0.0-8.0-1.10,[],,,
,,,,,,,,,,
1527,TestRecordings/paim.wav,0,audio-button-response,41,2771703,0.0-8.0-0.11,,,,
,,,,,,,,,,
8692,,"{""P0_Q0"":""paim"",""P0_Q1"":3}",survey,42,2780402,0.0-8.0-1.11,[],,,
,,,,,,,,,,
1173,TestRecordings/ndeip.wav,0,audio-button-response,43,2781582,0.0-8.0-0.12,,,,
,,,,,,,,,,
7131,,"{""P0_Q0"":""date"",""P0_Q1"":6}",survey,44,2788722,0.0-8.0-1.12,[],,,
,,,,,,,,,,
1535,TestRecordings/trahm.wav,0,audio-button-response,45,2790262,0.0-8.0-0.13,,,,
,,,,,,,,,,
4443,,"{""P0_Q0"":""tram"",""P0_Q1"":6}",survey,46,2794713,0.0-8.0-1.13,[],,,
,,,,,,,,,,
1038,TestRecordings/kmaut.wav,0,audio-button-response,47,2795757,0.0-8.0-0.14,,,,
,,,,,,,,,,
9668,,"{""P0_Q0"":""cnout"",""P0_Q1"":2}",survey,48,2805432,0.0-8.0-1.14,[],,,
,,,,,,,,,,
911,TestRecordings/pwam.wav,0,audio-button-response,49,2806349,0.0-8.0-0.15,,,,
,,,,,,,,,,
6283,,"{""P0_Q0"":""pwam"",""P0_Q1"":2}",survey,50,2812640,0.0-8.0-1.15,[],,,
,,,,,,,,,,
1110,TestRecordings/drain.wav,0,audio-button-response,51,2813757,0.0-8.0-0.16,,,,
,,,,,,,,,,
9755,,"{""P0_Q0"":""drayne"",""P0_Q1"":3}",survey,52,2823519,0.0-8.0-1.16,[],,,
,,,,,,,,,,
1103,TestRecordings/dmut.wav,0,audio-button-response,53,2824628,0.0-8.0-0.17,,,,
,,,,,,,,,,
9876,,"{""P0_Q0"":""dmut"",""P0_Q1"":2}",survey,54,2834511,0.0-8.0-1.17,[],,,
,,,,,,,,,,
1479,TestRecordings/punseng.wav,0,audio-button-response,55,2835996,0.0-8.0-0.18,,,,
,,,,,,,,,,
7971,,"{""P0_Q0"":""punseng"",""P0_Q1"":2}",survey,56,2843974,0.0-8.0-1.18,[],,,
,,,,,,,,,,
1043,TestRecordings/pundes.wav,0,audio-button-response,57,2845034,0.0-8.0-0.19,,,,
,,,,,,,,,,
5248,,"{""P0_Q0"":""pundes"",""P0_Q1"":1}",survey,58,2850294,0.0-8.0-1.19,[],,,
,,,,,,,,,,
1287,TestRecordings/drikteng.wav,0,audio-button-response,59,2851587,0.0-8.0-0.20,,,,
,,,,,,,,,,
4802,,"{""P0_Q0"":""drikting"",""P0_Q1"":2}",survey,60,2856398,0.0-8.0-1.20,[],,,
,,,,,,,,,,
1126,TestRecordings/pemdut.wav,0,audio-button-response,61,2857531,0.0-8.0-0.21,,,,
,,,,,,,,,,
4762,,"{""P0_Q0"":""pemdoot"",""P0_Q1"":2}",survey,62,2862301,0.0-8.0-1.21,[],,,
,,,,,,,,,,
1111,TestRecordings/trindes.wav,0,audio-button-response,63,2863418,0.0-8.0-0.22,,,,
,,,,,,,,,,
4475,,"{""P0_Q0"":""trendes"",""P0_Q1"":2}",survey,64,2867900,0.0-8.0-1.22,[],,,
,,,,,,,,,,
1055,TestRecordings/skain.wav,0,audio-button-response,65,2868961,0.0-8.0-0.23,,,,
,,,,,,,,,,
6228,,"{""P0_Q0"":""skaine"",""P0_Q1"":2}",survey,66,2875197,0.0-8.0-1.23,[],,,
,,,,,,,,,,
1046,TestRecordings/dloun.wav,0,audio-button-response,67,2876249,0.0-8.0-0.24,,,,
,,,,,,,,,,
4884,,"{""P0_Q0"":""blown"",""P0_Q1"":6}",survey,68,2881140,0.0-8.0-1.24,[],,,
,,,,,,,,,,
910,TestRecordings/gistum.wav,0,audio-button-response,69,2882057,0.0-8.0-0.25,,,,
,,,,,,,,,,
6300,,"{""P0_Q0"":""gistung"",""P0_Q1"":1}",survey,70,2888363,0.0-8.0-1.25,[],,,
,,,,,,,,,,
1012,TestRecordings/dlisbep.wav,0,audio-button-response,71,2889384,0.0-8.0-0.26,,,,
,,,,,,,,,,
4916,,"{""P0_Q0"":""dlispeb"",""P0_Q1"":1}",survey,72,2894308,0.0-8.0-1.26,[],,,
,,,,,,,,,,
790,TestRecordings/mgit.wav,0,audio-button-response,73,2895104,0.0-8.0-0.27,,,,
,,,,,,,,,,
5644,,"{""P0_Q0"":""ugeyt"",""P0_Q1"":1}",survey,74,2900755,0.0-8.0-1.27,[],,,
,,,,,,,,,,
1038,TestRecordings/nutbim.wav,0,audio-button-response,75,2901799,0.0-8.0-0.28,,,,
,,,,,,,,,,
7892,,"{""P0_Q0"":""nutbemp"",""P0_Q1"":1}",survey,76,2909699,0.0-8.0-1.28,[],,,
,,,,,,,,,,
1198,TestRecordings/sengdun.wav,0,audio-button-response,77,2910904,0.0-8.0-0.29,,,,
,,,,,,,,,,
9620,,"{""P0_Q0"":""saingdun"",""P0_Q1"":2}",survey,78,2920530,0.0-8.0-1.29,[],,,
,,,,,,,,,,
989,TestRecordings/drakpum.wav,0,audio-button-response,79,2921527,0.0-8.0-0.30,,,,
,,,,,,,,,,
6739,,"{""P0_Q0"":""drakpoom"",""P0_Q1"":2}",survey,80,2928273,0.0-8.0-1.30,[],,,
,,,,,,,,,,
950,TestRecordings/gatkun.wav,0,audio-button-response,81,2929230,0.0-8.0-0.31,,,,
,,,,,,,,,,
5690,,"{""P0_Q0"":""gatkung"",""P0_Q1"":1}",survey,82,2934928,0.0-8.0-1.31,[],,,
,,,,,,,,,,
965,TestRecordings/twen.wav,0,audio-button-response,83,2935902,0.0-8.0-0.32,,,,
,,,,,,,,,,
12259,,"{""P0_Q0"":""twaine"",""P0_Q1"":2}",survey,84,2948186,0.0-8.0-1.32,[],,,
,,,,,,,,,,
1134,TestRecordings/tlumgak.wav,0,audio-button-response,85,2949325,0.0-8.0-0.33,,,,
,,,,,,,,,,
7129,,"{""P0_Q0"":""tlumgaak"",""P0_Q1"":1}",survey,86,2956465,0.0-8.0-1.33,[],,,
,,,,,,,,,,
870,TestRecordings/giit.wav,0,audio-button-response,87,2957341,0.0-8.0-0.34,,,,
,,,,,,,,,,
4154,,"{""P0_Q0"":""geet"",""P0_Q1"":4}",survey,88,2961504,0.0-8.0-1.34,[],,,
,,,,,,,,,,
863,TestRecordings/tlem.wav,0,audio-button-response,89,2962372,0.0-8.0-0.35,,,,
,,,,,,,,,,
4627,,"{""P0_Q0"":""tlam"",""P0_Q1"":1}",survey,90,2967008,0.0-8.0-1.35,[],,,
,,,,,,,,,,
1037,TestRecordings/drustet.wav,0,audio-button-response,91,2968052,0.0-8.0-0.36,,,,
,,,,,,,,,,
4075,,"{""P0_Q0"":""drustet"",""P0_Q1"":2}",survey,92,2972136,0.0-8.0-1.36,[],,,
,,,,,,,,,,
902,TestRecordings/pmeit.wav,0,audio-button-response,93,2973043,0.0-8.0-0.37,,,,
,,,,,,,,,,
6434,,"{""P0_Q0"":""pmaite"",""P0_Q1"":2}",survey,94,2979486,0.0-8.0-1.37,[],,,
,,,,,,,,,,
983,TestRecordings/tlepgim.wav,0,audio-button-response,95,2980476,0.0-8.0-0.38,,,,
,,,,,,,,,,
5841,,"{""P0_Q0"":""tlepkin"",""P0_Q1"":1}",survey,96,2986326,0.0-8.0-1.38,[],,,
,,,,,,,,,,
822,TestRecordings/tlipgat.wav,0,audio-button-response,97,2987155,0.0-8.0-0.39,,,,
,,,,,,,,,,
5626,,"{""P0_Q0"":""tlupkat"",""P0_Q1"":1}",survey,98,2992791,0.0-8.0-1.39,[],,,
,,,,,,,,,,
770,TestRecordings/mkait.wav,0,audio-button-response,99,2993571,0.0-8.0-0.40,,,,
,,,,,,,,,,
6824,,"{""P0_Q0"":""mkaite"",""P0_Q1"":2}",survey,100,3000422,0.0-8.0-1.40,[],,,
,,,,,,,,,,
1020,TestRecordings/drantung.wav,0,audio-button-response,101,3001450,0.0-8.0-0.41,,,,
,,,,,,,,,,
8697,,"{""P0_Q0"":""drantung"",""P0_Q1"":2}",survey,102,3010158,0.0-8.0-1.41,[],,,
,,,,,,,,,,
1147,TestRecordings/bem.wav,0,audio-button-response,103,3011314,0.0-8.0-0.42,,,,
,,,,,,,,,,
5065,,"{""P0_Q0"":""baam"",""P0_Q1"":6}",survey,104,3016389,0.0-8.0-1.42,[],,,
,,,,,,,,,,
895,TestRecordings/tep.wav,0,audio-button-response,105,3017289,0.0-8.0-0.43,,,,
,,,,,,,,,,
3153,,"{""P0_Q0"":""tep"",""P0_Q1"":7}",survey,106,3020452,0.0-8.0-1.43,[],,,
,,,,,,,,,,
975,TestRecordings/drumbeng.wav,0,audio-button-response,107,3021433,0.0-8.0-0.44,,,,
,,,,,,,,,,
9754,,"{""P0_Q0"":""drembeing"",""P0_Q1"":2}",survey,108,3031196,0.0-8.0-1.44,[],,,
,,,,,,,,,,
886,TestRecordings/gup.wav,0,audio-button-response,109,3032089,0.0-8.0-0.45,,,,
,,,,,,,,,,
10339,,"{""P0_Q0"":""guup"",""P0_Q1"":4}",survey,110,3042435,0.0-8.0-1.45,[],,,
,,,,,,,,,,
1143,TestRecordings/ningpum.wav,0,audio-button-response,111,3043583,0.0-8.0-0.46,,,,
,,,,,,,,,,
11363,,"{""P0_Q0"":""gneingpoon"",""P0_Q1"":1}",survey,112,3054952,0.0-8.0-1.46,[],,,
,,,,,,,,,,
1142,TestRecordings/stuun.wav,0,audio-button-response,113,3056103,0.0-8.0-0.47,,,,
,,,,,,,,,,
4172,,"{""P0_Q0"":""stoon"",""P0_Q1"":1}",survey,114,3060300,0.0-8.0-1.47,[],,,
,,,,,,,,,,
1069,TestRecordings/tlasdung.wav,0,audio-button-response,115,3061375,0.0-8.0-0.48,,,,
,,,,,,,,,,
3808,,"{""P0_Q0"":""tlastun"",""P0_Q1"":1}",survey,116,3065195,0.0-8.0-1.48,[],,,
,,,,,,,,,,
758,TestRecordings/kutpim.wav,0,audio-button-response,117,3065958,0.0-8.0-0.49,,,,
,,,,,,,,,,
4268,,"{""P0_Q0"":""kutpem"",""P0_Q1"":1}",survey,118,3070234,0.0-8.0-1.49,[],,,
,,,,,,,,,,
966,TestRecordings/bepgik.wav,0,audio-button-response,119,3071206,0.0-8.0-0.50,,,,
,,,,,,,,,,
4505,,"{""P0_Q0"":""bepkick"",""P0_Q1"":1}",survey,120,3075721,0.0-8.0-1.50,[],,,
,,,,,,,,,,
733,TestRecordings/tloum.wav,0,audio-button-response,121,3076462,0.0-8.0-0.51,,,,
,,,,,,,,,,
5066,,"{""P0_Q0"":""tloam"",""P0_Q1"":1}",survey,122,3081537,0.0-8.0-1.51,[],,,
,,,,,,,,,,
980,TestRecordings/gipsus.wav,0,audio-button-response,123,3082525,0.0-8.0-0.52,,,,
,,,,,,,,,,
6626,,"{""P0_Q0"":""tipsus"",""P0_Q1"":2}",survey,124,3089161,0.0-8.0-1.52,[],,,
,,,,,,,,,,
1015,TestRecordings/gitpes.wav,0,audio-button-response,125,3090181,0.0-8.0-0.53,,,,
,,,,,,,,,,
4467,,"{""P0_Q0"":""gitpass"",""P0_Q1"":3}",survey,126,3094656,0.0-8.0-1.53,[],,,
,,,,,,,,,,
839,TestRecordings/nboup.wav,0,audio-button-response,127,3095501,0.0-8.0-0.54,,,,
,,,,,,,,,,
12371,,"{""P0_Q0"":""mnbope"",""P0_Q1"":1}",survey,128,3107880,0.0-8.0-1.54,[],,,
,,,,,,,,,,
725,TestRecordings/pmiik.wav,0,audio-button-response,129,3108613,0.0-8.0-0.55,,,,
,,,,,,,,,,
3666,,"{""P0_Q0"":""pneak"",""P0_Q1"":1}",survey,130,3112287,0.0-8.0-1.55,[],,,
,,,,,,,,,,
1087,TestRecordings/twas.wav,0,audio-button-response,131,3113380,0.0-8.0-0.56,,,,
,,,,,,,,,,
4395,,"{""P0_Q0"":""twaas"",""P0_Q1"":4}",survey,132,3117808,0.0-8.0-1.56,[],,,
,,,,,,,,,,
930,TestRecordings/mepgut.wav,0,audio-button-response,133,3118747,0.0-8.0-0.57,,,,
,,,,,,,,,,
3533,,"{""P0_Q0"":""nepkut"",""P0_Q1"":1}",survey,134,3122312,0.0-8.0-1.57,[],,,
,,,,,,,,,,
813,TestRecordings/nangdup.wav,0,audio-button-response,135,3123131,0.0-8.0-0.58,,,,
,,,,,,,,,,
4833,,"{""P0_Q0"":""gnangdup"",""P0_Q1"":1}",survey,136,3127975,0.0-8.0-1.58,[],,,
,,,,,,,,,,
981,TestRecordings/tisbeng.wav,0,audio-button-response,137,3128963,0.0-8.0-0.59,,,,
,,,,,,,,,,
2976,,"{""P0_Q0"":""tuspang"",""P0_Q1"":1}",survey,138,3131949,0.0-8.0-1.59,[],,,
,,,,,,,,,,
4413,, ,html-keyboard-response,139,3136364,0.0-9.0,,,,
,,,,,,,,,,
30701,,"{""P0_Q0"":""20"",""P0_Q1"":""Male"",""P0_Q2"":""Yes"",""P0_Q3"":""None"",""P0_Q4"":""N/A"",""P0_Q5"":""N/A""}",survey,140,3167078,0.0-10.0,[],,,
,,,,,,,,,,
369684,"<p style=""font-size:30px"">The experiment has ended</p><p style=""font-size:30px"",lang=""ko"">Thanks for participating in it!</p>", ,html-keyboard-response,141,3536743,0.0-11.0,,,,