rt,stimulus,response,trial_type,trial_index,time_elapsed,internal_node_id,accuracy,PracticeTest,ConsonantSequence,Grammaticality
,,,,,,,,,,
1289143,"<p style=""font-size:30px"">Welcome to the experiment</p><p>Press spacebar to continue</p>", ,html-keyboard-response,0,1289088,0.0-0.0,,,,
,,,,,,,,,,
2582,"<p style=""font-size:30px"">Please ensure that your headphones are on correctly</p><p>Press spacebar to continue</p>", ,html-keyboard-response,1,1291670,0.0-1.0,,,,
,,,,,,,,,,
7096,"<p style=""font-size:30px"">In this experiment, you will listen to nonsense words</p><p style=""font-size:30px"",lang=""ko"">Your task is to write down the word and then rate how good an English word it is</p><p>Press spacebar to continue</p>", ,html-keyboard-response,2,1298766,0.0-2.0,,,,
,,,,,,,,,,
3776,"<p style=""font-size:30px"">Let's practice with some nonsense words so that you understand the task</p><p>Press spacebar to continue</p>", ,html-keyboard-response,3,1302542,0.0-3.0,,,,
,,,,,,,,,,
9047,PracticeRecordings/bupkes.wav,0,audio-button-response,4,1311596,0.0-4.0-0.0,,,,
,,,,,,,,,,
10301,bupkes,"{""P0_Q0"":""burpkiss""}",survey,5,1321937,0.0-4.0-1.0,[],practice,NA,TRUE
,,,,,,,,,,
6202,"<p style=""font-size:30px""> The word you heard is <br> ""bupkess"" <br> It may sound different depending on the person. <br> Write it down as it sounds.</p><p lang=""ko"">Press spacebar to continue</p>", ,html-keyboard-response,6,1328141,0.0-4.0-2.0,,,,
,,,,,,,,,,
4065,PracticeRecordings/dringgep.wav,0,audio-button-response,7,1332211,0.0-4.0-0.1,,,,
,,,,,,,,,,
6232,dringep,"{""P0_Q0"":""dringcap""}",survey,8,1338455,0.0-4.0-1.1,[],practice,NA,FALSE
,,,,,,,,,,
4612,"<p style=""font-size:30px""> The word you heard is <br> ""dringep"" <br> It may sound different depending on the person. <br> Write it down as it sounds.</p><p lang=""ko"">Press spacebar to continue</p>", ,html-keyboard-response,9,1343069,0.0-4.0-2.1,,,,
,,,,,,,,,,
2465,PracticeRecordings/dunggem.wav,0,audio-button-response,10,1345539,0.0-4.0-0.2,,,,
,,,,,,,,,,
5363,dunggem,"{""P0_Q0"":""dungam""}",survey,11,1350910,0.0-4.0-1.2,[],practice,NA,FALSE
,,,,,,,,,,
4140,"<p style=""font-size:30px""> The word you heard is <br> ""dungem"" (or) ""doongem"" <br> It may sound different depending on the person. <br> Write it down as it sounds.</p><p lang=""ko"">Press spacebar to continue</p>", ,html-keyboard-response,12,1355051,0.0-4.0-2.2,,,,
,,,,,,,,,,
1945,PracticeRecordings/deip.wav,0,audio-button-response,13,1357002,0.0-4.0-0.3,,,,
,,,,,,,,,,
3026,deip,"{""P0_Q0"":""dape""}",survey,14,1360038,0.0-4.0-1.3,[],practice,NA,FALSE
,,,,,,,,,,
2413,"<p style=""font-size:30px""> The word you heard is <br> ""dape"" <br> It may sound different depending on the person. <br> Write it down as it sounds.</p><p lang=""ko"">Press spacebar to continue</p>", ,html-keyboard-response,15,1362451,0.0-4.0-2.3,,,,
,,,,,,,,,,
2799,, ,html-keyboard-response,16,1365251,0.0-5.0,,,,
,,,,,,,,,,
10479,"<p style=""font-size:30px"">Now let's move on to the actual experiment.</p><p style=""font-size:30px"",lang=""ko"">During the experiment, you will hear each of the nonce words only once.", ,html-keyboard-response,17,1375731,0.0-6.0,,,,
,,,,,,,,,,
6239,"<p style=""font-size:30px"">After writing down the word, you will also rate the nonsense word you heard as a possible word of American English.</p><p>Press spacebar to continue</p>", ,html-keyboard-response,18,1381970,0.0-7.0,,,,
,,,,,,,,,,
1863,TestRecordings/tloum.wav,0,audio-button-response,19,1383841,0.0-8.0-0.0,,,,
,,,,,,,,,,
9040,,"{""P0_Q0"":""glum"",""P0_Q1"":5}",survey,20,1392894,0.0-8.0-1.0,[],,,
,,,,,,,,,,
1775,TestRecordings/drustet.wav,0,audio-button-response,21,1394673,0.0-8.0-0.1,,,,
,,,,,,,,,,
6114,,"{""P0_Q0"":""drestet"",""P0_Q1"":2}",survey,22,1400796,0.0-8.0-1.1,[],,,
,,,,,,,,,,
1438,TestRecordings/tlipgat.wav,0,audio-button-response,23,1402240,0.0-8.0-0.2,,,,
,,,,,,,,,,
4819,,"{""P0_Q0"":""flipcat"",""P0_Q1"":2}",survey,24,1407068,0.0-8.0-1.2,[],,,
,,,,,,,,,,
1632,TestRecordings/nutbim.wav,0,audio-button-response,25,1408706,0.0-8.0-0.3,,,,
,,,,,,,,,,
4566,,"{""P0_Q0"":""netpen"",""P0_Q1"":4}",survey,26,1413284,0.0-8.0-1.3,[],,,
,,,,,,,,,,
1511,TestRecordings/skain.wav,0,audio-button-response,27,1414800,0.0-8.0-0.4,,,,
,,,,,,,,,,
5659,,"{""P0_Q0"":""skine"",""P0_Q1"":4}",survey,28,1420467,0.0-8.0-1.4,[],,,
,,,,,,,,,,
1478,TestRecordings/pmeit.wav,0,audio-button-response,29,1421952,0.0-8.0-0.5,,,,
,,,,,,,,,,
5186,,"{""P0_Q0"":""pamate"",""P0_Q1"":3}",survey,30,1427147,0.0-8.0-1.5,[],,,
,,,,,,,,,,
1423,TestRecordings/trindes.wav,0,audio-button-response,31,1428576,0.0-8.0-0.6,,,,
,,,,,,,,,,
7139,,"{""P0_Q0"":""trendes"",""P0_Q1"":4}",survey,32,1435723,0.0-8.0-1.6,[],,,
,,,,,,,,,,
1391,TestRecordings/ndeip.wav,0,audio-button-response,33,1437119,0.0-8.0-0.7,,,,
,,,,,,,,,,
4484,,"{""P0_Q0"":""dape"",""P0_Q1"":4}",survey,34,1441611,0.0-8.0-1.7,[],,,
,,,,,,,,,,
1624,TestRecordings/twas.wav,0,audio-button-response,35,1443239,0.0-8.0-0.8,,,,
,,,,,,,,,,
4740,,"{""P0_Q0"":""twass"",""P0_Q1"":5}",survey,36,1447985,0.0-8.0-1.8,[],,,
,,,,,,,,,,
1391,TestRecordings/gitpes.wav,0,audio-button-response,37,1449383,0.0-8.0-0.9,,,,
,,,,,,,,,,
4741,,"{""P0_Q0"":""getpes"",""P0_Q1"":3}",survey,38,1454130,0.0-8.0-1.9,[],,,
,,,,,,,,,,
1447,TestRecordings/gatkun.wav,0,audio-button-response,39,1455582,0.0-8.0-0.10,,,,
,,,,,,,,,,
5556,,"{""P0_Q0"":""gatcun"",""P0_Q1"":3}",survey,40,1461146,0.0-8.0-1.10,[],,,
,,,,,,,,,,
1158,TestRecordings/gipsus.wav,0,audio-button-response,41,1462310,0.0-8.0-0.11,,,,
,,,,,,,,,,
6580,,"{""P0_Q0"":""geskesp"",""P0_Q1"":3}",survey,42,1468897,0.0-8.0-1.11,[],,,
,,,,,,,,,,
1655,TestRecordings/gup.wav,0,audio-button-response,43,1470558,0.0-8.0-0.12,,,,
,,,,,,,,,,
4476,,"{""P0_Q0"":""gup"",""P0_Q1"":4}",survey,44,1475041,0.0-8.0-1.12,[],,,
,,,,,,,,,,
1198,TestRecordings/kutpim.wav,0,audio-button-response,45,1476245,0.0-8.0-0.13,,,,
,,,,,,,,,,
6260,,"{""P0_Q0"":""coulpin"",""P0_Q1"":3}",survey,46,1482513,0.0-8.0-1.13,[],,,
,,,,,,,,,,
1647,TestRecordings/drikteng.wav,0,audio-button-response,47,1484165,0.0-8.0-0.14,,,,
,,,,,,,,,,
5148,,"{""P0_Q0"":""driktin"",""P0_Q1"":3}",survey,48,1489320,0.0-8.0-1.14,[],,,
,,,,,,,,,,
1151,TestRecordings/dlemkus.wav,0,audio-button-response,49,1490477,0.0-8.0-0.15,,,,
,,,,,,,,,,
5156,,"{""P0_Q0"":""blumkies"",""P0_Q1"":3}",survey,50,1495640,0.0-8.0-1.15,[],,,
,,,,,,,,,,
1232,TestRecordings/drumbeng.wav,0,audio-button-response,51,1496877,0.0-8.0-0.16,,,,
,,,,,,,,,,
4244,,"{""P0_Q0"":""drumbing"",""P0_Q1"":2}",survey,52,1501128,0.0-8.0-1.16,[],,,
,,,,,,,,,,
1359,TestRecordings/dlisbep.wav,0,audio-button-response,53,1502492,0.0-8.0-0.17,,,,
,,,,,,,,,,
5332,,"{""P0_Q0"":""delicibeb"",""P0_Q1"":2}",survey,54,1507831,0.0-8.0-1.17,[],,,
,,,,,,,,,,
1192,TestRecordings/tlemkun.wav,0,audio-button-response,55,1509028,0.0-8.0-0.18,,,,
,,,,,,,,,,
4475,,"{""P0_Q0"":""flumcun"",""P0_Q1"":3}",survey,56,1513511,0.0-8.0-1.18,[],,,
,,,,,,,,,,
1135,TestRecordings/drakpum.wav,0,audio-button-response,57,1514652,0.0-8.0-0.19,,,,
,,,,,,,,,,
7915,,"{""P0_Q0"":""dracpoon"",""P0_Q1"":2}",survey,58,1522575,0.0-8.0-1.19,[],,,
,,,,,,,,,,
1359,TestRecordings/dlahm.wav,0,audio-button-response,59,1523939,0.0-8.0-0.20,,,,
,,,,,,,,,,
3755,,"{""P0_Q0"":""glum"",""P0_Q1"":5}",survey,60,1527702,0.0-8.0-1.20,[],,,
,,,,,,,,,,
1239,TestRecordings/tlik.wav,0,audio-button-response,61,1528947,0.0-8.0-0.21,,,,
,,,,,,,,,,
8381,,"{""P0_Q0"":""flinck"",""P0_Q1"":5}",survey,62,1537334,0.0-8.0-1.21,[],,,
,,,,,,,,,,
1352,TestRecordings/tlepgim.wav,0,audio-button-response,63,1538691,0.0-8.0-0.22,,,,
,,,,,,,,,,
7460,,"{""P0_Q0"":""flapcam"",""P0_Q1"":4}",survey,64,1546157,0.0-8.0-1.22,[],,,
,,,,,,,,,,
1664,TestRecordings/tisbeng.wav,0,audio-button-response,65,1547827,0.0-8.0-0.23,,,,
,,,,,,,,,,
4885,,"{""P0_Q0"":""tesbing"",""P0_Q1"":3}",survey,66,1552717,0.0-8.0-1.23,[],,,
,,,,,,,,,,
1263,TestRecordings/nangdup.wav,0,audio-button-response,67,1553986,0.0-8.0-0.24,,,,
,,,,,,,,,,
5397,,"{""P0_Q0"":""nenbup"",""P0_Q1"":2}",survey,68,1559389,0.0-8.0-1.24,[],,,
,,,,,,,,,,
1223,TestRecordings/dmut.wav,0,audio-button-response,69,1560618,0.0-8.0-0.25,,,,
,,,,,,,,,,
3885,,"{""P0_Q0"":""demut"",""P0_Q1"":5}",survey,70,1564509,0.0-8.0-1.25,[],,,
,,,,,,,,,,
1248,TestRecordings/punseng.wav,0,audio-button-response,71,1565762,0.0-8.0-0.26,,,,
,,,,,,,,,,
4748,,"{""P0_Q0"":""ponsang"",""P0_Q1"":4}",survey,72,1570517,0.0-8.0-1.26,[],,,
,,,,,,,,,,
1472,TestRecordings/paim.wav,0,audio-button-response,73,1571994,0.0-8.0-0.27,,,,
,,,,,,,,,,
5581,,"{""P0_Q0"":""pine"",""P0_Q1"":7}",survey,74,1577580,0.0-8.0-1.27,[],,,
,,,,,,,,,,
1344,TestRecordings/suntem.wav,0,audio-button-response,75,1578929,0.0-8.0-0.28,,,,
,,,,,,,,,,
4364,,"{""P0_Q0"":""suntan"",""P0_Q1"":5}",survey,76,1583300,0.0-8.0-1.28,[],,,
,,,,,,,,,,
1497,TestRecordings/drantung.wav,0,audio-button-response,77,1584801,0.0-8.0-0.29,,,,
,,,,,,,,,,
7667,,"{""P0_Q0"":""drangtounge"",""P0_Q1"":4}",survey,78,1592476,0.0-8.0-1.29,[],,,
,,,,,,,,,,
2336,TestRecordings/mgit.wav,0,audio-button-response,79,1594817,0.0-8.0-0.30,,,,
,,,,,,,,,,
7700,,"{""P0_Q0"":""nget"",""P0_Q1"":3}",survey,80,1602523,0.0-8.0-1.30,[],,,
,,,,,,,,,,
1744,TestRecordings/kmeip.wav,0,audio-button-response,81,1604272,0.0-8.0-0.31,,,,
,,,,,,,,,,
4156,,"{""P0_Q0"":""camape"",""P0_Q1"":3}",survey,82,1608435,0.0-8.0-1.31,[],,,
,,,,,,,,,,
1358,TestRecordings/stahm.wav,0,audio-button-response,83,1609800,0.0-8.0-0.32,,,,
,,,,,,,,,,
4339,,"{""P0_Q0"":""stom"",""P0_Q1"":5}",survey,84,1614145,0.0-8.0-1.32,[],,,
,,,,,,,,,,
1145,TestRecordings/nboup.wav,0,audio-button-response,85,1615296,0.0-8.0-0.33,,,,
,,,,,,,,,,
4131,,"{""P0_Q0"":""bope"",""P0_Q1"":5}",survey,86,1619452,0.0-8.0-1.33,[],,,
,,,,,,,,,,
1086,TestRecordings/dloun.wav,0,audio-button-response,87,1620544,0.0-8.0-0.34,,,,
,,,,,,,,,,
5593,,"{""P0_Q0"":""glone"",""P0_Q1"":3}",survey,88,1626148,0.0-8.0-1.34,[],,,
,,,,,,,,,,
1230,TestRecordings/giit.wav,0,audio-button-response,89,1627384,0.0-8.0-0.35,,,,
,,,,,,,,,,
4819,,"{""P0_Q0"":""geet"",""P0_Q1"":3}",survey,90,1632211,0.0-8.0-1.35,[],,,
,,,,,,,,,,
1648,TestRecordings/pundes.wav,0,audio-button-response,91,1633863,0.0-8.0-0.36,,,,
,,,,,,,,,,
6827,,"{""P0_Q0"":""pumdes"",""P0_Q1"":5}",survey,92,1640699,0.0-8.0-1.36,[],,,
,,,,,,,,,,
1270,TestRecordings/stuun.wav,0,audio-button-response,93,1641975,0.0-8.0-0.37,,,,
,,,,,,,,,,
6731,,"{""P0_Q0"":""stune"",""P0_Q1"":4}",survey,94,1648714,0.0-8.0-1.37,[],,,
,,,,,,,,,,
1070,TestRecordings/tempuk.wav,0,audio-button-response,95,1649790,0.0-8.0-0.38,,,,
,,,,,,,,,,
7194,,"{""P0_Q0"":""tempook"",""P0_Q1"":2}",survey,96,1656994,0.0-8.0-1.38,[],,,
,,,,,,,,,,
1207,TestRecordings/stauk.wav,0,audio-button-response,97,1658206,0.0-8.0-0.39,,,,
,,,,,,,,,,
4787,,"{""P0_Q0"":""stout"",""P0_Q1"":2}",survey,98,1663001,0.0-8.0-1.39,[],,,
,,,,,,,,,,
1247,TestRecordings/ningpum.wav,0,audio-button-response,99,1664254,0.0-8.0-0.40,,,,
,,,,,,,,,,
4779,,"{""P0_Q0"":""nengpon"",""P0_Q1"":2}",survey,100,1669041,0.0-8.0-1.40,[],,,
,,,,,,,,,,
1248,TestRecordings/bem.wav,0,audio-button-response,101,1670294,0.0-8.0-0.41,,,,
,,,,,,,,,,
4248,,"{""P0_Q0"":""bem"",""P0_Q1"":3}",survey,102,1674552,0.0-8.0-1.41,[],,,
,,,,,,,,,,
1631,TestRecordings/trahm.wav,0,audio-button-response,103,1676189,0.0-8.0-0.42,,,,
,,,,,,,,,,
5940,,"{""P0_Q0"":""traum"",""P0_Q1"":5}",survey,104,1682153,0.0-8.0-1.42,[],,,
,,,,,,,,,,
2214,TestRecordings/tep.wav,0,audio-button-response,105,1684374,0.0-8.0-0.43,,,,
,,,,,,,,,,
5152,,"{""P0_Q0"":""tep"",""P0_Q1"":4}",survey,106,1689537,0.0-8.0-1.43,[],,,
,,,,,,,,,,
1198,TestRecordings/mepgut.wav,0,audio-button-response,107,1690741,0.0-8.0-0.44,,,,
,,,,,,,,,,
7242,,"{""P0_Q0"":""memgoop"",""P0_Q1"":3}",survey,108,1697992,0.0-8.0-1.44,[],,,
,,,,,,,,,,
1006,TestRecordings/pmiik.wav,0,audio-button-response,109,1699004,0.0-8.0-0.45,,,,
,,,,,,,,,,
5483,,"{""P0_Q0"":""paneek"",""P0_Q1"":3}",survey,110,1704495,0.0-8.0-1.45,[],,,
,,,,,,,,,,
1344,TestRecordings/twen.wav,0,audio-button-response,111,1705844,0.0-8.0-0.46,,,,
,,,,,,,,,,
4114,,"{""P0_Q0"":""twan"",""P0_Q1"":5}",survey,112,1709968,0.0-8.0-1.46,[],,,
,,,,,,,,,,
1095,TestRecordings/gistum.wav,0,audio-button-response,113,1711068,0.0-8.0-0.47,,,,
,,,,,,,,,,
5227,,"{""P0_Q0"":""gustoon"",""P0_Q1"":2}",survey,114,1716303,0.0-8.0-1.47,[],,,
,,,,,,,,,,
1415,TestRecordings/pemdut.wav,0,audio-button-response,115,1717724,0.0-8.0-0.48,,,,
,,,,,,,,,,
6380,,"{""P0_Q0"":""pumdoot"",""P0_Q1"":2}",survey,116,1724111,0.0-8.0-1.48,[],,,
,,,,,,,,,,
1320,TestRecordings/ntek.wav,0,audio-button-response,117,1725435,0.0-8.0-0.49,,,,
,,,,,,,,,,
4690,,"{""P0_Q0"":""ktec"",""P0_Q1"":3}",survey,118,1730134,0.0-8.0-1.49,[],,,
,,,,,,,,,,
1151,TestRecordings/drain.wav,0,audio-button-response,119,1731291,0.0-8.0-0.50,,,,
,,,,,,,,,,
5146,,"{""P0_Q0"":""drine"",""P0_Q1"":6}",survey,120,1736445,0.0-8.0-1.50,[],,,
,,,,,,,,,,
1023,TestRecordings/tlem.wav,0,audio-button-response,121,1737475,0.0-8.0-0.51,,,,
,,,,,,,,,,
4364,,"{""P0_Q0"":""flan"",""P0_Q1"":6}",survey,122,1741863,0.0-8.0-1.51,[],,,
,,,,,,,,,,
973,TestRecordings/kmaut.wav,0,audio-button-response,123,1742843,0.0-8.0-0.52,,,,
,,,,,,,,,,
7152,,"{""P0_Q0"":""kanout"",""P0_Q1"":2}",survey,124,1750006,0.0-8.0-1.52,[],,,
,,,,,,,,,,
1222,TestRecordings/sengdun.wav,0,audio-button-response,125,1751235,0.0-8.0-0.53,,,,
,,,,,,,,,,
7211,,"{""P0_Q0"":""sangdun"",""P0_Q1"":3}",survey,126,1758453,0.0-8.0-1.53,[],,,
,,,,,,,,,,
1199,TestRecordings/tlumgak.wav,0,audio-button-response,127,1759658,0.0-8.0-0.54,,,,
,,,,,,,,,,
6058,,"{""P0_Q0"":""templack"",""P0_Q1"":2}",survey,128,1765725,0.0-8.0-1.54,[],,,
,,,,,,,,,,
1062,TestRecordings/bepgik.wav,0,audio-button-response,129,1766794,0.0-8.0-0.55,,,,
,,,,,,,,,,
6618,,"{""P0_Q0"":""bepepkick"",""P0_Q1"":2}",survey,130,1773421,0.0-8.0-1.55,[],,,
,,,,,,,,,,
1167,TestRecordings/tlasdung.wav,0,audio-button-response,131,1774593,0.0-8.0-0.56,,,,
,,,,,,,,,,
5923,,"{""P0_Q0"":""flastone"",""P0_Q1"":3}",survey,132,1780524,0.0-8.0-1.56,[],,,
,,,,,,,,,,
983,TestRecordings/mkait.wav,0,audio-button-response,133,1781513,0.0-8.0-0.57,,,,
,,,,,,,,,,
4404,,"{""P0_Q0"":""nkite"",""P0_Q1"":3}",survey,134,1785924,0.0-8.0-1.57,[],,,
,,,,,,,,,,
1014,TestRecordings/pwam.wav,0,audio-button-response,135,1786944,0.0-8.0-0.58,,,,
,,,,,,,,,,
5972,,"{""P0_Q0"":""twam"",""P0_Q1"":6}",survey,136,1792926,0.0-8.0-1.58,[],,,
,,,,,,,,,,
962,TestRecordings/pwuk.wav,0,audio-button-response,137,1793896,0.0-8.0-0.59,,,,
,,,,,,,,,,
5318,,"{""P0_Q0"":""pok"",""P0_Q1"":2}",survey,138,1799245,0.0-8.0-1.59,[],,,
,,,,,,,,,,
5228,, ,html-keyboard-response,139,1804473,0.0-9.0,,,,
,,,,,,,,,,
71426,,"{""P0_Q0"":""22"",""P0_Q1"":""female"",""P0_Q2"":""yes"",""P0_Q3"":""n/a"",""P0_Q4"":""3 years of spanish in high school (14-16), one semester of french in college (20)"",""P0_Q5"":""explained above in ages""}",survey,140,1875914,0.0-10.0,[],,,
,,,,,,,,,,
69074,"<p style=""font-size:30px"">The experiment has ended</p><p style=""font-size:30px"",lang=""ko"">Thanks for participating in it!</p>", ,html-keyboard-response,141,1944988,0.0-11.0,,,,