rt,stimulus,response,trial_type,trial_index,time_elapsed,internal_node_id,accuracy,PracticeTest,ConsonantSequence,Grammaticality
,,,,,,,,,,
860752,"<p style=""font-size:30px"">Welcome to the experiment</p><p>Press spacebar to continue</p>", ,html-keyboard-response,0,860821,0.0-0.0,,,,
,,,,,,,,,,
2643,"<p style=""font-size:30px"">Please ensure that your headphones are on correctly</p><p>Press spacebar to continue</p>", ,html-keyboard-response,1,863466,0.0-1.0,,,,
,,,,,,,,,,
5626,"<p style=""font-size:30px"">In this experiment, you will listen to nonsense words</p><p style=""font-size:30px"",lang=""ko"">Your task is to write down the word and then rate how good an English word it is</p><p>Press spacebar to continue</p>", ,html-keyboard-response,2,869092,0.0-2.0,,,,
,,,,,,,,,,
1919,"<p style=""font-size:30px"">Let's practice with some nonsense words so that you understand the task</p><p>Press spacebar to continue</p>", ,html-keyboard-response,3,871012,0.0-3.0,,,,
,,,,,,,,,,
3145,PracticeRecordings/bupkes.wav,0,audio-button-response,4,874996,0.0-4.0-0.0,,,,
,,,,,,,,,,
5034,bupkes,"{""P0_Q0"":""bupkiss""}",survey,5,880074,0.0-4.0-1.0,[],practice,NA,TRUE
,,,,,,,,,,
3888,"<p style=""font-size:30px""> The word you heard is <br> ""bupkess"" <br> It may sound different depending on the person. <br> Write it down as it sounds.</p><p lang=""ko"">Press spacebar to continue</p>", ,html-keyboard-response,6,883964,0.0-4.0-2.0,,,,
,,,,,,,,,,
2631,PracticeRecordings/dringgep.wav,0,audio-button-response,7,886604,0.0-4.0-0.1,,,,
,,,,,,,,,,
5477,dringep,"{""P0_Q0"":""dringep""}",survey,8,892096,0.0-4.0-1.1,[],practice,NA,FALSE
,,,,,,,,,,
3338,"<p style=""font-size:30px""> The word you heard is <br> ""dringep"" <br> It may sound different depending on the person. <br> Write it down as it sounds.</p><p lang=""ko"">Press spacebar to continue</p>", ,html-keyboard-response,9,895436,0.0-4.0-2.1,,,,
,,,,,,,,,,
1668,PracticeRecordings/dunggem.wav,0,audio-button-response,10,897115,0.0-4.0-0.2,,,,
,,,,,,,,,,
4084,dunggem,"{""P0_Q0"":""dungem""}",survey,11,901209,0.0-4.0-1.2,[],practice,NA,FALSE
,,,,,,,,,,
4762,"<p style=""font-size:30px""> The word you heard is <br> ""dungem"" (or) ""doongem"" <br> It may sound different depending on the person. <br> Write it down as it sounds.</p><p lang=""ko"">Press spacebar to continue</p>", ,html-keyboard-response,12,905972,0.0-4.0-2.2,,,,
,,,,,,,,,,
1045,PracticeRecordings/deip.wav,0,audio-button-response,13,907027,0.0-4.0-0.3,,,,
,,,,,,,,,,
3656,deip,"{""P0_Q0"":""dape""}",survey,14,910695,0.0-4.0-1.3,[],practice,NA,FALSE
,,,,,,,,,,
1636,"<p style=""font-size:30px""> The word you heard is <br> ""dape"" <br> It may sound different depending on the person. <br> Write it down as it sounds.</p><p lang=""ko"">Press spacebar to continue</p>", ,html-keyboard-response,15,912331,0.0-4.0-2.3,,,,
,,,,,,,,,,
1478,, ,html-keyboard-response,16,913811,0.0-5.0,,,,
,,,,,,,,,,
3424,"<p style=""font-size:30px"">Now let's move on to the actual experiment.</p><p style=""font-size:30px"",lang=""ko"">During the experiment, you will hear each of the nonce words only once.", ,html-keyboard-response,17,917235,0.0-6.0,,,,
,,,,,,,,,,
3360,"<p style=""font-size:30px"">After writing down the word, you will also rate the nonsense word you heard as a possible word of American English.</p><p>Press spacebar to continue</p>", ,html-keyboard-response,18,920595,0.0-7.0,,,,
,,,,,,,,,,
2242,TestRecordings/tlipgat.wav,0,audio-button-response,19,922850,0.0-8.0-0.0,,,,
,,,,,,,,,,
10356,,"{""P0_Q0"":""clipgat"",""P0_Q1"":3}",survey,20,933223,0.0-8.0-1.0,[],,,
,,,,,,,,,,
1961,TestRecordings/bepgik.wav,0,audio-button-response,21,935194,0.0-8.0-0.1,,,,
,,,,,,,,,,
7774,,"{""P0_Q0"":""bepgick"",""P0_Q1"":3}",survey,22,942983,0.0-8.0-1.1,[],,,
,,,,,,,,,,
1258,TestRecordings/gistum.wav,0,audio-button-response,23,944250,0.0-8.0-0.2,,,,
,,,,,,,,,,
6384,,"{""P0_Q0"":""gistoon"",""P0_Q1"":4}",survey,24,950647,0.0-8.0-1.2,[],,,
,,,,,,,,,,
1363,TestRecordings/tlumgak.wav,0,audio-button-response,25,952018,0.0-8.0-0.3,,,,
,,,,,,,,,,
8873,,"{""P0_Q0"":""tlumgack"",""P0_Q1"":2}",survey,26,960902,0.0-8.0-1.3,[],,,
,,,,,,,,,,
1281,TestRecordings/tep.wav,0,audio-button-response,27,962193,0.0-8.0-0.4,,,,
,,,,,,,,,,
5289,,"{""P0_Q0"":""tepp"",""P0_Q1"":6}",survey,28,967494,0.0-8.0-1.4,[],,,
,,,,,,,,,,
1939,TestRecordings/tlasdung.wav,0,audio-button-response,29,969441,0.0-8.0-0.5,,,,
,,,,,,,,,,
6954,,"{""P0_Q0"":""clasgtung"",""P0_Q1"":2}",survey,30,976407,0.0-8.0-1.5,[],,,
,,,,,,,,,,
867,TestRecordings/giit.wav,0,audio-button-response,31,977281,0.0-8.0-0.6,,,,
,,,,,,,,,,
3704,,"{""P0_Q0"":""geet"",""P0_Q1"":6}",survey,32,980997,0.0-8.0-1.6,[],,,
,,,,,,,,,,
1219,TestRecordings/dlisbep.wav,0,audio-button-response,33,982226,0.0-8.0-0.7,,,,
,,,,,,,,,,
9386,,"{""P0_Q0"":""disbepp"",""P0_Q1"":2}",survey,34,991621,0.0-8.0-1.7,[],,,
,,,,,,,,,,
1258,TestRecordings/tlemkun.wav,0,audio-button-response,35,992889,0.0-8.0-0.8,,,,
,,,,,,,,,,
9171,,"{""P0_Q0"":""tlemkunn"",""P0_Q1"":2}",survey,36,1002070,0.0-8.0-1.8,[],,,
,,,,,,,,,,
1183,TestRecordings/nutbim.wav,0,audio-button-response,37,1003265,0.0-8.0-0.9,,,,
,,,,,,,,,,
5289,,"{""P0_Q0"":""nipbem"",""P0_Q1"":2}",survey,38,1008565,0.0-8.0-1.9,[],,,
,,,,,,,,,,
1236,TestRecordings/punseng.wav,0,audio-button-response,39,1009809,0.0-8.0-0.10,,,,
,,,,,,,,,,
5744,,"{""P0_Q0"":""punsing"",""P0_Q1"":6}",survey,40,1015565,0.0-8.0-1.10,[],,,
,,,,,,,,,,
1068,TestRecordings/tempuk.wav,0,audio-button-response,41,1016642,0.0-8.0-0.11,,,,
,,,,,,,,,,
7779,,"{""P0_Q0"":""tempkook"",""P0_Q1"":5}",survey,42,1024428,0.0-8.0-1.11,[],,,
,,,,,,,,,,
1227,TestRecordings/tlem.wav,0,audio-button-response,43,1025665,0.0-8.0-0.12,,,,
,,,,,,,,,,
6475,,"{""P0_Q0"":""tlem"",""P0_Q1"":4}",survey,44,1032148,0.0-8.0-1.12,[],,,
,,,,,,,,,,
1285,TestRecordings/trindes.wav,0,audio-button-response,45,1033441,0.0-8.0-0.13,,,,
,,,,,,,,,,
8876,,"{""P0_Q0"":""trindess"",""P0_Q1"":5}",survey,46,1042325,0.0-8.0-1.13,[],,,
,,,,,,,,,,
1253,TestRecordings/twas.wav,0,audio-button-response,47,1043585,0.0-8.0-0.14,,,,
,,,,,,,,,,
3500,,"{""P0_Q0"":""twass"",""P0_Q1"":7}",survey,48,1047092,0.0-8.0-1.14,[],,,
,,,,,,,,,,
1627,TestRecordings/trahm.wav,0,audio-button-response,49,1048729,0.0-8.0-0.15,,,,
,,,,,,,,,,
3764,,"{""P0_Q0"":""trum"",""P0_Q1"":6}",survey,50,1052500,0.0-8.0-1.15,[],,,
,,,,,,,,,,
1260,TestRecordings/gatkun.wav,0,audio-button-response,51,1053769,0.0-8.0-0.16,,,,
,,,,,,,,,,
8059,,"{""P0_Q0"":""gattkun"",""P0_Q1"":2}",survey,52,1061835,0.0-8.0-1.16,[],,,
,,,,,,,,,,
1117,TestRecordings/twen.wav,0,audio-button-response,53,1062961,0.0-8.0-0.17,,,,
,,,,,,,,,,
14388,,"{""P0_Q0"":""twing"",""P0_Q1"":6}",survey,54,1077356,0.0-8.0-1.17,[],,,
,,,,,,,,,,
858,TestRecordings/bem.wav,0,audio-button-response,55,1078265,0.0-8.0-0.18,,,,
,,,,,,,,,,
5484,,"{""P0_Q0"":""bem"",""P0_Q1"":5}",survey,56,1083756,0.0-8.0-1.18,[],,,
,,,,,,,,,,
1021,TestRecordings/nangdup.wav,0,audio-button-response,57,1084784,0.0-8.0-0.19,,,,
,,,,,,,,,,
7451,,"{""P0_Q0"":""nangdoop"",""P0_Q1"":2}",survey,58,1092244,0.0-8.0-1.19,[],,,
,,,,,,,,,,
965,TestRecordings/pwuk.wav,0,audio-button-response,59,1093216,0.0-8.0-0.20,,,,
,,,,,,,,,,
5893,,"{""P0_Q0"":""pwook"",""P0_Q1"":2}",survey,60,1099115,0.0-8.0-1.20,[],,,
,,,,,,,,,,
869,TestRecordings/ndeip.wav,0,audio-button-response,61,1099992,0.0-8.0-0.21,,,,
,,,,,,,,,,
4179,,"{""P0_Q0"":""dape"",""P0_Q1"":6}",survey,62,1104179,0.0-8.0-1.21,[],,,
,,,,,,,,,,
1013,TestRecordings/kutpim.wav,0,audio-button-response,63,1105200,0.0-8.0-0.22,,,,
,,,,,,,,,,
6298,,"{""P0_Q0"":""kuppim"",""P0_Q1"":2}",survey,64,1111507,0.0-8.0-1.22,[],,,
,,,,,,,,,,
1076,TestRecordings/mgit.wav,0,audio-button-response,65,1112592,0.0-8.0-0.23,,,,
,,,,,,,,,,
9660,,"{""P0_Q0"":""ngit"",""P0_Q1"":2}",survey,66,1122259,0.0-8.0-1.23,[],,,
,,,,,,,,,,
822,TestRecordings/kmaut.wav,0,audio-button-response,67,1123088,0.0-8.0-0.24,,,,
,,,,,,,,,,
4379,,"{""P0_Q0"":""knought"",""P0_Q1"":7}",survey,68,1127475,0.0-8.0-1.24,[],,,
,,,,,,,,,,
898,TestRecordings/pemdut.wav,0,audio-button-response,69,1128383,0.0-8.0-0.25,,,,
,,,,,,,,,,
8227,,"{""P0_Q0"":""pemdoot"",""P0_Q1"":2}",survey,70,1136619,0.0-8.0-1.25,[],,,
,,,,,,,,,,
1046,TestRecordings/drantung.wav,0,audio-button-response,71,1137671,0.0-8.0-0.26,,,,
,,,,,,,,,,
6141,,"{""P0_Q0"":""drangtung"",""P0_Q1"":2}",survey,72,1143819,0.0-8.0-1.26,[],,,
,,,,,,,,,,
1005,TestRecordings/tlepgim.wav,0,audio-button-response,73,1144832,0.0-8.0-0.27,,,,
,,,,,,,,,,
5995,,"{""P0_Q0"":""clepgin"",""P0_Q1"":2}",survey,74,1150834,0.0-8.0-1.27,[],,,
,,,,,,,,,,
860,TestRecordings/drain.wav,0,audio-button-response,75,1151703,0.0-8.0-0.28,,,,
,,,,,,,,,,
3300,,"{""P0_Q0"":""drine"",""P0_Q1"":7}",survey,76,1155010,0.0-8.0-1.28,[],,,
,,,,,,,,,,
949,TestRecordings/pmeit.wav,0,audio-button-response,77,1155967,0.0-8.0-0.29,,,,
,,,,,,,,,,
8148,,"{""P0_Q0"":""pnagte"",""P0_Q1"":5}",survey,78,1164122,0.0-8.0-1.29,[],,,
,,,,,,,,,,
894,TestRecordings/mepgut.wav,0,audio-button-response,79,1165023,0.0-8.0-0.30,,,,
,,,,,,,,,,
6114,,"{""P0_Q0"":""nepgoot"",""P0_Q1"":2}",survey,80,1171146,0.0-8.0-1.30,[],,,
,,,,,,,,,,
1005,TestRecordings/pwam.wav,0,audio-button-response,81,1172159,0.0-8.0-0.31,,,,
,,,,,,,,,,
3436,,"{""P0_Q0"":""pwam"",""P0_Q1"":6}",survey,82,1175602,0.0-8.0-1.31,[],,,
,,,,,,,,,,
1021,TestRecordings/stahm.wav,0,audio-button-response,83,1176631,0.0-8.0-0.32,,,,
,,,,,,,,,,
5483,,"{""P0_Q0"":""staum"",""P0_Q1"":5}",survey,84,1182121,0.0-8.0-1.32,[],,,
,,,,,,,,,,
844,TestRecordings/ntek.wav,0,audio-button-response,85,1182975,0.0-8.0-0.33,,,,
,,,,,,,,,,
7716,,"{""P0_Q0"":""ngtech"",""P0_Q1"":2}",survey,86,1190715,0.0-8.0-1.33,[],,,
,,,,,,,,,,
780,TestRecordings/tloum.wav,0,audio-button-response,87,1191503,0.0-8.0-0.34,,,,
,,,,,,,,,,
4936,,"{""P0_Q0"":""tlaum"",""P0_Q1"":2}",survey,88,1196451,0.0-8.0-1.34,[],,,
,,,,,,,,,,
915,TestRecordings/dlemkus.wav,0,audio-button-response,89,1197375,0.0-8.0-0.35,,,,
,,,,,,,,,,
4954,,"{""P0_Q0"":""blemkuss"",""P0_Q1"":2}",survey,90,1202339,0.0-8.0-1.35,[],,,
,,,,,,,,,,
772,TestRecordings/gipsus.wav,0,audio-button-response,91,1203118,0.0-8.0-0.36,,,,
,,,,,,,,,,
7499,,"{""P0_Q0"":""gipsuss"",""P0_Q1"":1}",survey,92,1210626,0.0-8.0-1.36,[],,,
,,,,,,,,,,
876,TestRecordings/pundes.wav,0,audio-button-response,93,1211510,0.0-8.0-0.37,,,,
,,,,,,,,,,
7930,,"{""P0_Q0"":""pundess"",""P0_Q1"":3}",survey,94,1219451,0.0-8.0-1.37,[],,,
,,,,,,,,,,
836,TestRecordings/stauk.wav,0,audio-button-response,95,1220294,0.0-8.0-0.38,,,,
,,,,,,,,,,
7696,,"{""P0_Q0"":""staught"",""P0_Q1"":6}",survey,96,1228001,0.0-8.0-1.38,[],,,
,,,,,,,,,,
718,TestRecordings/kmeip.wav,0,audio-button-response,97,1228726,0.0-8.0-0.39,,,,
,,,,,,,,,,
4754,,"{""P0_Q0"":""knape"",""P0_Q1"":5}",survey,98,1233490,0.0-8.0-1.39,[],,,
,,,,,,,,,,
820,TestRecordings/mkait.wav,0,audio-button-response,99,1234318,0.0-8.0-0.40,,,,
,,,,,,,,,,
6194,,"{""P0_Q0"":""mckite"",""P0_Q1"":5}",survey,100,1240520,0.0-8.0-1.40,[],,,
,,,,,,,,,,
861,TestRecordings/skain.wav,0,audio-button-response,101,1241391,0.0-8.0-0.41,,,,
,,,,,,,,,,
2836,,"{""P0_Q0"":""skine"",""P0_Q1"":7}",survey,102,1244250,0.0-8.0-1.41,[],,,
,,,,,,,,,,
948,TestRecordings/tisbeng.wav,0,audio-button-response,103,1245206,0.0-8.0-0.42,,,,
,,,,,,,,,,
7433,,"{""P0_Q0"":""tusbing"",""P0_Q1"":1}",survey,104,1252650,0.0-8.0-1.42,[],,,
,,,,,,,,,,
1091,TestRecordings/paim.wav,0,audio-button-response,105,1253750,0.0-8.0-0.43,,,,
,,,,,,,,,,
5673,,"{""P0_Q0"":""oppime"",""P0_Q1"":5}",survey,106,1259433,0.0-8.0-1.43,[],,,
,,,,,,,,,,
1037,TestRecordings/gitpes.wav,0,audio-button-response,107,1260477,0.0-8.0-0.44,,,,
,,,,,,,,,,
4770,,"{""P0_Q0"":""gitpess"",""P0_Q1"":2}",survey,108,1265257,0.0-8.0-1.44,[],,,
,,,,,,,,,,
1077,TestRecordings/drikteng.wav,0,audio-button-response,109,1266342,0.0-8.0-0.45,,,,
,,,,,,,,,,
8524,,"{""P0_Q0"":""drickteng"",""P0_Q1"":1}",survey,110,1274873,0.0-8.0-1.45,[],,,
,,,,,,,,,,
916,TestRecordings/suntem.wav,0,audio-button-response,111,1275797,0.0-8.0-0.46,,,,
,,,,,,,,,,
7252,,"{""P0_Q0"":""soontem"",""P0_Q1"":2}",survey,112,1283057,0.0-8.0-1.46,[],,,
,,,,,,,,,,
797,TestRecordings/nboup.wav,0,audio-button-response,113,1283862,0.0-8.0-0.47,,,,
,,,,,,,,,,
6548,,"{""P0_Q0"":""nbope"",""P0_Q1"":3}",survey,114,1290416,0.0-8.0-1.47,[],,,
,,,,,,,,,,
725,TestRecordings/dlahm.wav,0,audio-button-response,115,1291149,0.0-8.0-0.48,,,,
,,,,,,,,,,
3652,,"{""P0_Q0"":""glaum"",""P0_Q1"":6}",survey,116,1294809,0.0-8.0-1.48,[],,,
,,,,,,,,,,
844,TestRecordings/drakpum.wav,0,audio-button-response,117,1295662,0.0-8.0-0.49,,,,
,,,,,,,,,,
5722,,"{""P0_Q0"":""drackpum"",""P0_Q1"":2}",survey,118,1301392,0.0-8.0-1.49,[],,,
,,,,,,,,,,
837,TestRecordings/tlik.wav,0,audio-button-response,119,1302237,0.0-8.0-0.50,,,,
,,,,,,,,,,
5035,,"{""P0_Q0"":""tclick"",""P0_Q1"":2}",survey,120,1307298,0.0-8.0-1.50,[],,,
,,,,,,,,,,
1219,TestRecordings/drumbeng.wav,0,audio-button-response,121,1308525,0.0-8.0-0.51,,,,
,,,,,,,,,,
4585,,"{""P0_Q0"":""drungbing"",""P0_Q1"":2}",survey,122,1313121,0.0-8.0-1.51,[],,,
,,,,,,,,,,
722,TestRecordings/gup.wav,0,audio-button-response,123,1313853,0.0-8.0-0.52,,,,
,,,,,,,,,,
6178,,"{""P0_Q0"":""guup"",""P0_Q1"":5}",survey,124,1320041,0.0-8.0-1.52,[],,,
,,,,,,,,,,
844,TestRecordings/stuun.wav,0,audio-button-response,125,1320893,0.0-8.0-0.53,,,,
,,,,,,,,,,
3802,,"{""P0_Q0"":""stoon"",""P0_Q1"":7}",survey,126,1324704,0.0-8.0-1.53,[],,,
,,,,,,,,,,
1085,TestRecordings/sengdun.wav,0,audio-button-response,127,1325797,0.0-8.0-0.54,,,,
,,,,,,,,,,
4818,,"{""P0_Q0"":""singdeng"",""P0_Q1"":1}",survey,128,1330624,0.0-8.0-1.54,[],,,
,,,,,,,,,,
692,TestRecordings/dmut.wav,0,audio-button-response,129,1331325,0.0-8.0-0.55,,,,
,,,,,,,,,,
19195,,"{""P0_Q0"":""dmoutt"",""P0_Q1"":4}",survey,130,1350528,0.0-8.0-1.55,[],,,
,,,,,,,,,,
1061,TestRecordings/dloun.wav,0,audio-button-response,131,1351597,0.0-8.0-0.56,,,,
,,,,,,,,,,
3891,,"{""P0_Q0"":""dlone"",""P0_Q1"":5}",survey,132,1355495,0.0-8.0-1.56,[],,,
,,,,,,,,,,
1045,TestRecordings/ningpum.wav,0,audio-button-response,133,1356548,0.0-8.0-0.57,,,,
,,,,,,,,,,
6929,,"{""P0_Q0"":""ningpung"",""P0_Q1"":3}",survey,134,1363485,0.0-8.0-1.57,[],,,
,,,,,,,,,,
821,TestRecordings/drustet.wav,0,audio-button-response,135,1364316,0.0-8.0-0.58,,,,
,,,,,,,,,,
4284,,"{""P0_Q0"":""dristet"",""P0_Q1"":5}",survey,136,1368625,0.0-8.0-1.58,[],,,
,,,,,,,,,,
859,TestRecordings/pmiik.wav,0,audio-button-response,137,1369493,0.0-8.0-0.59,,,,
,,,,,,,,,,
5938,,"{""P0_Q0"":""pneek"",""P0_Q1"":4}",survey,138,1375441,0.0-8.0-1.59,[],,,
,,,,,,,,,,
3060,, ,html-keyboard-response,139,1378501,0.0-9.0,,,,
,,,,,,,,,,
64316,,"{""P0_Q0"":""19"",""P0_Q1"":""female"",""P0_Q2"":""yes"",""P0_Q3"":""spanish"",""P0_Q4"":""18 years old, one year"",""P0_Q5"":""very brief overview from MSU Spanish curriculum; very basic knowledge of spanish, not conversational""}",survey,140,1442831,0.0-10.0,[],,,
,,,,,,,,,,
328435,"<p style=""font-size:30px"">The experiment has ended</p><p style=""font-size:30px"",lang=""ko"">Thanks for participating in it!</p>",control,html-keyboard-response,141,1771264,0.0-11.0,,,,