rt,stimulus,response,trial_type,trial_index,time_elapsed,internal_node_id,accuracy,PracticeTest,ConsonantSequence,Grammaticality
,,,,,,,,,,
1320,"<p style=""font-size:30px"">Welcome to the experiment</p><p>Press spacebar to continue</p>", ,html-keyboard-response,0,1322,0.0-0.0,,,,
,,,,,,,,,,
464,"<p style=""font-size:30px"">Please ensure that your headphones are on correctly</p><p>Press spacebar to continue</p>", ,html-keyboard-response,1,1786,0.0-1.0,,,,
,,,,,,,,,,
543,"<p style=""font-size:30px"">In this experiment, you will listen to nonsense words</p><p style=""font-size:30px"",lang=""ko"">Your task is to write down the word and then rate how good an English word it is</p><p>Press spacebar to continue</p>", ,html-keyboard-response,2,2330,0.0-2.0,,,,
,,,,,,,,,,
1128,"<p style=""font-size:30px"">Let's practice with some nonsense words so that you understand the task</p><p>Press spacebar to continue</p>", ,html-keyboard-response,3,3458,0.0-3.0,,,,
,,,,,,,,,,
2070,PracticeRecordings/bupkes.wav,0,audio-button-response,4,5537,0.0-4.0-0.0,,,,
,,,,,,,,,,
7908,bupkes,"{""P0_Q0"":""bupkiss""}",survey,5,13480,0.0-4.0-1.0,[],practice,NA,TRUE
,,,,,,,,,,
5498,"<p style=""font-size:30px""> The word you heard is <br> ""bupkess"" <br> It may sound different depending on the person. <br> Write it down as it sounds.</p><p lang=""ko"">Press spacebar to continue</p>", ,html-keyboard-response,6,18978,0.0-4.0-2.0,,,,
,,,,,,,,,,
3413,PracticeRecordings/dringgep.wav,0,audio-button-response,7,22401,0.0-4.0-0.1,,,,
,,,,,,,,,,
5149,dringep,"{""P0_Q0"":""gringap""}",survey,8,27563,0.0-4.0-1.1,[],practice,NA,FALSE
,,,,,,,,,,
2996,"<p style=""font-size:30px""> The word you heard is <br> ""dringep"" <br> It may sound different depending on the person. <br> Write it down as it sounds.</p><p lang=""ko"">Press spacebar to continue</p>", ,html-keyboard-response,9,30560,0.0-4.0-2.1,,,,
,,,,,,,,,,
2109,PracticeRecordings/dunggem.wav,0,audio-button-response,10,32679,0.0-4.0-0.2,,,,
,,,,,,,,,,
6175,dunggem,"{""P0_Q0"":""dungam""}",survey,11,38866,0.0-4.0-1.2,[],practice,NA,FALSE
,,,,,,,,,,
5013,"<p style=""font-size:30px""> The word you heard is <br> ""dungem"" (or) ""doongem"" <br> It may sound different depending on the person. <br> Write it down as it sounds.</p><p lang=""ko"">Press spacebar to continue</p>", ,html-keyboard-response,12,43879,0.0-4.0-2.2,,,,
,,,,,,,,,,
1085,PracticeRecordings/deip.wav,0,audio-button-response,13,44973,0.0-4.0-0.3,,,,
,,,,,,,,,,
4881,deip,"{""P0_Q0"":""dape""}",survey,14,49865,0.0-4.0-1.3,[],practice,NA,FALSE
,,,,,,,,,,
1580,"<p style=""font-size:30px""> The word you heard is <br> ""dape"" <br> It may sound different depending on the person. <br> Write it down as it sounds.</p><p lang=""ko"">Press spacebar to continue</p>", ,html-keyboard-response,15,51446,0.0-4.0-2.3,,,,
,,,,,,,,,,
2071,, ,html-keyboard-response,16,53518,0.0-5.0,,,,
,,,,,,,,,,
2712,"<p style=""font-size:30px"">Now let's move on to the actual experiment.</p><p style=""font-size:30px"",lang=""ko"">During the experiment, you will hear each of the nonce words only once.", ,html-keyboard-response,17,56230,0.0-6.0,,,,
,,,,,,,,,,
2414,"<p style=""font-size:30px"">After writing down the word, you will also rate the nonsense word you heard as a possible word of American English.</p><p>Press spacebar to continue</p>", ,html-keyboard-response,18,58646,0.0-7.0,,,,
,,,,,,,,,,
1341,TestRecordings/giit.wav,0,audio-button-response,19,59996,0.0-8.0-0.0,,,,
,,,,,,,,,,
9557,,"{""P0_Q0"":""geet"",""P0_Q1"":2}",survey,20,69567,0.0-8.0-1.0,[],,,
,,,,,,,,,,
1780,TestRecordings/bepgik.wav,0,audio-button-response,21,71355,0.0-8.0-0.1,,,,
,,,,,,,,,,
10786,,"{""P0_Q0"":""bepkeep"",""P0_Q1"":3}",survey,22,82164,0.0-8.0-1.1,[],,,
,,,,,,,,,,
4102,TestRecordings/dlisbep.wav,0,audio-button-response,23,86275,0.0-8.0-0.2,,,,
,,,,,,,,,,
7968,,"{""P0_Q0"":""dolicbep"",""P0_Q1"":3}",survey,24,94263,0.0-8.0-1.2,[],,,
,,,,,,,,,,
1362,TestRecordings/twen.wav,0,audio-button-response,25,95635,0.0-8.0-0.3,,,,
,,,,,,,,,,
8325,,"{""P0_Q0"":""twean"",""P0_Q1"":5}",survey,26,103975,0.0-8.0-1.3,[],,,
,,,,,,,,,,
1555,TestRecordings/tlepgim.wav,0,audio-button-response,27,105539,0.0-8.0-0.4,,,,
,,,,,,,,,,
4816,,"{""P0_Q0"":""klepkin"",""P0_Q1"":4}",survey,28,110366,0.0-8.0-1.4,[],,,
,,,,,,,,,,
1179,TestRecordings/pwam.wav,0,audio-button-response,29,111554,0.0-8.0-0.5,,,,
,,,,,,,,,,
4153,,"{""P0_Q0"":""twam"",""P0_Q1"":3}",survey,30,115718,0.0-8.0-1.5,[],,,
,,,,,,,,,,
1050,TestRecordings/skain.wav,0,audio-button-response,31,116778,0.0-8.0-0.6,,,,
,,,,,,,,,,
3329,,"{""P0_Q0"":""skine"",""P0_Q1"":6}",survey,32,120118,0.0-8.0-1.6,[],,,
,,,,,,,,,,
1060,TestRecordings/dmut.wav,0,audio-button-response,33,121186,0.0-8.0-0.7,,,,
,,,,,,,,,,
4442,,"{""P0_Q0"":""demoot"",""P0_Q1"":3}",survey,34,125637,0.0-8.0-1.7,[],,,
,,,,,,,,,,
939,TestRecordings/mkait.wav,0,audio-button-response,35,126586,0.0-8.0-0.8,,,,
,,,,,,,,,,
4132,,"{""P0_Q0"":""makite"",""P0_Q1"":3}",survey,36,130725,0.0-8.0-1.8,[],,,
,,,,,,,,,,
931,TestRecordings/drakpum.wav,0,audio-button-response,37,131666,0.0-8.0-0.9,,,,
,,,,,,,,,,
5024,,"{""P0_Q0"":""drakpoon"",""P0_Q1"":3}",survey,38,136697,0.0-8.0-1.9,[],,,
,,,,,,,,,,
1229,TestRecordings/ningpum.wav,0,audio-button-response,39,137937,0.0-8.0-0.10,,,,
,,,,,,,,,,
5079,,"{""P0_Q0"":""nigpoon"",""P0_Q1"":2}",survey,40,143038,0.0-8.0-1.10,[],,,
,,,,,,,,,,
1051,TestRecordings/stahm.wav,0,audio-button-response,41,144097,0.0-8.0-0.11,,,,
,,,,,,,,,,
3544,,"{""P0_Q0"":""stom"",""P0_Q1"":5}",survey,42,147654,0.0-8.0-1.11,[],,,
,,,,,,,,,,
1195,TestRecordings/kmaut.wav,0,audio-button-response,43,148857,0.0-8.0-0.12,,,,
,,,,,,,,,,
7033,,"{""P0_Q0"":""kanought"",""P0_Q1"":4}",survey,44,155901,0.0-8.0-1.12,[],,,
,,,,,,,,,,
1147,TestRecordings/tloum.wav,0,audio-button-response,45,157057,0.0-8.0-0.13,,,,
,,,,,,,,,,
6761,,"{""P0_Q0"":""kplum"",""P0_Q1"":2}",survey,46,163828,0.0-8.0-1.13,[],,,
,,,,,,,,,,
1004,TestRecordings/pmiik.wav,0,audio-button-response,47,164841,0.0-8.0-0.14,,,,
,,,,,,,,,,
5483,,"{""P0_Q0"":""paneek"",""P0_Q1"":3}",survey,48,170332,0.0-8.0-1.14,[],,,
,,,,,,,,,,
1058,TestRecordings/ndeip.wav,0,audio-button-response,49,171400,0.0-8.0-0.15,,,,
,,,,,,,,,,
4232,,"{""P0_Q0"":""madape"",""P0_Q1"":2}",survey,50,175643,0.0-8.0-1.15,[],,,
,,,,,,,,,,
2125,TestRecordings/tlasdung.wav,0,audio-button-response,51,177777,0.0-8.0-0.16,,,,
,,,,,,,,,,
6091,,"{""P0_Q0"":""klastone"",""P0_Q1"":3}",survey,52,183876,0.0-8.0-1.16,[],,,
,,,,,,,,,,
1029,TestRecordings/mgit.wav,0,audio-button-response,53,184912,0.0-8.0-0.17,,,,
,,,,,,,,,,
6197,,"{""P0_Q0"":""magite"",""P0_Q1"":5}",survey,54,191116,0.0-8.0-1.17,[],,,
,,,,,,,,,,
1092,TestRecordings/kmeip.wav,0,audio-button-response,55,192216,0.0-8.0-0.18,,,,
,,,,,,,,,,
6361,,"{""P0_Q0"":""kamape"",""P0_Q1"":2}",survey,56,198584,0.0-8.0-1.18,[],,,
,,,,,,,,,,
3550,TestRecordings/pemdut.wav,0,audio-button-response,57,202143,0.0-8.0-0.19,,,,
,,,,,,,,,,
4732,,"{""P0_Q0"":""pemdot"",""P0_Q1"":6}",survey,58,206901,0.0-8.0-1.19,[],,,
,,,,,,,,,,
1018,TestRecordings/tempuk.wav,0,audio-button-response,59,207927,0.0-8.0-0.20,,,,
,,,,,,,,,,
7311,,"{""P0_Q0"":""tempook"",""P0_Q1"":4}",survey,60,215251,0.0-8.0-1.20,[],,,
,,,,,,,,,,
1010,TestRecordings/nutbim.wav,0,audio-button-response,61,216271,0.0-8.0-0.21,,,,
,,,,,,,,,,
9411,,"{""P0_Q0"":""nootbem"",""P0_Q1"":1}",survey,62,225691,0.0-8.0-1.21,[],,,
,,,,,,,,,,
1827,TestRecordings/kutpim.wav,0,audio-button-response,63,227527,0.0-8.0-0.22,,,,
,,,,,,,,,,
7201,,"{""P0_Q0"":""cookpem"",""P0_Q1"":2}",survey,64,234737,0.0-8.0-1.22,[],,,
,,,,,,,,,,
1292,TestRecordings/dlahm.wav,0,audio-button-response,65,236038,0.0-8.0-0.23,,,,
,,,,,,,,,,
4626,,"{""P0_Q0"":""glom"",""P0_Q1"":3}",survey,66,240673,0.0-8.0-1.23,[],,,
,,,,,,,,,,
1500,TestRecordings/nangdup.wav,0,audio-button-response,67,242182,0.0-8.0-0.24,,,,
,,,,,,,,,,
5802,,"{""P0_Q0"":""nendoop"",""P0_Q1"":3}",survey,68,247994,0.0-8.0-1.24,[],,,
,,,,,,,,,,
1156,TestRecordings/twas.wav,0,audio-button-response,69,249158,0.0-8.0-0.25,,,,
,,,,,,,,,,
16840,,"{""P0_Q0"":""twasce"",""P0_Q1"":3}",survey,70,266006,0.0-8.0-1.25,[],,,
,,,,,,,,,,
3399,TestRecordings/suntem.wav,0,audio-button-response,71,269413,0.0-8.0-0.26,,,,
,,,,,,,,,,
5992,,"{""P0_Q0"":""soontem"",""P0_Q1"":4}",survey,72,275426,0.0-8.0-1.26,[],,,
,,,,,,,,,,
2739,TestRecordings/drustet.wav,0,audio-button-response,73,278173,0.0-8.0-0.27,,,,
,,,,,,,,,,
4840,,"{""P0_Q0"":""drustet"",""P0_Q1"":2}",survey,74,283025,0.0-8.0-1.27,[],,,
,,,,,,,,,,
1234,TestRecordings/paim.wav,0,audio-button-response,75,284269,0.0-8.0-0.28,,,,
,,,,,,,,,,
6459,,"{""P0_Q0"":""piam"",""P0_Q1"":2}",survey,76,290737,0.0-8.0-1.28,[],,,
,,,,,,,,,,
995,TestRecordings/mepgut.wav,0,audio-button-response,77,291740,0.0-8.0-0.29,,,,
,,,,,,,,,,
4152,,"{""P0_Q0"":""mepgoot"",""P0_Q1"":1}",survey,78,295903,0.0-8.0-1.29,[],,,
,,,,,,,,,,
988,TestRecordings/stuun.wav,0,audio-button-response,79,296900,0.0-8.0-0.30,,,,
,,,,,,,,,,
4139,,"{""P0_Q0"":""stoon"",""P0_Q1"":5}",survey,80,301048,0.0-8.0-1.30,[],,,
,,,,,,,,,,
1779,TestRecordings/tlipgat.wav,0,audio-button-response,81,302835,0.0-8.0-0.31,,,,
,,,,,,,,,,
5234,,"{""P0_Q0"":""clutgap"",""P0_Q1"":3}",survey,82,308080,0.0-8.0-1.31,[],,,
,,,,,,,,,,
979,TestRecordings/drantung.wav,0,audio-button-response,83,309067,0.0-8.0-0.32,,,,
,,,,,,,,,,
6491,,"{""P0_Q0"":""drenton"",""P0_Q1"":4}",survey,84,315567,0.0-8.0-1.32,[],,,
,,,,,,,,,,
1002,TestRecordings/gipsus.wav,0,audio-button-response,85,316579,0.0-8.0-0.33,,,,
,,,,,,,,,,
6354,,"{""P0_Q0"":""gipsus"",""P0_Q1"":5}",survey,86,322960,0.0-8.0-1.33,[],,,
,,,,,,,,,,
899,TestRecordings/drain.wav,0,audio-button-response,87,323867,0.0-8.0-0.34,,,,
,,,,,,,,,,
3359,,"{""P0_Q0"":""drine"",""P0_Q1"":6}",survey,88,327240,0.0-8.0-1.34,[],,,
,,,,,,,,,,
1131,TestRecordings/ntek.wav,0,audio-button-response,89,328379,0.0-8.0-0.35,,,,
,,,,,,,,,,
4569,,"{""P0_Q0"":""mootech"",""P0_Q1"":4}",survey,90,332959,0.0-8.0-1.35,[],,,
,,,,,,,,,,
1081,TestRecordings/gitpes.wav,0,audio-button-response,91,334050,0.0-8.0-0.36,,,,
,,,,,,,,,,
5952,,"{""P0_Q0"":""gippess"",""P0_Q1"":2}",survey,92,340014,0.0-8.0-1.36,[],,,
,,,,,,,,,,
987,TestRecordings/gistum.wav,0,audio-button-response,93,341010,0.0-8.0-0.37,,,,
,,,,,,,,,,
4515,,"{""P0_Q0"":""gistoon"",""P0_Q1"":4}",survey,94,345535,0.0-8.0-1.37,[],,,
,,,,,,,,,,
875,TestRecordings/gatkun.wav,0,audio-button-response,95,346418,0.0-8.0-0.38,,,,
,,,,,,,,,,
6193,,"{""P0_Q0"":""datcoon"",""P0_Q1"":2}",survey,96,352622,0.0-8.0-1.38,[],,,
,,,,,,,,,,
900,TestRecordings/tlik.wav,0,audio-button-response,97,353530,0.0-8.0-0.39,,,,
,,,,,,,,,,
4332,,"{""P0_Q0"":""plick"",""P0_Q1"":6}",survey,98,357869,0.0-8.0-1.39,[],,,
,,,,,,,,,,
1291,TestRecordings/trahm.wav,0,audio-button-response,99,359170,0.0-8.0-0.40,,,,
,,,,,,,,,,
3195,,"{""P0_Q0"":""chom"",""P0_Q1"":3}",survey,100,362373,0.0-8.0-1.40,[],,,
,,,,,,,,,,
1348,TestRecordings/pwuk.wav,0,audio-button-response,101,363730,0.0-8.0-0.41,,,,
,,,,,,,,,,
6365,,"{""P0_Q0"":""pluick"",""P0_Q1"":2}",survey,102,370101,0.0-8.0-1.41,[],,,
,,,,,,,,,,
860,TestRecordings/tep.wav,0,audio-button-response,103,370970,0.0-8.0-0.42,,,,
,,,,,,,,,,
3275,,"{""P0_Q0"":""tep"",""P0_Q1"":6}",survey,104,374253,0.0-8.0-1.42,[],,,
,,,,,,,,,,
1475,TestRecordings/tlemkun.wav,0,audio-button-response,105,375737,0.0-8.0-0.43,,,,
,,,,,,,,,,
5816,,"{""P0_Q0"":""clemkoon"",""P0_Q1"":3}",survey,106,381584,0.0-8.0-1.43,[],,,
,,,,,,,,,,
1024,TestRecordings/nboup.wav,0,audio-button-response,107,382617,0.0-8.0-0.44,,,,
,,,,,,,,,,
5200,,"{""P0_Q0"":""nibope"",""P0_Q1"":4}",survey,108,387829,0.0-8.0-1.44,[],,,
,,,,,,,,,,
1051,TestRecordings/dlemkus.wav,0,audio-button-response,109,388889,0.0-8.0-0.45,,,,
,,,,,,,,,,
3931,,"{""P0_Q0"":""glemkiss"",""P0_Q1"":2}",survey,110,392831,0.0-8.0-1.45,[],,,
,,,,,,,,,,
1074,TestRecordings/tlem.wav,0,audio-button-response,111,393913,0.0-8.0-0.46,,,,
,,,,,,,,,,
3602,,"{""P0_Q0"":""clem"",""P0_Q1"":2}",survey,112,397525,0.0-8.0-1.46,[],,,
,,,,,,,,,,
867,TestRecordings/drumbeng.wav,0,audio-button-response,113,398401,0.0-8.0-0.47,,,,
,,,,,,,,,,
8920,,"{""P0_Q0"":""droonbing"",""P0_Q1"":3}",survey,114,407332,0.0-8.0-1.47,[],,,
,,,,,,,,,,
860,TestRecordings/trindes.wav,0,audio-button-response,115,408200,0.0-8.0-0.48,,,,
,,,,,,,,,,
5982,,"{""P0_Q0"":""trendess"",""P0_Q1"":6}",survey,116,414196,0.0-8.0-1.48,[],,,
,,,,,,,,,,
1044,TestRecordings/tlumgak.wav,0,audio-button-response,117,415249,0.0-8.0-0.49,,,,
,,,,,,,,,,
5955,,"{""P0_Q0"":""clemglack"",""P0_Q1"":1}",survey,118,421211,0.0-8.0-1.49,[],,,
,,,,,,,,,,
765,TestRecordings/gup.wav,0,audio-button-response,119,421984,0.0-8.0-0.50,,,,
,,,,,,,,,,
26377,,"{""P0_Q0"":""gaop"",""P0_Q1"":2}",survey,120,448368,0.0-8.0-1.50,[],,,
,,,,,,,,,,
1037,TestRecordings/pundes.wav,0,audio-button-response,121,449414,0.0-8.0-0.51,,,,
,,,,,,,,,,
6196,,"{""P0_Q0"":""poondess"",""P0_Q1"":1}",survey,122,455635,0.0-8.0-1.51,[],,,
,,,,,,,,,,
803,TestRecordings/stauk.wav,0,audio-button-response,123,456446,0.0-8.0-0.52,,,,
,,,,,,,,,,
8999,,"{""P0_Q0"":""stoalk"",""P0_Q1"":6}",survey,124,465459,0.0-8.0-1.52,[],,,
,,,,,,,,,,
972,TestRecordings/bem.wav,0,audio-button-response,125,466438,0.0-8.0-0.53,,,,
,,,,,,,,,,
4490,,"{""P0_Q0"":""bem"",""P0_Q1"":4}",survey,126,470938,0.0-8.0-1.53,[],,,
,,,,,,,,,,
1138,TestRecordings/sengdun.wav,0,audio-button-response,127,472087,0.0-8.0-0.54,,,,
,,,,,,,,,,
6378,,"{""P0_Q0"":""singdune"",""P0_Q1"":6}",survey,128,478473,0.0-8.0-1.54,[],,,
,,,,,,,,,,
733,TestRecordings/punseng.wav,0,audio-button-response,129,479214,0.0-8.0-0.55,,,,
,,,,,,,,,,
5779,,"{""P0_Q0"":""poonsing"",""P0_Q1"":3}",survey,130,485001,0.0-8.0-1.55,[],,,
,,,,,,,,,,
892,TestRecordings/pmeit.wav,0,audio-button-response,131,485902,0.0-8.0-0.56,,,,
,,,,,,,,,,
7850,,"{""P0_Q0"":""pamate"",""P0_Q1"":6}",survey,132,493761,0.0-8.0-1.56,[],,,
,,,,,,,,,,
1115,TestRecordings/dloun.wav,0,audio-button-response,133,494886,0.0-8.0-0.57,,,,
,,,,,,,,,,
3842,,"{""P0_Q0"":""cloan"",""P0_Q1"":3}",survey,134,498734,0.0-8.0-1.57,[],,,
,,,,,,,,,,
948,TestRecordings/tisbeng.wav,0,audio-button-response,135,499693,0.0-8.0-0.58,,,,
,,,,,,,,,,
4325,,"{""P0_Q0"":""tusbang"",""P0_Q1"":2}",survey,136,504041,0.0-8.0-1.58,[],,,
,,,,,,,,,,
2034,TestRecordings/drikteng.wav,0,audio-button-response,137,506086,0.0-8.0-0.59,,,,
,,,,,,,,,,
7300,,"{""P0_Q0"":""driktang"",""P0_Q1"":1}",survey,138,513401,0.0-8.0-1.59,[],,,
,,,,,,,,,,
3908,, ,html-keyboard-response,139,517311,0.0-9.0,,,,
,,,,,,,,,,
49355,,"{""P0_Q0"":""18"",""P0_Q1"":""female"",""P0_Q2"":""yes"",""P0_Q3"":""learning Japanese"",""P0_Q4"":""since middle school"",""P0_Q5"":""hard, sentence structure is not my strong suit, and learning tones is hard""}",survey,140,566679,0.0-10.0,[],,,
,,,,,,,,,,
7116,"<p style=""font-size:30px"">The experiment has ended</p><p style=""font-size:30px"",lang=""ko"">Thanks for participating in it!</p>", ,html-keyboard-response,141,573797,0.0-11.0,,,,