rt,stimulus,response,trial_type,trial_index,time_elapsed,internal_node_id,accuracy,PracticeTest,ConsonantSequence,Grammaticality
,,,,,,,,,,
4349132,"<p style=""font-size:30px"">Welcome to the experiment</p><p>Press spacebar to continue</p>", ,html-keyboard-response,0,4348999,0.0-0.0,,,,
,,,,,,,,,,
53930,"<p style=""font-size:30px"">Please ensure that your headphones are on correctly</p><p>Press spacebar to continue</p>", ,html-keyboard-response,1,4402928,0.0-1.0,,,,
,,,,,,,,,,
4699,"<p style=""font-size:30px"">In this experiment, you will listen to nonsense words</p><p style=""font-size:30px"",lang=""ko"">Your task is to write down the word and then rate how good an English word it is</p><p>Press spacebar to continue</p>", ,html-keyboard-response,2,4407629,0.0-2.0,,,,
,,,,,,,,,,
2470,"<p style=""font-size:30px"">Let's practice with some nonsense words so that you understand the task</p><p>Press spacebar to continue</p>", ,html-keyboard-response,3,4410099,0.0-3.0,,,,
,,,,,,,,,,
5895,PracticeRecordings/bupkes.wav,0,audio-button-response,4,4416555,0.0-4.0-0.0,,,,
,,,,,,,,,,
7111,bupkes,"{""P0_Q0"":""bubkis""}",survey,5,4423704,0.0-4.0-1.0,[],practice,NA,TRUE
,,,,,,,,,,
5003,"<p style=""font-size:30px""> The word you heard is <br> ""bupkess"" <br> It may sound different depending on the person. <br> Write it down as it sounds.</p><p lang=""ko"">Press spacebar to continue</p>", ,html-keyboard-response,6,4428708,0.0-4.0-2.0,,,,
,,,,,,,,,,
1982,PracticeRecordings/dringgep.wav,0,audio-button-response,7,4430698,0.0-4.0-0.1,,,,
,,,,,,,,,,
6399,dringep,"{""P0_Q0"":""dreamgap""}",survey,8,4437109,0.0-4.0-1.1,[],practice,NA,FALSE
,,,,,,,,,,
972,"<p style=""font-size:30px""> The word you heard is <br> ""dringep"" <br> It may sound different depending on the person. <br> Write it down as it sounds.</p><p lang=""ko"">Press spacebar to continue</p>", ,html-keyboard-response,9,4438083,0.0-4.0-2.1,,,,
,,,,,,,,,,
1630,PracticeRecordings/dunggem.wav,0,audio-button-response,10,4439722,0.0-4.0-0.2,,,,
,,,,,,,,,,
3399,dunggem,"{""P0_Q0"":""dungen""}",survey,11,4443133,0.0-4.0-1.2,[],practice,NA,FALSE
,,,,,,,,,,
3493,"<p style=""font-size:30px""> The word you heard is <br> ""dungem"" (or) ""doongem"" <br> It may sound different depending on the person. <br> Write it down as it sounds.</p><p lang=""ko"">Press spacebar to continue</p>", ,html-keyboard-response,12,4446627,0.0-4.0-2.2,,,,
,,,,,,,,,,
1039,PracticeRecordings/deip.wav,0,audio-button-response,13,4447674,0.0-4.0-0.3,,,,
,,,,,,,,,,
3218,deip,"{""P0_Q0"":""dape""}",survey,14,4450901,0.0-4.0-1.3,[],practice,NA,FALSE
,,,,,,,,,,
1837,"<p style=""font-size:30px""> The word you heard is <br> ""dape"" <br> It may sound different depending on the person. <br> Write it down as it sounds.</p><p lang=""ko"">Press spacebar to continue</p>", ,html-keyboard-response,15,4452739,0.0-4.0-2.3,,,,
,,,,,,,,,,
2751,, ,html-keyboard-response,16,4455490,0.0-5.0,,,,
,,,,,,,,,,
3568,"<p style=""font-size:30px"">Now let's move on to the actual experiment.</p><p style=""font-size:30px"",lang=""ko"">During the experiment, you will hear each of the nonce words only once.", ,html-keyboard-response,17,4459058,0.0-6.0,,,,
,,,,,,,,,,
5879,"<p style=""font-size:30px"">After writing down the word, you will also rate the nonsense word you heard as a possible word of American English.</p><p>Press spacebar to continue</p>", ,html-keyboard-response,18,4464938,0.0-7.0,,,,
,,,,,,,,,,
1885,TestRecordings/drain.wav,0,audio-button-response,19,4466833,0.0-8.0-0.0,,,,
,,,,,,,,,,
10257,,"{""P0_Q0"":""drime"",""P0_Q1"":4}",survey,20,4477101,0.0-8.0-1.0,[],,,
,,,,,,,,,,
2251,TestRecordings/tlem.wav,0,audio-button-response,21,4479361,0.0-8.0-0.1,,,,
,,,,,,,,,,
4070,,"{""P0_Q0"":""plam"",""P0_Q1"":3}",survey,22,4483445,0.0-8.0-1.1,[],,,
,,,,,,,,,,
1306,TestRecordings/nangdup.wav,0,audio-button-response,23,4484760,0.0-8.0-0.2,,,,
,,,,,,,,,,
5122,,"{""P0_Q0"":""nangdoop"",""P0_Q1"":1}",survey,24,4489892,0.0-8.0-1.2,[],,,
,,,,,,,,,,
1147,TestRecordings/twen.wav,0,audio-button-response,25,4491048,0.0-8.0-0.3,,,,
,,,,,,,,,,
4778,,"{""P0_Q0"":""twin"",""P0_Q1"":7}",survey,26,4495835,0.0-8.0-1.3,[],,,
,,,,,,,,,,
852,TestRecordings/tlik.wav,0,audio-button-response,27,4496696,0.0-8.0-0.4,,,,
,,,,,,,,,,
9218,,"{""P0_Q0"":""plick"",""P0_Q1"":3}",survey,28,4505923,0.0-8.0-1.4,[],,,
,,,,,,,,,,
844,TestRecordings/pmiik.wav,0,audio-button-response,29,4506775,0.0-8.0-0.5,,,,
,,,,,,,,,,
6594,,"{""P0_Q0"":""kmeek"",""P0_Q1"":2}",survey,30,4513378,0.0-8.0-1.5,[],,,
,,,,,,,,,,
867,TestRecordings/pwuk.wav,0,audio-button-response,31,4514255,0.0-8.0-0.6,,,,
,,,,,,,,,,
4465,,"{""P0_Q0"":""pwook"",""P0_Q1"":5}",survey,32,4518730,0.0-8.0-1.6,[],,,
,,,,,,,,,,
875,TestRecordings/stuun.wav,0,audio-button-response,33,4519615,0.0-8.0-0.7,,,,
,,,,,,,,,,
3787,,"{""P0_Q0"":""stoon"",""P0_Q1"":7}",survey,34,4523410,0.0-8.0-1.7,[],,,
,,,,,,,,,,
1045,TestRecordings/suntem.wav,0,audio-button-response,35,4524462,0.0-8.0-0.8,,,,
,,,,,,,,,,
4731,,"{""P0_Q0"":""suntan"",""P0_Q1"":6}",survey,36,4529202,0.0-8.0-1.8,[],,,
,,,,,,,,,,
836,TestRecordings/pmeit.wav,0,audio-button-response,37,4530046,0.0-8.0-0.9,,,,
,,,,,,,,,,
3818,,"{""P0_Q0"":""pmate"",""P0_Q1"":6}",survey,38,4533874,0.0-8.0-1.9,[],,,
,,,,,,,,,,
772,TestRecordings/stauk.wav,0,audio-button-response,39,4534654,0.0-8.0-0.10,,,,
,,,,,,,,,,
4120,,"{""P0_Q0"":""stowk"",""P0_Q1"":4}",survey,40,4538785,0.0-8.0-1.10,[],,,
,,,,,,,,,,
820,TestRecordings/pundes.wav,0,audio-button-response,41,4539614,0.0-8.0-0.11,,,,
,,,,,,,,,,
4931,,"{""P0_Q0"":""pundis"",""P0_Q1"":3}",survey,42,4544554,0.0-8.0-1.11,[],,,
,,,,,,,,,,
1107,TestRecordings/paim.wav,0,audio-button-response,43,4545669,0.0-8.0-0.12,,,,
,,,,,,,,,,
5275,,"{""P0_Q0"":""pime"",""P0_Q1"":7}",survey,44,4550953,0.0-8.0-1.12,[],,,
,,,,,,,,,,
2372,TestRecordings/drikteng.wav,0,audio-button-response,45,4553333,0.0-8.0-0.13,,,,
,,,,,,,,,,
8563,,"{""P0_Q0"":""drickten"",""P0_Q1"":5}",survey,46,4561905,0.0-8.0-1.13,[],,,
,,,,,,,,,,
828,TestRecordings/kmaut.wav,0,audio-button-response,47,4562741,0.0-8.0-0.14,,,,
,,,,,,,,,,
3708,,"{""P0_Q0"":""cmount"",""P0_Q1"":5}",survey,48,4566457,0.0-8.0-1.14,[],,,
,,,,,,,,,,
660,TestRecordings/trindes.wav,0,audio-button-response,49,4567124,0.0-8.0-0.15,,,,
,,,,,,,,,,
3426,,"{""P0_Q0"":""trindis"",""P0_Q1"":4}",survey,50,4570561,0.0-8.0-1.15,[],,,
,,,,,,,,,,
962,TestRecordings/tlumgak.wav,0,audio-button-response,51,4571533,0.0-8.0-0.16,,,,
,,,,,,,,,,
8404,,"{""P0_Q0"":""twlumdak"",""P0_Q1"":1}",survey,52,4579944,0.0-8.0-1.16,[],,,
,,,,,,,,,,
876,TestRecordings/skain.wav,0,audio-button-response,53,4580828,0.0-8.0-0.17,,,,
,,,,,,,,,,
7131,,"{""P0_Q0"":""skine"",""P0_Q1"":5}",survey,54,4587968,0.0-8.0-1.17,[],,,
,,,,,,,,,,
979,TestRecordings/dlahm.wav,0,audio-button-response,55,4588956,0.0-8.0-0.18,,,,
,,,,,,,,,,
4708,,"{""P0_Q0"":""blowm"",""P0_Q1"":6}",survey,56,4593671,0.0-8.0-1.18,[],,,
,,,,,,,,,,
1397,TestRecordings/bepgik.wav,0,audio-button-response,57,4595076,0.0-8.0-0.19,,,,
,,,,,,,,,,
5923,,"{""P0_Q0"":""bepkick"",""P0_Q1"":5}",survey,58,4601006,0.0-8.0-1.19,[],,,
,,,,,,,,,,
1116,TestRecordings/tlasdung.wav,0,audio-button-response,59,4602131,0.0-8.0-0.20,,,,
,,,,,,,,,,
5700,,"{""P0_Q0"":""classton"",""P0_Q1"":5}",survey,60,4607839,0.0-8.0-1.20,[],,,
,,,,,,,,,,
1012,TestRecordings/drakpum.wav,0,audio-button-response,61,4608859,0.0-8.0-0.21,,,,
,,,,,,,,,,
5565,,"{""P0_Q0"":""drackpun"",""P0_Q1"":1}",survey,62,4614430,0.0-8.0-1.21,[],,,
,,,,,,,,,,
2253,TestRecordings/kutpim.wav,0,audio-button-response,63,4616691,0.0-8.0-0.22,,,,
,,,,,,,,,,
10691,,"{""P0_Q0"":""gupkin"",""P0_Q1"":4}",survey,64,4627389,0.0-8.0-1.22,[],,,
,,,,,,,,,,
908,TestRecordings/drantung.wav,0,audio-button-response,65,4628307,0.0-8.0-0.23,,,,
,,,,,,,,,,
5133,,"{""P0_Q0"":""drantun"",""P0_Q1"":6}",survey,66,4633445,0.0-8.0-1.23,[],,,
,,,,,,,,,,
811,TestRecordings/pwam.wav,0,audio-button-response,67,4634266,0.0-8.0-0.24,,,,
,,,,,,,,,,
4227,,"{""P0_Q0"":""pwam"",""P0_Q1"":3}",survey,68,4638501,0.0-8.0-1.24,[],,,
,,,,,,,,,,
813,TestRecordings/kmeip.wav,0,audio-button-response,69,4639321,0.0-8.0-0.25,,,,
,,,,,,,,,,
4924,,"{""P0_Q0"":""cmake"",""P0_Q1"":4}",survey,70,4644253,0.0-8.0-1.25,[],,,
,,,,,,,,,,
5565,TestRecordings/sengdun.wav,0,audio-button-response,71,4649826,0.0-8.0-0.26,,,,
,,,,,,,,,,
4723,,"{""P0_Q0"":""sangdin"",""P0_Q1"":6}",survey,72,4654556,0.0-8.0-1.26,[],,,
,,,,,,,,,,
1293,TestRecordings/tlipgat.wav,0,audio-button-response,73,4655857,0.0-8.0-0.27,,,,
,,,,,,,,,,
5180,,"{""P0_Q0"":""plipgap"",""P0_Q1"":1}",survey,74,4661044,0.0-8.0-1.27,[],,,
,,,,,,,,,,
1779,TestRecordings/trahm.wav,0,audio-button-response,75,4662833,0.0-8.0-0.28,,,,
,,,,,,,,,,
4293,,"{""P0_Q0"":""traum"",""P0_Q1"":7}",survey,76,4667132,0.0-8.0-1.28,[],,,
,,,,,,,,,,
964,TestRecordings/nutbim.wav,0,audio-button-response,77,4668105,0.0-8.0-0.29,,,,
,,,,,,,,,,
6819,,"{""P0_Q0"":""nupdim"",""P0_Q1"":1}",survey,78,4674932,0.0-8.0-1.29,[],,,
,,,,,,,,,,
811,TestRecordings/dloun.wav,0,audio-button-response,79,4675752,0.0-8.0-0.30,,,,
,,,,,,,,,,
3851,,"{""P0_Q0"":""blown"",""P0_Q1"":4}",survey,80,4679612,0.0-8.0-1.30,[],,,
,,,,,,,,,,
836,TestRecordings/tloum.wav,0,audio-button-response,81,4680457,0.0-8.0-0.31,,,,
,,,,,,,,,,
3051,,"{""P0_Q0"":""gloam"",""P0_Q1"":3}",survey,82,4683516,0.0-8.0-1.31,[],,,
,,,,,,,,,,
748,TestRecordings/tisbeng.wav,0,audio-button-response,83,4684272,0.0-8.0-0.32,,,,
,,,,,,,,,,
4699,,"{""P0_Q0"":""tisbang"",""P0_Q1"":5}",survey,84,4688979,0.0-8.0-1.32,[],,,
,,,,,,,,,,
1804,TestRecordings/gitpes.wav,0,audio-button-response,85,4690791,0.0-8.0-0.33,,,,
,,,,,,,,,,
8203,,"{""P0_Q0"":""gitpess"",""P0_Q1"":3}",survey,86,4699003,0.0-8.0-1.33,[],,,
,,,,,,,,,,
1076,TestRecordings/tlepgim.wav,0,audio-button-response,87,4700087,0.0-8.0-0.34,,,,
,,,,,,,,,,
5001,,"{""P0_Q0"":""clepkin"",""P0_Q1"":2}",survey,88,4705097,0.0-8.0-1.34,[],,,
,,,,,,,,,,
874,TestRecordings/ntek.wav,0,audio-button-response,89,4706040,0.0-8.0-0.35,,,,
,,,,,,,,,,
4287,,"{""P0_Q0"":""ntek"",""P0_Q1"":1}",survey,90,4710364,0.0-8.0-1.35,[],,,
,,,,,,,,,,
914,TestRecordings/gipsus.wav,0,audio-button-response,91,4711287,0.0-8.0-0.36,,,,
,,,,,,,,,,
5851,,"{""P0_Q0"":""gipsus"",""P0_Q1"":5}",survey,92,4717169,0.0-8.0-1.36,[],,,
,,,,,,,,,,
915,TestRecordings/twas.wav,0,audio-button-response,93,4718095,0.0-8.0-0.37,,,,
,,,,,,,,,,
3213,,"{""P0_Q0"":""twas"",""P0_Q1"":5}",survey,94,4721349,0.0-8.0-1.37,[],,,
,,,,,,,,,,
840,TestRecordings/mepgut.wav,0,audio-button-response,95,4722198,0.0-8.0-0.38,,,,
,,,,,,,,,,
4389,,"{""P0_Q0"":""nepgut"",""P0_Q1"":6}",survey,96,4726603,0.0-8.0-1.38,[],,,
,,,,,,,,,,
747,TestRecordings/dlemkus.wav,0,audio-button-response,97,4727358,0.0-8.0-0.39,,,,
,,,,,,,,,,
4225,,"{""P0_Q0"":""blamgus"",""P0_Q1"":5}",survey,98,4731593,0.0-8.0-1.39,[],,,
,,,,,,,,,,
1067,TestRecordings/drumbeng.wav,0,audio-button-response,99,4732670,0.0-8.0-0.40,,,,
,,,,,,,,,,
5418,,"{""P0_Q0"":""drunbing"",""P0_Q1"":2}",survey,100,4738097,0.0-8.0-1.40,[],,,
,,,,,,,,,,
1083,TestRecordings/tempuk.wav,0,audio-button-response,101,4739190,0.0-8.0-0.41,,,,
,,,,,,,,,,
7722,,"{""P0_Q0"":""tempook"",""P0_Q1"":6}",survey,102,4746921,0.0-8.0-1.41,[],,,
,,,,,,,,,,
1637,TestRecordings/ningpum.wav,0,audio-button-response,103,4748565,0.0-8.0-0.42,,,,
,,,,,,,,,,
5842,,"{""P0_Q0"":""ningpun"",""P0_Q1"":2}",survey,104,4754417,0.0-8.0-1.42,[],,,
,,,,,,,,,,
4419,TestRecordings/stahm.wav,0,audio-button-response,105,4758844,0.0-8.0-0.43,,,,
,,,,,,,,,,
4291,,"{""P0_Q0"":""stom"",""P0_Q1"":6}",survey,106,4763144,0.0-8.0-1.43,[],,,
,,,,,,,,,,
1036,TestRecordings/punseng.wav,0,audio-button-response,107,4764189,0.0-8.0-0.44,,,,
,,,,,,,,,,
4624,,"{""P0_Q0"":""punseng"",""P0_Q1"":6}",survey,108,4768823,0.0-8.0-1.44,[],,,
,,,,,,,,,,
1244,TestRecordings/ndeip.wav,0,audio-button-response,109,4770077,0.0-8.0-0.45,,,,
,,,,,,,,,,
3723,,"{""P0_Q0"":""ndape"",""P0_Q1"":2}",survey,110,4773824,0.0-8.0-1.45,[],,,
,,,,,,,,,,
795,TestRecordings/giit.wav,0,audio-button-response,111,4774629,0.0-8.0-0.46,,,,
,,,,,,,,,,
3464,,"{""P0_Q0"":""geet"",""P0_Q1"":1}",survey,112,4778105,0.0-8.0-1.46,[],,,
,,,,,,,,,,
820,TestRecordings/mkait.wav,0,audio-button-response,113,4778932,0.0-8.0-0.47,,,,
,,,,,,,,,,
3282,,"{""P0_Q0"":""mkite"",""P0_Q1"":1}",survey,114,4782224,0.0-8.0-1.47,[],,,
,,,,,,,,,,
740,TestRecordings/drustet.wav,0,audio-button-response,115,4782972,0.0-8.0-0.48,,,,
,,,,,,,,,,
5826,,"{""P0_Q0"":""drustet"",""P0_Q1"":4}",survey,116,4788807,0.0-8.0-1.48,[],,,
,,,,,,,,,,
932,TestRecordings/gatkun.wav,0,audio-button-response,117,4789747,0.0-8.0-0.49,,,,
,,,,,,,,,,
5594,,"{""P0_Q0"":""getkun"",""P0_Q1"":6}",survey,118,4795351,0.0-8.0-1.49,[],,,
,,,,,,,,,,
724,TestRecordings/mgit.wav,0,audio-button-response,119,4796084,0.0-8.0-0.50,,,,
,,,,,,,,,,
5499,,"{""P0_Q0"":""mget"",""P0_Q1"":1}",survey,120,4801590,0.0-8.0-1.50,[],,,
,,,,,,,,,,
1363,TestRecordings/dlisbep.wav,0,audio-button-response,121,4802963,0.0-8.0-0.51,,,,
,,,,,,,,,,
6883,,"{""P0_Q0"":""dlispap"",""P0_Q1"":3}",survey,122,4809854,0.0-8.0-1.51,[],,,
,,,,,,,,,,
989,TestRecordings/tlemkun.wav,0,audio-button-response,123,4810850,0.0-8.0-0.52,,,,
,,,,,,,,,,
5305,,"{""P0_Q0"":""plemkun"",""P0_Q1"":2}",survey,124,4816166,0.0-8.0-1.52,[],,,
,,,,,,,,,,
964,TestRecordings/gistum.wav,0,audio-button-response,125,4817138,0.0-8.0-0.53,,,,
,,,,,,,,,,
5411,,"{""P0_Q0"":""gisdoon"",""P0_Q1"":4}",survey,126,4822557,0.0-8.0-1.53,[],,,
,,,,,,,,,,
845,TestRecordings/nboup.wav,0,audio-button-response,127,4823410,0.0-8.0-0.54,,,,
,,,,,,,,,,
7721,,"{""P0_Q0"":""ndopbe"",""P0_Q1"":3}",survey,128,4831140,0.0-8.0-1.54,[],,,
,,,,,,,,,,
956,TestRecordings/bem.wav,0,audio-button-response,129,4832106,0.0-8.0-0.55,,,,
,,,,,,,,,,
3498,,"{""P0_Q0"":""bemn"",""P0_Q1"":6}",survey,130,4835631,0.0-8.0-1.55,[],,,
,,,,,,,,,,
843,TestRecordings/tep.wav,0,audio-button-response,131,4836482,0.0-8.0-0.56,,,,
,,,,,,,,,,
5856,,"{""P0_Q0"":""tep"",""P0_Q1"":3}",survey,132,4842350,0.0-8.0-1.56,[],,,
,,,,,,,,,,
1203,TestRecordings/gup.wav,0,audio-button-response,133,4843561,0.0-8.0-0.57,,,,
,,,,,,,,,,
3857,,"{""P0_Q0"":""gup"",""P0_Q1"":4}",survey,134,4847429,0.0-8.0-1.57,[],,,
,,,,,,,,,,
1507,TestRecordings/dmut.wav,0,audio-button-response,135,4848945,0.0-8.0-0.58,,,,
,,,,,,,,,,
3810,,"{""P0_Q0"":""dmoot"",""P0_Q1"":1}",survey,136,4852765,0.0-8.0-1.58,[],,,
,,,,,,,,,,
916,TestRecordings/pemdut.wav,0,audio-button-response,137,4853690,0.0-8.0-0.59,,,,
,,,,,,,,,,
6155,,"{""P0_Q0"":""pamdut"",""P0_Q1"":3}",survey,138,4859852,0.0-8.0-1.59,[],,,
,,,,,,,,,,
4524,, ,html-keyboard-response,139,4864378,0.0-9.0,,,,
,,,,,,,,,,
44382,,"{""P0_Q0"":""18"",""P0_Q1"":""male"",""P0_Q2"":""yes"",""P0_Q3"":""spanish"",""P0_Q4"":""13, 4 years"",""P0_Q5"":""4 years of spansih learning in school""}",survey,140,4908771,0.0-10.0,[],,,
,,,,,,,,,,
1747,"<p style=""font-size:30px"">The experiment has ended</p><p style=""font-size:30px"",lang=""ko"">Thanks for participating in it!</p>", ,html-keyboard-response,141,4910519,0.0-11.0,,,,