rt,stimulus,response,trial_type,trial_index,time_elapsed,internal_node_id,accuracy,PracticeTest,ConsonantSequence,Grammaticality
,,,,,,,,,,
4611247,"<p style=""font-size:30px"">Welcome to the experiment</p><p>Press spacebar to continue</p>", ,html-keyboard-response,0,4611074,0.0-0.0,,,,
,,,,,,,,,,
2102,"<p style=""font-size:30px"">Please ensure that your headphones are on correctly</p><p>Press spacebar to continue</p>", ,html-keyboard-response,1,4613177,0.0-1.0,,,,
,,,,,,,,,,
3152,"<p style=""font-size:30px"">In this experiment, you will listen to nonsense words</p><p style=""font-size:30px"",lang=""ko"">Your task is to write down the word and then rate how good an English word it is</p><p>Press spacebar to continue</p>", ,html-keyboard-response,2,4616330,0.0-2.0,,,,
,,,,,,,,,,
1960,"<p style=""font-size:30px"">Let's practice with some nonsense words so that you understand the task</p><p>Press spacebar to continue</p>", ,html-keyboard-response,3,4618289,0.0-3.0,,,,
,,,,,,,,,,
5205,PracticeRecordings/bupkes.wav,0,audio-button-response,4,4623504,0.0-4.0-0.0,,,,
,,,,,,,,,,
5440,bupkes,"{""P0_Q0"":""bookis""}",survey,5,4628980,0.0-4.0-1.0,[],practice,NA,TRUE
,,,,,,,,,,
5899,"<p style=""font-size:30px""> The word you heard is <br> ""bupkess"" <br> It may sound different depending on the person. <br> Write it down as it sounds.</p><p lang=""ko"">Press spacebar to continue</p>", ,html-keyboard-response,6,4634880,0.0-4.0-2.0,,,,
,,,,,,,,,,
2615,PracticeRecordings/dringgep.wav,0,audio-button-response,7,4637503,0.0-4.0-0.1,,,,
,,,,,,,,,,
5823,dringep,"{""P0_Q0"":""dringbek""}",survey,8,4643338,0.0-4.0-1.1,[],practice,NA,FALSE
,,,,,,,,,,
3916,"<p style=""font-size:30px""> The word you heard is <br> ""dringep"" <br> It may sound different depending on the person. <br> Write it down as it sounds.</p><p lang=""ko"">Press spacebar to continue</p>", ,html-keyboard-response,9,4647256,0.0-4.0-2.1,,,,
,,,,,,,,,,
2416,PracticeRecordings/dunggem.wav,0,audio-button-response,10,4649678,0.0-4.0-0.2,,,,
,,,,,,,,,,
4345,dunggem,"{""P0_Q0"":""dingam""}",survey,11,4654034,0.0-4.0-1.2,[],practice,NA,FALSE
,,,,,,,,,,
3564,"<p style=""font-size:30px""> The word you heard is <br> ""dungem"" (or) ""doongem"" <br> It may sound different depending on the person. <br> Write it down as it sounds.</p><p lang=""ko"">Press spacebar to continue</p>", ,html-keyboard-response,12,4657599,0.0-4.0-2.2,,,,
,,,,,,,,,,
2184,PracticeRecordings/deip.wav,0,audio-button-response,13,4659790,0.0-4.0-0.3,,,,
,,,,,,,,,,
2721,deip,"{""P0_Q0"":""dape""}",survey,14,4662522,0.0-4.0-1.3,[],practice,NA,FALSE
,,,,,,,,,,
1518,"<p style=""font-size:30px""> The word you heard is <br> ""dape"" <br> It may sound different depending on the person. <br> Write it down as it sounds.</p><p lang=""ko"">Press spacebar to continue</p>", ,html-keyboard-response,15,4664039,0.0-4.0-2.3,,,,
,,,,,,,,,,
2142,, ,html-keyboard-response,16,4666183,0.0-5.0,,,,
,,,,,,,,,,
4159,"<p style=""font-size:30px"">Now let's move on to the actual experiment.</p><p style=""font-size:30px"",lang=""ko"">During the experiment, you will hear each of the nonce words only once.", ,html-keyboard-response,17,4670343,0.0-6.0,,,,
,,,,,,,,,,
5720,"<p style=""font-size:30px"">After writing down the word, you will also rate the nonsense word you heard as a possible word of American English.</p><p>Press spacebar to continue</p>", ,html-keyboard-response,18,4676062,0.0-7.0,,,,
,,,,,,,,,,
2103,TestRecordings/dloun.wav,0,audio-button-response,19,4678174,0.0-8.0-0.0,,,,
,,,,,,,,,,
9103,,"{""P0_Q0"":""lawn"",""P0_Q1"":5}",survey,20,4687290,0.0-8.0-1.0,[],,,
,,,,,,,,,,
1614,TestRecordings/kmeip.wav,0,audio-button-response,21,4688909,0.0-8.0-0.1,,,,
,,,,,,,,,,
4959,,"{""P0_Q0"":""kinape"",""P0_Q1"":3}",survey,22,4693881,0.0-8.0-1.1,[],,,
,,,,,,,,,,
1413,TestRecordings/tlumgak.wav,0,audio-button-response,23,4695301,0.0-8.0-0.2,,,,
,,,,,,,,,,
10449,,"{""P0_Q0"":""twilmgack"",""P0_Q1"":1}",survey,24,4705760,0.0-8.0-1.2,[],,,
,,,,,,,,,,
1487,TestRecordings/ningpum.wav,0,audio-button-response,25,4707252,0.0-8.0-0.3,,,,
,,,,,,,,,,
9329,,"{""P0_Q0"":""ningpum"",""P0_Q1"":2}",survey,26,4716592,0.0-8.0-1.3,[],,,
,,,,,,,,,,
1813,TestRecordings/tlik.wav,0,audio-button-response,27,4718412,0.0-8.0-0.4,,,,
,,,,,,,,,,
5851,,"{""P0_Q0"":""dlick"",""P0_Q1"":2}",survey,28,4724271,0.0-8.0-1.4,[],,,
,,,,,,,,,,
2446,TestRecordings/punseng.wav,0,audio-button-response,29,4726723,0.0-8.0-0.5,,,,
,,,,,,,,,,
6922,,"{""P0_Q0"":""punsane"",""P0_Q1"":3}",survey,30,4733655,0.0-8.0-1.5,[],,,
,,,,,,,,,,
2477,TestRecordings/bepgik.wav,0,audio-button-response,31,4736140,0.0-8.0-0.6,,,,
,,,,,,,,,,
7955,,"{""P0_Q0"":""bepkik"",""P0_Q1"":3}",survey,32,4744103,0.0-8.0-1.6,[],,,
,,,,,,,,,,
1291,TestRecordings/twas.wav,0,audio-button-response,33,4745403,0.0-8.0-0.7,,,,
,,,,,,,,,,
5723,,"{""P0_Q0"":""twas"",""P0_Q1"":3}",survey,34,4751135,0.0-8.0-1.7,[],,,
,,,,,,,,,,
1182,TestRecordings/stahm.wav,0,audio-button-response,35,4752322,0.0-8.0-0.8,,,,
,,,,,,,,,,
4171,,"{""P0_Q0"":""stom"",""P0_Q1"":4}",survey,36,4756502,0.0-8.0-1.8,[],,,
,,,,,,,,,,
1094,TestRecordings/dlahm.wav,0,audio-button-response,37,4757603,0.0-8.0-0.9,,,,
,,,,,,,,,,
6874,,"{""P0_Q0"":""blam"",""P0_Q1"":2}",survey,38,4764485,0.0-8.0-1.9,[],,,
,,,,,,,,,,
1286,TestRecordings/gistum.wav,0,audio-button-response,39,4765778,0.0-8.0-0.10,,,,
,,,,,,,,,,
4859,,"{""P0_Q0"":""gisten"",""P0_Q1"":2}",survey,40,4770646,0.0-8.0-1.10,[],,,
,,,,,,,,,,
1230,TestRecordings/gatkun.wav,0,audio-button-response,41,4771882,0.0-8.0-0.11,,,,
,,,,,,,,,,
6884,,"{""P0_Q0"":""gatkun"",""P0_Q1"":1}",survey,42,4778773,0.0-8.0-1.11,[],,,
,,,,,,,,,,
1158,TestRecordings/giit.wav,0,audio-button-response,43,4779937,0.0-8.0-0.12,,,,
,,,,,,,,,,
3435,,"{""P0_Q0"":""geet"",""P0_Q1"":3}",survey,44,4783381,0.0-8.0-1.12,[],,,
,,,,,,,,,,
2094,TestRecordings/drustet.wav,0,audio-button-response,45,4785481,0.0-8.0-0.13,,,,
,,,,,,,,,,
4746,,"{""P0_Q0"":""dristet"",""P0_Q1"":2}",survey,46,4790237,0.0-8.0-1.13,[],,,
,,,,,,,,,,
1269,TestRecordings/tisbeng.wav,0,audio-button-response,47,4791513,0.0-8.0-0.14,,,,
,,,,,,,,,,
6483,,"{""P0_Q0"":""tisbang"",""P0_Q1"":1}",survey,48,4798005,0.0-8.0-1.14,[],,,
,,,,,,,,,,
1709,TestRecordings/twen.wav,0,audio-button-response,49,4799721,0.0-8.0-0.15,,,,
,,,,,,,,,,
4196,,"{""P0_Q0"":""twin"",""P0_Q1"":6}",survey,50,4803924,0.0-8.0-1.15,[],,,
,,,,,,,,,,
1501,TestRecordings/drumbeng.wav,0,audio-button-response,51,4805433,0.0-8.0-0.16,,,,
,,,,,,,,,,
8547,,"{""P0_Q0"":""droombang"",""P0_Q1"":2}",survey,52,4813987,0.0-8.0-1.16,[],,,
,,,,,,,,,,
1425,TestRecordings/tempuk.wav,0,audio-button-response,53,4815417,0.0-8.0-0.17,,,,
,,,,,,,,,,
6209,,"{""P0_Q0"":""tenpuck"",""P0_Q1"":4}",survey,54,4821635,0.0-8.0-1.17,[],,,
,,,,,,,,,,
1574,TestRecordings/sengdun.wav,0,audio-button-response,55,4823216,0.0-8.0-0.18,,,,
,,,,,,,,,,
4691,,"{""P0_Q0"":""saingdin"",""P0_Q1"":3}",survey,56,4827915,0.0-8.0-1.18,[],,,
,,,,,,,,,,
1814,TestRecordings/pwuk.wav,0,audio-button-response,57,4829735,0.0-8.0-0.19,,,,
,,,,,,,,,,
3700,,"{""P0_Q0"":""puk"",""P0_Q1"":2}",survey,58,4833443,0.0-8.0-1.19,[],,,
,,,,,,,,,,
1710,TestRecordings/ntek.wav,0,audio-button-response,59,4835159,0.0-8.0-0.20,,,,
,,,,,,,,,,
4267,,"{""P0_Q0"":""tech"",""P0_Q1"":6}",survey,60,4839434,0.0-8.0-1.20,[],,,
,,,,,,,,,,
1095,TestRecordings/skain.wav,0,audio-button-response,61,4840535,0.0-8.0-0.21,,,,
,,,,,,,,,,
3547,,"{""P0_Q0"":""skine"",""P0_Q1"":6}",survey,62,4844091,0.0-8.0-1.21,[],,,
,,,,,,,,,,
1550,TestRecordings/drantung.wav,0,audio-button-response,63,4845647,0.0-8.0-0.22,,,,
,,,,,,,,,,
9379,,"{""P0_Q0"":""drantun"",""P0_Q1"":2}",survey,64,4855034,0.0-8.0-1.22,[],,,
,,,,,,,,,,
2246,TestRecordings/tloum.wav,0,audio-button-response,65,4857286,0.0-8.0-0.23,,,,
,,,,,,,,,,
5333,,"{""P0_Q0"":""glone"",""P0_Q1"":3}",survey,66,4862626,0.0-8.0-1.23,[],,,
,,,,,,,,,,
1151,TestRecordings/kmaut.wav,0,audio-button-response,67,4863782,0.0-8.0-0.24,,,,
,,,,,,,,,,
4962,,"{""P0_Q0"":""canout"",""P0_Q1"":2}",survey,68,4868753,0.0-8.0-1.24,[],,,
,,,,,,,,,,
1023,TestRecordings/mkait.wav,0,audio-button-response,69,4869782,0.0-8.0-0.25,,,,
,,,,,,,,,,
6491,,"{""P0_Q0"":""kite"",""P0_Q1"":6}",survey,70,4876281,0.0-8.0-1.25,[],,,
,,,,,,,,,,
1087,TestRecordings/pmiik.wav,0,audio-button-response,71,4877374,0.0-8.0-0.26,,,,
,,,,,,,,,,
4554,,"{""P0_Q0"":""pneak"",""P0_Q1"":2}",survey,72,4881937,0.0-8.0-1.26,[],,,
,,,,,,,,,,
966,TestRecordings/stuun.wav,0,audio-button-response,73,4882910,0.0-8.0-0.27,,,,
,,,,,,,,,,
5003,,"{""P0_Q0"":""stoon"",""P0_Q1"":4}",survey,74,4887921,0.0-8.0-1.27,[],,,
,,,,,,,,,,
1910,TestRecordings/tlem.wav,0,audio-button-response,75,4889837,0.0-8.0-0.28,,,,
,,,,,,,,,,
3219,,"{""P0_Q0"":""clan"",""P0_Q1"":5}",survey,76,4893064,0.0-8.0-1.28,[],,,
,,,,,,,,,,
943,TestRecordings/drain.wav,0,audio-button-response,77,4894013,0.0-8.0-0.29,,,,
,,,,,,,,,,
3858,,"{""P0_Q0"":""drine"",""P0_Q1"":4}",survey,78,4897880,0.0-8.0-1.29,[],,,
,,,,,,,,,,
2038,TestRecordings/mgit.wav,0,audio-button-response,79,4899925,0.0-8.0-0.30,,,,
,,,,,,,,,,
3404,,"{""P0_Q0"":""get"",""P0_Q1"":6}",survey,80,4903336,0.0-8.0-1.30,[],,,
,,,,,,,,,,
1478,TestRecordings/tlemkun.wav,0,audio-button-response,81,4904821,0.0-8.0-0.31,,,,
,,,,,,,,,,
6147,,"{""P0_Q0"":""plankoon"",""P0_Q1"":1}",survey,82,4910976,0.0-8.0-1.31,[],,,
,,,,,,,,,,
1045,TestRecordings/mepgut.wav,0,audio-button-response,83,4912029,0.0-8.0-0.32,,,,
,,,,,,,,,,
4138,,"{""P0_Q0"":""nepkut"",""P0_Q1"":2}",survey,84,4916174,0.0-8.0-1.32,[],,,
,,,,,,,,,,
894,TestRecordings/pemdut.wav,0,audio-button-response,85,4917077,0.0-8.0-0.33,,,,
,,,,,,,,,,
5763,,"{""P0_Q0"":""pandoit"",""P0_Q1"":1}",survey,86,4922864,0.0-8.0-1.33,[],,,
,,,,,,,,,,
957,TestRecordings/dlemkus.wav,0,audio-button-response,87,4923828,0.0-8.0-0.34,,,,
,,,,,,,,,,
5280,,"{""P0_Q0"":""glamcos"",""P0_Q1"":2}",survey,88,4929120,0.0-8.0-1.34,[],,,
,,,,,,,,,,
1741,TestRecordings/pmeit.wav,0,audio-button-response,89,4930868,0.0-8.0-0.35,,,,
,,,,,,,,,,
3851,,"{""P0_Q0"":""mate"",""P0_Q1"":5}",survey,90,4934728,0.0-8.0-1.35,[],,,
,,,,,,,,,,
1741,TestRecordings/tlipgat.wav,0,audio-button-response,91,4936475,0.0-8.0-0.36,,,,
,,,,,,,,,,
6562,,"{""P0_Q0"":""plipcat"",""P0_Q1"":2}",survey,92,4943047,0.0-8.0-1.36,[],,,
,,,,,,,,,,
1478,TestRecordings/bem.wav,0,audio-button-response,93,4944531,0.0-8.0-0.37,,,,
,,,,,,,,,,
6098,,"{""P0_Q0"":""bem"",""P0_Q1"":2}",survey,94,4950639,0.0-8.0-1.37,[],,,
,,,,,,,,,,
1038,TestRecordings/nutbim.wav,0,audio-button-response,95,4951683,0.0-8.0-0.38,,,,
,,,,,,,,,,
5730,,"{""P0_Q0"":""nitben"",""P0_Q1"":1}",survey,96,4957422,0.0-8.0-1.38,[],,,
,,,,,,,,,,
901,TestRecordings/pundes.wav,0,audio-button-response,97,4958330,0.0-8.0-0.39,,,,
,,,,,,,,,,
9890,,"{""P0_Q0"":""poondes"",""P0_Q1"":1}",survey,98,4968230,0.0-8.0-1.39,[],,,
,,,,,,,,,,
1053,TestRecordings/ndeip.wav,0,audio-button-response,99,4969291,0.0-8.0-0.40,,,,
,,,,,,,,,,
4336,,"{""P0_Q0"":""dape"",""P0_Q1"":2}",survey,100,4973636,0.0-8.0-1.40,[],,,
,,,,,,,,,,
1438,TestRecordings/dmut.wav,0,audio-button-response,101,4975082,0.0-8.0-0.41,,,,
,,,,,,,,,,
9203,,"{""P0_Q0"":""moot"",""P0_Q1"":2}",survey,102,4984310,0.0-8.0-1.41,[],,,
,,,,,,,,,,
6243,TestRecordings/kutpim.wav,0,audio-button-response,103,4990562,0.0-8.0-0.42,,,,
,,,,,,,,,,
11551,,"{""P0_Q0"":""coutpin"",""P0_Q1"":2}",survey,104,5002126,0.0-8.0-1.42,[],,,
,,,,,,,,,,
1613,TestRecordings/drikteng.wav,0,audio-button-response,105,5003745,0.0-8.0-0.43,,,,
,,,,,,,,,,
7734,,"{""P0_Q0"":""drikteng"",""P0_Q1"":1}",survey,106,5011492,0.0-8.0-1.43,[],,,
,,,,,,,,,,
1277,TestRecordings/dlisbep.wav,0,audio-button-response,107,5012777,0.0-8.0-0.44,,,,
,,,,,,,,,,
7929,,"{""P0_Q0"":""dilispap"",""P0_Q1"":1}",survey,108,5020715,0.0-8.0-1.44,[],,,
,,,,,,,,,,
1638,TestRecordings/suntem.wav,0,audio-button-response,109,5022360,0.0-8.0-0.45,,,,
,,,,,,,,,,
5090,,"{""P0_Q0"":""sunten"",""P0_Q1"":1}",survey,110,5027460,0.0-8.0-1.45,[],,,
,,,,,,,,,,
1502,TestRecordings/trahm.wav,0,audio-button-response,111,5028968,0.0-8.0-0.46,,,,
,,,,,,,,,,
3514,,"{""P0_Q0"":""trom"",""P0_Q1"":3}",survey,112,5032491,0.0-8.0-1.46,[],,,
,,,,,,,,,,
863,TestRecordings/gup.wav,0,audio-button-response,113,5033361,0.0-8.0-0.47,,,,
,,,,,,,,,,
4104,,"{""P0_Q0"":""goup"",""P0_Q1"":4}",survey,114,5037502,0.0-8.0-1.47,[],,,
,,,,,,,,,,
2082,TestRecordings/tep.wav,0,audio-button-response,115,5039593,0.0-8.0-0.48,,,,
,,,,,,,,,,
4591,,"{""P0_Q0"":""tep"",""P0_Q1"":3}",survey,116,5044196,0.0-8.0-1.48,[],,,
,,,,,,,,,,
1317,TestRecordings/tlepgim.wav,0,audio-button-response,117,5045520,0.0-8.0-0.49,,,,
,,,,,,,,,,
6291,,"{""P0_Q0"":""platkin"",""P0_Q1"":1}",survey,118,5051819,0.0-8.0-1.49,[],,,
,,,,,,,,,,
1269,TestRecordings/trindes.wav,0,audio-button-response,119,5053095,0.0-8.0-0.50,,,,
,,,,,,,,,,
4848,,"{""P0_Q0"":""trendes"",""P0_Q1"":3}",survey,120,5057955,0.0-8.0-1.50,[],,,
,,,,,,,,,,
862,TestRecordings/pwam.wav,0,audio-button-response,121,5058823,0.0-8.0-0.51,,,,
,,,,,,,,,,
3937,,"{""P0_Q0"":""pwan"",""P0_Q1"":2}",survey,122,5062770,0.0-8.0-1.51,[],,,
,,,,,,,,,,
966,TestRecordings/stauk.wav,0,audio-button-response,123,5063742,0.0-8.0-0.52,,,,
,,,,,,,,,,
4666,,"{""P0_Q0"":""stouk"",""P0_Q1"":3}",survey,124,5068418,0.0-8.0-1.52,[],,,
,,,,,,,,,,
1023,TestRecordings/nangdup.wav,0,audio-button-response,125,5069446,0.0-8.0-0.53,,,,
,,,,,,,,,,
6402,,"{""P0_Q0"":""neingdoop"",""P0_Q1"":1}",survey,126,5075857,0.0-8.0-1.53,[],,,
,,,,,,,,,,
1117,TestRecordings/nboup.wav,0,audio-button-response,127,5076982,0.0-8.0-0.54,,,,
,,,,,,,,,,
5371,,"{""P0_Q0"":""nboap"",""P0_Q1"":1}",survey,128,5082361,0.0-8.0-1.54,[],,,
,,,,,,,,,,
943,TestRecordings/gipsus.wav,0,audio-button-response,129,5083310,0.0-8.0-0.55,,,,
,,,,,,,,,,
4442,,"{""P0_Q0"":""gipsis"",""P0_Q1"":1}",survey,130,5087761,0.0-8.0-1.55,[],,,
,,,,,,,,,,
1015,TestRecordings/paim.wav,0,audio-button-response,131,5088782,0.0-8.0-0.56,,,,
,,,,,,,,,,
5300,,"{""P0_Q0"":""pime"",""P0_Q1"":5}",survey,132,5094091,0.0-8.0-1.56,[],,,
,,,,,,,,,,
1225,TestRecordings/tlasdung.wav,0,audio-button-response,133,5095325,0.0-8.0-0.57,,,,
,,,,,,,,,,
6668,,"{""P0_Q0"":""thwastone"",""P0_Q1"":2}",survey,134,5102026,0.0-8.0-1.57,[],,,
,,,,,,,,,,
3132,TestRecordings/gitpes.wav,0,audio-button-response,135,5105165,0.0-8.0-0.58,,,,
,,,,,,,,,,
4306,,"{""P0_Q0"":""gitpes"",""P0_Q1"":2}",survey,136,5109481,0.0-8.0-1.58,[],,,
,,,,,,,,,,
1860,TestRecordings/drakpum.wav,0,audio-button-response,137,5111349,0.0-8.0-0.59,,,,
,,,,,,,,,,
7809,,"{""P0_Q0"":""dragpoon"",""P0_Q1"":1}",survey,138,5119168,0.0-8.0-1.59,[],,,
,,,,,,,,,,
3652,, ,html-keyboard-response,139,5122822,0.0-9.0,,,,
,,,,,,,,,,
25960,,"{""P0_Q0"":""21"",""P0_Q1"":""female"",""P0_Q2"":""yes"",""P0_Q3"":""n/a"",""P0_Q4"":""n/a"",""P0_Q5"":""n/a""}",survey,140,5148793,0.0-10.0,[],,,
,,,,,,,,,,
687107,"<p style=""font-size:30px"">The experiment has ended</p><p style=""font-size:30px"",lang=""ko"">Thanks for participating in it!</p>", ,html-keyboard-response,141,5835875,0.0-11.0,,,,