rt,stimulus,response,trial_type,trial_index,time_elapsed,internal_node_id,accuracy,PracticeTest,ConsonantSequence,Grammaticality
,,,,,,,,,,
4375873,"<p style=""font-size:30px"">Welcome to the experiment</p><p>Press spacebar to continue</p>", ,html-keyboard-response,0,4375770,0.0-0.0,,,,
,,,,,,,,,,
2615,"<p style=""font-size:30px"">Please ensure that your headphones are on correctly</p><p>Press spacebar to continue</p>", ,html-keyboard-response,1,4378385,0.0-1.0,,,,
,,,,,,,,,,
6458,"<p style=""font-size:30px"">In this experiment, you will listen to nonsense words</p><p style=""font-size:30px"",lang=""ko"">Your task is to write down the word and then rate how good an English word it is</p><p>Press spacebar to continue</p>", ,html-keyboard-response,2,4384844,0.0-2.0,,,,
,,,,,,,,,,
2496,"<p style=""font-size:30px"">Let's practice with some nonsense words so that you understand the task</p><p>Press spacebar to continue</p>", ,html-keyboard-response,3,4387339,0.0-3.0,,,,
,,,,,,,,,,
6165,PracticeRecordings/bupkes.wav,0,audio-button-response,4,4393866,0.0-4.0-0.0,,,,
,,,,,,,,,,
12753,bupkes,"{""P0_Q0"":""butkis""}",survey,5,4406654,0.0-4.0-1.0,[],practice,NA,TRUE
,,,,,,,,,,
6443,"<p style=""font-size:30px""> The word you heard is <br> ""bupkess"" <br> It may sound different depending on the person. <br> Write it down as it sounds.</p><p lang=""ko"">Press spacebar to continue</p>", ,html-keyboard-response,6,4413098,0.0-4.0-2.0,,,,
,,,,,,,,,,
5047,PracticeRecordings/dringgep.wav,0,audio-button-response,7,4418153,0.0-4.0-0.1,,,,
,,,,,,,,,,
8759,dringep,"{""P0_Q0"":""dringap""}",survey,8,4426924,0.0-4.0-1.1,[],practice,NA,FALSE
,,,,,,,,,,
7693,"<p style=""font-size:30px""> The word you heard is <br> ""dringep"" <br> It may sound different depending on the person. <br> Write it down as it sounds.</p><p lang=""ko"">Press spacebar to continue</p>", ,html-keyboard-response,9,4434618,0.0-4.0-2.1,,,,
,,,,,,,,,,
3624,PracticeRecordings/dunggem.wav,0,audio-button-response,10,4438248,0.0-4.0-0.2,,,,
,,,,,,,,,,
4866,dunggem,"{""P0_Q0"":""dengam""}",survey,11,4443124,0.0-4.0-1.2,[],practice,NA,FALSE
,,,,,,,,,,
6733,"<p style=""font-size:30px""> The word you heard is <br> ""dungem"" (or) ""doongem"" <br> It may sound different depending on the person. <br> Write it down as it sounds.</p><p lang=""ko"">Press spacebar to continue</p>", ,html-keyboard-response,12,4449857,0.0-4.0-2.2,,,,
,,,,,,,,,,
1199,PracticeRecordings/deip.wav,0,audio-button-response,13,4451064,0.0-4.0-0.3,,,,
,,,,,,,,,,
3337,deip,"{""P0_Q0"":""dape""}",survey,14,4454411,0.0-4.0-1.3,[],practice,NA,FALSE
,,,,,,,,,,
5317,"<p style=""font-size:30px""> The word you heard is <br> ""dape"" <br> It may sound different depending on the person. <br> Write it down as it sounds.</p><p lang=""ko"">Press spacebar to continue</p>", ,html-keyboard-response,15,4459728,0.0-4.0-2.3,,,,
,,,,,,,,,,
3616,, ,html-keyboard-response,16,4463345,0.0-5.0,,,,
,,,,,,,,,,
7183,"<p style=""font-size:30px"">Now let's move on to the actual experiment.</p><p style=""font-size:30px"",lang=""ko"">During the experiment, you will hear each of the nonce words only once.", ,html-keyboard-response,17,4470529,0.0-6.0,,,,
,,,,,,,,,,
4464,"<p style=""font-size:30px"">After writing down the word, you will also rate the nonsense word you heard as a possible word of American English.</p><p>Press spacebar to continue</p>", ,html-keyboard-response,18,4474993,0.0-7.0,,,,
,,,,,,,,,,
2102,TestRecordings/gitpes.wav,0,audio-button-response,19,4477102,0.0-8.0-0.0,,,,
,,,,,,,,,,
13527,,"{""P0_Q0"":""getpes"",""P0_Q1"":2}",survey,20,4490643,0.0-8.0-1.0,[],,,
,,,,,,,,,,
1236,TestRecordings/ndeip.wav,0,audio-button-response,21,4491887,0.0-8.0-0.1,,,,
,,,,,,,,,,
7656,,"{""P0_Q0"":""dape"",""P0_Q1"":2}",survey,22,4499554,0.0-8.0-1.1,[],,,
,,,,,,,,,,
1653,TestRecordings/tempuk.wav,0,audio-button-response,23,4501214,0.0-8.0-0.2,,,,
,,,,,,,,,,
7177,,"{""P0_Q0"":""tempok"",""P0_Q1"":3}",survey,24,4508402,0.0-8.0-1.2,[],,,
,,,,,,,,,,
1588,TestRecordings/nboup.wav,0,audio-button-response,25,4509998,0.0-8.0-0.3,,,,
,,,,,,,,,,
9042,,"{""P0_Q0"":""bope"",""P0_Q1"":4}",survey,26,4519049,0.0-8.0-1.3,[],,,
,,,,,,,,,,
1245,TestRecordings/dmut.wav,0,audio-button-response,27,4520302,0.0-8.0-0.4,,,,
,,,,,,,,,,
7587,,"{""P0_Q0"":""dmute"",""P0_Q1"":2}",survey,28,4527896,0.0-8.0-1.4,[],,,
,,,,,,,,,,
4815,TestRecordings/dloun.wav,0,audio-button-response,29,4532717,0.0-8.0-0.5,,,,
,,,,,,,,,,
4643,,"{""P0_Q0"":""blown"",""P0_Q1"":7}",survey,30,4537368,0.0-8.0-1.5,[],,,
,,,,,,,,,,
1501,TestRecordings/sengdun.wav,0,audio-button-response,31,4538876,0.0-8.0-0.6,,,,
,,,,,,,,,,
9682,,"{""P0_Q0"":""sagden"",""P0_Q1"":3}",survey,32,4548568,0.0-8.0-1.6,[],,,
,,,,,,,,,,
1302,TestRecordings/tep.wav,0,audio-button-response,33,4549877,0.0-8.0-0.7,,,,
,,,,,,,,,,
4675,,"{""P0_Q0"":""tep"",""P0_Q1"":3}",survey,34,4554559,0.0-8.0-1.7,[],,,
,,,,,,,,,,
1175,TestRecordings/pmiik.wav,0,audio-button-response,35,4555740,0.0-8.0-0.8,,,,
,,,,,,,,,,
5962,,"{""P0_Q0"":""pnek"",""P0_Q1"":1}",survey,36,4561711,0.0-8.0-1.8,[],,,
,,,,,,,,,,
1327,TestRecordings/punseng.wav,0,audio-button-response,37,4563043,0.0-8.0-0.9,,,,
,,,,,,,,,,
7186,,"{""P0_Q0"":""punsag"",""P0_Q1"":2}",survey,38,4570238,0.0-8.0-1.9,[],,,
,,,,,,,,,,
1046,TestRecordings/stuun.wav,0,audio-button-response,39,4571291,0.0-8.0-0.10,,,,
,,,,,,,,,,
4882,,"{""P0_Q0"":""stoon"",""P0_Q1"":4}",survey,40,4576182,0.0-8.0-1.10,[],,,
,,,,,,,,,,
1227,TestRecordings/nutbim.wav,0,audio-button-response,41,4577419,0.0-8.0-0.11,,,,
,,,,,,,,,,
5379,,"{""P0_Q0"":""nutben"",""P0_Q1"":2}",survey,42,4582806,0.0-8.0-1.11,[],,,
,,,,,,,,,,
1485,TestRecordings/drantung.wav,0,audio-button-response,43,4584298,0.0-8.0-0.12,,,,
,,,,,,,,,,
10818,,"{""P0_Q0"":""drangton"",""P0_Q1"":2}",survey,44,4595126,0.0-8.0-1.12,[],,,
,,,,,,,,,,
1110,TestRecordings/ntek.wav,0,audio-button-response,45,4596242,0.0-8.0-0.13,,,,
,,,,,,,,,,
5372,,"{""P0_Q0"":""mtech"",""P0_Q1"":1}",survey,46,4601622,0.0-8.0-1.13,[],,,
,,,,,,,,,,
1615,TestRecordings/tlumgak.wav,0,audio-button-response,47,4603242,0.0-8.0-0.14,,,,
,,,,,,,,,,
7652,,"{""P0_Q0"":""tlemgac"",""P0_Q1"":1}",survey,48,4610902,0.0-8.0-1.14,[],,,
,,,,,,,,,,
1278,TestRecordings/drikteng.wav,0,audio-button-response,49,4612186,0.0-8.0-0.15,,,,
,,,,,,,,,,
6011,,"{""P0_Q0"":""drickton"",""P0_Q1"":4}",survey,50,4618205,0.0-8.0-1.15,[],,,
,,,,,,,,,,
1046,TestRecordings/pwam.wav,0,audio-button-response,51,4619258,0.0-8.0-0.16,,,,
,,,,,,,,,,
10827,,"{""P0_Q0"":""pwam"",""P0_Q1"":2}",survey,52,4630093,0.0-8.0-1.16,[],,,
,,,,,,,,,,
1255,TestRecordings/skain.wav,0,audio-button-response,53,4631353,0.0-8.0-0.17,,,,
,,,,,,,,,,
6803,,"{""P0_Q0"":""scin"",""P0_Q1"":1}",survey,54,4638164,0.0-8.0-1.17,[],,,
,,,,,,,,,,
1655,TestRecordings/dlisbep.wav,0,audio-button-response,55,4639825,0.0-8.0-0.18,,,,
,,,,,,,,,,
26259,,"{""P0_Q0"":""tilispep"",""P0_Q1"":1}",survey,56,4666091,0.0-8.0-1.18,[],,,
,,,,,,,,,,
990,TestRecordings/trindes.wav,0,audio-button-response,57,4667088,0.0-8.0-0.19,,,,
,,,,,,,,,,
7962,,"{""P0_Q0"":""trendis"",""P0_Q1"":5}",survey,58,4675059,0.0-8.0-1.19,[],,,
,,,,,,,,,,
1096,TestRecordings/pundes.wav,0,audio-button-response,59,4676161,0.0-8.0-0.20,,,,
,,,,,,,,,,
5898,,"{""P0_Q0"":""pundis"",""P0_Q1"":3}",survey,60,4682067,0.0-8.0-1.20,[],,,
,,,,,,,,,,
886,TestRecordings/dlahm.wav,0,audio-button-response,61,4682959,0.0-8.0-0.21,,,,
,,,,,,,,,,
5612,,"{""P0_Q0"":""blom"",""P0_Q1"":5}",survey,62,4688579,0.0-8.0-1.21,[],,,
,,,,,,,,,,
1134,TestRecordings/pmeit.wav,0,audio-button-response,63,4689719,0.0-8.0-0.22,,,,
,,,,,,,,,,
8588,,"{""P0_Q0"":""pumate"",""P0_Q1"":1}",survey,64,4698314,0.0-8.0-1.22,[],,,
,,,,,,,,,,
1479,TestRecordings/trahm.wav,0,audio-button-response,65,4699798,0.0-8.0-0.23,,,,
,,,,,,,,,,
13628,,"{""P0_Q0"":""traum"",""P0_Q1"":4}",survey,66,4713433,0.0-8.0-1.23,[],,,
,,,,,,,,,,
975,TestRecordings/nangdup.wav,0,audio-button-response,67,4714414,0.0-8.0-0.24,,,,
,,,,,,,,,,
8492,,"{""P0_Q0"":""nagdup"",""P0_Q1"":1}",survey,68,4722914,0.0-8.0-1.24,[],,,
,,,,,,,,,,
966,TestRecordings/gipsus.wav,0,audio-button-response,69,4723887,0.0-8.0-0.25,,,,
,,,,,,,,,,
5718,,"{""P0_Q0"":""gibsis"",""P0_Q1"":1}",survey,70,4729610,0.0-8.0-1.25,[],,,
,,,,,,,,,,
910,TestRecordings/bem.wav,0,audio-button-response,71,4730526,0.0-8.0-0.26,,,,
,,,,,,,,,,
5323,,"{""P0_Q0"":""bim"",""P0_Q1"":1}",survey,72,4735857,0.0-8.0-1.26,[],,,
,,,,,,,,,,
1071,TestRecordings/giit.wav,0,audio-button-response,73,4736934,0.0-8.0-0.27,,,,
,,,,,,,,,,
2949,,"{""P0_Q0"":""geet"",""P0_Q1"":3}",survey,74,4739889,0.0-8.0-1.27,[],,,
,,,,,,,,,,
934,TestRecordings/drakpum.wav,0,audio-button-response,75,4740830,0.0-8.0-0.28,,,,
,,,,,,,,,,
8452,,"{""P0_Q0"":""dracpum"",""P0_Q1"":1}",survey,76,4749288,0.0-8.0-1.28,[],,,
,,,,,,,,,,
968,TestRecordings/gup.wav,0,audio-button-response,77,4750261,0.0-8.0-0.29,,,,
,,,,,,,,,,
3555,,"{""P0_Q0"":""gup"",""P0_Q1"":2}",survey,78,4753824,0.0-8.0-1.29,[],,,
,,,,,,,,,,
966,TestRecordings/pemdut.wav,0,audio-button-response,79,4754797,0.0-8.0-0.30,,,,
,,,,,,,,,,
7012,,"{""P0_Q0"":""pamdut"",""P0_Q1"":1}",survey,80,4761816,0.0-8.0-1.30,[],,,
,,,,,,,,,,
1727,TestRecordings/ningpum.wav,0,audio-button-response,81,4763548,0.0-8.0-0.31,,,,
,,,,,,,,,,
8533,,"{""P0_Q0"":""nigpum"",""P0_Q1"":1}",survey,82,4772087,0.0-8.0-1.31,[],,,
,,,,,,,,,,
1055,TestRecordings/stahm.wav,0,audio-button-response,83,4773148,0.0-8.0-0.32,,,,
,,,,,,,,,,
4549,,"{""P0_Q0"":""stom"",""P0_Q1"":4}",survey,84,4777704,0.0-8.0-1.32,[],,,
,,,,,,,,,,
1787,TestRecordings/gistum.wav,0,audio-button-response,85,4779500,0.0-8.0-0.33,,,,
,,,,,,,,,,
4386,,"{""P0_Q0"":""giston"",""P0_Q1"":2}",survey,86,4783913,0.0-8.0-1.33,[],,,
,,,,,,,,,,
1613,TestRecordings/twas.wav,0,audio-button-response,87,4785532,0.0-8.0-0.34,,,,
,,,,,,,,,,
12041,,"{""P0_Q0"":""twas"",""P0_Q1"":5}",survey,88,4797584,0.0-8.0-1.34,[],,,
,,,,,,,,,,
2174,TestRecordings/mgit.wav,0,audio-button-response,89,4799764,0.0-8.0-0.35,,,,
,,,,,,,,,,
4081,,"{""P0_Q0"":""get"",""P0_Q1"":7}",survey,90,4803855,0.0-8.0-1.35,[],,,
,,,,,,,,,,
1126,TestRecordings/suntem.wav,0,audio-button-response,91,4804988,0.0-8.0-0.36,,,,
,,,,,,,,,,
4633,,"{""P0_Q0"":""suntim"",""P0_Q1"":3}",survey,92,4809631,0.0-8.0-1.36,[],,,
,,,,,,,,,,
1102,TestRecordings/tlemkun.wav,0,audio-button-response,93,4810740,0.0-8.0-0.37,,,,
,,,,,,,,,,
6594,,"{""P0_Q0"":""flancon"",""P0_Q1"":2}",survey,94,4817342,0.0-8.0-1.37,[],,,
,,,,,,,,,,
1358,TestRecordings/drustet.wav,0,audio-button-response,95,4818707,0.0-8.0-0.38,,,,
,,,,,,,,,,
7355,,"{""P0_Q0"":""dristet"",""P0_Q1"":4}",survey,96,4826070,0.0-8.0-1.38,[],,,
,,,,,,,,,,
1206,TestRecordings/dlemkus.wav,0,audio-button-response,97,4827283,0.0-8.0-0.39,,,,
,,,,,,,,,,
7085,,"{""P0_Q0"":""blancos"",""P0_Q1"":3}",survey,98,4834374,0.0-8.0-1.39,[],,,
,,,,,,,,,,
1238,TestRecordings/drain.wav,0,audio-button-response,99,4835618,0.0-8.0-0.40,,,,
,,,,,,,,,,
4601,,"{""P0_Q0"":""drine"",""P0_Q1"":6}",survey,100,4840228,0.0-8.0-1.40,[],,,
,,,,,,,,,,
1519,TestRecordings/tisbeng.wav,0,audio-button-response,101,4841754,0.0-8.0-0.41,,,,
,,,,,,,,,,
4756,,"{""P0_Q0"":""tisbing"",""P0_Q1"":2}",survey,102,4846534,0.0-8.0-1.41,[],,,
,,,,,,,,,,
1276,TestRecordings/paim.wav,0,audio-button-response,103,4847817,0.0-8.0-0.42,,,,
,,,,,,,,,,
4929,,"{""P0_Q0"":""pime"",""P0_Q1"":4}",survey,104,4852759,0.0-8.0-1.42,[],,,
,,,,,,,,,,
1206,TestRecordings/twen.wav,0,audio-button-response,105,4853970,0.0-8.0-0.43,,,,
,,,,,,,,,,
4961,,"{""P0_Q0"":""twin"",""P0_Q1"":7}",survey,106,4858941,0.0-8.0-1.43,[],,,
,,,,,,,,,,
885,TestRecordings/tlem.wav,0,audio-button-response,107,4859833,0.0-8.0-0.44,,,,
,,,,,,,,,,
4403,,"{""P0_Q0"":""tlin"",""P0_Q1"":1}",survey,108,4864244,0.0-8.0-1.44,[],,,
,,,,,,,,,,
846,TestRecordings/mkait.wav,0,audio-button-response,109,4865098,0.0-8.0-0.45,,,,
,,,,,,,,,,
4226,,"{""P0_Q0"":""mkite"",""P0_Q1"":1}",survey,110,4869332,0.0-8.0-1.45,[],,,
,,,,,,,,,,
1071,TestRecordings/tlepgim.wav,0,audio-button-response,111,4870409,0.0-8.0-0.46,,,,
,,,,,,,,,,
4235,,"{""P0_Q0"":""tlepkin"",""P0_Q1"":3}",survey,112,4874652,0.0-8.0-1.46,[],,,
,,,,,,,,,,
975,TestRecordings/kmaut.wav,0,audio-button-response,113,4875633,0.0-8.0-0.47,,,,
,,,,,,,,,,
7461,,"{""P0_Q0"":""kamout"",""P0_Q1"":1}",survey,114,4883100,0.0-8.0-1.47,[],,,
,,,,,,,,,,
1566,TestRecordings/gatkun.wav,0,audio-button-response,115,4884672,0.0-8.0-0.48,,,,
,,,,,,,,,,
4084,,"{""P0_Q0"":""gatkin"",""P0_Q1"":2}",survey,116,4888764,0.0-8.0-1.48,[],,,
,,,,,,,,,,
1006,TestRecordings/kmeip.wav,0,audio-button-response,117,4889776,0.0-8.0-0.49,,,,
,,,,,,,,,,
13762,,"{""P0_Q0"":""knimape"",""P0_Q1"":2}",survey,118,4903546,0.0-8.0-1.49,[],,,
,,,,,,,,,,
1087,TestRecordings/kutpim.wav,0,audio-button-response,119,4904641,0.0-8.0-0.50,,,,
,,,,,,,,,,
5803,,"{""P0_Q0"":""cutpin"",""P0_Q1"":4}",survey,120,4910468,0.0-8.0-1.50,[],,,
,,,,,,,,,,
1068,TestRecordings/bepgik.wav,0,audio-button-response,121,4911544,0.0-8.0-0.51,,,,
,,,,,,,,,,
9008,,"{""P0_Q0"":""bebkic"",""P0_Q1"":2}",survey,122,4920564,0.0-8.0-1.51,[],,,
,,,,,,,,,,
957,TestRecordings/mepgut.wav,0,audio-button-response,123,4921527,0.0-8.0-0.52,,,,
,,,,,,,,,,
6064,,"{""P0_Q0"":""metcook"",""P0_Q1"":1}",survey,124,4927603,0.0-8.0-1.52,[],,,
,,,,,,,,,,
1063,TestRecordings/tlipgat.wav,0,audio-button-response,125,4928671,0.0-8.0-0.53,,,,
,,,,,,,,,,
11771,,"{""P0_Q0"":""tlipgat"",""P0_Q1"":2}",survey,126,4940450,0.0-8.0-1.53,[],,,
,,,,,,,,,,
1022,TestRecordings/drumbeng.wav,0,audio-button-response,127,4941479,0.0-8.0-0.54,,,,
,,,,,,,,,,
6450,,"{""P0_Q0"":""drinbang"",""P0_Q1"":3}",survey,128,4947938,0.0-8.0-1.54,[],,,
,,,,,,,,,,
1109,TestRecordings/tlasdung.wav,0,audio-button-response,129,4949055,0.0-8.0-0.55,,,,
,,,,,,,,,,
6051,,"{""P0_Q0"":""tlastin"",""P0_Q1"":5}",survey,130,4955113,0.0-8.0-1.55,[],,,
,,,,,,,,,,
1143,TestRecordings/stauk.wav,0,audio-button-response,131,4956262,0.0-8.0-0.56,,,,
,,,,,,,,,,
22785,,"{""P0_Q0"":""stouk"",""P0_Q1"":3}",survey,132,4979054,0.0-8.0-1.56,[],,,
,,,,,,,,,,
1263,TestRecordings/pwuk.wav,0,audio-button-response,133,4980325,0.0-8.0-0.57,,,,
,,,,,,,,,,
4060,,"{""P0_Q0"":""pwok"",""P0_Q1"":2}",survey,134,4984409,0.0-8.0-1.57,[],,,
,,,,,,,,,,
989,TestRecordings/tloum.wav,0,audio-button-response,135,4985404,0.0-8.0-0.58,,,,
,,,,,,,,,,
4568,,"{""P0_Q0"":""tlom"",""P0_Q1"":1}",survey,136,4989985,0.0-8.0-1.58,[],,,
,,,,,,,,,,
854,TestRecordings/tlik.wav,0,audio-button-response,137,4990845,0.0-8.0-0.59,,,,
,,,,,,,,,,
3299,,"{""P0_Q0"":""tlick"",""P0_Q1"":6}",survey,138,4994152,0.0-8.0-1.59,[],,,
,,,,,,,,,,
4133,, ,html-keyboard-response,139,4998286,0.0-9.0,,,,
,,,,,,,,,,
34429,,"{""P0_Q0"":""21"",""P0_Q1"":""female"",""P0_Q2"":""yes"",""P0_Q3"":""n/a"",""P0_Q4"":""n/a"",""P0_Q5"":""n/a""}",survey,140,5032727,0.0-10.0,[],,,
,,,,,,,,,,
216157,"<p style=""font-size:30px"">The experiment has ended</p><p style=""font-size:30px"",lang=""ko"">Thanks for participating in it!</p>", ,html-keyboard-response,141,5248878,0.0-11.0,,,,