rt,stimulus,response,trial_type,trial_index,time_elapsed,internal_node_id,accuracy,PracticeTest,ConsonantSequence,Grammaticality
,,,,,,,,,,
1832445,"<p style=""font-size:30px"">Welcome to the experiment</p><p>Press spacebar to continue</p>", ,html-keyboard-response,0,1832356,0.0-0.0,,,,
,,,,,,,,,,
2220,"<p style=""font-size:30px"">Please ensure that your headphones are on correctly</p><p>Press spacebar to continue</p>", ,html-keyboard-response,1,1834577,0.0-1.0,,,,
,,,,,,,,,,
4831,"<p style=""font-size:30px"">In this experiment, you will listen to nonsense words</p><p style=""font-size:30px"",lang=""ko"">Your task is to write down the word and then rate how good an English word it is</p><p>Press spacebar to continue</p>", ,html-keyboard-response,2,1839408,0.0-2.0,,,,
,,,,,,,,,,
1791,"<p style=""font-size:30px"">Let's practice with some nonsense words so that you understand the task</p><p>Press spacebar to continue</p>", ,html-keyboard-response,3,1841200,0.0-3.0,,,,
,,,,,,,,,,
4598,PracticeRecordings/bupkes.wav,0,audio-button-response,4,1845807,0.0-4.0-0.0,,,,
,,,,,,,,,,
6193,bupkes,"{""P0_Q0"":""bupkiss""}",survey,5,1852044,0.0-4.0-1.0,[],practice,NA,TRUE
,,,,,,,,,,
3267,"<p style=""font-size:30px""> The word you heard is <br> ""bupkess"" <br> It may sound different depending on the person. <br> Write it down as it sounds.</p><p lang=""ko"">Press spacebar to continue</p>", ,html-keyboard-response,6,1855313,0.0-4.0-2.0,,,,
,,,,,,,,,,
1439,PracticeRecordings/dringgep.wav,0,audio-button-response,7,1856759,0.0-4.0-0.1,,,,
,,,,,,,,,,
5656,dringep,"{""P0_Q0"":""tringep""}",survey,8,1862426,0.0-4.0-1.1,[],practice,NA,FALSE
,,,,,,,,,,
2469,"<p style=""font-size:30px""> The word you heard is <br> ""dringep"" <br> It may sound different depending on the person. <br> Write it down as it sounds.</p><p lang=""ko"">Press spacebar to continue</p>", ,html-keyboard-response,9,1864896,0.0-4.0-2.1,,,,
,,,,,,,,,,
1480,PracticeRecordings/dunggem.wav,0,audio-button-response,10,1866382,0.0-4.0-0.2,,,,
,,,,,,,,,,
11707,dunggem,"{""P0_Q0"":""dungem""}",survey,11,1878096,0.0-4.0-1.2,[],practice,NA,FALSE
,,,,,,,,,,
3086,"<p style=""font-size:30px""> The word you heard is <br> ""dungem"" (or) ""doongem"" <br> It may sound different depending on the person. <br> Write it down as it sounds.</p><p lang=""ko"">Press spacebar to continue</p>", ,html-keyboard-response,12,1881182,0.0-4.0-2.2,,,,
,,,,,,,,,,
2144,PracticeRecordings/deip.wav,0,audio-button-response,13,1883333,0.0-4.0-0.3,,,,
,,,,,,,,,,
3163,deip,"{""P0_Q0"":""dape ""}",survey,14,1886504,0.0-4.0-1.3,[],practice,NA,FALSE
,,,,,,,,,,
1038,"<p style=""font-size:30px""> The word you heard is <br> ""dape"" <br> It may sound different depending on the person. <br> Write it down as it sounds.</p><p lang=""ko"">Press spacebar to continue</p>", ,html-keyboard-response,15,1887542,0.0-4.0-2.3,,,,
,,,,,,,,,,
1296,, ,html-keyboard-response,16,1888838,0.0-5.0,,,,
,,,,,,,,,,
2879,"<p style=""font-size:30px"">Now let's move on to the actual experiment.</p><p style=""font-size:30px"",lang=""ko"">During the experiment, you will hear each of the nonce words only once.", ,html-keyboard-response,17,1891718,0.0-6.0,,,,
,,,,,,,,,,
2832,"<p style=""font-size:30px"">After writing down the word, you will also rate the nonsense word you heard as a possible word of American English.</p><p>Press spacebar to continue</p>", ,html-keyboard-response,18,1894550,0.0-7.0,,,,
,,,,,,,,,,
1119,TestRecordings/tlem.wav,0,audio-button-response,19,1895677,0.0-8.0-0.0,,,,
,,,,,,,,,,
17160,,"{""P0_Q0"":""blan"",""P0_Q1"":6}",survey,20,1912847,0.0-8.0-1.0,[],,,
,,,,,,,,,,
1799,TestRecordings/stauk.wav,0,audio-button-response,21,1914652,0.0-8.0-0.1,,,,
,,,,,,,,,,
7346,,"{""P0_Q0"":""stauk"",""P0_Q1"":5}",survey,22,1922008,0.0-8.0-1.1,[],,,
,,,,,,,,,,
1637,TestRecordings/paim.wav,0,audio-button-response,23,1923651,0.0-8.0-0.2,,,,
,,,,,,,,,,
8132,,"{""P0_Q0"":""opeim"",""P0_Q1"":2}",survey,24,1931791,0.0-8.0-1.2,[],,,
,,,,,,,,,,
1303,TestRecordings/gistum.wav,0,audio-button-response,25,1933099,0.0-8.0-0.3,,,,
,,,,,,,,,,
10522,,"{""P0_Q0"":""gistuin"",""P0_Q1"":4}",survey,26,1943629,0.0-8.0-1.3,[],,,
,,,,,,,,,,
1654,TestRecordings/drikteng.wav,0,audio-button-response,27,1945290,0.0-8.0-0.4,,,,
,,,,,,,,,,
10635,,"{""P0_Q0"":""dricktang"",""P0_Q1"":2}",survey,28,1955933,0.0-8.0-1.4,[],,,
,,,,,,,,,,
1584,TestRecordings/pundes.wav,0,audio-button-response,29,1957522,0.0-8.0-0.5,,,,
,,,,,,,,,,
6220,,"{""P0_Q0"":""pundess"",""P0_Q1"":4}",survey,30,1963748,0.0-8.0-1.5,[],,,
,,,,,,,,,,
1077,TestRecordings/gup.wav,0,audio-button-response,31,1964833,0.0-8.0-0.6,,,,
,,,,,,,,,,
7914,,"{""P0_Q0"":""gup"",""P0_Q1"":5}",survey,32,1972756,0.0-8.0-1.6,[],,,
,,,,,,,,,,
1032,TestRecordings/pwuk.wav,0,audio-button-response,33,1973792,0.0-8.0-0.7,,,,
,,,,,,,,,,
6483,,"{""P0_Q0"":""puick"",""P0_Q1"":5}",survey,34,1980284,0.0-8.0-1.7,[],,,
,,,,,,,,,,
1101,TestRecordings/drain.wav,0,audio-button-response,35,1981392,0.0-8.0-0.8,,,,
,,,,,,,,,,
3516,,"{""P0_Q0"":""drine"",""P0_Q1"":6}",survey,36,1984916,0.0-8.0-1.8,[],,,
,,,,,,,,,,
2207,TestRecordings/ningpum.wav,0,audio-button-response,37,1987128,0.0-8.0-0.9,,,,
,,,,,,,,,,
6580,,"{""P0_Q0"":""ningpung"",""P0_Q1"":2}",survey,38,1993714,0.0-8.0-1.9,[],,,
,,,,,,,,,,
1015,TestRecordings/dloun.wav,0,audio-button-response,39,1994735,0.0-8.0-0.10,,,,
,,,,,,,,,,
6060,,"{""P0_Q0"":""bloan"",""P0_Q1"":6}",survey,40,2000802,0.0-8.0-1.10,[],,,
,,,,,,,,,,
1046,TestRecordings/tloum.wav,0,audio-button-response,41,2001855,0.0-8.0-0.11,,,,
,,,,,,,,,,
6203,,"{""P0_Q0"":""cloam"",""P0_Q1"":5}",survey,42,2008066,0.0-8.0-1.11,[],,,
,,,,,,,,,,
1174,TestRecordings/gitpes.wav,0,audio-button-response,43,2009247,0.0-8.0-0.12,,,,
,,,,,,,,,,
5804,,"{""P0_Q0"":""gitpess"",""P0_Q1"":2}",survey,44,2015058,0.0-8.0-1.12,[],,,
,,,,,,,,,,
1479,TestRecordings/tlumgak.wav,0,audio-button-response,45,2016543,0.0-8.0-0.13,,,,
,,,,,,,,,,
6973,,"{""P0_Q0"":""tlumgak"",""P0_Q1"":1}",survey,46,2023521,0.0-8.0-1.13,[],,,
,,,,,,,,,,
1423,TestRecordings/twas.wav,0,audio-button-response,47,2024950,0.0-8.0-0.14,,,,
,,,,,,,,,,
3755,,"{""P0_Q0"":""twass"",""P0_Q1"":5}",survey,48,2028713,0.0-8.0-1.14,[],,,
,,,,,,,,,,
984,TestRecordings/dmut.wav,0,audio-button-response,49,2029702,0.0-8.0-0.15,,,,
,,,,,,,,,,
6420,,"{""P0_Q0"":""dmut"",""P0_Q1"":3}",survey,50,2036128,0.0-8.0-1.15,[],,,
,,,,,,,,,,
1088,TestRecordings/pwam.wav,0,audio-button-response,51,2037221,0.0-8.0-0.16,,,,
,,,,,,,,,,
18556,,"{""P0_Q0"":""puaam"",""P0_Q1"":3}",survey,52,2055784,0.0-8.0-1.16,[],,,
,,,,,,,,,,
958,TestRecordings/mkait.wav,0,audio-button-response,53,2056749,0.0-8.0-0.17,,,,
,,,,,,,,,,
9299,,"{""P0_Q0"":""m'kite"",""P0_Q1"":2}",survey,54,2066055,0.0-8.0-1.17,[],,,
,,,,,,,,,,
862,TestRecordings/pmeit.wav,0,audio-button-response,55,2066924,0.0-8.0-0.18,,,,
,,,,,,,,,,
11164,,"{""P0_Q0"":""pumate"",""P0_Q1"":5}",survey,56,2078095,0.0-8.0-1.18,[],,,
,,,,,,,,,,
974,TestRecordings/ntek.wav,0,audio-button-response,57,2079075,0.0-8.0-0.19,,,,
,,,,,,,,,,
7342,,"{""P0_Q0"":""ntec"",""P0_Q1"":4}",survey,58,2086422,0.0-8.0-1.19,[],,,
,,,,,,,,,,
903,TestRecordings/gatkun.wav,0,audio-button-response,59,2087330,0.0-8.0-0.20,,,,
,,,,,,,,,,
4524,,"{""P0_Q0"":""gatkun"",""P0_Q1"":3}",survey,60,2091862,0.0-8.0-1.20,[],,,
,,,,,,,,,,
806,TestRecordings/giit.wav,0,audio-button-response,61,2092674,0.0-8.0-0.21,,,,
,,,,,,,,,,
3204,,"{""P0_Q0"":""geet"",""P0_Q1"":6}",survey,62,2095886,0.0-8.0-1.21,[],,,
,,,,,,,,,,
886,TestRecordings/pmiik.wav,0,audio-button-response,63,2096778,0.0-8.0-0.22,,,,
,,,,,,,,,,
5885,,"{""P0_Q0"":""p'nik"",""P0_Q1"":2}",survey,64,2102669,0.0-8.0-1.22,[],,,
,,,,,,,,,,
911,TestRecordings/suntem.wav,0,audio-button-response,65,2103586,0.0-8.0-0.23,,,,
,,,,,,,,,,
14428,,"{""P0_Q0"":""sundhem"",""P0_Q1"":4}",survey,66,2118021,0.0-8.0-1.23,[],,,
,,,,,,,,,,
2711,TestRecordings/drustet.wav,0,audio-button-response,67,2120737,0.0-8.0-0.24,,,,
,,,,,,,,,,
4572,,"{""P0_Q0"":""drustet"",""P0_Q1"":3}",survey,68,2125315,0.0-8.0-1.24,[],,,
,,,,,,,,,,
1005,TestRecordings/tlepgim.wav,0,audio-button-response,69,2126328,0.0-8.0-0.25,,,,
,,,,,,,,,,
6924,,"{""P0_Q0"":""tlepkin"",""P0_Q1"":3}",survey,70,2133259,0.0-8.0-1.25,[],,,
,,,,,,,,,,
1030,TestRecordings/gipsus.wav,0,audio-button-response,71,2134296,0.0-8.0-0.26,,,,
,,,,,,,,,,
4637,,"{""P0_Q0"":""gipsus"",""P0_Q1"":5}",survey,72,2138940,0.0-8.0-1.26,[],,,
,,,,,,,,,,
959,TestRecordings/tlik.wav,0,audio-button-response,73,2139904,0.0-8.0-0.27,,,,
,,,,,,,,,,
6419,,"{""P0_Q0"":""tlick"",""P0_Q1"":3}",survey,74,2146331,0.0-8.0-1.27,[],,,
,,,,,,,,,,
1008,TestRecordings/twen.wav,0,audio-button-response,75,2147345,0.0-8.0-0.28,,,,
,,,,,,,,,,
11002,,"{""P0_Q0"":""twhen"",""P0_Q1"":5}",survey,76,2158355,0.0-8.0-1.28,[],,,
,,,,,,,,,,
1102,TestRecordings/bepgik.wav,0,audio-button-response,77,2159463,0.0-8.0-0.29,,,,
,,,,,,,,,,
8036,,"{""P0_Q0"":""bepgik"",""P0_Q1"":3}",survey,78,2167506,0.0-8.0-1.29,[],,,
,,,,,,,,,,
926,TestRecordings/trindes.wav,0,audio-button-response,79,2168438,0.0-8.0-0.30,,,,
,,,,,,,,,,
5524,,"{""P0_Q0"":""trendess"",""P0_Q1"":6}",survey,80,2173970,0.0-8.0-1.30,[],,,
,,,,,,,,,,
1134,TestRecordings/tlasdung.wav,0,audio-button-response,81,2175110,0.0-8.0-0.31,,,,
,,,,,,,,,,
4308,,"{""P0_Q0"":""plastun"",""P0_Q1"":6}",survey,82,2179425,0.0-8.0-1.31,[],,,
,,,,,,,,,,
991,TestRecordings/mepgut.wav,0,audio-button-response,83,2180421,0.0-8.0-0.32,,,,
,,,,,,,,,,
4386,,"{""P0_Q0"":""nepgut"",""P0_Q1"":3}",survey,84,2184815,0.0-8.0-1.32,[],,,
,,,,,,,,,,
1366,TestRecordings/sengdun.wav,0,audio-button-response,85,2186189,0.0-8.0-0.33,,,,
,,,,,,,,,,
5196,,"{""P0_Q0"":""sangdin"",""P0_Q1"":4}",survey,86,2191410,0.0-8.0-1.33,[],,,
,,,,,,,,,,
982,TestRecordings/bem.wav,0,audio-button-response,87,2192397,0.0-8.0-0.34,,,,
,,,,,,,,,,
3697,,"{""P0_Q0"":""bem"",""P0_Q1"":3}",survey,88,2196105,0.0-8.0-1.34,[],,,
,,,,,,,,,,
1087,TestRecordings/tisbeng.wav,0,audio-button-response,89,2197197,0.0-8.0-0.35,,,,
,,,,,,,,,,
7250,,"{""P0_Q0"":""tisbing"",""P0_Q1"":2}",survey,90,2204456,0.0-8.0-1.35,[],,,
,,,,,,,,,,
973,TestRecordings/pemdut.wav,0,audio-button-response,91,2205436,0.0-8.0-0.36,,,,
,,,,,,,,,,
5146,,"{""P0_Q0"":""pemdut"",""P0_Q1"":4}",survey,92,2210592,0.0-8.0-1.36,[],,,
,,,,,,,,,,
1365,TestRecordings/kutpim.wav,0,audio-button-response,93,2211964,0.0-8.0-0.37,,,,
,,,,,,,,,,
5779,,"{""P0_Q0"":""kudpim"",""P0_Q1"":1}",survey,94,2217752,0.0-8.0-1.37,[],,,
,,,,,,,,,,
877,TestRecordings/nutbim.wav,0,audio-button-response,95,2218636,0.0-8.0-0.38,,,,
,,,,,,,,,,
8512,,"{""P0_Q0"":""nuutbim"",""P0_Q1"":2}",survey,96,2227159,0.0-8.0-1.38,[],,,
,,,,,,,,,,
871,TestRecordings/tep.wav,0,audio-button-response,97,2228036,0.0-8.0-0.39,,,,
,,,,,,,,,,
5020,,"{""P0_Q0"":""tep"",""P0_Q1"":6}",survey,98,2233062,0.0-8.0-1.39,[],,,
,,,,,,,,,,
943,TestRecordings/stuun.wav,0,audio-button-response,99,2234011,0.0-8.0-0.40,,,,
,,,,,,,,,,
8412,,"{""P0_Q0"":""stoon"",""P0_Q1"":6}",survey,100,2242432,0.0-8.0-1.40,[],,,
,,,,,,,,,,
905,TestRecordings/nboup.wav,0,audio-button-response,101,2243346,0.0-8.0-0.41,,,,
,,,,,,,,,,
4759,,"{""P0_Q0"":""n'bop"",""P0_Q1"":1}",survey,102,2248135,0.0-8.0-1.41,[],,,
,,,,,,,,,,
956,TestRecordings/kmaut.wav,0,audio-button-response,103,2249098,0.0-8.0-0.42,,,,
,,,,,,,,,,
7201,,"{""P0_Q0"":""knaut"",""P0_Q1"":4}",survey,104,2256310,0.0-8.0-1.42,[],,,
,,,,,,,,,,
957,TestRecordings/drakpum.wav,0,audio-button-response,105,2257274,0.0-8.0-0.43,,,,
,,,,,,,,,,
8465,,"{""P0_Q0"":""drakpum"",""P0_Q1"":3}",survey,106,2265749,0.0-8.0-1.43,[],,,
,,,,,,,,,,
950,TestRecordings/tlemkun.wav,0,audio-button-response,107,2266705,0.0-8.0-0.44,,,,
,,,,,,,,,,
6810,,"{""P0_Q0"":""tlemkun"",""P0_Q1"":3}",survey,108,2273524,0.0-8.0-1.44,[],,,
,,,,,,,,,,
870,TestRecordings/nangdup.wav,0,audio-button-response,109,2274401,0.0-8.0-0.45,,,,
,,,,,,,,,,
4540,,"{""P0_Q0"":""nangdup"",""P0_Q1"":2}",survey,110,2278949,0.0-8.0-1.45,[],,,
,,,,,,,,,,
741,TestRecordings/ndeip.wav,0,audio-button-response,111,2279696,0.0-8.0-0.46,,,,
,,,,,,,,,,
10426,,"{""P0_Q0"":""ndape"",""P0_Q1"":2}",survey,112,2290131,0.0-8.0-1.46,[],,,
,,,,,,,,,,
864,TestRecordings/dlemkus.wav,0,audio-button-response,113,2291000,0.0-8.0-0.47,,,,
,,,,,,,,,,
5555,,"{""P0_Q0"":""blemkuss"",""P0_Q1"":4}",survey,114,2296563,0.0-8.0-1.47,[],,,
,,,,,,,,,,
919,TestRecordings/tempuk.wav,0,audio-button-response,115,2297488,0.0-8.0-0.48,,,,
,,,,,,,,,,
3700,,"{""P0_Q0"":""tempuk"",""P0_Q1"":5}",survey,116,2301195,0.0-8.0-1.48,[],,,
,,,,,,,,,,
855,TestRecordings/kmeip.wav,0,audio-button-response,117,2302056,0.0-8.0-0.49,,,,
,,,,,,,,,,
4777,,"{""P0_Q0"":""kmape"",""P0_Q1"":2}",survey,118,2306868,0.0-8.0-1.49,[],,,
,,,,,,,,,,
909,TestRecordings/stahm.wav,0,audio-button-response,119,2307783,0.0-8.0-0.50,,,,
,,,,,,,,,,
7056,,"{""P0_Q0"":""stam"",""P0_Q1"":7}",survey,120,2314868,0.0-8.0-1.50,[],,,
,,,,,,,,,,
1213,TestRecordings/punseng.wav,0,audio-button-response,121,2316087,0.0-8.0-0.51,,,,
,,,,,,,,,,
9080,,"{""P0_Q0"":""punsing"",""P0_Q1"":5}",survey,122,2325178,0.0-8.0-1.51,[],,,
,,,,,,,,,,
830,TestRecordings/drumbeng.wav,0,audio-button-response,123,2326015,0.0-8.0-0.52,,,,
,,,,,,,,,,
6570,,"{""P0_Q0"":""drumbing"",""P0_Q1"":3}",survey,124,2332593,0.0-8.0-1.52,[],,,
,,,,,,,,,,
1079,TestRecordings/drantung.wav,0,audio-button-response,125,2333678,0.0-8.0-0.53,,,,
,,,,,,,,,,
8043,,"{""P0_Q0"":""drantung"",""P0_Q1"":4}",survey,126,2341728,0.0-8.0-1.53,[],,,
,,,,,,,,,,
879,TestRecordings/tlipgat.wav,0,audio-button-response,127,2342614,0.0-8.0-0.54,,,,
,,,,,,,,,,
6361,,"{""P0_Q0"":""tlipgat"",""P0_Q1"":2}",survey,128,2348985,0.0-8.0-1.54,[],,,
,,,,,,,,,,
839,TestRecordings/skain.wav,0,audio-button-response,129,2349829,0.0-8.0-0.55,,,,
,,,,,,,,,,
4972,,"{""P0_Q0"":""skine"",""P0_Q1"":6}",survey,130,2354809,0.0-8.0-1.55,[],,,
,,,,,,,,,,
1318,TestRecordings/trahm.wav,0,audio-button-response,131,2356133,0.0-8.0-0.56,,,,
,,,,,,,,,,
6358,,"{""P0_Q0"":""traum"",""P0_Q1"":7}",survey,132,2362499,0.0-8.0-1.56,[],,,
,,,,,,,,,,
792,TestRecordings/mgit.wav,0,audio-button-response,133,2363324,0.0-8.0-0.57,,,,
,,,,,,,,,,
3541,,"{""P0_Q0"":""m'git"",""P0_Q1"":2}",survey,134,2366899,0.0-8.0-1.57,[],,,
,,,,,,,,,,
850,TestRecordings/dlisbep.wav,0,audio-button-response,135,2367756,0.0-8.0-0.58,,,,
,,,,,,,,,,
6023,,"{""P0_Q0"":""dilsbap"",""P0_Q1"":1}",survey,136,2373792,0.0-8.0-1.58,[],,,
,,,,,,,,,,
724,TestRecordings/dlahm.wav,0,audio-button-response,137,2374524,0.0-8.0-0.59,,,,
,,,,,,,,,,
9697,,"{""P0_Q0"":""dlam"",""P0_Q1"":3}",survey,138,2384232,0.0-8.0-1.59,[],,,
,,,,,,,,,,
3243,, ,html-keyboard-response,139,2387476,0.0-9.0,,,,
,,,,,,,,,,
81925,,"{""P0_Q0"":""23"",""P0_Q1"":""Female"",""P0_Q2"":""Yes"",""P0_Q3"":""None (german badly though)"",""P0_Q4"":""14-18, four years in high school"",""P0_Q5"":""I would not say that I know german, but our language program in highschool was terrible (our teacher was studying for the bar exam during it) and I don't think I gained anything""}",survey,140,2469411,0.0-10.0,[],,,
,,,,,,,,,,
548412,"<p style=""font-size:30px"">The experiment has ended</p><p style=""font-size:30px"",lang=""ko"">Thanks for participating in it!</p>", ,html-keyboard-response,141,3017799,0.0-11.0,,,,