rt,stimulus,response,trial_type,trial_index,time_elapsed,internal_node_id,accuracy,PracticeTest,ConsonantSequence,Grammaticality
,,,,,,,,,,
1127018,"<p style=""font-size:30px"">Welcome to the experiment</p><p>Press spacebar to continue</p>", ,html-keyboard-response,0,1127036,0.0-0.0,,,,
,,,,,,,,,,
7247,"<p style=""font-size:30px"">Please ensure that your headphones are on correctly</p><p>Press spacebar to continue</p>", ,html-keyboard-response,1,1134284,0.0-1.0,,,,
,,,,,,,,,,
5109,"<p style=""font-size:30px"">In this experiment, you will listen to nonsense words</p><p style=""font-size:30px"",lang=""ko"">Your task is to write down the word and then rate how good an English word it is</p><p>Press spacebar to continue</p>", ,html-keyboard-response,2,1139392,0.0-2.0,,,,
,,,,,,,,,,
2150,"<p style=""font-size:30px"">Let's practice with some nonsense words so that you understand the task</p><p>Press spacebar to continue</p>", ,html-keyboard-response,3,1141544,0.0-3.0,,,,
,,,,,,,,,,
6758,PracticeRecordings/bupkes.wav,0,audio-button-response,4,1148335,0.0-4.0-0.0,,,,
,,,,,,,,,,
8112,bupkes,"{""P0_Q0"":""bopkiss""}",survey,5,1156484,0.0-4.0-1.0,[],practice,NA,TRUE
,,,,,,,,,,
6020,"<p style=""font-size:30px""> The word you heard is <br> ""bupkess"" <br> It may sound different depending on the person. <br> Write it down as it sounds.</p><p lang=""ko"">Press spacebar to continue</p>", ,html-keyboard-response,6,1162504,0.0-4.0-2.0,,,,
,,,,,,,,,,
1854,PracticeRecordings/dringgep.wav,0,audio-button-response,7,1164366,0.0-4.0-0.1,,,,
,,,,,,,,,,
4687,dringep,"{""P0_Q0"":""dreamgep""}",survey,8,1169066,0.0-4.0-1.1,[],practice,NA,FALSE
,,,,,,,,,,
3085,"<p style=""font-size:30px""> The word you heard is <br> ""dringep"" <br> It may sound different depending on the person. <br> Write it down as it sounds.</p><p lang=""ko"">Press spacebar to continue</p>", ,html-keyboard-response,9,1172151,0.0-4.0-2.1,,,,
,,,,,,,,,,
2303,PracticeRecordings/dunggem.wav,0,audio-button-response,10,1174462,0.0-4.0-0.2,,,,
,,,,,,,,,,
3864,dunggem,"{""P0_Q0"":""dungam""}",survey,11,1178337,0.0-4.0-1.2,[],practice,NA,FALSE
,,,,,,,,,,
3429,"<p style=""font-size:30px""> The word you heard is <br> ""dungem"" (or) ""doongem"" <br> It may sound different depending on the person. <br> Write it down as it sounds.</p><p lang=""ko"">Press spacebar to continue</p>", ,html-keyboard-response,12,1181767,0.0-4.0-2.2,,,,
,,,,,,,,,,
1406,PracticeRecordings/deip.wav,0,audio-button-response,13,1183182,0.0-4.0-0.3,,,,
,,,,,,,,,,
4633,deip,"{""P0_Q0"":""dape""}",survey,14,1187825,0.0-4.0-1.3,[],practice,NA,FALSE
,,,,,,,,,,
2189,"<p style=""font-size:30px""> The word you heard is <br> ""dape"" <br> It may sound different depending on the person. <br> Write it down as it sounds.</p><p lang=""ko"">Press spacebar to continue</p>", ,html-keyboard-response,15,1190014,0.0-4.0-2.3,,,,
,,,,,,,,,,
2584,, ,html-keyboard-response,16,1192598,0.0-5.0,,,,
,,,,,,,,,,
6248,"<p style=""font-size:30px"">Now let's move on to the actual experiment.</p><p style=""font-size:30px"",lang=""ko"">During the experiment, you will hear each of the nonce words only once.", ,html-keyboard-response,17,1198846,0.0-6.0,,,,
,,,,,,,,,,
3790,"<p style=""font-size:30px"">After writing down the word, you will also rate the nonsense word you heard as a possible word of American English.</p><p>Press spacebar to continue</p>", ,html-keyboard-response,18,1202638,0.0-7.0,,,,
,,,,,,,,,,
2710,TestRecordings/nutbim.wav,0,audio-button-response,19,1205357,0.0-8.0-0.0,,,,
,,,,,,,,,,
13263,,"{""P0_Q0"":""nutbem"",""P0_Q1"":4}",survey,20,1218633,0.0-8.0-1.0,[],,,
,,,,,,,,,,
1260,TestRecordings/mgit.wav,0,audio-button-response,21,1219900,0.0-8.0-0.1,,,,
,,,,,,,,,,
4791,,"{""P0_Q0"":""get"",""P0_Q1"":7}",survey,22,1224704,0.0-8.0-1.1,[],,,
,,,,,,,,,,
1499,TestRecordings/stauk.wav,0,audio-button-response,23,1226212,0.0-8.0-0.2,,,,
,,,,,,,,,,
8034,,"{""P0_Q0"":""stouck"",""P0_Q1"":6}",survey,24,1234255,0.0-8.0-1.2,[],,,
,,,,,,,,,,
1877,TestRecordings/drikteng.wav,0,audio-button-response,25,1236139,0.0-8.0-0.3,,,,
,,,,,,,,,,
5473,,"{""P0_Q0"":""drictin"",""P0_Q1"":3}",survey,26,1241623,0.0-8.0-1.3,[],,,
,,,,,,,,,,
1188,TestRecordings/gipsus.wav,0,audio-button-response,27,1242819,0.0-8.0-0.4,,,,
,,,,,,,,,,
8554,,"{""P0_Q0"":""gipsous"",""P0_Q1"":4}",survey,28,1251382,0.0-8.0-1.4,[],,,
,,,,,,,,,,
1493,TestRecordings/pemdut.wav,0,audio-button-response,29,1252883,0.0-8.0-0.5,,,,
,,,,,,,,,,
4987,,"{""P0_Q0"":""pemdut"",""P0_Q1"":1}",survey,30,1257879,0.0-8.0-1.5,[],,,
,,,,,,,,,,
1181,TestRecordings/ndeip.wav,0,audio-button-response,31,1259067,0.0-8.0-0.6,,,,
,,,,,,,,,,
4523,,"{""P0_Q0"":""dape"",""P0_Q1"":5}",survey,32,1263598,0.0-8.0-1.6,[],,,
,,,,,,,,,,
1125,TestRecordings/dmut.wav,0,audio-button-response,33,1264731,0.0-8.0-0.7,,,,
,,,,,,,,,,
4420,,"{""P0_Q0"":""demut"",""P0_Q1"":2}",survey,34,1269159,0.0-8.0-1.7,[],,,
,,,,,,,,,,
1900,TestRecordings/pwam.wav,0,audio-button-response,35,1271066,0.0-8.0-0.8,,,,
,,,,,,,,,,
5427,,"{""P0_Q0"":""puan"",""P0_Q1"":3}",survey,36,1276501,0.0-8.0-1.8,[],,,
,,,,,,,,,,
1661,TestRecordings/skain.wav,0,audio-button-response,37,1278170,0.0-8.0-0.9,,,,
,,,,,,,,,,
4491,,"{""P0_Q0"":""skine"",""P0_Q1"":5}",survey,38,1282669,0.0-8.0-1.9,[],,,
,,,,,,,,,,
1237,TestRecordings/bem.wav,0,audio-button-response,39,1283914,0.0-8.0-0.10,,,,
,,,,,,,,,,
4875,,"{""P0_Q0"":""pem"",""P0_Q1"":6}",survey,40,1288796,0.0-8.0-1.10,[],,,
,,,,,,,,,,
1221,TestRecordings/mkait.wav,0,audio-button-response,41,1290026,0.0-8.0-0.11,,,,
,,,,,,,,,,
4772,,"{""P0_Q0"":""kite"",""P0_Q1"":7}",survey,42,1294805,0.0-8.0-1.11,[],,,
,,,,,,,,,,
1668,TestRecordings/drustet.wav,0,audio-button-response,43,1296481,0.0-8.0-0.12,,,,
,,,,,,,,,,
6235,,"{""P0_Q0"":""dusstet"",""P0_Q1"":2}",survey,44,1302724,0.0-8.0-1.12,[],,,
,,,,,,,,,,
1685,TestRecordings/dlahm.wav,0,audio-button-response,45,1304417,0.0-8.0-0.13,,,,
,,,,,,,,,,
4771,,"{""P0_Q0"":""dlam"",""P0_Q1"":1}",survey,46,1309196,0.0-8.0-1.13,[],,,
,,,,,,,,,,
1245,TestRecordings/drakpum.wav,0,audio-button-response,47,1310449,0.0-8.0-0.14,,,,
,,,,,,,,,,
8283,,"{""P0_Q0"":""drackpum"",""P0_Q1"":1}",survey,48,1318739,0.0-8.0-1.14,[],,,
,,,,,,,,,,
1349,TestRecordings/gistum.wav,0,audio-button-response,49,1320097,0.0-8.0-0.15,,,,
,,,,,,,,,,
4812,,"{""P0_Q0"":""gistunge"",""P0_Q1"":2}",survey,50,1324916,0.0-8.0-1.15,[],,,
,,,,,,,,,,
1140,TestRecordings/dlemkus.wav,0,audio-button-response,51,1326064,0.0-8.0-0.16,,,,
,,,,,,,,,,
5372,,"{""P0_Q0"":""blemkuss"",""P0_Q1"":5}",survey,52,1331444,0.0-8.0-1.16,[],,,
,,,,,,,,,,
1621,TestRecordings/trindes.wav,0,audio-button-response,53,1333072,0.0-8.0-0.17,,,,
,,,,,,,,,,
5602,,"{""P0_Q0"":""trendess"",""P0_Q1"":5}",survey,54,1338682,0.0-8.0-1.17,[],,,
,,,,,,,,,,
1550,TestRecordings/paim.wav,0,audio-button-response,55,1340240,0.0-8.0-0.18,,,,
,,,,,,,,,,
3995,,"{""P0_Q0"":""pime"",""P0_Q1"":6}",survey,56,1344242,0.0-8.0-1.18,[],,,
,,,,,,,,,,
2269,TestRecordings/sengdun.wav,0,audio-button-response,57,1346519,0.0-8.0-0.19,,,,
,,,,,,,,,,
6531,,"{""P0_Q0"":""singdun"",""P0_Q1"":3}",survey,58,1353058,0.0-8.0-1.19,[],,,
,,,,,,,,,,
1005,TestRecordings/dloun.wav,0,audio-button-response,59,1354071,0.0-8.0-0.20,,,,
,,,,,,,,,,
4812,,"{""P0_Q0"":""blown"",""P0_Q1"":7}",survey,60,1358890,0.0-8.0-1.20,[],,,
,,,,,,,,,,
941,TestRecordings/giit.wav,0,audio-button-response,61,1359839,0.0-8.0-0.21,,,,
,,,,,,,,,,
3963,,"{""P0_Q0"":""geet"",""P0_Q1"":4}",survey,62,1363810,0.0-8.0-1.21,[],,,
,,,,,,,,,,
1268,TestRecordings/tlipgat.wav,0,audio-button-response,63,1365087,0.0-8.0-0.22,,,,
,,,,,,,,,,
6467,,"{""P0_Q0"":""plipgat"",""P0_Q1"":4}",survey,64,1371562,0.0-8.0-1.22,[],,,
,,,,,,,,,,
1252,TestRecordings/kmaut.wav,0,audio-button-response,65,1372822,0.0-8.0-0.23,,,,
,,,,,,,,,,
4357,,"{""P0_Q0"":""comeout"",""P0_Q1"":6}",survey,66,1377185,0.0-8.0-1.23,[],,,
,,,,,,,,,,
1213,TestRecordings/tep.wav,0,audio-button-response,67,1378406,0.0-8.0-0.24,,,,
,,,,,,,,,,
3485,,"{""P0_Q0"":""tep"",""P0_Q1"":6}",survey,68,1381897,0.0-8.0-1.24,[],,,
,,,,,,,,,,
1325,TestRecordings/tlasdung.wav,0,audio-button-response,69,1383230,0.0-8.0-0.25,,,,
,,,,,,,,,,
5564,,"{""P0_Q0"":""plastung"",""P0_Q1"":3}",survey,70,1388801,0.0-8.0-1.25,[],,,
,,,,,,,,,,
1245,TestRecordings/twas.wav,0,audio-button-response,71,1390054,0.0-8.0-0.26,,,,
,,,,,,,,,,
4203,,"{""P0_Q0"":""twass"",""P0_Q1"":6}",survey,72,1394265,0.0-8.0-1.26,[],,,
,,,,,,,,,,
1277,TestRecordings/suntem.wav,0,audio-button-response,73,1395549,0.0-8.0-0.27,,,,
,,,,,,,,,,
5548,,"{""P0_Q0"":""sungtem"",""P0_Q1"":3}",survey,74,1401105,0.0-8.0-1.27,[],,,
,,,,,,,,,,
1382,TestRecordings/drantung.wav,0,audio-button-response,75,1402493,0.0-8.0-0.28,,,,
,,,,,,,,,,
8045,,"{""P0_Q0"":""drangtung"",""P0_Q1"":2}",survey,76,1410544,0.0-8.0-1.28,[],,,
,,,,,,,,,,
1508,TestRecordings/nboup.wav,0,audio-button-response,77,1412061,0.0-8.0-0.29,,,,
,,,,,,,,,,
3915,,"{""P0_Q0"":""bope"",""P0_Q1"":7}",survey,78,1415984,0.0-8.0-1.29,[],,,
,,,,,,,,,,
1486,TestRecordings/trahm.wav,0,audio-button-response,79,1417477,0.0-8.0-0.30,,,,
,,,,,,,,,,
3763,,"{""P0_Q0"":""tram"",""P0_Q1"":5}",survey,80,1421248,0.0-8.0-1.30,[],,,
,,,,,,,,,,
1165,TestRecordings/kutpim.wav,0,audio-button-response,81,1422421,0.0-8.0-0.31,,,,
,,,,,,,,,,
4626,,"{""P0_Q0"":""kutpim"",""P0_Q1"":2}",survey,82,1427054,0.0-8.0-1.31,[],,,
,,,,,,,,,,
1165,TestRecordings/drumbeng.wav,0,audio-button-response,83,1428228,0.0-8.0-0.32,,,,
,,,,,,,,,,
4947,,"{""P0_Q0"":""drungbame"",""P0_Q1"":3}",survey,84,1433183,0.0-8.0-1.32,[],,,
,,,,,,,,,,
1053,TestRecordings/pmeit.wav,0,audio-button-response,85,1434244,0.0-8.0-0.33,,,,
,,,,,,,,,,
5524,,"{""P0_Q0"":""pumate"",""P0_Q1"":4}",survey,86,1439793,0.0-8.0-1.33,[],,,
,,,,,,,,,,
1275,TestRecordings/tlemkun.wav,0,audio-button-response,87,1441076,0.0-8.0-0.34,,,,
,,,,,,,,,,
4720,,"{""P0_Q0"":""plamkung"",""P0_Q1"":3}",survey,88,1445808,0.0-8.0-1.34,[],,,
,,,,,,,,,,
1115,TestRecordings/kmeip.wav,0,audio-button-response,89,1446932,0.0-8.0-0.35,,,,
,,,,,,,,,,
7683,,"{""P0_Q0"":""cumape"",""P0_Q1"":1}",survey,90,1454623,0.0-8.0-1.35,[],,,
,,,,,,,,,,
1075,TestRecordings/tloum.wav,0,audio-button-response,91,1455707,0.0-8.0-0.36,,,,
,,,,,,,,,,
4617,,"{""P0_Q0"":""blowm"",""P0_Q1"":4}",survey,92,1460335,0.0-8.0-1.36,[],,,
,,,,,,,,,,
1269,TestRecordings/tempuk.wav,0,audio-button-response,93,1461611,0.0-8.0-0.37,,,,
,,,,,,,,,,
5266,,"{""P0_Q0"":""tempuck"",""P0_Q1"":4}",survey,94,1466887,0.0-8.0-1.37,[],,,
,,,,,,,,,,
1427,TestRecordings/stuun.wav,0,audio-button-response,95,1468323,0.0-8.0-0.38,,,,
,,,,,,,,,,
4570,,"{""P0_Q0"":""stoon"",""P0_Q1"":6}",survey,96,1472901,0.0-8.0-1.38,[],,,
,,,,,,,,,,
1205,TestRecordings/punseng.wav,0,audio-button-response,97,1474115,0.0-8.0-0.39,,,,
,,,,,,,,,,
5604,,"{""P0_Q0"":""pungsang"",""P0_Q1"":2}",survey,98,1479725,0.0-8.0-1.39,[],,,
,,,,,,,,,,
1204,TestRecordings/tlepgim.wav,0,audio-button-response,99,1480938,0.0-8.0-0.40,,,,
,,,,,,,,,,
4228,,"{""P0_Q0"":""plepkin"",""P0_Q1"":3}",survey,100,1485173,0.0-8.0-1.40,[],,,
,,,,,,,,,,
1333,TestRecordings/gitpes.wav,0,audio-button-response,101,1486514,0.0-8.0-0.41,,,,
,,,,,,,,,,
4332,,"{""P0_Q0"":""getpess"",""P0_Q1"":6}",survey,102,1490853,0.0-8.0-1.41,[],,,
,,,,,,,,,,
1212,TestRecordings/gatkun.wav,0,audio-button-response,103,1492074,0.0-8.0-0.42,,,,
,,,,,,,,,,
4060,,"{""P0_Q0"":""gatkung"",""P0_Q1"":2}",survey,104,1496168,0.0-8.0-1.42,[],,,
,,,,,,,,,,
1535,TestRecordings/tisbeng.wav,0,audio-button-response,105,1497713,0.0-8.0-0.43,,,,
,,,,,,,,,,
3975,,"{""P0_Q0"":""tuspang"",""P0_Q1"":1}",survey,106,1501701,0.0-8.0-1.43,[],,,
,,,,,,,,,,
1220,TestRecordings/drain.wav,0,audio-button-response,107,1502929,0.0-8.0-0.44,,,,
,,,,,,,,,,
4547,,"{""P0_Q0"":""drine"",""P0_Q1"":6}",survey,108,1507485,0.0-8.0-1.44,[],,,
,,,,,,,,,,
1268,TestRecordings/mepgut.wav,0,audio-button-response,109,1508761,0.0-8.0-0.45,,,,
,,,,,,,,,,
5922,,"{""P0_Q0"":""mepgut"",""P0_Q1"":3}",survey,110,1514692,0.0-8.0-1.45,[],,,
,,,,,,,,,,
1245,TestRecordings/bepgik.wav,0,audio-button-response,111,1515944,0.0-8.0-0.46,,,,
,,,,,,,,,,
5099,,"{""P0_Q0"":""bepkit"",""P0_Q1"":2}",survey,112,1521052,0.0-8.0-1.46,[],,,
,,,,,,,,,,
1067,TestRecordings/stahm.wav,0,audio-button-response,113,1522128,0.0-8.0-0.47,,,,
,,,,,,,,,,
3938,,"{""P0_Q0"":""stam"",""P0_Q1"":6}",survey,114,1526076,0.0-8.0-1.47,[],,,
,,,,,,,,,,
1204,TestRecordings/tlik.wav,0,audio-button-response,115,1527288,0.0-8.0-0.48,,,,
,,,,,,,,,,
4484,,"{""P0_Q0"":""tlick"",""P0_Q1"":5}",survey,116,1531780,0.0-8.0-1.48,[],,,
,,,,,,,,,,
1316,TestRecordings/ningpum.wav,0,audio-button-response,117,1533104,0.0-8.0-0.49,,,,
,,,,,,,,,,
8540,,"{""P0_Q0"":""ningpung"",""P0_Q1"":3}",survey,118,1541651,0.0-8.0-1.49,[],,,
,,,,,,,,,,
1053,TestRecordings/ntek.wav,0,audio-button-response,119,1542712,0.0-8.0-0.50,,,,
,,,,,,,,,,
4163,,"{""P0_Q0"":""mteck"",""P0_Q1"":2}",survey,120,1546883,0.0-8.0-1.50,[],,,
,,,,,,,,,,
1132,TestRecordings/twen.wav,0,audio-button-response,121,1548023,0.0-8.0-0.51,,,,
,,,,,,,,,,
3868,,"{""P0_Q0"":""twang"",""P0_Q1"":7}",survey,122,1551900,0.0-8.0-1.51,[],,,
,,,,,,,,,,
1091,TestRecordings/tlem.wav,0,audio-button-response,123,1553000,0.0-8.0-0.52,,,,
,,,,,,,,,,
4220,,"{""P0_Q0"":""pleng"",""P0_Q1"":4}",survey,124,1557253,0.0-8.0-1.52,[],,,
,,,,,,,,,,
889,TestRecordings/pwuk.wav,0,audio-button-response,125,1558151,0.0-8.0-0.53,,,,
,,,,,,,,,,
4607,,"{""P0_Q0"":""puck"",""P0_Q1"":7}",survey,126,1562771,0.0-8.0-1.53,[],,,
,,,,,,,,,,
932,TestRecordings/pmiik.wav,0,audio-button-response,127,1563711,0.0-8.0-0.54,,,,
,,,,,,,,,,
4059,,"{""P0_Q0"":""pemick"",""P0_Q1"":6}",survey,128,1567779,0.0-8.0-1.54,[],,,
,,,,,,,,,,
980,TestRecordings/gup.wav,0,audio-button-response,129,1568767,0.0-8.0-0.55,,,,
,,,,,,,,,,
5291,,"{""P0_Q0"":""gup"",""P0_Q1"":7}",survey,130,1574066,0.0-8.0-1.55,[],,,
,,,,,,,,,,
1332,TestRecordings/nangdup.wav,0,audio-button-response,131,1575406,0.0-8.0-0.56,,,,
,,,,,,,,,,
6098,,"{""P0_Q0"":""nangdup"",""P0_Q1"":2}",survey,132,1581514,0.0-8.0-1.56,[],,,
,,,,,,,,,,
1060,TestRecordings/dlisbep.wav,0,audio-button-response,133,1582582,0.0-8.0-0.57,,,,
,,,,,,,,,,
4306,,"{""P0_Q0"":""dlispep"",""P0_Q1"":2}",survey,134,1586897,0.0-8.0-1.57,[],,,
,,,,,,,,,,
1243,TestRecordings/pundes.wav,0,audio-button-response,135,1588150,0.0-8.0-0.58,,,,
,,,,,,,,,,
4540,,"{""P0_Q0"":""pundess"",""P0_Q1"":3}",survey,136,1592696,0.0-8.0-1.58,[],,,
,,,,,,,,,,
1404,TestRecordings/tlumgak.wav,0,audio-button-response,137,1594109,0.0-8.0-0.59,,,,
,,,,,,,,,,
4667,,"{""P0_Q0"":""tlumgack"",""P0_Q1"":2}",survey,138,1598785,0.0-8.0-1.59,[],,,
,,,,,,,,,,
4812,, ,html-keyboard-response,139,1603598,0.0-9.0,,,,
,,,,,,,,,,
72838,,"{""P0_Q0"":""20"",""P0_Q1"":""female"",""P0_Q2"":""yes"",""P0_Q3"":""a small amount of German"",""P0_Q4"":""8-16"",""P0_Q5"":""I learned throughout school up until senior year of high school""}",survey,140,1676447,0.0-10.0,[],,,
,,,,,,,,,,
490116,"<p style=""font-size:30px"">The experiment has ended</p><p style=""font-size:30px"",lang=""ko"">Thanks for participating in it!</p>", ,html-keyboard-response,141,2166542,0.0-11.0,,,,